Time,Extension,Load
(sec),(mm),(N)
0.00000,-2.48830,-1.07383
0.10000,-2.49710,-1.10067
0.20000,-2.50540,-1.12752
0.30000,-2.51380,-1.14094
0.40000,-2.52210,-1.15436
0.50000,-2.53040,-1.18121
0.60000,-2.53880,-1.19463
0.70000,-2.54710,-1.22148
0.80000,-2.55540,-1.23490
0.90000,-2.56380,-1.26175
1.00000,-2.57210,-1.27517
1.10000,-2.58040,-1.28859
1.20000,-2.58880,-1.31544
1.30000,-2.59710,-1.32886
1.40000,-2.60540,-1.34228
1.50000,-2.61380,-1.36913
1.60000,-2.62210,-1.38255
1.70000,-2.63040,-1.39597
1.80000,-2.63880,-1.40940
1.90000,-2.64710,-1.43624
2.00000,-2.65540,-1.46309
2.10000,-2.66380,-1.47651
2.20000,-2.67210,-1.48993
2.30000,-2.68040,-1.50336
2.40000,-2.68880,-1.53020
2.50000,-2.69710,-1.55705
2.60000,-2.70540,-1.57047
2.70000,-2.71380,-1.59732
2.80000,-2.72210,-1.61074
2.90000,-2.73040,-1.62416
3.00000,-2.73880,-1.63758
3.10000,-2.74710,-1.66443
3.20000,-2.75540,-1.69128
3.30000,-2.76380,-1.70470
3.40000,-2.77210,-1.73154
3.50000,-2.78040,-1.73154
3.60000,-2.78880,-1.75839
3.70000,-2.79710,-1.78524
3.80000,-2.80540,-1.79866
3.90000,-2.81380,-1.82550
4.00000,-2.82210,-1.82550
4.10000,-2.83040,-1.85235
4.20000,-2.83880,-1.86577
4.30000,-2.84710,-1.89262
4.40000,-2.85540,-1.91946
4.50000,-2.86380,-1.93289
4.60000,-2.87210,-1.94631
4.70000,-2.88040,-1.95973
4.80000,-2.88880,-1.98658
4.90000,-2.89710,-2.00000
5.00000,-2.90540,-2.02685
5.10000,-2.91380,-2.04027
5.20000,-2.92210,-2.06711
5.30000,-2.93040,-2.08054
5.40000,-2.93880,-2.10738
5.50000,-2.94710,-2.12080
5.60000,-2.95540,-2.13423
5.70000,-2.96370,-2.14765
5.80000,-2.97210,-2.16107
5.90000,-2.98040,-2.20134
6.00000,-2.98870,-2.21476
6.10000,-2.99710,-2.24161
6.20000,-3.00540,-2.25503
6.30000,-3.01370,-2.28188
6.40000,-3.02210,-2.29530
6.50000,-3.03040,-2.32215
6.60000,-3.03870,-2.33557
6.70000,-3.04710,-2.36242
6.80000,-3.05540,-2.37584
6.90000,-3.06370,-2.38926
7.00000,-3.07210,-2.40268
7.10000,-3.08040,-2.42953
7.20000,-3.08870,-2.45637
7.30000,-3.09710,-2.46980
7.40000,-3.10540,-2.49664
7.50000,-3.11370,-2.52349
7.60000,-3.12210,-2.52349
7.70000,-3.13040,-2.53691
7.80000,-3.13870,-2.56376
7.90000,-3.14710,-2.59060
8.00000,-3.15540,-2.61745
8.10000,-3.16370,-2.63087
8.20000,-3.17210,-2.64429
8.30000,-3.18040,-2.67114
8.40000,-3.18870,-2.69798
8.50000,-3.19710,-2.71141
8.60000,-3.20540,-2.73825
8.70000,-3.21370,-2.73825
8.80000,-3.22210,-2.75168
8.90000,-3.23040,-2.79194
9.00000,-3.23870,-2.79194
9.10000,-3.24710,-2.83221
9.20000,-3.25540,-2.84564
9.30000,-3.26370,-2.87248
9.40000,-3.27210,-2.88590
9.50000,-3.28040,-2.89933
9.60000,-3.28870,-2.92617
9.70000,-3.29710,-2.93959
9.80000,-3.30540,-2.95302
9.90000,-3.31370,-2.97986
10.00000,-3.32210,-2.99329
10.10000,-3.33040,-3.03355
10.20000,-3.33870,-3.04698
10.30000,-3.34710,-3.06040
10.40000,-3.35540,-3.07382
10.50000,-3.36370,-3.08725
10.60000,-3.37210,-3.11409
10.70000,-3.38040,-3.14094
10.80000,-3.38870,-3.16778
10.90000,-3.39710,-3.18120
11.00000,-3.40540,-3.19463
11.10000,-3.41370,-3.20805
11.20000,-3.42210,-3.23490
11.30000,-3.43040,-3.26174
11.40000,-3.43870,-3.27516
11.50000,-3.44710,-3.30201
11.60000,-3.45540,-3.31543
11.70000,-3.46370,-3.31543
11.80000,-3.47200,-3.35570
11.90000,-3.48040,-3.38255
12.00000,-3.48870,-3.39597
12.10000,-3.49700,-3.40939
12.20000,-3.50540,-3.43624
12.30000,-3.51370,-3.44966
12.40000,-3.52200,-3.47651
12.50000,-3.53040,-3.48993
12.60000,-3.53870,-3.51677
12.70000,-3.54700,-3.53020
12.80000,-3.55540,-3.54362
12.90000,-3.56370,-3.55704
13.00000,-3.57200,-3.58389
13.10000,-3.58040,-3.59731
13.20000,-3.58870,-3.62416
13.30000,-3.59700,-3.63758
13.40000,-3.60540,-3.66443
13.50000,-3.61370,-3.67785
13.60000,-3.62200,-3.71812
13.70000,-3.63040,-3.71812
13.80000,-3.63870,-3.74496
13.90000,-3.64700,-3.75838
14.00000,-3.65540,-3.77181
14.10000,-3.66370,-3.79865
14.20000,-3.67200,-3.82550
14.30000,-3.68040,-3.83892
14.40000,-3.68870,-3.85234
14.50000,-3.69700,-3.87919
14.60000,-3.70540,-3.90604
14.70000,-3.71370,-3.91946
14.80000,-3.72200,-3.94630
14.90000,-3.73040,-3.95973
15.00000,-3.73870,-3.95973
15.10000,-3.74700,-3.98657
15.20000,-3.75540,-4.01342
15.30000,-3.76370,-4.04026
15.40000,-3.77200,-4.05369
15.50000,-3.78040,-4.08053
15.60000,-3.78870,-4.09395
15.70000,-3.79700,-4.10738
15.80000,-3.80540,-4.12080
15.90000,-3.81370,-4.14765
16.00000,-3.82200,-4.17449
16.10000,-3.83040,-4.18791
16.20000,-3.83870,-4.20134
16.30000,-3.84700,-4.22818
16.40000,-3.85540,-4.24160
16.50000,-3.86370,-4.26845
16.60000,-3.87200,-4.29530
16.70000,-3.88040,-4.30872
16.80000,-3.88870,-4.32214
16.90000,-3.89700,-4.33556
17.00000,-3.90540,-4.36241
17.10000,-3.91370,-4.38926
17.20000,-3.92200,-4.40268
17.30000,-3.93040,-4.42952
17.40000,-3.93870,-4.44295
17.50000,-3.94700,-4.45637
17.60000,-3.95540,-4.48321
17.70000,-3.96370,-4.49664
17.80000,-3.97200,-4.52348
17.90000,-3.98040,-4.53691
18.00000,-3.98870,-4.56375
18.10000,-3.99700,-4.57717
18.20000,-4.00530,-4.60402
18.30000,-4.01370,-4.61744
18.40000,-4.02200,-4.64429
18.50000,-4.03030,-4.65771
18.60000,-4.03870,-4.67113
18.70000,-4.04700,-4.68456
18.80000,-4.05530,-4.71140
18.90000,-4.06370,-4.73825
19.00000,-4.07200,-4.75167
19.10000,-4.08030,-4.76509
19.20000,-4.08870,-4.79194
19.30000,-4.09700,-4.80536
19.40000,-4.10530,-4.83221
19.50000,-4.11370,-4.85905
19.60000,-4.12200,-4.87248
19.70000,-4.13030,-4.88590
19.80000,-4.13870,-4.91274
19.90000,-4.14700,-4.92617
20.00000,-4.15530,-4.95301
20.10000,-4.16370,-4.96644
20.20000,-4.17200,-4.99328
20.30000,-4.18030,-5.00670
20.40000,-4.18870,-5.02013
20.50000,-4.19700,-5.04697
20.60000,-4.20530,-5.06039
20.70000,-4.21370,-5.08724
20.80000,-4.22200,-5.11409
20.90000,-4.23030,-5.12751
21.00000,-4.23870,-5.15435
21.10000,-4.24700,-5.15435
21.20000,-4.25530,-5.18120
21.30000,-4.26370,-5.20805
21.40000,-4.27200,-5.22147
21.50000,-4.28030,-5.24831
21.60000,-4.28870,-5.27516
21.70000,-4.29700,-5.28858
21.80000,-4.30530,-5.30200
21.90000,-4.31370,-5.32885
22.00000,-4.32200,-5.32885
22.10000,-4.33030,-5.36912
22.20000,-4.33870,-5.38254
22.30000,-4.34700,-5.40939
22.40000,-4.35530,-5.42281
22.50000,-4.36370,-5.44966
22.60000,-4.37200,-5.46308
22.70000,-4.38030,-5.47650
22.80000,-4.38870,-5.50335
22.90000,-4.39700,-5.51677
23.00000,-4.40530,-5.54361
23.10000,-4.41370,-5.55704
23.20000,-4.42200,-5.57046
23.30000,-4.43030,-5.59731
23.40000,-4.43870,-5.63757
23.50000,-4.44700,-5.65100
23.60000,-4.45530,-5.67784
23.70000,-4.46370,-5.67784
23.80000,-4.47200,-5.69127
23.90000,-4.48030,-5.71811
24.00000,-4.48870,-5.73153
24.10000,-4.49700,-5.75838
24.20000,-4.50530,-5.78523
24.30000,-4.51360,-5.81207
24.40000,-4.52200,-5.81207
24.50000,-4.53030,-5.83892
24.60000,-4.53860,-5.86576
24.70000,-4.54700,-5.87918
24.80000,-4.55530,-5.89261
24.90000,-4.56360,-5.91945
25.00000,-4.57200,-5.93288
25.10000,-4.58030,-5.94630
25.20000,-4.58860,-5.97314
25.30000,-4.59700,-5.99999
25.40000,-4.60530,-6.01341
25.50000,-4.61360,-6.04026
25.60000,-4.62200,-6.05368
25.70000,-4.63030,-6.08053
25.80000,-4.63860,-6.09395
25.90000,-4.64700,-6.10737
26.00000,-4.65530,-6.13422
26.10000,-4.66360,-6.16106
26.20000,-4.67200,-6.17449
26.30000,-4.68030,-6.20133
26.40000,-4.68860,-6.21475
26.50000,-4.69700,-6.24160
26.60000,-4.70530,-6.25502
26.70000,-4.71360,-6.26845
26.80000,-4.72200,-6.29529
26.90000,-4.73030,-6.30871
27.00000,-4.73860,-6.33556
27.10000,-4.74700,-6.34898
27.20000,-4.75530,-6.36240
27.30000,-4.76360,-6.37583
27.40000,-4.77200,-6.40267
27.50000,-4.78030,-6.42952
27.60000,-4.78860,-6.44294
27.70000,-4.79700,-6.46979
27.80000,-4.80530,-6.49663
27.90000,-4.81360,-6.49663
28.00000,-4.82200,-6.52348
28.10000,-4.83030,-6.53690
28.20000,-4.83860,-6.56375
28.30000,-4.84700,-6.59059
28.40000,-4.85530,-6.60401
28.50000,-4.86360,-6.61744
28.60000,-4.87200,-6.64428
28.70000,-4.88030,-6.65771
28.80000,-4.88860,-6.68455
28.90000,-4.89700,-6.69797
29.00000,-4.90530,-6.72482
29.10000,-4.91360,-6.73824
29.20000,-4.92200,-6.73824
29.30000,-4.93030,-6.77851
29.40000,-4.93860,-6.79193
29.50000,-4.94700,-6.81878
29.60000,-4.95530,-6.83220
29.70000,-4.96360,-6.85905
29.80000,-4.97200,-6.87247
29.90000,-4.98030,-6.89932
30.00000,-4.98860,-6.91274
30.10000,-4.99700,-6.92616
30.20000,-5.00530,-6.95301
30.30000,-5.01360,-6.96643
30.40000,-5.02200,-6.99328
30.50000,-5.03030,-7.02012
30.60000,-5.03860,-7.03354
30.70000,-5.04690,-7.06039
30.80000,-5.05530,-7.07381
30.90000,-5.06360,-7.08724
31.00000,-5.07190,-7.10066
31.10000,-5.08030,-7.12750
31.20000,-5.08860,-7.14093
31.30000,-5.09690,-7.16777
31.40000,-5.10530,-7.19462
31.50000,-5.11360,-7.20804
31.60000,-5.12190,-7.22146
31.70000,-5.13030,-7.24831
31.80000,-5.13860,-7.26173
31.90000,-5.14690,-7.27515
32.00000,-5.15530,-7.30200
32.10000,-5.16360,-7.31542
32.20000,-5.17190,-7.34227
32.30000,-5.18030,-7.36911
32.40000,-5.18860,-7.39596
32.50000,-5.19690,-7.40938
32.60000,-5.20530,-7.42280
32.70000,-5.21360,-7.43623
32.80000,-5.22190,-7.46307
32.90000,-5.23030,-7.47650
33.00000,-5.23860,-7.50334
33.10000,-5.24690,-7.51676
33.20000,-5.25530,-7.53019
33.30000,-5.26360,-7.54361
33.40000,-5.27190,-7.58388
33.50000,-5.28030,-7.59730
33.60000,-5.28860,-7.61072
33.70000,-5.29690,-7.63757
33.80000,-5.30530,-7.65099
33.90000,-5.31360,-7.65099
34.00000,-5.32190,-7.67784
34.10000,-5.33030,-7.70468
34.20000,-5.33860,-7.73153
34.30000,-5.34690,-7.74495
34.40000,-5.35530,-7.75837
34.50000,-5.36360,-7.78522
34.60000,-5.37190,-7.79864
34.70000,-5.38030,-7.81207
34.80000,-5.38860,-7.83891
34.90000,-5.39690,-7.86576
35.00000,-5.40530,-7.87918
35.10000,-5.41360,-7.89260
35.20000,-5.42190,-7.91945
35.30000,-5.43030,-7.93287
35.40000,-5.43860,-7.94629
35.50000,-5.44690,-7.97314
35.60000,-5.45530,-7.98656
35.70000,-5.46360,-8.01341
35.80000,-5.47190,-8.02683
35.90000,-5.48030,-8.05368
36.00000,-5.48860,-8.06710
36.10000,-5.49690,-8.09394
36.20000,-5.50530,-8.09394
36.30000,-5.51360,-8.13421
36.40000,-5.52190,-8.14764
36.50000,-5.53030,-8.17448
36.60000,-5.53860,-8.18790
36.70000,-5.54690,-8.20133
36.80000,-5.55520,-8.21475
36.90000,-5.56360,-8.24159
37.00000,-5.57190,-8.26844
37.10000,-5.58020,-8.28186
37.20000,-5.58860,-8.30871
37.30000,-5.59690,-8.32213
37.40000,-5.60520,-8.33555
37.50000,-5.61360,-8.34898
37.60000,-5.62190,-8.37582
37.70000,-5.63020,-8.40267
37.80000,-5.63860,-8.41609
37.90000,-5.64690,-8.42951
38.00000,-5.65520,-8.44294
38.10000,-5.66360,-8.46978
38.20000,-5.67190,-8.48320
38.30000,-5.68020,-8.51005
38.40000,-5.68860,-8.53690
38.50000,-5.69690,-8.55032
38.60000,-5.70520,-8.56374
38.70000,-5.71360,-8.59059
38.80000,-5.72190,-8.60401
38.90000,-5.73020,-8.63086
39.00000,-5.73860,-8.64428
39.10000,-5.74690,-8.64428
39.20000,-5.75520,-8.68455
39.30000,-5.76360,-8.69797
39.40000,-5.77190,-8.71139
39.50000,-5.78020,-8.73824
39.60000,-5.78860,-8.75166
39.70000,-5.79690,-8.77851
39.80000,-5.80520,-8.79193
39.90000,-5.81360,-8.80535
40.00000,-5.82190,-8.81877
40.10000,-5.83020,-8.85904
40.20000,-5.83860,-8.85904
40.30000,-5.84690,-8.87247
40.40000,-5.85520,-8.91273
40.50000,-5.86360,-8.92616
40.60000,-5.87190,-8.95300
40.70000,-5.88020,-8.96642
40.80000,-5.88860,-8.97985
40.90000,-5.89690,-9.00669
41.00000,-5.90520,-9.02012
41.10000,-5.91360,-9.03354
41.20000,-5.92190,-9.06038
41.30000,-5.93020,-9.07381
41.40000,-5.93860,-9.10065
41.50000,-5.94690,-9.11408
41.60000,-5.95520,-9.14092
41.70000,-5.96360,-9.15434
41.80000,-5.97190,-9.16777
41.90000,-5.98020,-9.18119
42.00000,-5.98860,-9.20804
42.10000,-5.99690,-9.22146
42.20000,-6.00520,-9.24830
42.30000,-6.01360,-9.27515
42.40000,-6.02190,-9.28857
42.50000,-6.03020,-9.31542
42.60000,-6.03860,-9.32884
42.70000,-6.04690,-9.34226
42.80000,-6.05520,-9.35569
42.90000,-6.06360,-9.36911
43.00000,-6.07190,-9.39595
43.10000,-6.08020,-9.42280
43.20000,-6.08850,-9.43622
43.30000,-6.09690,-9.44965
43.40000,-6.10520,-9.46307
43.50000,-6.11350,-9.50334
43.60000,-6.12190,-9.51676
43.70000,-6.13020,-9.53018
43.80000,-6.13850,-9.55703
43.90000,-6.14690,-9.57045
44.00000,-6.15520,-9.58387
44.10000,-6.16350,-9.61072
44.20000,-6.17190,-9.62414
44.30000,-6.18020,-9.63756
44.40000,-6.18850,-9.66441
44.50000,-6.19690,-9.67783
44.60000,-6.20520,-9.70468
44.70000,-6.21350,-9.71810
44.80000,-6.22190,-9.74495
44.90000,-6.23020,-9.75837
45.00000,-6.23850,-9.77179
45.10000,-6.24690,-9.78521
45.20000,-6.25520,-9.81206
45.30000,-6.26350,-9.82548
45.40000,-6.27190,-9.85233
45.50000,-6.28020,-9.86575
45.60000,-6.28850,-9.87917
45.70000,-6.29690,-9.90602
45.80000,-6.30520,-9.93287
45.90000,-6.31350,-9.94629
46.00000,-6.32190,-9.95971
46.10000,-6.33020,-9.98656
46.20000,-6.33850,-9.99998
46.30000,-6.34690,-10.01340
46.40000,-6.35520,-10.02682
46.50000,-6.36350,-10.05367
46.60000,-6.37190,-10.08052
46.70000,-6.38020,-10.09394
46.80000,-6.38850,-10.10736
46.90000,-6.39690,-10.12078
47.00000,-6.40520,-10.14763
47.10000,-6.41350,-10.17448
47.20000,-6.42190,-10.18790
47.30000,-6.43020,-10.20132
47.40000,-6.43850,-10.21474
47.50000,-6.44690,-10.22817
47.60000,-6.45520,-10.26844
47.70000,-6.46350,-10.29528
47.80000,-6.47190,-10.29528
47.90000,-6.48020,-10.32213
48.00000,-6.48850,-10.33555
48.10000,-6.49690,-10.33555
48.20000,-6.50520,-10.36239
48.30000,-6.51350,-10.38924
48.40000,-6.52190,-10.40266
48.50000,-6.53020,-10.42951
48.60000,-6.53850,-10.44293
48.70000,-6.54690,-10.45635
48.80000,-6.55520,-10.48320
48.90000,-6.56350,-10.49662
49.00000,-6.57190,-10.52347
49.10000,-6.58020,-10.53689
49.20000,-6.58850,-10.53689
49.30000,-6.59680,-10.56374
49.40000,-6.60520,-10.57716
49.50000,-6.61350,-10.60400
49.60000,-6.62180,-10.63085
49.70000,-6.63020,-10.64427
49.80000,-6.63850,-10.65770
49.90000,-6.64680,-10.68454
50.00000,-6.65520,-10.69796
50.10000,-6.66350,-10.71139
50.20000,-6.67180,-10.73823
50.30000,-6.68020,-10.73823
50.40000,-6.68850,-10.76508
50.50000,-6.69680,-10.79192
50.60000,-6.70520,-10.80535
50.70000,-6.71350,-10.83219
50.80000,-6.72180,-10.84561
50.90000,-6.73020,-10.84561
51.00000,-6.73850,-10.85904
51.10000,-6.74680,-10.88588
51.20000,-6.75520,-10.91273
51.30000,-6.76350,-10.93957
51.40000,-6.77180,-10.95300
51.50000,-6.78020,-10.96642
51.60000,-6.78850,-10.97984
51.70000,-6.79680,-11.00669
51.80000,-6.80520,-11.02011
51.90000,-6.81350,-11.03353
52.00000,-6.82180,-11.04696
52.10000,-6.83020,-11.06038
52.20000,-6.83850,-11.08722
52.30000,-6.84680,-11.10065
52.40000,-6.85520,-11.12749
52.50000,-6.86350,-11.14092
52.60000,-6.87180,-11.15434
52.70000,-6.88020,-11.18118
52.80000,-6.88850,-11.19461
52.90000,-6.89680,-11.20803
53.00000,-6.90520,-11.23488
53.10000,-6.91350,-11.24830
53.20000,-6.92180,-11.27514
53.30000,-6.93020,-11.28857
53.40000,-6.93850,-11.30199
53.50000,-6.94680,-11.31541
53.60000,-6.95520,-11.34226
53.70000,-6.96350,-11.34226
53.80000,-6.97180,-11.36910
53.90000,-6.98020,-11.39595
54.00000,-6.98850,-11.40937
54.10000,-6.99680,-11.42279
54.20000,-7.00520,-11.44964
54.30000,-7.01350,-11.46306
54.40000,-7.02180,-11.47649
54.50000,-7.03020,-11.48991
54.60000,-7.03850,-11.51675
54.70000,-7.04680,-11.53018
54.80000,-7.05520,-11.54360
54.90000,-7.06350,-11.57045
55.00000,-7.07180,-11.58387
55.10000,-7.08020,-11.59729
55.20000,-7.08850,-11.61071
55.30000,-7.09680,-11.62414
55.40000,-7.10520,-11.63756
55.50000,-7.11350,-11.66440
55.60000,-7.12180,-11.67783
55.70000,-7.13010,-11.69125
55.80000,-7.13850,-11.71810
55.90000,-7.14680,-11.74494
56.00000,-7.15510,-11.75836
56.10000,-7.16350,-11.77179
56.20000,-7.17180,-11.77179
56.30000,-7.18010,-11.79863
56.40000,-7.18850,-11.81206
56.50000,-7.19680,-11.82548
56.60000,-7.20510,-11.85232
56.70000,-7.21350,-11.87917
56.80000,-7.22180,-11.87917
56.90000,-7.23010,-11.90601
57.00000,-7.23850,-11.93286
57.10000,-7.24680,-11.93286
57.20000,-7.25510,-11.95971
57.30000,-7.26350,-11.97313
57.40000,-7.27180,-11.98655
57.50000,-7.28010,-11.99997
57.60000,-7.28850,-12.02682
57.70000,-7.29680,-12.04024
57.80000,-7.30510,-12.06709
57.90000,-7.31350,-12.08051
58.00000,-7.32180,-12.09393
58.10000,-7.33010,-12.10736
58.20000,-7.33850,-12.12078
58.30000,-7.34680,-12.13420
58.40000,-7.35510,-12.16105
58.50000,-7.36350,-12.18789
58.60000,-7.37180,-12.20132
58.70000,-7.38010,-12.21474
58.80000,-7.38850,-12.22816
58.90000,-7.39680,-12.25501
59.00000,-7.40510,-12.25501
59.10000,-7.41350,-12.26843
59.20000,-7.42180,-12.29528
59.30000,-7.43010,-12.30870
59.40000,-7.43850,-12.33554
59.50000,-7.44680,-12.34897
59.60000,-7.45510,-12.36239
59.70000,-7.46350,-12.37581
59.80000,-7.47180,-12.40266
59.90000,-7.48010,-12.41608
60.00000,-7.48850,-12.42950
60.10000,-7.49680,-12.44293
60.20000,-7.50510,-12.46977
60.30000,-7.51350,-12.48319
60.40000,-7.52180,-12.49662
60.50000,-7.53010,-12.51004
60.60000,-7.53850,-12.53689
60.70000,-7.54680,-12.55031
60.80000,-7.55510,-12.56373
60.90000,-7.56350,-12.59058
61.00000,-7.57180,-12.60400
61.10000,-7.58010,-12.60400
61.20000,-7.58850,-12.64427
61.30000,-7.59680,-12.64427
61.40000,-7.60510,-12.67111
61.50000,-7.61350,-12.68454
61.60000,-7.62180,-12.69796
61.70000,-7.63010,-12.71138
61.80000,-7.63840,-12.73823
61.90000,-7.64680,-12.75165
62.00000,-7.65510,-12.76507
62.10000,-7.66340,-12.77850
62.20000,-7.67180,-12.79192
62.30000,-7.68010,-12.81876
62.40000,-7.68840,-12.83219
62.50000,-7.69680,-12.84561
62.60000,-7.70510,-12.87246
62.70000,-7.71340,-12.87246
62.80000,-7.72180,-12.88588
62.90000,-7.73010,-12.91272
63.00000,-7.73840,-12.93957
63.10000,-7.74680,-12.95299
63.20000,-7.75510,-12.96641
63.30000,-7.76340,-12.97984
63.40000,-7.77180,-12.99326
63.50000,-7.78010,-13.00668
63.60000,-7.78840,-13.02011
63.70000,-7.79680,-13.04695
63.80000,-7.80510,-13.06037
63.90000,-7.81340,-13.07380
64.00000,-7.82180,-13.10064
64.10001,-7.83010,-13.11407
64.20000,-7.83840,-13.12749
64.30000,-7.84680,-13.14091
64.40000,-7.85510,-13.15433
64.50000,-7.86340,-13.16776
64.60001,-7.87180,-13.19460
64.70000,-7.88010,-13.20802
64.80000,-7.88840,-13.22145
64.90000,-7.89680,-13.24829
65.00000,-7.90510,-13.26172
65.10001,-7.91340,-13.27514
65.20000,-7.92180,-13.28856
65.30000,-7.93010,-13.30198
65.40000,-7.93840,-13.31541
65.50000,-7.94680,-13.34225
65.60001,-7.95510,-13.35568
65.70001,-7.96340,-13.36910
65.80000,-7.97180,-13.36910
65.90000,-7.98010,-13.40937
66.00000,-7.98840,-13.42279
66.10001,-7.99680,-13.43621
66.20001,-8.00510,-13.43621
66.30000,-8.01340,-13.44963
66.40000,-8.02180,-13.47648
66.50000,-8.03010,-13.48990
66.60001,-8.03840,-13.51675
66.70001,-8.04680,-13.53017
66.80000,-8.05510,-13.54359
66.90000,-8.06340,-13.54359
67.00000,-8.07180,-13.55702
67.10001,-8.08010,-13.57044
67.20001,-8.08840,-13.59729
67.30000,-8.09680,-13.61071
67.40000,-8.10510,-13.62413
67.50000,-8.11340,-13.65098
67.60001,-8.12180,-13.66440
67.70001,-8.13010,-13.67782
67.80000,-8.13840,-13.69125
67.90000,-8.14680,-13.71809
68.00000,-8.15510,-13.73151
68.10001,-8.16340,-13.74494
68.20001,-8.17170,-13.74494
68.30000,-8.18010,-13.77178
68.40000,-8.18840,-13.78520
68.50000,-8.19670,-13.79863
68.60001,-8.20510,-13.81205
68.70001,-8.21340,-13.83890
68.80000,-8.22170,-13.85232
68.90000,-8.23010,-13.86574
69.00000,-8.23840,-13.87916
69.10001,-8.24670,-13.89259
69.20001,-8.25510,-13.89259
69.30000,-8.26340,-13.91943
69.40000,-8.27170,-13.94628
69.50000,-8.28010,-13.95970
69.60001,-8.28840,-13.97312
69.70001,-8.29670,-13.98655
69.80000,-8.30510,-13.98655
69.90000,-8.31340,-13.99997
70.00000,-8.32170,-14.02681
70.10001,-8.33010,-14.04024
70.20001,-8.33840,-14.06708
70.30000,-8.34670,-14.08051
70.40000,-8.35510,-14.08051
70.50000,-8.36340,-14.09393
70.60001,-8.37170,-14.10735
70.70001,-8.38010,-14.13420
70.80000,-8.38840,-14.14762
70.90000,-8.39670,-14.16104
71.00000,-8.40510,-14.17447
71.10001,-8.41340,-14.18789
71.20001,-8.42170,-14.20131
71.30000,-8.43010,-14.21473
71.40000,-8.43840,-14.22816
71.50000,-8.44670,-14.24158
71.60001,-8.45510,-14.26842
71.70001,-8.46340,-14.26842
71.80000,-8.47170,-14.29527
71.90000,-8.48010,-14.30869
72.00000,-8.48840,-14.32212
72.10001,-8.49670,-14.33554
72.20001,-8.50510,-14.34896
72.30000,-8.51340,-14.36238
72.40000,-8.52170,-14.37581
72.50000,-8.53010,-14.38923
72.60001,-8.53840,-14.41608
72.70001,-8.54670,-14.42950
72.80000,-8.55510,-14.44292
72.90000,-8.56340,-14.44292
73.00000,-8.57170,-14.46977
73.10001,-8.58010,-14.48319
73.20001,-8.58840,-14.49661
73.30000,-8.59670,-14.51003
73.40000,-8.60510,-14.52346
73.50000,-8.61340,-14.52346
73.60001,-8.62170,-14.55030
73.70001,-8.63010,-14.56373
73.80000,-8.63840,-14.57715
73.90000,-8.64670,-14.59057
74.00000,-8.65510,-14.59057
74.10001,-8.66340,-14.61742
74.20001,-8.67170,-14.61742
74.30000,-8.68000,-14.64426
74.40000,-8.68840,-14.65769
74.50000,-8.69670,-14.65769
74.60001,-8.70500,-14.67111
74.70001,-8.71340,-14.68453
74.80000,-8.72170,-14.72480
74.90000,-8.73000,-14.72480
75.00000,-8.73840,-14.73822
75.10001,-8.74670,-14.73822
75.20001,-8.75500,-14.75165
75.30000,-8.76340,-14.76507
75.40000,-8.77170,-14.77849
75.50000,-8.78000,-14.79191
75.60001,-8.78840,-14.81876
75.70001,-8.79670,-14.83218
75.80000,-8.80500,-14.83218
75.90000,-8.81340,-14.84560
76.00000,-8.82170,-14.87245
76.10001,-8.83000,-14.88587
76.20001,-8.83840,-14.89930
76.30000,-8.84670,-14.89930
76.40000,-8.85500,-14.89930
76.50000,-8.86340,-14.92614
76.60001,-8.87170,-14.93956
76.70001,-8.88000,-14.96641
76.80000,-8.88840,-14.96641
76.90000,-8.89670,-14.97983
77.00000,-8.90500,-14.99326
77.10001,-8.91340,-15.00668
77.20001,-8.92170,-15.00668
77.30000,-8.93000,-15.02010
77.40000,-8.93840,-15.04695
77.50000,-8.94670,-15.06037
77.60001,-8.95500,-15.07379
77.70001,-8.96340,-15.07379
77.80000,-8.97170,-15.08721
77.90000,-8.98000,-15.10064
78.00000,-8.98840,-15.11406
78.10001,-8.99670,-15.12748
78.20001,-9.00500,-15.14091
78.30000,-9.01340,-15.15433
78.40000,-9.02170,-15.16775
78.50000,-9.03000,-15.18117
78.60001,-9.03840,-15.19460
78.70001,-9.04670,-15.20802
78.80000,-9.05500,-15.20802
78.90000,-9.06340,-15.23487
79.00000,-9.07170,-15.24829
79.10001,-9.08000,-15.26171
79.20001,-9.08840,-15.27513
79.30000,-9.09670,-15.27513
79.40000,-9.10500,-15.28856
79.50000,-9.11340,-15.30198
79.60001,-9.12170,-15.31540
79.70001,-9.13000,-15.34225
79.80000,-9.13840,-15.34225
79.90000,-9.14670,-15.35567
80.00000,-9.15500,-15.36909
80.10001,-9.16340,-15.38252
80.20001,-9.17170,-15.39594
80.30000,-9.18000,-15.40936
80.40000,-9.18840,-15.42278
80.50001,-9.19670,-15.42278
80.60001,-9.20500,-15.43621
80.70001,-9.21330,-15.44963
80.80000,-9.22170,-15.46305
80.90000,-9.23000,-15.48990
81.00001,-9.23830,-15.48990
81.10001,-9.24670,-15.50332
81.20001,-9.25500,-15.50332
81.30000,-9.26330,-15.53017
81.40000,-9.27170,-15.54359
81.50001,-9.28000,-15.55701
81.60001,-9.28830,-15.57043
81.70001,-9.29670,-15.57043
81.80000,-9.30500,-15.58386
81.90000,-9.31330,-15.61070
82.00001,-9.32170,-15.61070
82.10001,-9.33000,-15.62413
82.20001,-9.33830,-15.63755
82.30000,-9.34670,-15.65097
82.40000,-9.35500,-15.65097
82.50001,-9.36330,-15.65097
82.60001,-9.37170,-15.67782
82.70001,-9.38000,-15.69124
82.80000,-9.38830,-15.71809
82.90000,-9.39670,-15.71809
83.00001,-9.40500,-15.73151
83.10001,-9.41330,-15.74493
83.20001,-9.42170,-15.75835
83.30000,-9.43000,-15.75835
83.40000,-9.43830,-15.77178
83.50001,-9.44670,-15.78520
83.60001,-9.45500,-15.79862
83.70001,-9.46330,-15.82547
83.80000,-9.47170,-15.82547
83.90000,-9.48000,-15.83889
84.00001,-9.48830,-15.85231
84.10001,-9.49670,-15.85231
84.20001,-9.50500,-15.86574
84.30000,-9.51330,-15.89258
84.40000,-9.52170,-15.90600
84.50001,-9.53000,-15.90600
84.60001,-9.53830,-15.91943
84.70001,-9.54670,-15.93285
84.80000,-9.55500,-15.95970
84.90000,-9.56330,-15.95970
85.00001,-9.57170,-15.97312
85.10001,-9.58000,-15.99996
85.20001,-9.58830,-15.98654
85.30000,-9.59670,-15.99996
85.40000,-9.60500,-16.01339
85.50001,-9.61330,-16.02681
85.60001,-9.62170,-16.04023
85.70001,-9.63000,-16.05366
85.80000,-9.63830,-16.06708
85.90000,-9.64670,-16.06708
86.00001,-9.65500,-16.08050
86.10001,-9.66330,-16.09392
86.20001,-9.67170,-16.12077
86.30000,-9.68000,-16.12077
86.40000,-9.68830,-16.13419
86.50001,-9.69670,-16.14761
86.60001,-9.70500,-16.14761
86.70001,-9.71330,-16.17446
86.80000,-9.72160,-16.17446
86.90000,-9.73000,-16.20131
87.00001,-9.73830,-16.20131
87.10001,-9.74660,-16.20131
87.20001,-9.75500,-16.22815
87.30000,-9.76330,-16.22815
87.40000,-9.77160,-16.25500
87.50001,-9.78000,-16.26842
87.60001,-9.78830,-16.26842
87.70001,-9.79660,-16.28184
87.80000,-9.80500,-16.29527
87.90000,-9.81330,-16.30869
88.00001,-9.82160,-16.32211
88.10001,-9.83000,-16.33553
88.20001,-9.83830,-16.33553
88.30000,-9.84660,-16.34896
88.40000,-9.85500,-16.36238
88.50001,-9.86330,-16.36238
88.60001,-9.87160,-16.37580
88.70001,-9.88000,-16.38922
88.80000,-9.88830,-16.40265
88.90000,-9.89660,-16.41607
89.00001,-9.90500,-16.41607
89.10001,-9.91330,-16.44292
89.20001,-9.92160,-16.45634
89.30000,-9.93000,-16.45634
89.40000,-9.93830,-16.46976
89.50001,-9.94660,-16.46976
89.60001,-9.95500,-16.48318
89.70001,-9.96330,-16.49661
89.80000,-9.97160,-16.52345
89.90000,-9.98000,-16.52345
90.00001,-9.98830,-16.53688
90.10001,-9.99660,-16.52345
90.20001,-10.00500,-16.56372
90.30000,-10.01330,-16.56372
90.35001,-10.01750,-16.57714
