Time,Extension,Load
(sec),(mm),(N)
0.00000,-5.95180,-1.00671
0.10000,-5.96010,-0.99329
0.20000,-5.96840,-1.00671
0.30000,-5.97680,-1.02014
0.40000,-5.98510,-1.02014
0.50000,-5.99340,-1.02014
0.60000,-6.00170,-1.02014
0.70000,-6.01010,-1.00671
0.80000,-6.01840,-1.02014
0.90000,-6.02670,-1.02014
1.00000,-6.03510,-1.02014
1.10000,-6.04340,-1.03356
1.20000,-6.05170,-1.03356
1.30000,-6.06010,-1.02014
1.40000,-6.06840,-1.02014
1.50000,-6.07670,-1.04698
1.60000,-6.08510,-1.03356
1.70000,-6.09340,-1.04698
1.80000,-6.10170,-1.04698
1.90000,-6.11010,-1.04698
2.00000,-6.11840,-1.04698
2.10000,-6.12670,-1.04698
2.20000,-6.13510,-1.04698
2.30000,-6.14340,-1.06040
2.40000,-6.15170,-1.06040
2.50000,-6.16010,-1.07383
2.60000,-6.16840,-1.06040
2.70000,-6.17670,-1.06040
2.80000,-6.18510,-1.07383
2.90000,-6.19340,-1.07383
3.00000,-6.20170,-1.08725
3.10000,-6.21010,-1.07383
3.20000,-6.21840,-1.07383
3.30000,-6.22670,-1.07383
3.40000,-6.23510,-1.07383
3.50000,-6.24340,-1.07383
3.60000,-6.25170,-1.08725
3.70000,-6.26010,-1.10067
3.80000,-6.26840,-1.08725
3.90000,-6.27670,-1.10067
4.00000,-6.28510,-1.08725
4.10000,-6.29340,-1.08725
4.20000,-6.30170,-1.08725
4.30000,-6.31010,-1.10067
4.40000,-6.31840,-1.10067
4.50000,-6.32670,-1.10067
4.60000,-6.33510,-1.11410
4.70000,-6.34340,-1.10067
4.80000,-6.35170,-1.11410
4.90000,-6.36010,-1.11410
5.00000,-6.36840,-1.12752
5.10000,-6.37670,-1.11410
5.20000,-6.38510,-1.11410
5.30000,-6.39340,-1.11410
5.40000,-6.40170,-1.11410
5.50000,-6.41010,-1.11410
5.60000,-6.41840,-1.14094
5.70000,-6.42670,-1.14094
5.80000,-6.43510,-1.12752
5.90000,-6.44340,-1.14094
6.00000,-6.45170,-1.14094
6.10000,-6.46010,-1.14094
6.20000,-6.46840,-1.14094
6.30000,-6.47670,-1.15436
6.40000,-6.48510,-1.14094
6.50000,-6.49340,-1.15436
6.60000,-6.50170,-1.16779
6.70000,-6.51000,-1.15436
6.80000,-6.51840,-1.15436
6.90000,-6.52670,-1.15436
7.00000,-6.53500,-1.16779
7.10000,-6.54340,-1.16779
7.20000,-6.55170,-1.15436
7.30000,-6.56000,-1.16779
7.40000,-6.56840,-1.16779
7.50000,-6.57670,-1.16779
7.60000,-6.58500,-1.18121
7.70000,-6.59340,-1.18121
7.80000,-6.60170,-1.18121
7.90000,-6.61000,-1.18121
8.00000,-6.61840,-1.18121
8.10000,-6.62670,-1.18121
8.20000,-6.63500,-1.19463
8.30000,-6.64340,-1.19463
8.40000,-6.65170,-1.19463
8.50000,-6.66000,-1.19463
8.60000,-6.66840,-1.20806
8.70000,-6.67670,-1.20806
8.80000,-6.68500,-1.20806
8.90000,-6.69340,-1.20806
9.00000,-6.70170,-1.20806
9.10000,-6.71000,-1.20806
9.20000,-6.71840,-1.20806
9.30000,-6.72670,-1.22148
9.40000,-6.73500,-1.22148
9.50000,-6.74340,-1.22148
9.60000,-6.75170,-1.22148
9.70000,-6.76000,-1.22148
9.80000,-6.76840,-1.23490
9.90000,-6.77670,-1.23490
10.00000,-6.78500,-1.23490
10.10000,-6.79340,-1.23490
10.20000,-6.80170,-1.23490
10.30000,-6.81000,-1.23490
10.40000,-6.81840,-1.23490
10.50000,-6.82670,-1.24832
10.60000,-6.83500,-1.24832
10.70000,-6.84340,-1.24832
10.80000,-6.85170,-1.24832
10.90000,-6.86000,-1.24832
11.00000,-6.86840,-1.24832
11.10000,-6.87670,-1.26175
11.20000,-6.88500,-1.26175
11.30000,-6.89340,-1.26175
11.40000,-6.90170,-1.26175
11.50000,-6.91000,-1.27517
11.60000,-6.91840,-1.26175
11.70000,-6.92670,-1.27517
11.80000,-6.93500,-1.28859
11.90000,-6.94340,-1.28859
12.00000,-6.95170,-1.28859
12.10000,-6.96000,-1.28859
12.20000,-6.96840,-1.27517
12.30000,-6.97670,-1.27517
12.40000,-6.98500,-1.28859
12.50000,-6.99340,-1.28859
12.60000,-7.00170,-1.28859
12.70000,-7.01000,-1.30202
12.80000,-7.01840,-1.30202
12.90000,-7.02670,-1.30202
13.00000,-7.03500,-1.30202
13.10000,-7.04330,-1.30202
13.20000,-7.05170,-1.31544
13.30000,-7.06000,-1.31544
13.40000,-7.06830,-1.30202
13.50000,-7.07670,-1.30202
13.60000,-7.08500,-1.32886
13.70000,-7.09330,-1.32886
13.80000,-7.10170,-1.32886
13.90000,-7.11000,-1.32886
14.00000,-7.11830,-1.32886
14.10000,-7.12670,-1.32886
14.20000,-7.13500,-1.32886
14.30000,-7.14330,-1.32886
14.40000,-7.15170,-1.32886
14.50000,-7.16000,-1.34228
14.60000,-7.16830,-1.34228
14.70000,-7.17670,-1.35571
14.80000,-7.18500,-1.34228
14.90000,-7.19330,-1.35571
15.00000,-7.20170,-1.35571
15.10000,-7.21000,-1.34228
15.20000,-7.21830,-1.35571
15.30000,-7.22670,-1.35571
15.40000,-7.23500,-1.35571
15.50000,-7.24330,-1.35571
15.60000,-7.25170,-1.36913
15.70000,-7.26000,-1.35571
15.80000,-7.26830,-1.36913
15.90000,-7.27670,-1.36913
16.00000,-7.28500,-1.36913
16.10000,-7.29330,-1.36913
16.20000,-7.30170,-1.36913
16.30000,-7.31000,-1.38255
16.40000,-7.31830,-1.38255
16.50000,-7.32670,-1.38255
16.60000,-7.33500,-1.39597
16.70000,-7.34330,-1.38255
16.80000,-7.35170,-1.38255
16.90000,-7.36000,-1.39597
17.00000,-7.36830,-1.39597
17.10000,-7.37670,-1.39597
17.20000,-7.38500,-1.39597
17.30000,-7.39330,-1.40940
17.40000,-7.40170,-1.40940
17.50000,-7.41000,-1.40940
17.60000,-7.41830,-1.40940
17.70000,-7.42670,-1.40940
17.80000,-7.43500,-1.42282
17.90000,-7.44330,-1.42282
18.00000,-7.45170,-1.40940
18.10000,-7.46000,-1.42282
18.20000,-7.46830,-1.42282
18.30000,-7.47670,-1.42282
18.40000,-7.48500,-1.43624
18.50000,-7.49330,-1.43624
18.60000,-7.50170,-1.43624
18.70000,-7.51000,-1.43624
18.80000,-7.51830,-1.43624
18.90000,-7.52670,-1.43624
19.00000,-7.53500,-1.44967
19.10000,-7.54330,-1.44967
19.20000,-7.55160,-1.44967
19.30000,-7.56000,-1.44967
19.40000,-7.56830,-1.44967
19.50000,-7.57660,-1.44967
19.60000,-7.58500,-1.46309
19.70000,-7.59330,-1.46309
19.80000,-7.60160,-1.46309
19.90000,-7.61000,-1.46309
20.00000,-7.61830,-1.46309
20.10000,-7.62660,-1.47651
20.20000,-7.63500,-1.47651
20.30000,-7.64330,-1.47651
20.40000,-7.65160,-1.47651
20.50000,-7.66000,-1.47651
20.60000,-7.66830,-1.48993
20.70000,-7.67660,-1.47651
20.80000,-7.68500,-1.48993
20.90000,-7.69330,-1.48993
21.00000,-7.70160,-1.50336
21.10000,-7.71000,-1.50336
21.20000,-7.71830,-1.48993
21.30000,-7.72660,-1.48993
21.40000,-7.73500,-1.48993
21.50000,-7.74330,-1.50336
21.60000,-7.75160,-1.50336
21.70000,-7.76000,-1.50336
21.80000,-7.76830,-1.51678
21.90000,-7.77660,-1.51678
22.00000,-7.78500,-1.51678
22.10000,-7.79330,-1.53020
22.20000,-7.80160,-1.51678
22.30000,-7.81000,-1.51678
22.40000,-7.81830,-1.51678
22.50000,-7.82660,-1.53020
22.60000,-7.83500,-1.53020
22.70000,-7.84330,-1.53020
22.80000,-7.85160,-1.54363
22.90000,-7.86000,-1.53020
23.00000,-7.86830,-1.53020
23.10000,-7.87660,-1.54363
23.20000,-7.88500,-1.54363
23.30000,-7.89330,-1.54363
23.40000,-7.90160,-1.54363
23.50000,-7.91000,-1.55705
23.60000,-7.91830,-1.55705
23.70000,-7.92660,-1.55705
23.80000,-7.93500,-1.55705
23.90000,-7.94330,-1.57047
24.00000,-7.95160,-1.57047
24.10000,-7.96000,-1.57047
24.20000,-7.96830,-1.57047
24.30000,-7.97660,-1.55705
24.35000,-7.98080,-1.57047
