Time,Extension,Load
(sec),(mm),(N)
0.00000,-2.17960,-1.07383
0.10000,-2.18890,-1.10067
0.20000,-2.19730,-1.11410
0.30000,-2.20560,-1.12752
0.40000,-2.21390,-1.14094
0.50000,-2.22230,-1.18121
0.60000,-2.23060,-1.19463
0.70000,-2.23890,-1.22148
0.80000,-2.24730,-1.23490
0.90000,-2.25560,-1.24832
1.00000,-2.26390,-1.26175
1.10000,-2.27230,-1.28859
1.20000,-2.28060,-1.30202
1.30000,-2.28890,-1.32886
1.40000,-2.29730,-1.35571
1.50000,-2.30560,-1.35571
1.60000,-2.31390,-1.36913
1.70000,-2.32230,-1.39597
1.80000,-2.33060,-1.42282
1.90000,-2.33890,-1.43624
2.00000,-2.34730,-1.46309
2.10000,-2.35560,-1.47651
2.20000,-2.36390,-1.48993
2.30000,-2.37230,-1.51678
2.40000,-2.38060,-1.53020
2.50000,-2.38890,-1.55705
2.60000,-2.39730,-1.58389
2.70000,-2.40560,-1.59732
2.80000,-2.41390,-1.61074
2.90000,-2.42230,-1.63758
3.00000,-2.43060,-1.65101
3.10000,-2.43890,-1.67785
3.20000,-2.44730,-1.70470
3.30000,-2.45560,-1.71812
3.40000,-2.46390,-1.73154
3.50000,-2.47230,-1.74497
3.60000,-2.48060,-1.77181
3.70000,-2.48890,-1.79866
3.80000,-2.49730,-1.82550
3.90000,-2.50560,-1.82550
4.00000,-2.51390,-1.83893
4.10000,-2.52220,-1.86577
4.20000,-2.53060,-1.89262
4.30000,-2.53890,-1.90604
4.40000,-2.54720,-1.93289
4.50000,-2.55560,-1.94631
4.60000,-2.56390,-1.95973
4.70000,-2.57220,-1.98658
4.80000,-2.58060,-2.00000
4.90000,-2.58890,-2.02685
5.00000,-2.59720,-2.04027
5.10000,-2.60560,-2.06711
5.20000,-2.61390,-2.08054
5.30000,-2.62220,-2.10738
5.40000,-2.63060,-2.12080
5.50000,-2.63890,-2.13423
5.60000,-2.64720,-2.16107
5.70000,-2.65560,-2.17450
5.80000,-2.66390,-2.20134
5.90000,-2.67220,-2.22819
6.00000,-2.68060,-2.24161
6.10000,-2.68890,-2.25503
6.20000,-2.69720,-2.26846
6.30000,-2.70560,-2.29530
6.40000,-2.71390,-2.30872
6.50000,-2.72220,-2.33557
6.60000,-2.73060,-2.36242
6.70000,-2.73890,-2.37584
6.80000,-2.74720,-2.38926
6.90000,-2.75560,-2.41611
7.00000,-2.76390,-2.42953
7.10000,-2.77220,-2.45637
7.20000,-2.78060,-2.48322
7.30000,-2.78890,-2.49664
7.40000,-2.79720,-2.51007
7.50000,-2.80560,-2.52349
7.60000,-2.81390,-2.55033
7.70000,-2.82220,-2.57718
7.80000,-2.83060,-2.59060
7.90000,-2.83890,-2.61745
8.00000,-2.84720,-2.63087
8.10000,-2.85560,-2.64429
8.20000,-2.86390,-2.67114
8.30000,-2.87220,-2.68456
8.40000,-2.88060,-2.69798
8.50000,-2.88890,-2.73825
8.60000,-2.89720,-2.75168
8.70000,-2.90560,-2.76510
8.80000,-2.91390,-2.79194
8.90000,-2.92220,-2.80537
9.00000,-2.93060,-2.83221
9.10000,-2.93890,-2.84564
9.20000,-2.94720,-2.85906
9.30000,-2.95560,-2.88590
9.40000,-2.96390,-2.89933
9.50000,-2.97220,-2.91275
9.60000,-2.98060,-2.93959
9.70000,-2.98890,-2.96644
9.80000,-2.99720,-2.97986
9.90000,-3.00560,-2.99329
10.00000,-3.01390,-3.02013
10.10000,-3.02220,-3.04698
10.20000,-3.03060,-3.04698
10.30000,-3.03890,-3.07382
10.40000,-3.04720,-3.10067
10.50000,-3.05550,-3.11409
10.60000,-3.06390,-3.12751
10.70000,-3.07220,-3.15436
10.80000,-3.08050,-3.18120
10.90000,-3.08890,-3.19463
11.00000,-3.09720,-3.22147
11.10000,-3.10550,-3.23490
11.20000,-3.11390,-3.24832
11.30000,-3.12220,-3.27516
11.40000,-3.13050,-3.28859
11.50000,-3.13890,-3.30201
11.60000,-3.14720,-3.32886
11.70000,-3.15550,-3.35570
11.80000,-3.16390,-3.36912
11.90000,-3.17220,-3.38255
12.00000,-3.18050,-3.40939
12.10000,-3.18890,-3.42282
12.20000,-3.19720,-3.44966
12.30000,-3.20550,-3.46308
12.40000,-3.21390,-3.47651
12.50000,-3.22220,-3.50335
12.60000,-3.23050,-3.53020
12.70000,-3.23890,-3.54362
12.80000,-3.24720,-3.57047
12.90000,-3.25550,-3.58389
13.00000,-3.26390,-3.59731
13.10000,-3.27220,-3.61073
13.20000,-3.28050,-3.63758
13.30000,-3.28890,-3.66443
13.40000,-3.29720,-3.67785
13.50000,-3.30550,-3.70469
13.60000,-3.31390,-3.70469
13.70000,-3.32220,-3.73154
13.80000,-3.33050,-3.75838
13.90000,-3.33890,-3.77181
14.00000,-3.34720,-3.79865
14.10000,-3.35550,-3.82550
14.20000,-3.36390,-3.83892
14.30000,-3.37220,-3.85234
14.40000,-3.38050,-3.86577
14.50000,-3.38890,-3.89261
14.60000,-3.39720,-3.91946
14.70000,-3.40550,-3.93288
14.80000,-3.41390,-3.95973
14.90000,-3.42220,-3.97315
15.00000,-3.43050,-3.98657
15.10000,-3.43890,-4.01342
15.20000,-3.44720,-4.02684
15.30000,-3.45550,-4.05369
15.40000,-3.46390,-4.06711
15.50000,-3.47220,-4.09395
15.60000,-3.48050,-4.09395
15.70000,-3.48890,-4.12080
15.80000,-3.49720,-4.14765
15.90000,-3.50550,-4.17449
16.00000,-3.51390,-4.18791
16.10000,-3.52220,-4.21476
16.20000,-3.53050,-4.22818
16.30000,-3.53890,-4.24160
16.40000,-3.54720,-4.25503
16.50000,-3.55550,-4.28187
16.60000,-3.56380,-4.29530
16.70000,-3.57220,-4.32214
16.80000,-3.58050,-4.34899
16.90000,-3.58880,-4.36241
17.00000,-3.59720,-4.38926
17.10000,-3.60550,-4.40268
17.20000,-3.61380,-4.41610
17.30000,-3.62220,-4.44295
17.40000,-3.63050,-4.45637
17.50000,-3.63880,-4.48321
17.60000,-3.64720,-4.49664
17.70000,-3.65550,-4.52348
17.80000,-3.66380,-4.53691
17.90000,-3.67220,-4.56375
18.00000,-3.68050,-4.57717
18.10000,-3.68880,-4.59060
18.20000,-3.69720,-4.61744
18.30000,-3.70550,-4.63087
18.40000,-3.71380,-4.64429
18.50000,-3.72220,-4.67113
18.60000,-3.73050,-4.69798
18.70000,-3.73880,-4.71140
18.80000,-3.74720,-4.73825
18.90000,-3.75550,-4.76509
19.00000,-3.76380,-4.76509
19.10000,-3.77220,-4.79194
19.20000,-3.78050,-4.81878
19.30000,-3.78880,-4.84563
19.40000,-3.79720,-4.85905
19.50000,-3.80550,-4.88590
19.60000,-3.81380,-4.88590
19.70000,-3.82220,-4.91274
19.80000,-3.83050,-4.93959
19.90000,-3.83880,-4.95301
20.00000,-3.84720,-4.97986
20.10000,-3.85550,-5.00670
20.20000,-3.86380,-5.02013
20.30000,-3.87220,-5.03355
20.40000,-3.88050,-5.04697
20.50000,-3.88880,-5.07382
20.60000,-3.89720,-5.10066
20.70000,-3.90550,-5.12751
20.80000,-3.91380,-5.14093
20.90000,-3.92220,-5.15435
21.00000,-3.93050,-5.18120
21.10000,-3.93880,-5.19462
21.20000,-3.94720,-5.22147
21.30000,-3.95550,-5.23489
21.40000,-3.96380,-5.26174
21.50000,-3.97220,-5.27516
21.60000,-3.98050,-5.30200
21.70000,-3.98880,-5.31543
21.80000,-3.99720,-5.34227
21.90000,-4.00550,-5.35570
22.00000,-4.01380,-5.38254
22.10000,-4.02220,-5.39596
22.20000,-4.03050,-5.42281
22.30000,-4.03880,-5.43623
22.40000,-4.04720,-5.44966
22.50000,-4.05550,-5.47650
22.60000,-4.06380,-5.48992
22.70000,-4.07220,-5.51677
22.80000,-4.08050,-5.53019
22.90000,-4.08880,-5.55704
23.00000,-4.09710,-5.57046
23.10000,-4.10550,-5.59731
23.20000,-4.11380,-5.62415
23.30000,-4.12210,-5.62415
23.40000,-4.13050,-5.65100
23.50000,-4.13880,-5.66442
23.60000,-4.14710,-5.70469
23.70000,-4.15550,-5.70469
23.80000,-4.16380,-5.73153
23.90000,-4.17210,-5.74496
24.00000,-4.18050,-5.77180
24.10000,-4.18880,-5.79865
24.20000,-4.19710,-5.82549
24.30000,-4.20550,-5.83892
24.40000,-4.21380,-5.85234
24.50000,-4.22210,-5.86576
24.60000,-4.23050,-5.87918
24.70000,-4.23880,-5.90603
24.80000,-4.24710,-5.93288
24.90000,-4.25550,-5.95972
25.00000,-4.26380,-5.97314
25.10000,-4.27210,-5.98657
25.20000,-4.28050,-5.99999
25.30000,-4.28880,-6.02684
25.40000,-4.29710,-6.05368
25.50000,-4.30550,-6.06710
25.60000,-4.31380,-6.08053
25.70000,-4.32210,-6.10737
25.80000,-4.33050,-6.13422
25.90000,-4.33880,-6.14764
26.00000,-4.34710,-6.17449
26.10000,-4.35550,-6.18791
26.20000,-4.36380,-6.21475
26.30000,-4.37210,-6.22818
26.40000,-4.38050,-6.24160
26.50000,-4.38880,-6.26845
26.60000,-4.39710,-6.28187
26.70000,-4.40550,-6.30871
26.80000,-4.41380,-6.33556
26.90000,-4.42210,-6.34898
27.00000,-4.43050,-6.36240
27.10000,-4.43880,-6.38925
27.20000,-4.44710,-6.40267
27.30000,-4.45550,-6.42952
27.40000,-4.46380,-6.44294
27.50000,-4.47210,-6.46979
27.60000,-4.48050,-6.48321
27.70000,-4.48880,-6.49663
27.80000,-4.49710,-6.52348
27.90000,-4.50550,-6.55032
28.00000,-4.51380,-6.56375
28.10000,-4.52210,-6.57717
28.20000,-4.53050,-6.59059
28.30000,-4.53880,-6.61744
28.40000,-4.54710,-6.63086
28.50000,-4.55550,-6.65771
28.60000,-4.56380,-6.67113
28.70000,-4.57210,-6.68455
28.80000,-4.58050,-6.72482
28.90000,-4.58880,-6.73824
29.00000,-4.59710,-6.75167
29.10000,-4.60540,-6.77851
29.20000,-4.61380,-6.79193
29.30000,-4.62210,-6.80536
29.40000,-4.63040,-6.83220
29.50000,-4.63880,-6.85905
29.60000,-4.64710,-6.87247
29.70000,-4.65540,-6.88589
29.80000,-4.66380,-6.91274
29.90000,-4.67210,-6.92616
30.00000,-4.68040,-6.93958
30.10000,-4.68880,-6.96643
30.20000,-4.69710,-6.99328
30.30000,-4.70540,-7.02012
30.40000,-4.71380,-7.03354
30.50000,-4.72210,-7.04697
30.60000,-4.73040,-7.06039
30.70000,-4.73880,-7.08724
30.80000,-4.74710,-7.10066
30.90000,-4.75540,-7.12750
31.00000,-4.76380,-7.15435
31.10000,-4.77210,-7.16777
31.20000,-4.78040,-7.18119
31.30000,-4.78880,-7.19462
31.40000,-4.79710,-7.22146
31.50000,-4.80540,-7.24831
31.60000,-4.81380,-7.26173
31.70000,-4.82210,-7.28858
31.80000,-4.83040,-7.28858
31.90000,-4.83880,-7.31542
32.00000,-4.84710,-7.34227
32.10000,-4.85540,-7.36911
32.20000,-4.86380,-7.38254
32.30000,-4.87210,-7.40938
32.40000,-4.88040,-7.42280
32.50000,-4.88880,-7.43623
32.60000,-4.89710,-7.46307
32.70000,-4.90540,-7.47650
32.80000,-4.91380,-7.50334
32.90000,-4.92210,-7.51676
33.00000,-4.93040,-7.54361
33.10000,-4.93880,-7.55703
33.20000,-4.94710,-7.58388
33.30000,-4.95540,-7.59730
33.40000,-4.96380,-7.62415
33.50000,-4.97210,-7.63757
33.60000,-4.98040,-7.65099
33.70000,-4.98880,-7.66441
33.80000,-4.99710,-7.67784
33.90000,-5.00540,-7.70468
34.00000,-5.01380,-7.73153
34.10000,-5.02210,-7.74495
34.20000,-5.03040,-7.77180
34.30000,-5.03880,-7.78522
34.40000,-5.04710,-7.81207
34.50000,-5.05540,-7.82549
34.60000,-5.06380,-7.83891
34.70000,-5.07210,-7.86576
34.80000,-5.08040,-7.87918
34.90000,-5.08880,-7.90603
35.00000,-5.09710,-7.93287
35.10000,-5.10540,-7.94629
35.20000,-5.11380,-7.95972
35.30000,-5.12210,-7.97314
35.40000,-5.13040,-7.99998
35.50000,-5.13870,-8.01341
35.60000,-5.14710,-8.04025
35.70000,-5.15540,-8.05368
35.80000,-5.16370,-8.08052
35.90000,-5.17210,-8.09394
36.00000,-5.18040,-8.12079
36.10000,-5.18870,-8.13421
36.20000,-5.19710,-8.14764
36.30000,-5.20540,-8.17448
36.40000,-5.21370,-8.18790
36.50000,-5.22210,-8.20133
36.60000,-5.23040,-8.22817
36.70000,-5.23870,-8.24159
36.80000,-5.24710,-8.25502
36.90000,-5.25540,-8.29529
37.00000,-5.26370,-8.29529
37.10000,-5.27210,-8.32213
37.20000,-5.28040,-8.33555
37.30000,-5.28870,-8.36240
37.40000,-5.29710,-8.37582
37.50000,-5.30540,-8.40267
37.60000,-5.31370,-8.42951
37.70000,-5.32210,-8.44294
37.80000,-5.33040,-8.45636
37.90000,-5.33870,-8.46978
38.00000,-5.34710,-8.49663
38.10000,-5.35540,-8.51005
38.20000,-5.36370,-8.53690
38.30000,-5.37210,-8.56374
38.40000,-5.38040,-8.57716
38.50000,-5.38870,-8.59059
38.60000,-5.39710,-8.60401
38.70000,-5.40540,-8.63086
38.80000,-5.41370,-8.64428
38.90000,-5.42210,-8.67112
39.00000,-5.43040,-8.69797
39.10000,-5.43870,-8.71139
39.20000,-5.44710,-8.72481
39.30000,-5.45540,-8.75166
39.40000,-5.46370,-8.76508
39.50000,-5.47210,-8.77851
39.60000,-5.48040,-8.80535
39.70000,-5.48870,-8.81877
39.80000,-5.49710,-8.83220
39.90000,-5.50540,-8.84562
40.00000,-5.51370,-8.87247
40.10000,-5.52210,-8.89931
40.20000,-5.53040,-8.91273
40.30000,-5.53870,-8.93958
40.40000,-5.54710,-8.93958
40.50000,-5.55540,-8.96642
40.60000,-5.56370,-8.97985
40.70000,-5.57210,-9.00669
40.80000,-5.58040,-9.02012
40.90000,-5.58870,-9.04696
41.00000,-5.59710,-9.06038
41.10000,-5.60540,-9.08723
41.20000,-5.61370,-9.10065
41.30000,-5.62210,-9.12750
41.40000,-5.63040,-9.12750
41.50000,-5.63870,-9.15434
41.60000,-5.64700,-9.16777
41.70000,-5.65540,-9.19461
41.80000,-5.66370,-9.22146
41.90000,-5.67200,-9.23488
42.00000,-5.68040,-9.26173
42.10000,-5.68870,-9.27515
42.20000,-5.69700,-9.28857
42.30000,-5.70540,-9.30199
42.40000,-5.71370,-9.32884
42.50000,-5.72200,-9.34226
42.60000,-5.73040,-9.35569
42.70000,-5.73870,-9.36911
42.80000,-5.74700,-9.39595
42.90000,-5.75540,-9.42280
43.00000,-5.76370,-9.43622
43.10000,-5.77200,-9.46307
43.20000,-5.78040,-9.47649
43.30000,-5.78870,-9.50334
43.40000,-5.79700,-9.50334
43.50000,-5.80540,-9.51676
43.60000,-5.81370,-9.54360
43.70000,-5.82200,-9.55703
43.80000,-5.83040,-9.58387
43.90000,-5.83870,-9.59730
44.00000,-5.84700,-9.61072
44.10000,-5.85540,-9.63756
44.20000,-5.86370,-9.66441
44.30000,-5.87200,-9.67783
44.40000,-5.88040,-9.69126
44.50000,-5.88870,-9.71810
44.60000,-5.89700,-9.73152
44.70000,-5.90540,-9.74495
44.80000,-5.91370,-9.75837
44.90000,-5.92200,-9.78521
45.00000,-5.93040,-9.79864
45.10000,-5.93870,-9.83891
45.20000,-5.94700,-9.83891
45.30000,-5.95540,-9.85233
45.40000,-5.96370,-9.86575
45.50000,-5.97200,-9.89260
45.60000,-5.98040,-9.90602
45.70000,-5.98870,-9.93287
45.80000,-5.99700,-9.94629
45.90000,-6.00540,-9.95971
46.00000,-6.01370,-9.98656
46.10000,-6.02200,-9.99998
46.20000,-6.03040,-10.01340
46.30000,-6.03870,-10.04025
46.40000,-6.04700,-10.05367
46.50000,-6.05540,-10.08052
46.60000,-6.06370,-10.09394
46.70000,-6.07200,-10.12078
46.80000,-6.08040,-10.12078
46.90000,-6.08870,-10.14763
47.00000,-6.09700,-10.17448
47.10000,-6.10540,-10.18790
47.20000,-6.11370,-10.20132
47.30000,-6.12200,-10.22817
47.40000,-6.13040,-10.24159
47.50000,-6.13870,-10.26844
47.60000,-6.14700,-10.28186
47.70000,-6.15540,-10.29528
47.80000,-6.16370,-10.30870
47.90000,-6.17200,-10.33555
48.00000,-6.18030,-10.34897
48.10000,-6.18870,-10.36239
48.20000,-6.19700,-10.38924
48.30000,-6.20530,-10.40266
48.40000,-6.21370,-10.41609
48.50000,-6.22200,-10.44293
48.60000,-6.23030,-10.45635
48.70000,-6.23870,-10.46978
48.80000,-6.24700,-10.48320
48.90000,-6.25530,-10.51005
49.00000,-6.26370,-10.52347
49.10000,-6.27200,-10.55031
49.20000,-6.28030,-10.56374
49.30000,-6.28870,-10.59058
49.40000,-6.29700,-10.60400
49.50000,-6.30530,-10.61743
49.60000,-6.31370,-10.63085
49.70000,-6.32200,-10.65770
49.80000,-6.33030,-10.67112
49.90000,-6.33870,-10.69796
50.00000,-6.34700,-10.71139
50.10000,-6.35530,-10.72481
50.20000,-6.36370,-10.75166
50.30000,-6.37200,-10.76508
50.40000,-6.38030,-10.79192
50.50000,-6.38870,-10.80535
50.60000,-6.39700,-10.81877
50.70000,-6.40530,-10.83219
50.80000,-6.41370,-10.84561
50.90000,-6.42200,-10.87246
51.00000,-6.43030,-10.89931
51.10000,-6.43870,-10.89931
51.20000,-6.44700,-10.93957
51.30000,-6.45530,-10.93957
51.40000,-6.46370,-10.95300
51.50000,-6.47200,-10.97984
51.60000,-6.48030,-10.99327
51.70000,-6.48870,-11.02011
51.80000,-6.49700,-11.03353
51.90000,-6.50530,-11.04696
52.00000,-6.51370,-11.07380
52.10000,-6.52200,-11.08722
52.20000,-6.53030,-11.10065
52.30000,-6.53870,-11.11407
52.40000,-6.54700,-11.14092
52.50000,-6.55530,-11.15434
52.60000,-6.56370,-11.16776
52.70000,-6.57200,-11.18118
52.80000,-6.58030,-11.20803
52.90000,-6.58870,-11.22145
53.00000,-6.59700,-11.23488
53.10000,-6.60530,-11.26172
53.20000,-6.61370,-11.27514
53.30000,-6.62200,-11.28857
53.40000,-6.63030,-11.30199
53.50000,-6.63870,-11.31541
53.60000,-6.64700,-11.34226
53.70000,-6.65530,-11.35568
53.80000,-6.66370,-11.38253
53.90000,-6.67200,-11.39595
54.00000,-6.68030,-11.40937
54.10000,-6.68860,-11.43622
54.20000,-6.69700,-11.46306
54.30000,-6.70530,-11.46306
54.40000,-6.71360,-11.47649
54.50000,-6.72200,-11.50333
54.60000,-6.73030,-11.51675
54.70000,-6.73860,-11.54360
54.80000,-6.74700,-11.54360
54.90000,-6.75530,-11.57045
55.00000,-6.76360,-11.59729
55.10000,-6.77200,-11.59729
55.20000,-6.78030,-11.62414
55.30000,-6.78860,-11.63756
55.40000,-6.79700,-11.65098
55.50000,-6.80530,-11.67783
55.60000,-6.81360,-11.69125
55.70000,-6.82200,-11.70467
55.80000,-6.83030,-11.71810
55.90000,-6.83860,-11.74494
56.00000,-6.84700,-11.75836
56.10000,-6.85530,-11.77179
56.20000,-6.86360,-11.79863
56.30000,-6.87200,-11.79863
56.40000,-6.88030,-11.82548
56.50000,-6.88860,-11.83890
56.60000,-6.89700,-11.86575
56.70000,-6.90530,-11.87917
56.80000,-6.91360,-11.89259
56.90000,-6.92200,-11.90601
57.00000,-6.93030,-11.91944
57.10000,-6.93860,-11.94628
57.20000,-6.94700,-11.95971
57.30000,-6.95530,-11.98655
57.40000,-6.96360,-11.99997
57.50000,-6.97200,-12.01340
57.60000,-6.98030,-12.02682
57.70000,-6.98860,-12.05367
57.80000,-6.99700,-12.06709
57.90000,-7.00530,-12.08051
58.00000,-7.01360,-12.09393
58.10000,-7.02200,-12.10736
58.20000,-7.03030,-12.13420
58.30000,-7.03860,-12.13420
58.40000,-7.04700,-12.16105
58.50000,-7.05530,-12.18789
58.60000,-7.06360,-12.18789
58.70000,-7.07200,-12.22816
58.80000,-7.08030,-12.22816
58.90000,-7.08860,-12.24158
59.00000,-7.09700,-12.26843
59.10000,-7.10530,-12.29528
59.20000,-7.11360,-12.30870
59.30000,-7.12200,-12.32212
59.40000,-7.13030,-12.33554
59.50000,-7.13860,-12.34897
59.60000,-7.14700,-12.36239
59.70000,-7.15530,-12.37581
59.80000,-7.16360,-12.40266
59.90000,-7.17200,-12.41608
60.00000,-7.18030,-12.42950
60.10000,-7.18860,-12.45635
60.20000,-7.19700,-12.46977
60.30000,-7.20530,-12.48319
60.40000,-7.21360,-12.51004
60.50000,-7.22190,-12.51004
60.60000,-7.23030,-12.53689
60.70000,-7.23860,-12.55031
60.80000,-7.24690,-12.55031
60.90000,-7.25530,-12.59058
61.00000,-7.26360,-12.60400
61.10000,-7.27190,-12.61742
61.20000,-7.28030,-12.64427
61.30000,-7.28860,-12.64427
61.40000,-7.29690,-12.65769
61.50000,-7.30530,-12.67111
61.60000,-7.31360,-12.69796
61.70000,-7.32190,-12.71138
61.80000,-7.33030,-12.72480
61.90000,-7.33860,-12.73823
62.00000,-7.34690,-12.76507
62.10000,-7.35530,-12.77850
62.20000,-7.36360,-12.79192
62.30000,-7.37190,-12.80534
62.40000,-7.38030,-12.81876
62.50000,-7.38860,-12.84561
62.60000,-7.39690,-12.84561
62.70000,-7.40530,-12.85903
62.80000,-7.41360,-12.88588
62.90000,-7.42190,-12.89930
63.00000,-7.43030,-12.91272
63.10000,-7.43860,-12.93957
63.20000,-7.44690,-12.95299
63.30000,-7.45530,-12.97984
63.40000,-7.46360,-12.99326
63.50000,-7.47190,-13.00668
63.60000,-7.48030,-13.02011
63.70000,-7.48860,-13.03353
63.80000,-7.49690,-13.04695
63.90000,-7.50530,-13.07380
64.00000,-7.51360,-13.07380
64.10001,-7.52190,-13.11407
64.20000,-7.53030,-13.12749
64.30000,-7.53860,-13.14091
64.40000,-7.54690,-13.15433
64.50000,-7.55530,-13.16776
64.60001,-7.56360,-13.19460
64.70000,-7.57190,-13.20802
64.80000,-7.58030,-13.22145
64.90000,-7.58860,-13.23487
65.00000,-7.59690,-13.24829
65.10001,-7.60530,-13.27514
65.20000,-7.61360,-13.28856
65.30000,-7.62190,-13.31541
65.40000,-7.63030,-13.31541
65.50000,-7.63860,-13.34225
65.60001,-7.64690,-13.34225
65.70001,-7.65530,-13.35568
65.80000,-7.66360,-13.38252
65.90000,-7.67190,-13.40937
66.00000,-7.68030,-13.42279
66.10001,-7.68860,-13.43621
66.20001,-7.69690,-13.43621
66.30000,-7.70530,-13.44963
66.40000,-7.71360,-13.46306
66.50000,-7.72190,-13.48990
66.60001,-7.73020,-13.50333
66.70001,-7.73860,-13.53017
66.80000,-7.74690,-13.53017
66.90000,-7.75520,-13.54359
67.00000,-7.76360,-13.57044
67.10001,-7.77190,-13.58386
67.20001,-7.78020,-13.61071
67.30000,-7.78860,-13.62413
67.40000,-7.79690,-13.63755
67.50000,-7.80520,-13.63755
67.60001,-7.81360,-13.66440
67.70001,-7.82190,-13.66440
67.80000,-7.83020,-13.69125
67.90000,-7.83860,-13.70467
68.00000,-7.84690,-13.71809
68.10001,-7.85520,-13.73151
68.20001,-7.86360,-13.75836
68.30000,-7.87190,-13.75836
68.40000,-7.88020,-13.78520
68.50000,-7.88860,-13.78520
68.60001,-7.89690,-13.79863
68.70001,-7.90520,-13.81205
68.80000,-7.91360,-13.82547
68.90000,-7.92190,-13.83890
69.00000,-7.93020,-13.86574
69.10001,-7.93860,-13.86574
69.20001,-7.94690,-13.89259
69.30000,-7.95520,-13.90601
69.40000,-7.96360,-13.90601
69.50000,-7.97190,-13.93286
69.60001,-7.98020,-13.94628
69.70001,-7.98860,-13.94628
69.80000,-7.99690,-13.95970
69.90000,-8.00520,-13.97312
70.00000,-8.01360,-13.99997
70.10001,-8.02190,-14.01339
70.20001,-8.03020,-14.02681
70.30000,-8.03860,-14.04024
70.40000,-8.04690,-14.05366
70.50000,-8.05520,-14.06708
70.60001,-8.06360,-14.08051
70.70001,-8.07190,-14.09393
70.80000,-8.08020,-14.12077
70.90000,-8.08860,-14.13420
71.00000,-8.09690,-14.14762
71.10001,-8.10520,-14.14762
71.20001,-8.11360,-14.17447
71.30000,-8.12190,-14.17447
71.40000,-8.13020,-14.18789
71.50000,-8.13860,-14.21473
71.60001,-8.14690,-14.22816
71.70001,-8.15520,-14.24158
71.80000,-8.16360,-14.24158
71.90000,-8.17190,-14.25500
72.00000,-8.18020,-14.28185
72.10001,-8.18860,-14.29527
72.20001,-8.19690,-14.30869
72.30000,-8.20520,-14.32212
72.40000,-8.21360,-14.32212
72.50000,-8.22190,-14.34896
72.60001,-8.23020,-14.36238
72.70001,-8.23860,-14.37581
72.80000,-8.24690,-14.40265
72.90000,-8.25520,-14.40265
73.00000,-8.26350,-14.40265
73.10001,-8.27190,-14.42950
73.20001,-8.28020,-14.44292
73.30000,-8.28850,-14.46977
73.40000,-8.29690,-14.48319
73.50000,-8.30520,-14.48319
73.60001,-8.31350,-14.49661
73.70001,-8.32190,-14.49661
73.80000,-8.33020,-14.52346
73.90000,-8.33850,-14.53688
74.00000,-8.34690,-14.55030
74.10001,-8.35520,-14.57715
74.20001,-8.36350,-14.59057
74.30000,-8.37190,-14.60399
74.40000,-8.38020,-14.60399
74.50000,-8.38850,-14.63084
74.60001,-8.39690,-14.63084
74.70001,-8.40520,-14.65769
74.80000,-8.41350,-14.65769
74.90000,-8.42190,-14.67111
75.00000,-8.43020,-14.68453
75.10001,-8.43850,-14.69795
75.20001,-8.44690,-14.72480
75.30000,-8.45520,-14.73822
75.40000,-8.46350,-14.73822
75.50000,-8.47190,-14.75165
75.60001,-8.48020,-14.76507
75.70001,-8.48850,-14.77849
75.80000,-8.49690,-14.80534
75.90000,-8.50520,-14.81876
76.00000,-8.51350,-14.81876
76.10001,-8.52190,-14.83218
76.20001,-8.53020,-14.85903
76.30000,-8.53850,-14.87245
76.40000,-8.54690,-14.87245
76.50000,-8.55520,-14.89930
76.60001,-8.56350,-14.91272
76.70001,-8.57190,-14.92614
76.80000,-8.58020,-14.93956
76.90000,-8.58850,-14.93956
77.00000,-8.59690,-14.96641
77.10001,-8.60520,-14.97983
77.20001,-8.61350,-14.99326
77.30000,-8.62190,-15.00668
77.40000,-8.63020,-15.03352
77.50000,-8.63850,-15.03352
77.60001,-8.64690,-15.04695
77.70001,-8.65520,-15.06037
77.80000,-8.66350,-15.06037
77.90000,-8.67190,-15.08721
78.00000,-8.68020,-15.10064
78.10001,-8.68850,-15.11406
78.20001,-8.69690,-15.14091
78.30000,-8.70520,-15.15433
78.40000,-8.71350,-15.15433
78.50000,-8.72190,-15.16775
78.60001,-8.73020,-15.18117
78.70001,-8.73850,-15.19460
78.80000,-8.74690,-15.20802
78.90000,-8.75520,-15.22144
79.00000,-8.76350,-15.24829
79.10001,-8.77180,-15.24829
79.20001,-8.78020,-15.27513
79.30000,-8.78850,-15.28856
79.40000,-8.79680,-15.28856
79.50000,-8.80520,-15.31540
79.60001,-8.81350,-15.32882
79.70001,-8.82180,-15.32882
79.80000,-8.83020,-15.34225
79.90000,-8.83850,-15.35567
80.00000,-8.84680,-15.36909
80.10001,-8.85520,-15.39594
80.20001,-8.86350,-15.40936
80.30000,-8.87180,-15.40936
80.40000,-8.88020,-15.42278
80.50001,-8.88850,-15.43621
80.60001,-8.89680,-15.46305
80.70001,-8.90520,-15.47648
80.80000,-8.91350,-15.47648
80.90000,-8.92180,-15.50332
81.00001,-8.93020,-15.50332
81.10001,-8.93850,-15.51674
81.20001,-8.94680,-15.53017
81.30000,-8.95520,-15.54359
81.40000,-8.96350,-15.55701
81.50001,-8.97180,-15.58386
81.60001,-8.98020,-15.59728
81.70001,-8.98850,-15.61070
81.80000,-8.99680,-15.61070
81.90000,-9.00520,-15.62413
82.00001,-9.01350,-15.65097
82.10001,-9.02180,-15.65097
82.20001,-9.03020,-15.66439
82.30000,-9.03850,-15.67782
82.40000,-9.04680,-15.69124
82.50001,-9.05520,-15.70466
82.60001,-9.06350,-15.71809
82.70001,-9.07180,-15.71809
82.80000,-9.08020,-15.73151
82.90000,-9.08850,-15.74493
83.00001,-9.09680,-15.75835
83.10001,-9.10500,-15.77178
83.20001,-9.11340,-15.78520
83.30000,-9.12170,-15.81205
83.40000,-9.13000,-15.81205
83.50001,-9.13840,-15.82547
83.60001,-9.14670,-15.85231
83.70001,-9.15500,-15.85231
83.80000,-9.16340,-15.85231
83.90000,-9.17170,-15.87916
84.00001,-9.18000,-15.87916
84.10001,-9.18840,-15.90600
84.20001,-9.19670,-15.90600
84.30000,-9.20500,-15.91943
84.40000,-9.21330,-15.93285
84.50001,-9.22170,-15.94627
84.60001,-9.23000,-15.94627
84.70001,-9.23830,-15.95970
84.80000,-9.24670,-15.97312
84.90000,-9.25500,-15.98654
85.00001,-9.26330,-15.99996
85.10001,-9.27170,-16.01339
85.20001,-9.28000,-16.02681
85.30000,-9.28830,-16.04023
85.40000,-9.29670,-16.04023
85.50001,-9.30500,-16.06708
85.60001,-9.31330,-16.06708
85.70001,-9.32170,-16.08050
85.80000,-9.33000,-16.09392
85.90000,-9.33830,-16.09392
86.00001,-9.34670,-16.12077
86.10001,-9.35500,-16.13419
86.20001,-9.36330,-16.14761
86.30000,-9.37170,-16.17446
86.40000,-9.38000,-16.17446
86.50001,-9.38830,-16.17446
86.60001,-9.39670,-16.18788
86.70001,-9.40500,-16.20131
86.80000,-9.41330,-16.21473
86.90000,-9.42170,-16.24157
87.00001,-9.43000,-16.24157
87.10001,-9.43830,-16.25500
87.20001,-9.44670,-16.26842
87.30000,-9.45500,-16.26842
87.40000,-9.46330,-16.29527
87.50001,-9.47170,-16.30869
87.60001,-9.48000,-16.32211
87.70001,-9.48830,-16.33553
87.80000,-9.49670,-16.33553
87.90000,-9.50500,-16.36238
88.00001,-9.51330,-16.37580
88.10001,-9.52170,-16.38922
88.20001,-9.53000,-16.40265
88.30000,-9.53830,-16.41607
88.40000,-9.54670,-16.42949
88.50001,-9.55500,-16.42949
88.60001,-9.56330,-16.44292
88.70001,-9.57170,-16.45634
88.80000,-9.58000,-16.48318
88.90000,-9.58830,-16.48318
89.00001,-9.59670,-16.51003
89.10001,-9.60500,-16.51003
89.20001,-9.61330,-16.52345
89.30000,-9.62170,-16.53688
89.40000,-9.63000,-16.55030
89.50001,-9.63830,-16.57714
89.60001,-9.64670,-16.59057
89.70001,-9.65500,-16.60399
89.80000,-9.66330,-16.63083
89.90000,-9.67170,-16.63083
90.00001,-9.68000,-16.65768
90.10001,-9.68830,-16.67110
90.20001,-9.69670,-16.67110
90.30000,-9.70500,-16.69795
90.40000,-9.71330,-16.71137
90.50001,-9.72160,-16.72479
90.60001,-9.73000,-16.73822
90.70001,-9.73830,-16.76506
90.80000,-9.74660,-16.76506
90.90000,-9.75500,-16.77849
91.00001,-9.76330,-16.80533
91.10001,-9.77160,-16.81875
91.20001,-9.78000,-16.84560
91.30000,-9.78830,-16.85902
91.40000,-9.79660,-16.85902
91.50001,-9.80500,-16.88587
91.60001,-9.81330,-16.89929
91.70001,-9.82160,-16.92614
91.80000,-9.83000,-16.92614
91.90000,-9.83830,-16.93956
92.00001,-9.84660,-16.96640
92.10001,-9.85500,-16.96640
92.20001,-9.86330,-16.97983
92.30000,-9.87160,-16.99325
92.40000,-9.88000,-16.99325
92.50001,-9.88830,-17.02010
92.60001,-9.89660,-17.03352
92.70001,-9.90500,-17.02010
92.80000,-9.91330,-17.03352
92.90000,-9.92160,-17.04694
93.00001,-9.93000,-17.06036
93.10001,-9.93830,-17.07379
93.20001,-9.94660,-17.07379
93.30000,-9.95500,-17.10063
93.40000,-9.96330,-17.11406
93.50001,-9.97160,-17.12748
93.60001,-9.98000,-17.14090
93.70001,-9.98830,-17.15432
93.80000,-9.99660,-17.15432
93.90000,-10.00500,-17.16775
94.00001,-10.01330,-17.18117
94.10001,-10.02160,-17.20801
94.15000,-10.02580,-17.20801
