Time,Extension,Load
(sec),(mm),(N)
0.00000,-1.97230,-1.12752
0.10000,-1.98170,-1.19463
0.20000,-1.99000,-1.22148
0.30000,-1.99830,-1.26175
0.40000,-2.00670,-1.30202
0.50000,-2.01500,-1.32886
0.60000,-2.02330,-1.35571
0.70000,-2.03170,-1.38255
0.80000,-2.04000,-1.40940
0.90000,-2.04830,-1.46309
1.00000,-2.05670,-1.48993
1.10000,-2.06500,-1.51678
1.20000,-2.07330,-1.57047
1.30000,-2.08170,-1.58389
1.40000,-2.09000,-1.62416
1.50000,-2.09830,-1.65101
1.60000,-2.10670,-1.67785
1.70000,-2.11500,-1.71812
1.80000,-2.12330,-1.75839
1.90000,-2.13160,-1.78524
2.00000,-2.14000,-1.81208
2.10000,-2.14830,-1.85235
2.20000,-2.15660,-1.87919
2.30000,-2.16500,-1.91946
2.40000,-2.17330,-1.94631
2.50000,-2.18160,-1.98658
2.60000,-2.19000,-2.01342
2.70000,-2.19830,-2.02685
2.80000,-2.20660,-2.06711
2.90000,-2.21500,-2.10738
3.00000,-2.22330,-2.14765
3.10000,-2.23160,-2.17450
3.20000,-2.24000,-2.20134
3.30000,-2.24830,-2.24161
3.40000,-2.25660,-2.26846
3.50000,-2.26500,-2.30872
3.60000,-2.27330,-2.33557
3.70000,-2.28160,-2.36242
3.80000,-2.29000,-2.40268
3.90000,-2.29830,-2.44295
4.00000,-2.30660,-2.46980
4.10000,-2.31500,-2.49664
4.20000,-2.32330,-2.53691
4.30000,-2.33160,-2.56376
4.40000,-2.34000,-2.60403
4.50000,-2.34830,-2.64429
4.60000,-2.35660,-2.65772
4.70000,-2.36500,-2.69798
4.80000,-2.37330,-2.72483
4.90000,-2.38160,-2.75168
5.00000,-2.39000,-2.79194
5.10000,-2.39830,-2.83221
5.20000,-2.40660,-2.87248
5.30000,-2.41500,-2.89933
5.40000,-2.42330,-2.93959
5.50000,-2.43160,-2.96644
5.60000,-2.44000,-2.99329
5.70000,-2.44830,-3.04698
5.80000,-2.45660,-3.07382
5.90000,-2.46500,-3.11409
6.00000,-2.47330,-3.15436
6.10000,-2.48160,-3.18120
6.20000,-2.49000,-3.22147
6.30000,-2.49830,-3.26174
6.40000,-2.50660,-3.28859
6.50000,-2.51500,-3.32886
6.60000,-2.52330,-3.36912
6.70000,-2.53160,-3.39597
6.80000,-2.54000,-3.43624
6.90000,-2.54830,-3.47651
7.00000,-2.55660,-3.50335
7.10000,-2.56500,-3.54362
7.20000,-2.57330,-3.58389
7.30000,-2.58160,-3.62416
7.40000,-2.59000,-3.65100
7.50000,-2.59830,-3.69127
7.60000,-2.60660,-3.73154
7.70000,-2.61500,-3.75838
7.80000,-2.62330,-3.79865
7.90000,-2.63160,-3.82550
8.00000,-2.64000,-3.86577
8.10000,-2.64830,-3.90604
8.20000,-2.65660,-3.94630
8.30000,-2.66490,-3.98657
8.40000,-2.67330,-4.01342
8.50000,-2.68160,-4.05369
8.60000,-2.68990,-4.09395
8.70000,-2.69830,-4.12080
8.80000,-2.70660,-4.14765
8.90000,-2.71490,-4.20134
9.00000,-2.72330,-4.24160
9.10000,-2.73160,-4.28187
9.20000,-2.73990,-4.32214
9.30000,-2.74830,-4.36241
9.40000,-2.75660,-4.40268
9.50000,-2.76490,-4.42952
9.60000,-2.77330,-4.46979
9.70000,-2.78160,-4.51006
9.80000,-2.78990,-4.53691
9.90000,-2.79830,-4.57717
10.00000,-2.80660,-4.61744
10.10000,-2.81490,-4.64429
10.20000,-2.82330,-4.69798
10.30000,-2.83160,-4.73825
10.40000,-2.83990,-4.77852
10.50000,-2.84830,-4.81878
10.60000,-2.85660,-4.85905
10.70000,-2.86490,-4.87248
10.80000,-2.87330,-4.91274
10.90000,-2.88160,-4.95301
11.00000,-2.88990,-4.99328
11.10000,-2.89830,-5.02013
11.20000,-2.90660,-5.07382
11.30000,-2.91490,-5.10066
11.40000,-2.92330,-5.14093
11.50000,-2.93160,-5.16778
11.60000,-2.93990,-5.20805
11.70000,-2.94830,-5.24831
11.80000,-2.95660,-5.27516
11.90000,-2.96490,-5.31543
12.00000,-2.97330,-5.35570
12.10000,-2.98160,-5.39596
12.20000,-2.98990,-5.43623
12.30000,-2.99830,-5.46308
12.40000,-3.00660,-5.50335
12.50000,-3.01490,-5.54361
12.60000,-3.02330,-5.58388
12.70000,-3.03160,-5.61073
12.80000,-3.03990,-5.65100
12.90000,-3.04830,-5.67784
13.00000,-3.05660,-5.71811
13.10000,-3.06490,-5.75838
13.20000,-3.07330,-5.78523
13.30000,-3.08160,-5.83892
13.40000,-3.08990,-5.87918
13.50000,-3.09830,-5.89261
13.60000,-3.10660,-5.93288
13.70000,-3.11490,-5.97314
13.80000,-3.12330,-5.99999
13.90000,-3.13160,-6.05368
14.00000,-3.13990,-6.08053
14.10000,-3.14830,-6.12079
14.20000,-3.15660,-6.16106
14.30000,-3.16490,-6.18791
14.40000,-3.17320,-6.22818
14.50000,-3.18160,-6.25502
14.60000,-3.18990,-6.29529
14.70000,-3.19820,-6.33556
14.80000,-3.20660,-6.37583
14.90000,-3.21490,-6.40267
15.00000,-3.22320,-6.44294
15.10000,-3.23160,-6.48321
15.20000,-3.23990,-6.51006
15.30000,-3.24820,-6.55032
15.40000,-3.25660,-6.57717
15.50000,-3.26490,-6.63086
15.60000,-3.27320,-6.65771
15.70000,-3.28160,-6.68455
15.80000,-3.28990,-6.73824
15.90000,-3.29820,-6.76509
16.00000,-3.30660,-6.80536
16.10000,-3.31490,-6.83220
16.20000,-3.32320,-6.87247
16.30000,-3.33160,-6.91274
16.40000,-3.33990,-6.95301
16.50000,-3.34820,-6.99328
16.60000,-3.35660,-7.03354
16.70000,-3.36490,-7.06039
16.80000,-3.37320,-7.10066
16.90000,-3.38160,-7.12750
17.00000,-3.38990,-7.16777
17.10000,-3.39820,-7.20804
17.20000,-3.40660,-7.23489
17.30000,-3.41490,-7.27515
17.40000,-3.42320,-7.31542
17.50000,-3.43160,-7.34227
17.60000,-3.43990,-7.38254
17.70000,-3.44820,-7.42280
17.80000,-3.45660,-7.44965
17.90000,-3.46490,-7.48992
18.00000,-3.47320,-7.51676
18.10000,-3.48160,-7.55703
18.20000,-3.48990,-7.58388
18.30000,-3.49820,-7.62415
18.40000,-3.50660,-7.65099
18.50000,-3.51490,-7.70468
18.60000,-3.52320,-7.74495
18.70000,-3.53160,-7.77180
18.80000,-3.53990,-7.81207
18.90000,-3.54820,-7.85233
19.00000,-3.55660,-7.85233
19.10000,-3.56490,-7.90603
19.20000,-3.57320,-7.95972
19.30000,-3.58160,-7.98656
19.40000,-3.58990,-8.02683
19.50000,-3.59820,-8.05368
19.60000,-3.60660,-8.09394
19.70000,-3.61490,-8.12079
19.80000,-3.62320,-8.16106
19.90000,-3.63160,-8.18790
20.00000,-3.63990,-8.22817
20.10000,-3.64820,-8.26844
20.20000,-3.65660,-8.30871
20.30000,-3.66490,-8.33555
20.40000,-3.67320,-8.37582
20.50000,-3.68160,-8.41609
20.60000,-3.68990,-8.44294
20.70000,-3.69820,-8.48320
20.80000,-3.70650,-8.51005
20.90000,-3.71490,-8.55032
21.00000,-3.72320,-8.59059
21.10000,-3.73150,-8.63086
21.20000,-3.73990,-8.65770
21.30000,-3.74820,-8.69797
21.40000,-3.75650,-8.72481
21.50000,-3.76490,-8.76508
21.60000,-3.77320,-8.79193
21.70000,-3.78150,-8.83220
21.80000,-3.78990,-8.87247
21.90000,-3.79820,-8.89931
22.00000,-3.80650,-8.95300
22.10000,-3.81490,-8.97985
22.20000,-3.82320,-9.02012
22.30000,-3.83150,-9.04696
22.40000,-3.83990,-9.08723
22.50000,-3.84820,-9.12750
22.60000,-3.85650,-9.15434
22.70000,-3.86490,-9.19461
22.80000,-3.87320,-9.22146
22.90000,-3.88150,-9.26173
23.00000,-3.88990,-9.28857
23.10000,-3.89820,-9.32884
23.20000,-3.90650,-9.35569
23.30000,-3.91490,-9.40938
23.40000,-3.92320,-9.43622
23.50000,-3.93150,-9.47649
23.60000,-3.93990,-9.50334
23.70000,-3.94820,-9.54360
23.80000,-3.95650,-9.57045
23.90000,-3.96490,-9.61072
24.00000,-3.97320,-9.63756
24.10000,-3.98150,-9.67783
24.20000,-3.98990,-9.71810
24.30000,-3.99820,-9.74495
24.40000,-4.00650,-9.78521
24.50000,-4.01490,-9.81206
24.60000,-4.02320,-9.85233
24.70000,-4.03150,-9.90602
24.80000,-4.03990,-9.91944
24.90000,-4.04820,-9.95971
25.00000,-4.05650,-9.98656
25.10000,-4.06490,-10.02682
25.20000,-4.07320,-10.05367
25.30000,-4.08150,-10.09394
25.40000,-4.08990,-10.13421
25.50000,-4.09820,-10.17448
25.60000,-4.10650,-10.20132
25.70000,-4.11490,-10.22817
25.80000,-4.12320,-10.26844
25.90000,-4.13150,-10.29528
26.00000,-4.13990,-10.33555
26.10000,-4.14820,-10.37582
26.20000,-4.15650,-10.40266
26.30000,-4.16490,-10.44293
26.40000,-4.17320,-10.48320
26.50000,-4.18150,-10.52347
26.60000,-4.18990,-10.55031
26.70000,-4.19820,-10.60400
26.80000,-4.20650,-10.61743
26.90000,-4.21480,-10.65770
27.00000,-4.22320,-10.69796
27.10000,-4.23150,-10.72481
27.20000,-4.23980,-10.75166
27.30000,-4.24820,-10.80535
27.40000,-4.25650,-10.83219
27.50000,-4.26480,-10.87246
27.60000,-4.27320,-10.89931
27.70000,-4.28150,-10.92615
27.80000,-4.28980,-10.96642
27.90000,-4.29820,-10.99327
28.00000,-4.30650,-11.03353
28.10000,-4.31480,-11.06038
28.20000,-4.32320,-11.10065
28.30000,-4.33150,-11.14092
28.40000,-4.33980,-11.18118
28.50000,-4.34820,-11.20803
28.60000,-4.35650,-11.23488
28.70000,-4.36480,-11.27514
28.80000,-4.37320,-11.31541
28.90000,-4.38150,-11.34226
29.00000,-4.38980,-11.36910
29.10000,-4.39820,-11.40937
29.20000,-4.40650,-11.44964
29.30000,-4.41480,-11.47649
29.40000,-4.42320,-11.51675
29.50000,-4.43150,-11.55702
29.60000,-4.43980,-11.58387
29.70000,-4.44820,-11.61071
29.80000,-4.45650,-11.65098
29.90000,-4.46480,-11.67783
30.00000,-4.47320,-11.71810
30.10000,-4.48150,-11.75836
30.20000,-4.48980,-11.78521
30.30000,-4.49820,-11.82548
30.40000,-4.50650,-11.86575
30.50000,-4.51480,-11.89259
30.60000,-4.52320,-11.91944
30.70000,-4.53150,-11.95971
30.80000,-4.53980,-11.98655
30.90000,-4.54820,-12.02682
31.00000,-4.55640,-12.06709
31.10000,-4.56480,-12.09393
31.20000,-4.57310,-12.12078
31.30000,-4.58140,-12.16105
31.40000,-4.58980,-12.18789
31.50000,-4.59810,-12.22816
31.60000,-4.60640,-12.25501
31.70000,-4.61480,-12.29528
31.80000,-4.62310,-12.33554
31.90000,-4.63140,-12.36239
32.00000,-4.63980,-12.38924
32.10000,-4.64810,-12.42950
32.20000,-4.65640,-12.45635
32.30000,-4.66480,-12.49662
32.40000,-4.67310,-12.52346
32.50000,-4.68140,-12.55031
32.60000,-4.68970,-12.59058
32.70000,-4.69810,-12.63085
32.80000,-4.70640,-12.65769
32.90000,-4.71470,-12.69796
33.00000,-4.72310,-12.72480
33.10000,-4.73140,-12.76507
33.20000,-4.73970,-12.79192
33.30000,-4.74810,-12.83219
33.40000,-4.75640,-12.87246
33.50000,-4.76470,-12.89930
33.60000,-4.77310,-12.92615
33.70000,-4.78140,-12.96641
33.80000,-4.78970,-12.99326
33.90000,-4.79810,-13.03353
34.00000,-4.80640,-13.06037
34.10000,-4.81470,-13.08722
34.20000,-4.82310,-13.12749
34.30000,-4.83140,-13.15433
34.40000,-4.83970,-13.18118
34.50000,-4.84810,-13.23487
34.60000,-4.85640,-13.26172
34.70000,-4.86470,-13.28856
34.80000,-4.87310,-13.32883
34.90000,-4.88140,-13.35568
35.00000,-4.88970,-13.39594
35.10000,-4.89810,-13.40937
35.20000,-4.90640,-13.44963
35.30000,-4.91470,-13.47648
35.40000,-4.92310,-13.51675
35.50000,-4.93140,-13.55702
35.60000,-4.93970,-13.59729
35.70000,-4.94810,-13.62413
35.80000,-4.95640,-13.65098
35.90000,-4.96470,-13.67782
36.00000,-4.97310,-13.71809
36.10000,-4.98140,-13.74494
36.20000,-4.98970,-13.77178
36.30000,-4.99810,-13.81205
36.40000,-5.00640,-13.85232
36.50000,-5.01470,-13.87916
36.60000,-5.02310,-13.91943
36.70000,-5.03140,-13.94628
36.80000,-5.03970,-13.97312
36.90000,-5.04810,-13.99997
37.00000,-5.05640,-14.04024
37.10000,-5.06470,-14.06708
37.20000,-5.07310,-14.10735
37.30000,-5.08140,-14.13420
37.40000,-5.08970,-14.16104
37.50000,-5.09810,-14.20131
37.60000,-5.10640,-14.22816
37.70000,-5.11470,-14.26842
37.80000,-5.12310,-14.29527
37.90000,-5.13140,-14.32212
38.00000,-5.13970,-14.36238
38.10000,-5.14810,-14.40265
38.20000,-5.15640,-14.42950
38.30000,-5.16470,-14.45634
38.40000,-5.17310,-14.48319
38.50000,-5.18140,-14.52346
38.60000,-5.18970,-14.55030
38.70000,-5.19810,-14.59057
38.80000,-5.20640,-14.61742
38.90000,-5.21470,-14.64426
39.00000,-5.22300,-14.68453
39.10000,-5.23140,-14.71138
39.20000,-5.23970,-14.73822
39.30000,-5.24800,-14.76507
39.40000,-5.25640,-14.80534
39.50000,-5.26470,-14.84560
39.60000,-5.27300,-14.87245
39.70000,-5.28140,-14.89930
39.80000,-5.28970,-14.93956
39.90000,-5.29800,-14.96641
40.00000,-5.30640,-14.99326
40.10000,-5.31470,-15.03352
40.20000,-5.32300,-15.06037
40.30000,-5.33140,-15.10064
40.40000,-5.33970,-15.12748
40.50000,-5.34800,-15.16775
40.60000,-5.35640,-15.18117
40.70000,-5.36470,-15.20802
40.80000,-5.37300,-15.24829
40.90000,-5.38140,-15.27513
41.00000,-5.38970,-15.31540
41.10000,-5.39800,-15.34225
41.20000,-5.40640,-15.38252
41.30000,-5.41470,-15.39594
41.40000,-5.42300,-15.43621
41.50000,-5.43140,-15.46305
41.60000,-5.43970,-15.50332
41.70000,-5.44800,-15.53017
41.80000,-5.45640,-15.57043
41.90000,-5.46470,-15.59728
42.00000,-5.47300,-15.62413
42.10000,-5.48140,-15.65097
42.20000,-5.48970,-15.66439
42.30000,-5.49800,-15.71809
42.40000,-5.50640,-15.74493
42.50000,-5.51470,-15.78520
42.60000,-5.52300,-15.81205
42.70000,-5.53140,-15.83889
42.80000,-5.53970,-15.87916
42.90000,-5.54800,-15.89258
43.00000,-5.55640,-15.91943
43.10000,-5.56470,-15.95970
43.20000,-5.57300,-15.98654
43.30000,-5.58140,-16.01339
43.40000,-5.58970,-16.05366
43.50000,-5.59800,-16.09392
43.60000,-5.60640,-16.12077
43.70000,-5.61470,-16.16104
43.80000,-5.62300,-16.18788
43.90000,-5.63140,-16.20131
44.00000,-5.63970,-16.22815
44.10000,-5.64800,-16.25500
44.20000,-5.65640,-16.29527
44.30000,-5.66470,-16.33553
44.40000,-5.67300,-16.36238
44.50000,-5.68140,-16.38922
44.60000,-5.68970,-16.41607
44.70000,-5.69800,-16.45634
44.80000,-5.70640,-16.48318
44.90000,-5.71470,-16.51003
45.00000,-5.72300,-16.53688
45.10000,-5.73130,-16.57714
45.20000,-5.73970,-16.60399
45.30000,-5.74800,-16.63083
45.40000,-5.75630,-16.65768
45.50000,-5.76470,-16.69795
45.60000,-5.77300,-16.73822
45.70000,-5.78130,-16.76506
45.80000,-5.78970,-16.79191
45.90000,-5.79800,-16.81875
46.00000,-5.80630,-16.84560
46.10000,-5.81470,-16.87245
46.20000,-5.82300,-16.91271
46.30000,-5.83130,-16.93956
46.40000,-5.83970,-16.97983
46.50000,-5.84800,-17.00667
46.60000,-5.85630,-17.03352
46.70000,-5.86470,-17.06036
46.80000,-5.87300,-17.08721
46.90000,-5.88130,-17.11406
47.00000,-5.88970,-17.15432
47.10000,-5.89800,-17.18117
47.20000,-5.90630,-17.22144
47.30000,-5.91470,-17.24828
47.40000,-5.92300,-17.27513
47.50000,-5.93130,-17.30197
47.60000,-5.93970,-17.32882
47.70000,-5.94800,-17.35567
47.80000,-5.95630,-17.39593
47.90000,-5.96470,-17.42278
48.00000,-5.97300,-17.44962
48.10000,-5.98130,-17.47647
48.20000,-5.98970,-17.50332
48.30000,-5.99800,-17.54358
48.40000,-6.00630,-17.55701
48.50000,-6.01470,-17.59728
48.60000,-6.02300,-17.63754
48.70000,-6.03130,-17.66439
48.80000,-6.03970,-17.69123
48.90000,-6.04800,-17.73150
49.00000,-6.05630,-17.75835
49.10000,-6.06470,-17.78519
49.20000,-6.07300,-17.79862
49.30000,-6.08130,-17.82546
49.40000,-6.08970,-17.86573
49.50000,-6.09800,-17.89258
49.60000,-6.10630,-17.91942
49.70000,-6.11470,-17.94627
49.80000,-6.12300,-17.98654
49.90000,-6.13130,-18.02680
50.00000,-6.13970,-18.02680
50.10000,-6.14800,-18.06707
50.20000,-6.15630,-18.09392
50.30000,-6.16470,-18.12076
50.40000,-6.17300,-18.17446
50.50000,-6.18130,-18.20130
50.60000,-6.18970,-18.21472
50.70000,-6.19800,-18.25499
50.80000,-6.20630,-18.28184
50.90000,-6.21470,-18.30868
51.00000,-6.22300,-18.33553
51.10000,-6.23130,-18.36237
51.20000,-6.23970,-18.38922
51.30000,-6.24800,-18.42949
51.40000,-6.25630,-18.44291
51.50000,-6.26460,-18.48318
51.60000,-6.27300,-18.51002
51.70000,-6.28130,-18.53687
51.80000,-6.28960,-18.56372
51.90000,-6.29800,-18.60398
52.00000,-6.30630,-18.61741
52.10000,-6.31460,-18.64425
52.20000,-6.32300,-18.68452
52.30000,-6.33130,-18.71137
52.40000,-6.33960,-18.72479
52.50000,-6.34800,-18.76506
52.60000,-6.35630,-18.80533
52.70000,-6.36460,-18.81875
52.80000,-6.37300,-18.85902
52.90000,-6.38130,-18.88586
53.00000,-6.38960,-18.91271
53.10000,-6.39800,-18.93955
53.20000,-6.40630,-18.96640
53.30000,-6.41460,-18.99324
53.40000,-6.42300,-19.02009
53.50000,-6.43130,-19.06036
53.60000,-6.43960,-19.07378
53.70000,-6.44800,-19.11405
53.80000,-6.45630,-19.14090
53.90000,-6.46460,-19.16774
54.00000,-6.47300,-19.19459
54.10000,-6.48130,-19.22143
54.20000,-6.48960,-19.24828
54.30000,-6.49800,-19.27512
54.40000,-6.50630,-19.31539
54.50000,-6.51460,-19.34224
54.60000,-6.52300,-19.36908
54.70000,-6.53130,-19.38251
54.80000,-6.53960,-19.40935
54.90000,-6.54800,-19.43620
55.00000,-6.55630,-19.47647
55.10000,-6.56460,-19.51673
55.20000,-6.57300,-19.53016
55.30000,-6.58130,-19.55700
55.40000,-6.58960,-19.58385
55.50000,-6.59800,-19.61069
55.60000,-6.60630,-19.63754
55.70000,-6.61460,-19.66438
55.80000,-6.62300,-19.69123
55.90000,-6.63130,-19.73150
56.00000,-6.63960,-19.74492
56.10000,-6.64800,-19.78519
56.20000,-6.65630,-19.79861
56.30000,-6.66460,-19.83888
56.40000,-6.67300,-19.86573
56.50000,-6.68130,-19.89257
56.60000,-6.68960,-19.91942
56.70000,-6.69800,-19.95969
56.80000,-6.70630,-19.97311
56.90000,-6.71460,-19.99995
57.00000,-6.72300,-20.02680
57.10000,-6.73130,-20.05364
57.20000,-6.73960,-20.08049
57.30000,-6.74800,-20.10734
57.40000,-6.75630,-20.13418
57.50000,-6.76460,-20.17445
57.60000,-6.77290,-20.20130
57.70000,-6.78130,-20.22814
57.80000,-6.78960,-20.25499
57.90000,-6.79790,-20.28183
58.00000,-6.80630,-20.30868
58.10000,-6.81460,-20.33552
58.20000,-6.82290,-20.36237
58.30000,-6.83130,-20.38921
58.40000,-6.83960,-20.41606
58.50000,-6.84790,-20.44291
58.60000,-6.85630,-20.46975
58.70000,-6.86460,-20.49660
58.80000,-6.87290,-20.52344
58.90000,-6.88130,-20.55029
59.00000,-6.88960,-20.57713
59.10000,-6.89790,-20.60398
59.20000,-6.90630,-20.64425
59.30000,-6.91460,-20.65767
59.40000,-6.92290,-20.68452
59.50000,-6.93130,-20.71136
59.60000,-6.93960,-20.73821
59.70000,-6.94790,-20.76505
59.80000,-6.95630,-20.79190
59.90000,-6.96460,-20.81874
60.00000,-6.97290,-20.84559
60.10000,-6.98130,-20.87243
60.20000,-6.98960,-20.89928
60.30000,-6.99790,-20.92613
60.40000,-7.00630,-20.95297
60.50000,-7.01460,-20.97982
60.60000,-7.02290,-21.02009
60.70000,-7.03130,-21.03351
60.80000,-7.03960,-21.07378
60.90000,-7.04790,-21.08720
61.00000,-7.05630,-21.11404
61.10000,-7.06460,-21.14089
61.20000,-7.07290,-21.15431
61.30000,-7.08130,-21.19458
61.40000,-7.08960,-21.22143
61.50000,-7.09790,-21.23485
61.60000,-7.10630,-21.27512
61.70000,-7.11460,-21.30196
61.80000,-7.12290,-21.32881
61.90000,-7.13130,-21.35566
62.00000,-7.13960,-21.38250
62.10000,-7.14790,-21.40935
62.20000,-7.15630,-21.43619
62.30000,-7.16460,-21.46304
62.40000,-7.17290,-21.48988
62.50000,-7.18130,-21.51673
62.60000,-7.18960,-21.54357
62.70000,-7.19790,-21.55700
62.80000,-7.20630,-21.58384
62.90000,-7.21460,-21.61069
63.00000,-7.22290,-21.63753
63.10000,-7.23130,-21.66438
63.20000,-7.23960,-21.69122
63.30000,-7.24790,-21.71807
63.40000,-7.25630,-21.75834
63.50000,-7.26460,-21.77176
63.60000,-7.27290,-21.79861
63.70000,-7.28130,-21.82545
63.80000,-7.28960,-21.85230
63.90000,-7.29790,-21.87914
64.00000,-7.30620,-21.90599
64.10001,-7.31460,-21.91941
64.20000,-7.32290,-21.94626
64.30000,-7.33120,-21.98653
64.40000,-7.33960,-21.99995
64.50000,-7.34790,-22.04022
64.60001,-7.35620,-22.06706
64.70000,-7.36460,-22.08049
64.80000,-7.37290,-22.10733
64.90000,-7.38120,-22.13418
65.00000,-7.38960,-22.16102
65.10001,-7.39790,-22.20129
65.20000,-7.40620,-22.21471
65.30000,-7.41460,-22.24156
65.40000,-7.42290,-22.26840
65.50000,-7.43120,-22.28183
65.60001,-7.43960,-22.32210
65.70001,-7.44790,-22.34894
65.80000,-7.45620,-22.36236
65.90000,-7.46460,-22.40263
66.00000,-7.47290,-22.42948
66.10001,-7.48120,-22.45632
66.20001,-7.48960,-22.46975
66.30000,-7.49790,-22.49659
66.40000,-7.50620,-22.52344
66.50000,-7.51460,-22.55028
66.60001,-7.52290,-22.57713
66.70001,-7.53120,-22.61740
66.80000,-7.53960,-22.63082
66.90000,-7.54790,-22.67109
67.00000,-7.55620,-22.68451
67.10001,-7.56460,-22.71136
67.20001,-7.57290,-22.73820
67.30000,-7.58120,-22.76505
67.40000,-7.58960,-22.77847
67.50000,-7.59790,-22.81874
67.60001,-7.60620,-22.83216
67.70001,-7.61460,-22.85901
67.80000,-7.62290,-22.89928
67.90000,-7.63120,-22.92612
68.00000,-7.63960,-22.95297
68.10001,-7.64790,-22.97981
68.20001,-7.65620,-22.99323
68.30000,-7.66460,-23.03350
68.40000,-7.67290,-23.04693
68.50000,-7.68120,-23.07377
68.60001,-7.68960,-23.11404
68.70001,-7.69790,-23.12746
68.80000,-7.70620,-23.15431
68.90000,-7.71460,-23.18115
69.00000,-7.72290,-23.19458
69.10001,-7.73120,-23.22142
69.20001,-7.73960,-23.24827
69.30000,-7.74790,-23.27511
69.40000,-7.75620,-23.31538
69.50000,-7.76460,-23.32880
69.60001,-7.77290,-23.35565
69.70001,-7.78120,-23.38250
69.80000,-7.78960,-23.40934
69.90000,-7.79790,-23.43619
70.00000,-7.80620,-23.46303
70.10001,-7.81450,-23.48988
70.20001,-7.82290,-23.50330
70.30000,-7.83120,-23.53015
70.40000,-7.83950,-23.55699
70.50000,-7.84790,-23.59726
70.60001,-7.85620,-23.61068
70.70001,-7.86450,-23.65095
70.80000,-7.87290,-23.66437
70.90000,-7.88120,-23.69122
71.00000,-7.88950,-23.71807
71.10001,-7.89790,-23.73149
71.20001,-7.90620,-23.75833
71.30000,-7.91450,-23.78518
71.40000,-7.92290,-23.81202
71.50000,-7.93120,-23.83887
71.60001,-7.93950,-23.86572
71.70001,-7.94790,-23.87914
71.80000,-7.95620,-23.91941
71.90000,-7.96450,-23.93283
72.00000,-7.97290,-23.95968
72.10001,-7.98120,-23.98652
72.20001,-7.98950,-23.99994
72.30000,-7.99790,-24.02679
72.40000,-8.00620,-24.05363
72.50000,-8.01450,-24.08048
72.60001,-8.02290,-24.10733
72.70001,-8.03120,-24.12075
72.80000,-8.03950,-24.14759
72.90000,-8.04790,-24.17444
73.00000,-8.05620,-24.20129
73.10001,-8.06450,-24.21471
73.20001,-8.07290,-24.26840
73.30000,-8.08120,-24.26840
73.40000,-8.08950,-24.30867
73.50000,-8.09790,-24.32209
73.60001,-8.10620,-24.33551
73.70001,-8.11450,-24.37578
73.80000,-8.12290,-24.38920
73.90000,-8.13120,-24.41605
74.00000,-8.13950,-24.44290
74.10001,-8.14790,-24.46974
74.20001,-8.15620,-24.49659
74.30000,-8.16450,-24.51001
74.40000,-8.17290,-24.52343
74.50000,-8.18120,-24.55028
74.60001,-8.18950,-24.57712
74.70001,-8.19790,-24.60397
74.80000,-8.20620,-24.63081
74.90000,-8.21450,-24.64424
75.00000,-8.22290,-24.67108
75.10001,-8.23120,-24.69793
75.20001,-8.23950,-24.71135
75.30000,-8.24790,-24.75162
75.40000,-8.25620,-24.76504
75.50000,-8.26450,-24.79189
75.60001,-8.27290,-24.81873
75.70001,-8.28120,-24.84558
75.80000,-8.28950,-24.85900
75.90000,-8.29790,-24.89927
76.00000,-8.30620,-24.91269
76.10001,-8.31450,-24.93954
76.20001,-8.32290,-24.96638
76.30000,-8.33120,-24.97981
76.40000,-8.33950,-25.00665
76.50000,-8.34780,-25.02008
76.60001,-8.35620,-25.06034
76.70001,-8.36450,-25.07377
76.80000,-8.37280,-25.10061
76.90000,-8.38120,-25.12746
77.00000,-8.38950,-25.14088
77.10001,-8.39780,-25.16773
77.20001,-8.40620,-25.19457
77.30000,-8.41450,-25.22142
77.40000,-8.42280,-25.24826
77.50000,-8.43120,-25.26169
77.60001,-8.43950,-25.27511
77.70001,-8.44780,-25.30195
77.80000,-8.45620,-25.34222
77.90000,-8.46450,-25.35564
78.00000,-8.47280,-25.38249
78.10001,-8.48120,-25.40934
78.20001,-8.48950,-25.40934
78.30000,-8.49780,-25.44960
78.40000,-8.50620,-25.46303
78.50000,-8.51450,-25.47645
78.60001,-8.52280,-25.51672
78.70001,-8.53120,-25.54356
78.80000,-8.53950,-25.57041
78.90000,-8.54780,-25.59725
79.00000,-8.55620,-25.59725
79.10001,-8.56450,-25.62410
79.20001,-8.57280,-25.65095
79.30000,-8.58120,-25.66437
79.40000,-8.58950,-25.70464
79.50000,-8.59780,-25.73148
79.60001,-8.60620,-25.75833
79.70001,-8.61450,-25.77175
79.80000,-8.62280,-25.78517
79.90000,-8.63120,-25.81202
80.00000,-8.63950,-25.83887
80.10001,-8.64780,-25.86571
80.20001,-8.65620,-25.89256
80.30000,-8.66450,-25.89256
80.40000,-8.67280,-25.91940
80.50001,-8.68120,-25.95967
80.60001,-8.68950,-25.95967
80.70001,-8.69780,-25.98652
80.80000,-8.70620,-26.01336
80.90000,-8.71450,-26.04021
81.00001,-8.72280,-26.05363
81.10001,-8.73120,-26.08048
81.20001,-8.73950,-26.09390
81.30000,-8.74780,-26.12074
81.40000,-8.75620,-26.13417
81.50001,-8.76450,-26.16101
81.60001,-8.77280,-26.17443
81.70001,-8.78120,-26.18786
81.80000,-8.78950,-26.22813
81.90000,-8.79780,-26.24155
82.00001,-8.80620,-26.26839
82.10001,-8.81450,-26.29524
82.20001,-8.82280,-26.30866
82.30000,-8.83120,-26.32209
82.40000,-8.83950,-26.34893
82.50001,-8.84780,-26.37578
82.60001,-8.85610,-26.38920
82.70001,-8.86450,-26.41604
82.80000,-8.87280,-26.42947
82.90000,-8.88110,-26.46974
83.00001,-8.88950,-26.46974
83.10001,-8.89780,-26.49658
83.20001,-8.90610,-26.52343
83.30000,-8.91450,-26.52343
83.40000,-8.92280,-26.56370
83.50001,-8.93110,-26.57712
83.60001,-8.93950,-26.59054
83.70001,-8.94780,-26.61739
83.80000,-8.95610,-26.64423
83.90000,-8.96450,-26.65765
84.00001,-8.97280,-26.68450
84.10001,-8.98110,-26.71135
84.20001,-8.98950,-26.73819
84.30000,-8.99780,-26.75161
84.40000,-9.00610,-26.76504
84.50001,-9.01450,-26.77846
84.60001,-9.02280,-26.80531
84.70001,-9.03110,-26.83215
84.80000,-9.03950,-26.85900
84.90000,-9.04780,-26.87242
85.00001,-9.05610,-26.89926
85.10001,-9.06450,-26.91269
85.20001,-9.07280,-26.92611
85.30000,-9.08110,-26.93953
85.40000,-9.08950,-26.96638
85.50001,-9.09780,-26.97980
85.60001,-9.10610,-27.00665
85.70001,-9.11450,-27.02007
85.80000,-9.12280,-27.04692
85.90000,-9.13110,-27.07376
86.00001,-9.13950,-27.08718
86.10001,-9.14780,-27.11403
86.20001,-9.15610,-27.12745
86.30000,-9.16450,-27.14088
86.40000,-9.17280,-27.18114
86.50001,-9.18110,-27.19457
86.60001,-9.18950,-27.22141
86.70001,-9.19780,-27.23483
86.80000,-9.20610,-27.26168
86.90000,-9.21450,-27.28853
87.00001,-9.22280,-27.30195
87.10001,-9.23110,-27.31537
87.20001,-9.23950,-27.34222
87.30000,-9.24780,-27.35564
87.40000,-9.25610,-27.36906
87.50001,-9.26450,-27.40933
87.60001,-9.27280,-27.40933
87.70001,-9.28110,-27.43618
87.80000,-9.28950,-27.46302
87.90000,-9.29780,-27.46302
88.00001,-9.30610,-27.50329
88.10001,-9.31450,-27.53014
88.20001,-9.32280,-27.54356
88.30000,-9.33110,-27.55698
88.40000,-9.33950,-27.57040
88.50001,-9.34780,-27.59725
88.60001,-9.35610,-27.61067
88.70001,-9.36450,-27.63752
88.80000,-9.37280,-27.65094
88.90000,-9.38110,-27.67779
89.00001,-9.38940,-27.69121
89.10001,-9.39780,-27.71805
89.20001,-9.40610,-27.71805
89.30000,-9.41440,-27.74490
89.40000,-9.42280,-27.77175
89.50001,-9.43110,-27.78517
89.60001,-9.43940,-27.81201
89.70001,-9.44780,-27.82544
89.80000,-9.45610,-27.83886
89.90000,-9.46440,-27.86571
90.00001,-9.47280,-27.87913
90.10001,-9.48110,-27.89255
90.20001,-9.48940,-27.91940
90.30000,-9.49780,-27.93282
90.40000,-9.50610,-27.95966
90.50001,-9.51440,-27.95966
90.60001,-9.52280,-27.98651
90.70001,-9.53110,-27.99993
90.80000,-9.53940,-28.02678
90.90000,-9.54780,-28.04020
91.00001,-9.55610,-28.06705
91.10001,-9.56440,-28.08047
91.20001,-9.57280,-28.09389
91.30000,-9.58110,-28.12074
91.40000,-9.58940,-28.13416
91.50001,-9.59780,-28.14758
91.60001,-9.60610,-28.17443
91.70001,-9.61440,-28.17443
91.80000,-9.62280,-28.20128
91.90000,-9.63110,-28.21470
92.00001,-9.63940,-28.24154
92.10001,-9.64780,-28.26839
92.20001,-9.65610,-28.28181
92.30000,-9.66440,-28.29523
92.40000,-9.67280,-28.32208
92.50001,-9.68110,-28.32208
92.60001,-9.68940,-28.34893
92.70001,-9.69780,-28.36235
92.80000,-9.70610,-28.38919
92.90000,-9.71440,-28.41604
93.00001,-9.72280,-28.41604
93.10001,-9.73110,-28.44289
93.20001,-9.73940,-28.45631
93.30000,-9.74780,-28.46973
93.40000,-9.75610,-28.48315
93.50001,-9.76440,-28.51000
93.60001,-9.77280,-28.53684
93.70001,-9.78110,-28.55027
93.80000,-9.78940,-28.57711
93.90000,-9.79780,-28.57711
94.00001,-9.80610,-28.60396
94.10001,-9.81440,-28.61738
94.20001,-9.82280,-28.64423
94.30000,-9.83110,-28.65765
94.40000,-9.83940,-28.65765
94.50001,-9.84780,-28.68450
94.60001,-9.85610,-28.71134
94.70001,-9.86440,-28.71134
94.80000,-9.87280,-28.75161
94.90000,-9.88110,-28.76503
95.00001,-9.88940,-28.79188
95.10001,-9.89770,-28.80530
95.20001,-9.90610,-28.80530
95.30000,-9.91440,-28.83215
95.40000,-9.92270,-28.85899
95.50001,-9.93110,-28.85899
95.60001,-9.93940,-28.88584
95.70001,-9.94770,-28.89926
95.80000,-9.95610,-28.92611
95.90000,-9.96440,-28.93953
96.00001,-9.97270,-28.95295
96.10001,-9.98110,-28.97980
96.20001,-9.98940,-28.99322
96.30000,-9.99770,-29.00664
96.40000,-10.00610,-29.02006
96.50001,-10.01440,-29.03349
