Time,Extension,Load
(sec),(mm),(N)
0.00000,-2.07230,-1.11410
0.10000,-2.08170,-1.16779
0.20000,-2.09000,-1.18121
0.30000,-2.09830,-1.20806
0.40000,-2.10670,-1.24832
0.50000,-2.11500,-1.27517
0.60000,-2.12330,-1.30202
0.70000,-2.13160,-1.32886
0.80000,-2.14000,-1.35571
0.90000,-2.14830,-1.39597
1.00000,-2.15660,-1.42282
1.10000,-2.16500,-1.46309
1.20000,-2.17330,-1.47651
1.30000,-2.18160,-1.51678
1.40000,-2.19000,-1.54363
1.50000,-2.19830,-1.58389
1.60000,-2.20660,-1.61074
1.70000,-2.21500,-1.63758
1.80000,-2.22330,-1.66443
1.90000,-2.23160,-1.70470
2.00000,-2.24000,-1.73154
2.10000,-2.24830,-1.75839
2.20000,-2.25660,-1.78524
2.30000,-2.26500,-1.82550
2.40000,-2.27330,-1.85235
2.50000,-2.28160,-1.87919
2.60000,-2.29000,-1.91946
2.70000,-2.29830,-1.94631
2.80000,-2.30660,-1.98658
2.90000,-2.31500,-2.00000
3.00000,-2.32330,-2.02685
3.10000,-2.33160,-2.06711
3.20000,-2.34000,-2.09396
3.30000,-2.34830,-2.12080
3.40000,-2.35660,-2.16107
3.50000,-2.36500,-2.18792
3.60000,-2.37330,-2.21476
3.70000,-2.38160,-2.24161
3.80000,-2.39000,-2.28188
3.90000,-2.39830,-2.30872
4.00000,-2.40660,-2.34899
4.10000,-2.41500,-2.36242
4.20000,-2.42330,-2.38926
4.30000,-2.43160,-2.41611
4.40000,-2.44000,-2.45637
4.50000,-2.44830,-2.49664
4.60000,-2.45660,-2.52349
4.70000,-2.46500,-2.55033
4.80000,-2.47330,-2.57718
4.90000,-2.48160,-2.60403
5.00000,-2.49000,-2.64429
5.10000,-2.49830,-2.67114
5.20000,-2.50660,-2.69798
5.30000,-2.51500,-2.72483
5.40000,-2.52330,-2.76510
5.50000,-2.53160,-2.80537
5.60000,-2.54000,-2.83221
5.70000,-2.54830,-2.87248
5.80000,-2.55660,-2.88590
5.90000,-2.56500,-2.91275
6.00000,-2.57330,-2.93959
6.10000,-2.58160,-2.97986
6.20000,-2.59000,-3.00671
6.30000,-2.59830,-3.04698
6.40000,-2.60660,-3.07382
6.50000,-2.61500,-3.10067
6.60000,-2.62330,-3.14094
6.70000,-2.63160,-3.16778
6.80000,-2.64000,-3.20805
6.90000,-2.64830,-3.23490
7.00000,-2.65660,-3.24832
7.10000,-2.66490,-3.28859
7.20000,-2.67330,-3.31543
7.30000,-2.68160,-3.34228
7.40000,-2.68990,-3.38255
7.50000,-2.69830,-3.40939
7.60000,-2.70660,-3.43624
7.70000,-2.71490,-3.46308
7.80000,-2.72330,-3.50335
7.90000,-2.73160,-3.53020
8.00000,-2.73990,-3.55704
8.10000,-2.74830,-3.59731
8.20000,-2.75660,-3.62416
8.30000,-2.76490,-3.65100
8.40000,-2.77330,-3.69127
8.50000,-2.78160,-3.71812
8.60000,-2.78990,-3.74496
8.70000,-2.79830,-3.78523
8.80000,-2.80660,-3.79865
8.90000,-2.81490,-3.83892
9.00000,-2.82330,-3.86577
9.10000,-2.83160,-3.90604
9.20000,-2.83990,-3.94630
9.30000,-2.84830,-3.97315
9.40000,-2.85660,-3.98657
9.50000,-2.86490,-4.02684
9.60000,-2.87330,-4.05369
9.70000,-2.88160,-4.08053
9.80000,-2.88990,-4.12080
9.90000,-2.89830,-4.16107
10.00000,-2.90660,-4.17449
10.10000,-2.91490,-4.20134
10.20000,-2.92330,-4.24160
10.30000,-2.93160,-4.26845
10.40000,-2.93990,-4.29530
10.50000,-2.94830,-4.33556
10.60000,-2.95660,-4.37583
10.70000,-2.96490,-4.38926
10.80000,-2.97330,-4.42952
10.90000,-2.98160,-4.45637
11.00000,-2.98990,-4.46979
11.10000,-2.99830,-4.51006
11.20000,-3.00660,-4.55033
11.30000,-3.01490,-4.57717
11.40000,-3.02330,-4.60402
11.50000,-3.03160,-4.64429
11.60000,-3.03990,-4.67113
11.70000,-3.04830,-4.71140
11.80000,-3.05660,-4.73825
11.90000,-3.06490,-4.77852
12.00000,-3.07330,-4.80536
12.10000,-3.08160,-4.81878
12.20000,-3.08990,-4.85905
12.30000,-3.09830,-4.88590
12.40000,-3.10660,-4.91274
12.50000,-3.11490,-4.95301
12.60000,-3.12330,-4.97986
12.70000,-3.13160,-5.02013
12.80000,-3.13990,-5.03355
12.90000,-3.14830,-5.08724
13.00000,-3.15660,-5.10066
13.10000,-3.16490,-5.12751
13.20000,-3.17320,-5.16778
13.30000,-3.18160,-5.19462
13.40000,-3.18990,-5.22147
13.50000,-3.19820,-5.26174
13.60000,-3.20660,-5.28858
13.70000,-3.21490,-5.31543
13.80000,-3.22320,-5.35570
13.90000,-3.23160,-5.38254
14.00000,-3.23990,-5.40939
14.10000,-3.24820,-5.43623
14.20000,-3.25660,-5.46308
14.30000,-3.26490,-5.50335
14.40000,-3.27320,-5.53019
14.50000,-3.28160,-5.55704
14.60000,-3.28990,-5.59731
14.70000,-3.29820,-5.63757
14.80000,-3.30660,-5.65100
14.90000,-3.31490,-5.69127
15.00000,-3.32320,-5.71811
15.10000,-3.33160,-5.73153
15.20000,-3.33990,-5.77180
15.30000,-3.34820,-5.79865
15.40000,-3.35660,-5.83892
15.50000,-3.36490,-5.87918
15.60000,-3.37320,-5.90603
15.70000,-3.38160,-5.91945
15.80000,-3.38990,-5.95972
15.90000,-3.39820,-5.98657
16.00000,-3.40660,-6.02684
16.10000,-3.41490,-6.05368
16.20000,-3.42320,-6.08053
16.30000,-3.43160,-6.10737
16.40000,-3.43990,-6.13422
16.50000,-3.44820,-6.17449
16.60000,-3.45660,-6.20133
16.70000,-3.46490,-6.24160
16.80000,-3.47320,-6.25502
16.90000,-3.48160,-6.29529
17.00000,-3.48990,-6.30871
17.10000,-3.49820,-6.36240
17.20000,-3.50660,-6.38925
17.30000,-3.51490,-6.42952
17.40000,-3.52320,-6.44294
17.50000,-3.53160,-6.48321
17.60000,-3.53990,-6.51006
17.70000,-3.54820,-6.53690
17.80000,-3.55660,-6.57717
17.90000,-3.56490,-6.60401
18.00000,-3.57320,-6.63086
18.10000,-3.58160,-6.65771
18.20000,-3.58990,-6.69797
18.30000,-3.59820,-6.72482
18.40000,-3.60660,-6.75167
18.50000,-3.61490,-6.77851
18.60000,-3.62320,-6.80536
18.70000,-3.63160,-6.84563
18.80000,-3.63990,-6.88589
18.90000,-3.64820,-6.91274
19.00000,-3.65660,-6.93958
19.10000,-3.66490,-6.96643
19.20000,-3.67320,-6.99328
19.30000,-3.68160,-7.03354
19.40000,-3.68990,-7.06039
19.50000,-3.69820,-7.08724
19.60000,-3.70650,-7.12750
19.70000,-3.71490,-7.15435
19.80000,-3.72320,-7.18119
19.90000,-3.73150,-7.22146
20.00000,-3.73990,-7.24831
20.10000,-3.74820,-7.27515
20.20000,-3.75650,-7.30200
20.30000,-3.76490,-7.32885
20.40000,-3.77320,-7.35569
20.50000,-3.78150,-7.38254
20.60000,-3.78990,-7.43623
20.70000,-3.79820,-7.46307
20.80000,-3.80650,-7.50334
20.90000,-3.81490,-7.53019
21.00000,-3.82320,-7.55703
21.10000,-3.83150,-7.57046
21.20000,-3.83990,-7.61072
21.30000,-3.84820,-7.63757
21.40000,-3.85650,-7.67784
21.50000,-3.86490,-7.70468
21.60000,-3.87320,-7.74495
21.70000,-3.88150,-7.77180
21.80000,-3.88990,-7.79864
21.90000,-3.89820,-7.83891
22.00000,-3.90650,-7.85233
22.10000,-3.91490,-7.89260
22.20000,-3.92320,-7.91945
22.30000,-3.93150,-7.95972
22.40000,-3.93990,-7.98656
22.50000,-3.94820,-8.02683
22.60000,-3.95650,-8.05368
22.70000,-3.96490,-8.08052
22.80000,-3.97320,-8.12079
22.90000,-3.98150,-8.14764
23.00000,-3.98990,-8.17448
23.10000,-3.99820,-8.21475
23.20000,-4.00650,-8.22817
23.30000,-4.01490,-8.26844
23.40000,-4.02320,-8.29529
23.50000,-4.03150,-8.33555
23.60000,-4.03990,-8.36240
23.70000,-4.04820,-8.40267
23.80000,-4.05650,-8.42951
23.90000,-4.06490,-8.45636
24.00000,-4.07320,-8.48320
24.10000,-4.08150,-8.52347
24.20000,-4.08990,-8.55032
24.30000,-4.09820,-8.57716
24.40000,-4.10650,-8.61743
24.50000,-4.11490,-8.64428
24.60000,-4.12320,-8.68455
24.70000,-4.13150,-8.69797
24.80000,-4.13990,-8.73824
24.90000,-4.14820,-8.77851
25.00000,-4.15650,-8.80535
25.10000,-4.16490,-8.83220
25.20000,-4.17320,-8.87247
25.30000,-4.18150,-8.89931
25.40000,-4.18990,-8.93958
25.50000,-4.19820,-8.96642
25.60000,-4.20650,-8.99327
25.70000,-4.21480,-9.03354
25.80000,-4.22320,-9.04696
25.90000,-4.23150,-9.08723
26.00000,-4.23980,-9.12750
26.10000,-4.24820,-9.14092
26.20000,-4.25650,-9.18119
26.30000,-4.26480,-9.20804
26.40000,-4.27320,-9.24830
26.50000,-4.28150,-9.27515
26.60000,-4.28980,-9.31542
26.70000,-4.29820,-9.34226
26.80000,-4.30650,-9.38253
26.90000,-4.31480,-9.40938
27.00000,-4.32320,-9.43622
27.10000,-4.33150,-9.47649
27.20000,-4.33980,-9.50334
27.30000,-4.34820,-9.51676
27.40000,-4.35650,-9.55703
27.50000,-4.36480,-9.58387
27.60000,-4.37320,-9.62414
27.70000,-4.38150,-9.65099
27.80000,-4.38980,-9.69126
27.90000,-4.39820,-9.71810
28.00000,-4.40650,-9.75837
28.10000,-4.41480,-9.78521
28.20000,-4.42320,-9.81206
28.30000,-4.43150,-9.83891
28.40000,-4.43980,-9.87917
28.50000,-4.44820,-9.89260
28.60000,-4.45650,-9.93287
28.70000,-4.46480,-9.97313
28.80000,-4.47320,-9.99998
28.90000,-4.48150,-10.04025
29.00000,-4.48980,-10.06709
29.10000,-4.49820,-10.09394
29.20000,-4.50650,-10.12078
29.30000,-4.51480,-10.16105
29.40000,-4.52320,-10.18790
29.50000,-4.53150,-10.21474
29.60000,-4.53980,-10.25501
29.70000,-4.54820,-10.29528
29.80000,-4.55640,-10.30870
29.90000,-4.56480,-10.34897
30.00000,-4.57310,-10.37582
30.10000,-4.58140,-10.41609
30.20000,-4.58980,-10.44293
30.30000,-4.59810,-10.45635
30.40000,-4.60640,-10.49662
30.50000,-4.61480,-10.52347
30.60000,-4.62310,-10.56374
30.70000,-4.63140,-10.60400
30.80000,-4.63980,-10.63085
30.90000,-4.64810,-10.65770
31.00000,-4.65640,-10.68454
31.10000,-4.66480,-10.71139
31.20000,-4.67310,-10.75166
31.30000,-4.68140,-10.77850
31.40000,-4.68970,-10.80535
31.50000,-4.69810,-10.83219
31.60000,-4.70640,-10.88588
31.70000,-4.71470,-10.91273
31.80000,-4.72310,-10.93957
31.90000,-4.73140,-10.96642
32.00000,-4.73970,-10.99327
32.10000,-4.74810,-11.03353
32.20000,-4.75640,-11.06038
32.30000,-4.76470,-11.08722
32.40000,-4.77310,-11.12749
32.50000,-4.78140,-11.15434
32.60000,-4.78970,-11.18118
32.70000,-4.79810,-11.22145
32.80000,-4.80640,-11.24830
32.90000,-4.81470,-11.27514
33.00000,-4.82310,-11.31541
33.10000,-4.83140,-11.34226
33.20000,-4.83970,-11.36910
33.30000,-4.84810,-11.39595
33.40000,-4.85640,-11.42279
33.50000,-4.86470,-11.46306
33.60000,-4.87310,-11.50333
33.70000,-4.88140,-11.53018
33.80000,-4.88970,-11.55702
33.90000,-4.89810,-11.58387
34.00000,-4.90640,-11.61071
34.10000,-4.91470,-11.65098
34.20000,-4.92310,-11.69125
34.30000,-4.93140,-11.71810
34.40000,-4.93970,-11.74494
34.50000,-4.94810,-11.75836
34.60000,-4.95640,-11.79863
34.70000,-4.96470,-11.82548
34.80000,-4.97310,-11.86575
34.90000,-4.98140,-11.90601
35.00000,-4.98970,-11.93286
35.10000,-4.99810,-11.95971
35.20000,-5.00640,-11.98655
35.30000,-5.01470,-12.02682
35.40000,-5.02310,-12.05367
35.50000,-5.03140,-12.09393
35.60000,-5.03970,-12.10736
35.70000,-5.04810,-12.14762
35.80000,-5.05640,-12.17447
35.90000,-5.06470,-12.20132
36.00000,-5.07310,-12.24158
36.10000,-5.08140,-12.26843
36.20000,-5.08970,-12.29528
36.30000,-5.09810,-12.33554
36.40000,-5.10640,-12.34897
36.50000,-5.11470,-12.38924
36.60000,-5.12310,-12.41608
36.70000,-5.13140,-12.44293
36.80000,-5.13970,-12.48319
36.90000,-5.14810,-12.51004
37.00000,-5.15640,-12.55031
37.10000,-5.16470,-12.57715
37.20000,-5.17310,-12.60400
37.30000,-5.18140,-12.63085
37.40000,-5.18970,-12.65769
37.50000,-5.19810,-12.68454
37.60000,-5.20640,-12.72480
37.70000,-5.21470,-12.76507
37.80000,-5.22300,-12.79192
37.90000,-5.23140,-12.81876
38.00000,-5.23970,-12.84561
38.10000,-5.24800,-12.87246
38.20000,-5.25640,-12.91272
38.30000,-5.26470,-12.93957
38.40000,-5.27300,-12.97984
38.50000,-5.28140,-12.99326
38.60000,-5.28970,-13.02011
38.70000,-5.29800,-13.06037
38.80000,-5.30640,-13.08722
38.90000,-5.31470,-13.11407
39.00000,-5.32300,-13.15433
39.10000,-5.33140,-13.18118
39.20000,-5.33970,-13.20802
39.30000,-5.34800,-13.22145
39.40000,-5.35640,-13.26172
39.50000,-5.36470,-13.28856
39.60000,-5.37300,-13.32883
39.70000,-5.38140,-13.35568
39.80000,-5.38970,-13.38252
39.90000,-5.39800,-13.42279
40.00000,-5.40640,-13.44963
40.10000,-5.41470,-13.47648
40.20000,-5.42300,-13.50333
40.30000,-5.43140,-13.53017
40.40000,-5.43970,-13.55702
40.50000,-5.44800,-13.59729
40.60000,-5.45640,-13.62413
40.70000,-5.46470,-13.66440
40.80000,-5.47300,-13.67782
40.90000,-5.48140,-13.71809
41.00000,-5.48970,-13.74494
41.10000,-5.49800,-13.77178
41.20000,-5.50640,-13.81205
41.30000,-5.51470,-13.82547
41.40000,-5.52300,-13.86574
41.50000,-5.53140,-13.87916
41.60000,-5.53970,-13.91943
41.70000,-5.54800,-13.95970
41.80000,-5.55640,-13.98655
41.90000,-5.56470,-14.01339
42.00000,-5.57300,-14.02681
42.10000,-5.58140,-14.06708
42.20000,-5.58970,-14.09393
42.30000,-5.59800,-14.13420
42.40000,-5.60640,-14.16104
42.50000,-5.61470,-14.20131
42.60000,-5.62300,-14.21473
42.70000,-5.63140,-14.24158
42.80000,-5.63970,-14.26842
42.90000,-5.64800,-14.30869
43.00000,-5.65640,-14.33554
43.10000,-5.66470,-14.36238
43.20000,-5.67300,-14.40265
43.30000,-5.68140,-14.41608
43.40000,-5.68970,-14.45634
43.50000,-5.69800,-14.48319
43.60000,-5.70640,-14.51003
43.70000,-5.71470,-14.55030
43.80000,-5.72300,-14.56373
43.90000,-5.73130,-14.60399
44.00000,-5.73970,-14.63084
44.10000,-5.74800,-14.65769
44.20000,-5.75630,-14.68453
44.30000,-5.76470,-14.72480
44.40000,-5.77300,-14.73822
44.50000,-5.78130,-14.76507
44.60000,-5.78970,-14.80534
44.70000,-5.79800,-14.83218
44.80000,-5.80630,-14.87245
44.90000,-5.81470,-14.89930
45.00000,-5.82300,-14.91272
45.10000,-5.83130,-14.95299
45.20000,-5.83970,-14.97983
45.30000,-5.84800,-15.00668
45.40000,-5.85630,-15.03352
45.50000,-5.86470,-15.06037
45.60000,-5.87300,-15.08721
45.70000,-5.88130,-15.11406
45.80000,-5.88970,-15.15433
45.90000,-5.89800,-15.18117
46.00000,-5.90630,-15.22144
46.10000,-5.91470,-15.23487
46.20000,-5.92300,-15.26171
46.30000,-5.93130,-15.28856
46.40000,-5.93970,-15.32882
46.50000,-5.94800,-15.35567
46.60000,-5.95630,-15.38252
46.70000,-5.96470,-15.40936
46.80000,-5.97300,-15.43621
46.90000,-5.98130,-15.46305
47.00000,-5.98970,-15.50332
47.10000,-5.99800,-15.53017
47.20000,-6.00630,-15.55701
47.30000,-6.01470,-15.58386
47.40000,-6.02300,-15.59728
47.50000,-6.03130,-15.63755
47.60000,-6.03970,-15.66439
47.70000,-6.04800,-15.70466
47.80000,-6.05630,-15.73151
47.90000,-6.06470,-15.75835
48.00000,-6.07300,-15.78520
48.10000,-6.08130,-15.79862
48.20000,-6.08970,-15.83889
48.30000,-6.09800,-15.86574
48.40000,-6.10630,-15.89258
48.50000,-6.11470,-15.93285
48.60000,-6.12300,-15.94627
48.70000,-6.13130,-15.97312
48.80000,-6.13970,-16.01339
48.90000,-6.14800,-16.04023
49.00000,-6.15630,-16.06708
49.10000,-6.16470,-16.09392
49.20000,-6.17300,-16.12077
49.30000,-6.18130,-16.14761
49.40000,-6.18970,-16.17446
49.50000,-6.19800,-16.21473
49.60000,-6.20630,-16.22815
49.70000,-6.21470,-16.26842
49.80000,-6.22300,-16.29527
49.90000,-6.23130,-16.32211
50.00000,-6.23970,-16.34896
50.10000,-6.24800,-16.37580
50.20000,-6.25630,-16.40265
50.30000,-6.26460,-16.42949
50.40000,-6.27300,-16.45634
50.50000,-6.28130,-16.48318
50.60000,-6.28960,-16.52345
50.70000,-6.29800,-16.53688
50.80000,-6.30630,-16.56372
50.90000,-6.31460,-16.60399
51.00000,-6.32300,-16.63083
51.10000,-6.33130,-16.65768
51.20000,-6.33960,-16.68453
51.30000,-6.34800,-16.71137
51.40000,-6.35630,-16.72479
51.50000,-6.36460,-16.76506
51.60000,-6.37300,-16.77849
51.70000,-6.38130,-16.81875
51.80000,-6.38960,-16.85902
51.90000,-6.39800,-16.88587
52.00000,-6.40630,-16.91271
52.10000,-6.41460,-16.93956
52.20000,-6.42300,-16.95298
52.30000,-6.43130,-16.99325
52.40000,-6.43960,-17.02010
52.50000,-6.44800,-17.04694
52.60000,-6.45630,-17.06036
52.70000,-6.46460,-17.10063
52.80000,-6.47300,-17.12748
52.90000,-6.48130,-17.15432
53.00000,-6.48960,-17.18117
53.10000,-6.49800,-17.22144
53.20000,-6.50630,-17.24828
53.30000,-6.51460,-17.26171
53.40000,-6.52300,-17.28855
53.50000,-6.53130,-17.31540
53.60000,-6.53960,-17.34224
53.70000,-6.54800,-17.36909
53.80000,-6.55630,-17.40936
53.90000,-6.56460,-17.43620
54.00000,-6.57300,-17.44962
54.10000,-6.58130,-17.48989
54.20000,-6.58960,-17.51674
54.30000,-6.59800,-17.54358
54.40000,-6.60630,-17.57043
54.50000,-6.61460,-17.59728
54.60000,-6.62300,-17.62412
54.70000,-6.63130,-17.65097
54.80000,-6.63960,-17.67781
54.90000,-6.64800,-17.70466
55.00000,-6.65630,-17.74493
55.10000,-6.66460,-17.75835
55.20000,-6.67300,-17.79862
55.30000,-6.68130,-17.81204
55.40000,-6.68960,-17.83889
55.50000,-6.69800,-17.87915
55.60000,-6.70630,-17.89258
55.70000,-6.71460,-17.91942
55.80000,-6.72300,-17.95969
55.90000,-6.73130,-17.98654
56.00000,-6.73960,-18.01338
56.10000,-6.74800,-18.04023
56.20000,-6.75630,-18.05365
56.30000,-6.76460,-18.08050
56.40000,-6.77290,-18.10734
56.50000,-6.78130,-18.13419
56.60000,-6.78960,-18.16103
56.70000,-6.79790,-18.20130
56.80000,-6.80630,-18.21472
56.90000,-6.81460,-18.24157
57.00000,-6.82290,-18.26841
57.10000,-6.83130,-18.29526
57.20000,-6.83960,-18.32211
57.30000,-6.84790,-18.34895
57.40000,-6.85630,-18.37580
57.50000,-6.86460,-18.40264
57.60000,-6.87290,-18.42949
57.70000,-6.88130,-18.45633
57.80000,-6.88960,-18.48318
57.90000,-6.89790,-18.52345
58.00000,-6.90630,-18.53687
58.10000,-6.91460,-18.56372
58.20000,-6.92290,-18.59056
58.30000,-6.93130,-18.61741
58.40000,-6.93960,-18.64425
58.50000,-6.94790,-18.67110
58.60000,-6.95630,-18.69794
58.70000,-6.96460,-18.72479
58.80000,-6.97290,-18.75163
58.90000,-6.98130,-18.77848
59.00000,-6.98960,-18.80533
59.10000,-6.99790,-18.83217
59.20000,-7.00630,-18.85902
59.30000,-7.01460,-18.88586
59.40000,-7.02290,-18.91271
59.50000,-7.03130,-18.93955
59.60000,-7.03960,-18.96640
59.70000,-7.04790,-18.97982
59.80000,-7.05630,-19.00667
59.90000,-7.06460,-19.03351
60.00000,-7.07290,-19.06036
60.10000,-7.08130,-19.10063
60.20000,-7.08960,-19.12747
60.30000,-7.09790,-19.14090
60.40000,-7.10630,-19.16774
60.50000,-7.11460,-19.19459
60.60000,-7.12290,-19.22143
60.70000,-7.13130,-19.24828
60.80000,-7.13960,-19.27512
60.90000,-7.14790,-19.28855
61.00000,-7.15630,-19.31539
61.10000,-7.16460,-19.34224
61.20000,-7.17290,-19.36908
61.30000,-7.18130,-19.40935
61.40000,-7.18960,-19.43620
61.50000,-7.19790,-19.44962
61.60000,-7.20630,-19.47647
61.70000,-7.21460,-19.50331
61.80000,-7.22290,-19.51673
61.90000,-7.23130,-19.55700
62.00000,-7.23960,-19.58385
62.10000,-7.24790,-19.61069
62.20000,-7.25630,-19.63754
62.30000,-7.26460,-19.65096
62.40000,-7.27290,-19.67781
62.50000,-7.28130,-19.70465
62.60000,-7.28960,-19.73150
62.70000,-7.29790,-19.75834
62.80000,-7.30620,-19.78519
62.90000,-7.31460,-19.81203
63.00000,-7.32290,-19.83888
63.10000,-7.33120,-19.86573
63.20000,-7.33960,-19.87915
63.30000,-7.34790,-19.91942
63.40000,-7.35620,-19.93284
63.50000,-7.36460,-19.94626
63.60000,-7.37290,-19.97311
63.70000,-7.38120,-20.01338
63.80000,-7.38960,-20.02680
63.90000,-7.39790,-20.05364
64.00000,-7.40620,-20.08049
64.10001,-7.41460,-20.10734
64.20000,-7.42290,-20.13418
64.30000,-7.43120,-20.14760
64.40000,-7.43960,-20.17445
64.50000,-7.44790,-20.20130
64.60001,-7.45620,-20.22814
64.70000,-7.46460,-20.25499
64.80000,-7.47290,-20.28183
64.90000,-7.48120,-20.30868
65.00000,-7.48960,-20.33552
65.10001,-7.49790,-20.34895
65.20000,-7.50620,-20.37579
65.30000,-7.51460,-20.38921
65.40000,-7.52290,-20.41606
65.50000,-7.53120,-20.44291
65.60001,-7.53960,-20.46975
65.70001,-7.54790,-20.51002
65.80000,-7.55620,-20.52344
65.90000,-7.56460,-20.55029
66.00000,-7.57290,-20.57713
66.10001,-7.58120,-20.60398
66.20001,-7.58960,-20.63082
66.30000,-7.59790,-20.64425
66.40000,-7.60620,-20.67109
66.50000,-7.61460,-20.69794
66.60001,-7.62290,-20.72478
66.70001,-7.63120,-20.75163
66.80000,-7.63960,-20.76505
66.90000,-7.64790,-20.79190
67.00000,-7.65620,-20.80532
67.10001,-7.66460,-20.84559
67.20001,-7.67290,-20.87243
67.30000,-7.68120,-20.88586
67.40000,-7.68960,-20.91270
67.50000,-7.69790,-20.93955
67.60001,-7.70620,-20.95297
67.70001,-7.71460,-20.97982
67.80000,-7.72290,-21.00666
67.90000,-7.73120,-21.03351
68.00000,-7.73960,-21.06035
68.10001,-7.74790,-21.08720
68.20001,-7.75620,-21.10062
68.30000,-7.76460,-21.14089
68.40000,-7.77290,-21.15431
68.50000,-7.78120,-21.18116
68.60001,-7.78960,-21.20800
68.70001,-7.79790,-21.23485
68.80000,-7.80620,-21.24827
68.90000,-7.81450,-21.27512
69.00000,-7.82290,-21.28854
69.10001,-7.83120,-21.31539
69.20001,-7.83950,-21.34223
69.30000,-7.84790,-21.36908
69.40000,-7.85620,-21.39592
69.50000,-7.86450,-21.40935
69.60001,-7.87290,-21.43619
69.70001,-7.88120,-21.46304
69.80000,-7.88950,-21.48988
69.90000,-7.89790,-21.50331
70.00000,-7.90620,-21.53015
70.10001,-7.91450,-21.55700
70.20001,-7.92290,-21.58384
70.30000,-7.93120,-21.59727
70.40000,-7.93950,-21.62411
70.50000,-7.94790,-21.63753
70.60001,-7.95620,-21.67780
70.70001,-7.96450,-21.69122
70.80000,-7.97290,-21.71807
70.90000,-7.98120,-21.74492
71.00000,-7.98950,-21.75834
71.10001,-7.99790,-21.78518
71.20001,-8.00620,-21.81203
71.30000,-8.01450,-21.83888
71.40000,-8.02290,-21.85230
71.50000,-8.03120,-21.87914
71.60001,-8.03950,-21.89257
71.70001,-8.04790,-21.90599
71.80000,-8.05620,-21.93283
71.90000,-8.06450,-21.95968
72.00000,-8.07290,-21.99995
72.10001,-8.08120,-22.01337
72.20001,-8.08950,-22.04022
72.30000,-8.09790,-22.06706
72.40000,-8.10620,-22.08049
72.50000,-8.11450,-22.09391
72.60001,-8.12290,-22.12075
72.70001,-8.13120,-22.16102
72.80000,-8.13950,-22.17444
72.90000,-8.14790,-22.18787
73.00000,-8.15620,-22.21471
73.10001,-8.16450,-22.24156
73.20001,-8.17290,-22.26840
73.30000,-8.18120,-22.28183
73.40000,-8.18950,-22.30867
73.50000,-8.19790,-22.32210
73.60001,-8.20620,-22.34894
73.70001,-8.21450,-22.37579
73.80000,-8.22290,-22.38921
73.90000,-8.23120,-22.41605
74.00000,-8.23950,-22.44290
74.10001,-8.24790,-22.46975
74.20001,-8.25620,-22.48317
74.30000,-8.26450,-22.51001
74.40000,-8.27290,-22.53686
74.50000,-8.28120,-22.55028
74.60001,-8.28950,-22.56371
74.70001,-8.29790,-22.60397
74.80000,-8.30620,-22.61740
74.90000,-8.31450,-22.64424
75.00000,-8.32290,-22.67109
75.10001,-8.33120,-22.68451
75.20001,-8.33950,-22.69793
75.30000,-8.34780,-22.72478
75.40000,-8.35620,-22.75162
75.50000,-8.36450,-22.77847
75.60001,-8.37280,-22.80532
75.70001,-8.38120,-22.81874
75.80000,-8.38950,-22.84558
75.90000,-8.39780,-22.85901
76.00000,-8.40620,-22.88585
76.10001,-8.41450,-22.89928
76.20001,-8.42280,-22.92612
76.30000,-8.43120,-22.95297
76.40000,-8.43950,-22.96639
76.50000,-8.44780,-22.97981
76.60001,-8.45620,-23.02008
76.70001,-8.46450,-23.04693
76.80000,-8.47280,-23.06035
76.90000,-8.48120,-23.08719
77.00000,-8.48950,-23.08719
77.10001,-8.49780,-23.11404
77.20001,-8.50620,-23.14089
77.30000,-8.51450,-23.16773
77.40000,-8.52280,-23.19458
77.50000,-8.53120,-23.20800
77.60001,-8.53950,-23.22142
77.70001,-8.54780,-23.24827
77.80000,-8.55620,-23.26169
77.90000,-8.56450,-23.28854
78.00000,-8.57280,-23.31538
78.10001,-8.58120,-23.32880
78.20001,-8.58950,-23.36907
78.30000,-8.59780,-23.36907
78.40000,-8.60620,-23.39592
78.50000,-8.61450,-23.40934
78.60001,-8.62280,-23.43619
78.70001,-8.63120,-23.44961
78.80000,-8.63950,-23.47645
78.90000,-8.64780,-23.48988
79.00000,-8.65620,-23.51672
79.10001,-8.66450,-23.54357
79.20001,-8.67280,-23.55699
79.30000,-8.68120,-23.58384
79.40000,-8.68950,-23.59726
79.50000,-8.69780,-23.62411
79.60001,-8.70620,-23.63753
79.70001,-8.71450,-23.66437
79.80000,-8.72280,-23.69122
79.90000,-8.73120,-23.69122
80.00000,-8.73950,-23.71807
80.10001,-8.74780,-23.74491
80.20001,-8.75620,-23.77176
80.30000,-8.76450,-23.78518
80.40000,-8.77280,-23.81202
80.50001,-8.78120,-23.81202
80.60001,-8.78950,-23.83887
80.70001,-8.79780,-23.85229
80.80000,-8.80620,-23.87914
80.90000,-8.81450,-23.91941
81.00001,-8.82280,-23.93283
81.10001,-8.83120,-23.94625
81.20001,-8.83950,-23.95968
81.30000,-8.84780,-23.98652
81.40000,-8.85610,-24.01337
81.50001,-8.86450,-24.02679
81.60001,-8.87280,-24.05363
81.70001,-8.88110,-24.06706
81.80000,-8.88950,-24.08048
81.90000,-8.89780,-24.09390
82.00001,-8.90610,-24.13417
82.10001,-8.91450,-24.14759
82.20001,-8.92280,-24.17444
82.30000,-8.93110,-24.18786
82.40000,-8.93950,-24.20129
82.50001,-8.94780,-24.22813
82.60001,-8.95610,-24.24155
82.70001,-8.96450,-24.26840
82.80000,-8.97280,-24.29524
82.90000,-8.98110,-24.30867
83.00001,-8.98950,-24.32209
83.10001,-8.99780,-24.33551
83.20001,-9.00610,-24.36236
83.30000,-9.01450,-24.37578
83.40000,-9.02280,-24.40263
83.50001,-9.03110,-24.41605
83.60001,-9.03950,-24.44290
83.70001,-9.04780,-24.45632
83.80000,-9.05610,-24.46974
83.90000,-9.06450,-24.49659
84.00001,-9.07280,-24.51001
84.10001,-9.08110,-24.53685
84.20001,-9.08950,-24.55028
84.30000,-9.09780,-24.56370
84.40000,-9.10610,-24.59055
84.50001,-9.11450,-24.60397
84.60001,-9.12280,-24.61739
84.70001,-9.13110,-24.64424
84.80000,-9.13950,-24.65766
84.90000,-9.14780,-24.68451
85.00001,-9.15610,-24.71135
85.10001,-9.16450,-24.72477
85.20001,-9.17280,-24.73820
85.30000,-9.18110,-24.75162
85.40000,-9.18950,-24.77847
85.50001,-9.19780,-24.80531
85.60001,-9.20610,-24.81873
85.70001,-9.21450,-24.84558
85.80000,-9.22280,-24.85900
85.90000,-9.23110,-24.87242
86.00001,-9.23950,-24.89927
86.10001,-9.24780,-24.91269
86.20001,-9.25610,-24.93954
86.30000,-9.26450,-24.95296
86.40000,-9.27280,-24.97981
86.50001,-9.28110,-24.99323
86.60001,-9.28950,-25.00665
86.70001,-9.29780,-25.03350
86.80000,-9.30610,-25.04692
86.90000,-9.31450,-25.07377
87.00001,-9.32280,-25.08719
87.10001,-9.33110,-25.10061
87.20001,-9.33950,-25.11403
87.30000,-9.34780,-25.15430
87.40000,-9.35610,-25.16773
87.50001,-9.36450,-25.19457
87.60001,-9.37280,-25.19457
87.70001,-9.38110,-25.22142
87.80000,-9.38940,-25.23484
87.90000,-9.39780,-25.24826
88.00001,-9.40610,-25.27511
88.10001,-9.41440,-25.30195
88.20001,-9.42280,-25.31538
88.30000,-9.43110,-25.32880
88.40000,-9.43940,-25.34222
88.50001,-9.44780,-25.36907
88.60001,-9.45610,-25.36907
88.70001,-9.46440,-25.40934
88.80000,-9.47280,-25.40934
88.90000,-9.48110,-25.43618
89.00001,-9.48940,-25.46303
89.10001,-9.49780,-25.47645
89.20001,-9.50610,-25.48987
89.30000,-9.51440,-25.51672
89.40000,-9.52280,-25.53014
89.50001,-9.53110,-25.54356
89.60001,-9.53940,-25.55699
89.70001,-9.54780,-25.58383
89.80000,-9.55610,-25.59725
89.90000,-9.56440,-25.62410
90.00001,-9.57280,-25.63752
90.10001,-9.58110,-25.65095
90.20001,-9.58940,-25.67779
90.30000,-9.59780,-25.69121
90.40000,-9.60610,-25.70464
90.50001,-9.61440,-25.73148
90.60001,-9.62280,-25.74491
90.70001,-9.63110,-25.74491
90.80000,-9.63940,-25.77175
90.90000,-9.64780,-25.79860
91.00001,-9.65610,-25.81202
91.10001,-9.66440,-25.83887
91.20001,-9.67280,-25.83887
91.30000,-9.68110,-25.85229
91.40000,-9.68940,-25.86571
91.50001,-9.69780,-25.89256
91.60001,-9.70610,-25.90598
91.70001,-9.71440,-25.93282
91.80000,-9.72280,-25.93282
91.90000,-9.73110,-25.95967
92.00001,-9.73940,-25.97309
92.10001,-9.74780,-25.99994
92.20001,-9.75610,-26.02678
92.30000,-9.76440,-26.04021
92.40000,-9.77280,-26.04021
92.50001,-9.78110,-26.06705
92.60001,-9.78940,-26.08048
92.70001,-9.79780,-26.09390
92.80000,-9.80610,-26.12074
92.90000,-9.81440,-26.13417
93.00001,-9.82280,-26.14759
93.10001,-9.83110,-26.17443
93.20001,-9.83940,-26.18786
93.30000,-9.84780,-26.20128
93.40000,-9.85610,-26.21470
93.50001,-9.86440,-26.22813
93.60001,-9.87280,-26.25497
93.70001,-9.88110,-26.26839
93.80000,-9.88940,-26.28182
93.90000,-9.89770,-26.30866
94.00001,-9.90610,-26.30866
94.10001,-9.91440,-26.32209
94.20001,-9.92270,-26.34893
94.30000,-9.93110,-26.36235
94.40000,-9.93940,-26.38920
94.50001,-9.94770,-26.40262
94.60001,-9.95610,-26.42947
94.70001,-9.96440,-26.42947
94.80000,-9.97270,-26.44289
94.90000,-9.98110,-26.46974
95.00001,-9.98940,-26.49658
95.10001,-9.99770,-26.51000
95.15000,-10.00190,-26.51000
