Time,Extension,Load
(sec),(mm),(N)
0.00000,-2.33890,-1.08725
0.10000,-2.34830,-1.12752
0.20000,-2.35660,-1.15436
0.30000,-2.36500,-1.16779
0.40000,-2.37330,-1.19463
0.50000,-2.38160,-1.20806
0.60000,-2.39000,-1.22148
0.70000,-2.39830,-1.26175
0.80000,-2.40660,-1.28859
0.90000,-2.41500,-1.31544
1.00000,-2.42330,-1.32886
1.10000,-2.43160,-1.34228
1.20000,-2.44000,-1.36913
1.30000,-2.44830,-1.39597
1.40000,-2.45660,-1.42282
1.50000,-2.46500,-1.44967
1.60000,-2.47330,-1.47651
1.70000,-2.48160,-1.48993
1.80000,-2.49000,-1.51678
1.90000,-2.49830,-1.53020
2.00000,-2.50660,-1.55705
2.10000,-2.51500,-1.58389
2.20000,-2.52330,-1.61074
2.30000,-2.53160,-1.65101
2.40000,-2.54000,-1.66443
2.50000,-2.54830,-1.67785
2.60000,-2.55660,-1.70470
2.70000,-2.56500,-1.71812
2.80000,-2.57330,-1.74497
2.90000,-2.58160,-1.77181
3.00000,-2.59000,-1.79866
3.10000,-2.59830,-1.82550
3.20000,-2.60660,-1.85235
3.30000,-2.61500,-1.87919
3.40000,-2.62330,-1.89262
3.50000,-2.63160,-1.91946
3.60000,-2.64000,-1.94631
3.70000,-2.64830,-1.95973
3.80000,-2.65660,-1.98658
3.90000,-2.66490,-2.01342
4.00000,-2.67330,-2.04027
4.10000,-2.68160,-2.06711
4.20000,-2.68990,-2.09396
4.30000,-2.69830,-2.10738
4.40000,-2.70660,-2.12080
4.50000,-2.71490,-2.14765
4.60000,-2.72330,-2.17450
4.70000,-2.73160,-2.20134
4.80000,-2.73990,-2.21476
4.90000,-2.74830,-2.24161
5.00000,-2.75660,-2.26846
5.10000,-2.76490,-2.29530
5.20000,-2.77330,-2.32215
5.30000,-2.78160,-2.33557
5.40000,-2.78990,-2.36242
5.50000,-2.79830,-2.38926
5.60000,-2.80660,-2.41611
5.70000,-2.81490,-2.44295
5.80000,-2.82330,-2.45637
5.90000,-2.83160,-2.46980
6.00000,-2.83990,-2.49664
6.10000,-2.84830,-2.52349
6.20000,-2.85660,-2.55033
6.30000,-2.86490,-2.57718
6.40000,-2.87330,-2.60403
6.50000,-2.88160,-2.61745
6.60000,-2.88990,-2.64429
6.70000,-2.89830,-2.67114
6.80000,-2.90660,-2.69798
6.90000,-2.91490,-2.71141
7.00000,-2.92330,-2.73825
7.10000,-2.93160,-2.76510
7.20000,-2.93990,-2.77852
7.30000,-2.94830,-2.81879
7.40000,-2.95660,-2.83221
7.50000,-2.96490,-2.87248
7.60000,-2.97330,-2.88590
7.70000,-2.98160,-2.91275
7.80000,-2.98990,-2.92617
7.90000,-2.99830,-2.96644
8.00000,-3.00660,-2.96644
8.10000,-3.01490,-2.99329
8.20000,-3.02330,-3.02013
8.30000,-3.03160,-3.06040
8.40000,-3.03990,-3.07382
8.50000,-3.04830,-3.10067
8.60000,-3.05660,-3.12751
8.70000,-3.06490,-3.14094
8.80000,-3.07330,-3.16778
8.90000,-3.08160,-3.19463
9.00000,-3.08990,-3.20805
9.10000,-3.09830,-3.23490
9.20000,-3.10660,-3.26174
9.30000,-3.11490,-3.28859
9.40000,-3.12330,-3.31543
9.50000,-3.13160,-3.34228
9.60000,-3.13990,-3.36912
9.70000,-3.14830,-3.36912
9.80000,-3.15660,-3.39597
9.90000,-3.16490,-3.42282
10.00000,-3.17320,-3.44966
10.10000,-3.18160,-3.47651
10.20000,-3.18990,-3.50335
10.30000,-3.19820,-3.53020
10.40000,-3.20660,-3.54362
10.50000,-3.21490,-3.55704
10.60000,-3.22320,-3.58389
10.70000,-3.23160,-3.61073
10.80000,-3.23990,-3.62416
10.90000,-3.24820,-3.66443
11.00000,-3.25660,-3.69127
11.10000,-3.26490,-3.70469
11.20000,-3.27320,-3.73154
11.30000,-3.28160,-3.75838
11.40000,-3.28990,-3.78523
11.50000,-3.29820,-3.81208
11.60000,-3.30660,-3.83892
11.70000,-3.31490,-3.85234
11.80000,-3.32320,-3.87919
11.90000,-3.33160,-3.89261
12.00000,-3.33990,-3.91946
12.10000,-3.34820,-3.94630
12.20000,-3.35660,-3.97315
12.30000,-3.36490,-3.99999
12.40000,-3.37320,-4.01342
12.50000,-3.38160,-4.04026
12.60000,-3.38990,-4.05369
12.70000,-3.39820,-4.08053
12.80000,-3.40660,-4.10738
12.90000,-3.41490,-4.13422
13.00000,-3.42320,-4.16107
13.10000,-3.43160,-4.17449
13.20000,-3.43990,-4.20134
13.30000,-3.44820,-4.22818
13.40000,-3.45660,-4.25503
13.50000,-3.46490,-4.26845
13.60000,-3.47320,-4.29530
13.70000,-3.48160,-4.30872
13.80000,-3.48990,-4.34899
13.90000,-3.49820,-4.37583
14.00000,-3.50660,-4.38926
14.10000,-3.51490,-4.41610
14.20000,-3.52320,-4.44295
14.30000,-3.53160,-4.46979
14.40000,-3.53990,-4.48321
14.50000,-3.54820,-4.51006
14.60000,-3.55660,-4.53691
14.70000,-3.56490,-4.56375
14.80000,-3.57320,-4.57717
14.90000,-3.58160,-4.60402
15.00000,-3.58990,-4.63087
15.10000,-3.59820,-4.65771
15.20000,-3.60660,-4.67113
15.30000,-3.61490,-4.69798
15.40000,-3.62320,-4.72483
15.50000,-3.63160,-4.75167
15.60000,-3.63990,-4.77852
15.70000,-3.64820,-4.80536
15.80000,-3.65660,-4.83221
15.90000,-3.66490,-4.84563
16.00000,-3.67320,-4.85905
16.10000,-3.68160,-4.89932
16.20000,-3.68990,-4.92617
16.30000,-3.69820,-4.95301
16.40000,-3.70650,-4.97986
16.50000,-3.71490,-4.99328
16.60000,-3.72320,-5.03355
16.70000,-3.73150,-5.04697
16.80000,-3.73990,-5.06039
16.90000,-3.74820,-5.08724
17.00000,-3.75650,-5.11409
17.10000,-3.76490,-5.14093
17.20000,-3.77320,-5.15435
17.30000,-3.78150,-5.18120
17.40000,-3.78990,-5.20805
17.50000,-3.79820,-5.23489
17.60000,-3.80650,-5.26174
17.70000,-3.81490,-5.28858
17.80000,-3.82320,-5.30200
17.90000,-3.83150,-5.32885
18.00000,-3.83990,-5.34227
18.10000,-3.84820,-5.38254
18.20000,-3.85650,-5.39596
18.30000,-3.86490,-5.42281
18.40000,-3.87320,-5.44966
18.50000,-3.88150,-5.47650
18.60000,-3.88990,-5.50335
18.70000,-3.89820,-5.51677
18.80000,-3.90650,-5.54361
18.90000,-3.91490,-5.57046
19.00000,-3.92320,-5.59731
19.10000,-3.93150,-5.61073
19.20000,-3.93990,-5.63757
19.30000,-3.94820,-5.67784
19.40000,-3.95650,-5.70469
19.50000,-3.96490,-5.70469
19.60000,-3.97320,-5.74496
19.70000,-3.98150,-5.75838
19.80000,-3.98990,-5.78523
19.90000,-3.99820,-5.79865
20.00000,-4.00650,-5.82549
20.10000,-4.01490,-5.85234
20.20000,-4.02320,-5.87918
20.30000,-4.03150,-5.90603
20.40000,-4.03990,-5.93288
20.50000,-4.04820,-5.95972
20.60000,-4.05650,-5.97314
20.70000,-4.06490,-5.99999
20.80000,-4.07320,-6.01341
20.90000,-4.08150,-6.05368
21.00000,-4.08990,-6.08053
21.10000,-4.09820,-6.09395
21.20000,-4.10650,-6.10737
21.30000,-4.11490,-6.14764
21.40000,-4.12320,-6.16106
21.50000,-4.13150,-6.17449
21.60000,-4.13990,-6.20133
21.70000,-4.14820,-6.24160
21.80000,-4.15650,-6.25502
21.90000,-4.16490,-6.28187
22.00000,-4.17320,-6.30871
22.10000,-4.18150,-6.32214
22.20000,-4.18990,-6.34898
22.30000,-4.19820,-6.37583
22.40000,-4.20650,-6.40267
22.50000,-4.21480,-6.42952
22.60000,-4.22320,-6.45636
22.70000,-4.23150,-6.46979
22.80000,-4.23980,-6.49663
22.90000,-4.24820,-6.51006
23.00000,-4.25650,-6.53690
23.10000,-4.26480,-6.56375
23.20000,-4.27320,-6.57717
23.30000,-4.28150,-6.61744
23.40000,-4.28980,-6.63086
23.50000,-4.29820,-6.65771
23.60000,-4.30650,-6.68455
23.70000,-4.31480,-6.71140
23.80000,-4.32320,-6.72482
23.90000,-4.33150,-6.75167
24.00000,-4.33980,-6.76509
24.10000,-4.34820,-6.79193
24.20000,-4.35650,-6.81878
24.30000,-4.36480,-6.83220
24.40000,-4.37320,-6.87247
24.50000,-4.38150,-6.89932
24.60000,-4.38980,-6.91274
24.70000,-4.39820,-6.93958
24.80000,-4.40650,-6.95301
24.90000,-4.41480,-6.97985
25.00000,-4.42320,-7.00670
25.10000,-4.43150,-7.03354
25.20000,-4.43980,-7.04697
25.30000,-4.44820,-7.08724
25.40000,-4.45650,-7.10066
25.50000,-4.46480,-7.12750
25.60000,-4.47320,-7.14093
25.70000,-4.48150,-7.18119
25.80000,-4.48980,-7.20804
25.90000,-4.49820,-7.22146
26.00000,-4.50650,-7.24831
26.10000,-4.51480,-7.26173
26.20000,-4.52320,-7.28858
26.30000,-4.53150,-7.30200
26.40000,-4.53980,-7.31542
26.50000,-4.54820,-7.36911
26.60000,-4.55640,-7.38254
26.70000,-4.56480,-7.42280
26.80000,-4.57310,-7.43623
26.90000,-4.58140,-7.44965
27.00000,-4.58980,-7.47650
27.10000,-4.59810,-7.48992
27.20000,-4.60640,-7.51676
27.30000,-4.61480,-7.54361
27.40000,-4.62310,-7.57046
27.50000,-4.63140,-7.58388
27.60000,-4.63980,-7.62415
27.70000,-4.64810,-7.63757
27.80000,-4.65640,-7.66441
27.90000,-4.66480,-7.67784
28.00000,-4.67310,-7.70468
28.10000,-4.68140,-7.71811
28.20000,-4.68970,-7.74495
28.30000,-4.69810,-7.77180
28.40000,-4.70640,-7.79864
28.50000,-4.71470,-7.82549
28.60000,-4.72310,-7.85233
28.70000,-4.73140,-7.86576
28.80000,-4.73970,-7.87918
28.90000,-4.74810,-7.90603
29.00000,-4.75640,-7.93287
29.10000,-4.76470,-7.95972
29.20000,-4.77310,-7.98656
29.30000,-4.78140,-7.99998
29.40000,-4.78970,-8.04025
29.50000,-4.79810,-8.04025
29.60000,-4.80640,-8.06710
29.70000,-4.81470,-8.09394
29.80000,-4.82310,-8.12079
29.90000,-4.83140,-8.13421
30.00000,-4.83970,-8.17448
30.10000,-4.84810,-8.18790
30.20000,-4.85640,-8.21475
30.30000,-4.86470,-8.22817
30.40000,-4.87310,-8.25502
30.50000,-4.88140,-8.28186
30.60000,-4.88970,-8.30871
30.70000,-4.89810,-8.33555
30.80000,-4.90640,-8.34898
30.90000,-4.91470,-8.37582
31.00000,-4.92310,-8.40267
31.10000,-4.93140,-8.41609
31.20000,-4.93970,-8.44294
31.30000,-4.94810,-8.46978
31.40000,-4.95640,-8.48320
31.50000,-4.96470,-8.51005
31.60000,-4.97310,-8.53690
31.70000,-4.98140,-8.56374
31.80000,-4.98970,-8.57716
31.90000,-4.99810,-8.60401
32.00000,-5.00640,-8.63086
32.10000,-5.01470,-8.64428
32.20000,-5.02310,-8.67112
32.30000,-5.03140,-8.68455
32.40000,-5.03970,-8.72481
32.50000,-5.04810,-8.75166
32.60000,-5.05640,-8.77851
32.70000,-5.06470,-8.79193
32.80000,-5.07310,-8.81877
32.90000,-5.08140,-8.83220
33.00000,-5.08970,-8.85904
33.10000,-5.09810,-8.88589
33.20000,-5.10640,-8.91273
33.30000,-5.11470,-8.93958
33.40000,-5.12310,-8.95300
33.50000,-5.13140,-8.96642
33.60000,-5.13970,-8.99327
33.70000,-5.14810,-9.02012
33.80000,-5.15640,-9.04696
33.90000,-5.16470,-9.07381
34.00000,-5.17310,-9.08723
34.10000,-5.18140,-9.11408
34.20000,-5.18970,-9.12750
34.30000,-5.19810,-9.15434
34.40000,-5.20640,-9.18119
34.50000,-5.21470,-9.20804
34.60000,-5.22300,-9.22146
34.70000,-5.23140,-9.26173
34.80000,-5.23970,-9.27515
34.90000,-5.24800,-9.28857
35.00000,-5.25640,-9.31542
35.10000,-5.26470,-9.32884
35.20000,-5.27300,-9.35569
35.30000,-5.28140,-9.38253
35.40000,-5.28970,-9.40938
35.50000,-5.29800,-9.43622
35.60000,-5.30640,-9.44965
35.70000,-5.31470,-9.47649
35.80000,-5.32300,-9.50334
35.90000,-5.33140,-9.51676
36.00000,-5.33970,-9.54360
36.10000,-5.34800,-9.55703
36.20000,-5.35640,-9.58387
36.30000,-5.36470,-9.61072
36.40000,-5.37300,-9.63756
36.50000,-5.38140,-9.66441
36.60000,-5.38970,-9.69126
36.70000,-5.39800,-9.70468
36.80000,-5.40640,-9.73152
36.90000,-5.41470,-9.73152
37.00000,-5.42300,-9.77179
37.10000,-5.43140,-9.78521
37.20000,-5.43970,-9.81206
37.30000,-5.44800,-9.83891
37.40000,-5.45640,-9.86575
37.50000,-5.46470,-9.87917
37.60000,-5.47300,-9.90602
37.70000,-5.48140,-9.91944
37.80000,-5.48970,-9.94629
37.90000,-5.49800,-9.97313
38.00000,-5.50640,-9.99998
38.10000,-5.51470,-10.02682
38.20000,-5.52300,-10.04025
38.30000,-5.53140,-10.06709
38.40000,-5.53970,-10.08052
38.50000,-5.54800,-10.10736
38.60000,-5.55640,-10.12078
38.70000,-5.56470,-10.14763
38.80000,-5.57300,-10.17448
38.90000,-5.58140,-10.20132
39.00000,-5.58970,-10.21474
39.10000,-5.59800,-10.24159
39.20000,-5.60640,-10.25501
39.30000,-5.61470,-10.28186
39.40000,-5.62300,-10.29528
39.50000,-5.63140,-10.32213
39.60000,-5.63970,-10.34897
39.70000,-5.64800,-10.37582
39.80000,-5.65640,-10.38924
39.90000,-5.66470,-10.41609
40.00000,-5.67300,-10.42951
40.10000,-5.68140,-10.45635
40.20000,-5.68970,-10.46978
40.30000,-5.69800,-10.48320
40.40000,-5.70640,-10.52347
40.50000,-5.71470,-10.53689
40.60000,-5.72300,-10.56374
40.70000,-5.73130,-10.59058
40.80000,-5.73970,-10.61743
40.90000,-5.74800,-10.61743
41.00000,-5.75630,-10.64427
41.10000,-5.76470,-10.67112
41.20000,-5.77300,-10.69796
41.30000,-5.78130,-10.72481
41.40000,-5.78970,-10.73823
41.50000,-5.79800,-10.76508
41.60000,-5.80630,-10.77850
41.70000,-5.81470,-10.80535
41.80000,-5.82300,-10.83219
41.90000,-5.83130,-10.84561
42.00000,-5.83970,-10.87246
42.10000,-5.84800,-10.88588
42.20000,-5.85630,-10.91273
42.30000,-5.86470,-10.92615
42.40000,-5.87300,-10.95300
42.50000,-5.88130,-10.97984
42.60000,-5.88970,-10.99327
42.70000,-5.89800,-11.02011
42.80000,-5.90630,-11.04696
42.90000,-5.91470,-11.06038
43.00000,-5.92300,-11.07380
43.10000,-5.93130,-11.10065
43.20000,-5.93970,-11.12749
43.30000,-5.94800,-11.14092
43.40000,-5.95630,-11.16776
43.50000,-5.96470,-11.18118
43.60000,-5.97300,-11.20803
43.70000,-5.98130,-11.23488
43.80000,-5.98970,-11.24830
43.90000,-5.99800,-11.27514
44.00000,-6.00630,-11.28857
44.10000,-6.01470,-11.31541
44.20000,-6.02300,-11.32884
44.30000,-6.03130,-11.35568
44.40000,-6.03970,-11.36910
44.50000,-6.04800,-11.40937
44.60000,-6.05630,-11.42279
44.70000,-6.06470,-11.44964
44.80000,-6.07300,-11.46306
44.90000,-6.08130,-11.48991
45.00000,-6.08970,-11.50333
45.10000,-6.09800,-11.51675
45.20000,-6.10630,-11.54360
45.30000,-6.11470,-11.57045
45.40000,-6.12300,-11.59729
45.50000,-6.13130,-11.62414
45.60000,-6.13970,-11.63756
45.70000,-6.14800,-11.66440
45.80000,-6.15630,-11.67783
45.90000,-6.16470,-11.69125
46.00000,-6.17300,-11.71810
46.10000,-6.18130,-11.74494
46.20000,-6.18970,-11.75836
46.30000,-6.19800,-11.78521
46.40000,-6.20630,-11.79863
46.50000,-6.21470,-11.83890
46.60000,-6.22300,-11.85232
46.70000,-6.23130,-11.86575
46.80000,-6.23970,-11.89259
46.90000,-6.24800,-11.91944
47.00000,-6.25630,-11.93286
47.10000,-6.26460,-11.95971
47.20000,-6.27300,-11.97313
47.30000,-6.28130,-11.99997
47.40000,-6.28960,-12.01340
47.50000,-6.29800,-12.04024
47.60000,-6.30630,-12.05367
47.70000,-6.31460,-12.08051
47.80000,-6.32300,-12.10736
47.90000,-6.33130,-12.12078
48.00000,-6.33960,-12.14762
48.10000,-6.34800,-12.17447
48.20000,-6.35630,-12.18789
48.30000,-6.36460,-12.20132
48.40000,-6.37300,-12.21474
48.50000,-6.38130,-12.24158
48.60000,-6.38960,-12.26843
48.70000,-6.39800,-12.29528
48.80000,-6.40630,-12.30870
48.90000,-6.41460,-12.33554
49.00000,-6.42300,-12.34897
49.10000,-6.43130,-12.37581
49.20000,-6.43960,-12.38924
49.30000,-6.44800,-12.41608
49.40000,-6.45630,-12.42950
49.50000,-6.46460,-12.45635
49.60000,-6.47300,-12.48319
49.70000,-6.48130,-12.51004
49.80000,-6.48960,-12.52346
49.90000,-6.49800,-12.53689
50.00000,-6.50630,-12.55031
50.10000,-6.51460,-12.59058
50.20000,-6.52300,-12.60400
50.30000,-6.53130,-12.63085
50.40000,-6.53960,-12.64427
50.50000,-6.54800,-12.65769
50.60000,-6.55630,-12.68454
50.70000,-6.56460,-12.71138
50.80000,-6.57300,-12.72480
50.90000,-6.58130,-12.75165
51.00000,-6.58960,-12.77850
51.10000,-6.59800,-12.79192
51.20000,-6.60630,-12.80534
51.30000,-6.61460,-12.83219
51.40000,-6.62300,-12.85903
51.50000,-6.63130,-12.87246
51.60000,-6.63960,-12.89930
51.70000,-6.64800,-12.91272
51.80000,-6.65630,-12.93957
51.90000,-6.66460,-12.96641
52.00000,-6.67300,-12.97984
52.10000,-6.68130,-13.00668
52.20000,-6.68960,-13.03353
52.30000,-6.69800,-13.04695
52.40000,-6.70630,-13.07380
52.50000,-6.71460,-13.08722
52.60000,-6.72300,-13.11407
52.70000,-6.73130,-13.14091
52.80000,-6.73960,-13.15433
52.90000,-6.74800,-13.16776
53.00000,-6.75630,-13.19460
53.10000,-6.76460,-13.20802
53.20000,-6.77290,-13.22145
53.30000,-6.78130,-13.24829
53.40000,-6.78960,-13.27514
53.50000,-6.79790,-13.30198
53.60000,-6.80630,-13.32883
53.70000,-6.81460,-13.34225
53.80000,-6.82290,-13.35568
53.90000,-6.83130,-13.38252
54.00000,-6.83960,-13.39594
54.10000,-6.84790,-13.42279
54.20000,-6.85630,-13.44963
54.30000,-6.86460,-13.46306
54.40000,-6.87290,-13.48990
54.50000,-6.88130,-13.50333
54.60000,-6.88960,-13.53017
54.70000,-6.89790,-13.54359
54.80000,-6.90630,-13.57044
54.90000,-6.91460,-13.58386
55.00000,-6.92290,-13.61071
55.10000,-6.93130,-13.62413
55.20000,-6.93960,-13.65098
55.30000,-6.94790,-13.67782
55.40000,-6.95630,-13.69125
55.50000,-6.96460,-13.70467
55.60000,-6.97290,-13.73151
55.70000,-6.98130,-13.75836
55.80000,-6.98960,-13.77178
55.90000,-6.99790,-13.78520
56.00000,-7.00630,-13.81205
56.10000,-7.01460,-13.82547
56.20000,-7.02290,-13.85232
56.30000,-7.03130,-13.87916
56.40000,-7.03960,-13.89259
56.50000,-7.04790,-13.90601
56.60000,-7.05630,-13.93286
56.70000,-7.06460,-13.95970
56.80000,-7.07290,-13.97312
56.90000,-7.08130,-13.99997
57.00000,-7.08960,-14.02681
57.10000,-7.09790,-14.02681
57.20000,-7.10630,-14.05366
57.30000,-7.11460,-14.06708
57.40000,-7.12290,-14.09393
57.50000,-7.13130,-14.12077
57.60000,-7.13960,-14.13420
57.70000,-7.14790,-14.16104
57.80000,-7.15630,-14.17447
57.90000,-7.16460,-14.18789
58.00000,-7.17290,-14.21473
58.10000,-7.18130,-14.22816
58.20000,-7.18960,-14.25500
58.30000,-7.19790,-14.26842
58.40000,-7.20630,-14.28185
58.50000,-7.21460,-14.32212
58.60000,-7.22290,-14.33554
58.70000,-7.23130,-14.36238
58.80000,-7.23960,-14.37581
58.90000,-7.24790,-14.38923
59.00000,-7.25630,-14.41608
59.10000,-7.26460,-14.42950
59.20000,-7.27290,-14.45634
59.30000,-7.28130,-14.48319
59.40000,-7.28960,-14.48319
59.50000,-7.29790,-14.52346
59.60000,-7.30620,-14.53688
59.70000,-7.31460,-14.55030
59.80000,-7.32290,-14.57715
59.90000,-7.33120,-14.60399
60.00000,-7.33960,-14.60399
60.10000,-7.34790,-14.64426
60.20000,-7.35620,-14.65769
60.30000,-7.36460,-14.67111
60.40000,-7.37290,-14.68453
60.50000,-7.38120,-14.71138
60.60000,-7.38960,-14.72480
60.70000,-7.39790,-14.75165
60.80000,-7.40620,-14.76507
60.90000,-7.41460,-14.80534
61.00000,-7.42290,-14.81876
61.10000,-7.43120,-14.83218
61.20000,-7.43960,-14.84560
61.30000,-7.44790,-14.85903
61.40000,-7.45620,-14.88587
61.50000,-7.46460,-14.91272
61.60000,-7.47290,-14.92614
61.70000,-7.48120,-14.95299
61.80000,-7.48960,-14.97983
61.90000,-7.49790,-14.99326
62.00000,-7.50620,-15.00668
62.10000,-7.51460,-15.02010
62.20000,-7.52290,-15.04695
62.30000,-7.53120,-15.07379
62.40000,-7.53960,-15.08721
62.50000,-7.54790,-15.11406
62.60000,-7.55620,-15.12748
62.70000,-7.56460,-15.15433
62.80000,-7.57290,-15.16775
62.90000,-7.58120,-15.18117
63.00000,-7.58960,-15.20802
63.10000,-7.59790,-15.22144
63.20000,-7.60620,-15.23487
63.30000,-7.61460,-15.24829
63.40000,-7.62290,-15.27513
63.50000,-7.63120,-15.30198
63.60000,-7.63960,-15.31540
63.70000,-7.64790,-15.32882
63.80000,-7.65620,-15.35567
63.90000,-7.66460,-15.36909
64.00000,-7.67290,-15.39594
64.10001,-7.68120,-15.40936
64.20000,-7.68960,-15.43621
64.30000,-7.69790,-15.46305
64.40000,-7.70620,-15.47648
64.50000,-7.71460,-15.48990
64.60001,-7.72290,-15.50332
64.70000,-7.73120,-15.51674
64.80000,-7.73960,-15.54359
64.90000,-7.74790,-15.55701
65.00000,-7.75620,-15.58386
65.10001,-7.76460,-15.61070
65.20000,-7.77290,-15.62413
65.30000,-7.78120,-15.65097
65.40000,-7.78960,-15.66439
65.50000,-7.79790,-15.67782
65.60001,-7.80620,-15.69124
65.70001,-7.81450,-15.71809
65.80000,-7.82290,-15.74493
65.90000,-7.83120,-15.75835
66.00000,-7.83950,-15.78520
66.10001,-7.84790,-15.79862
66.20001,-7.85620,-15.81205
66.30000,-7.86450,-15.83889
66.40000,-7.87290,-15.83889
66.50000,-7.88120,-15.86574
66.60001,-7.88950,-15.89258
66.70001,-7.89790,-15.90600
66.80000,-7.90620,-15.91943
66.90000,-7.91450,-15.94627
67.00000,-7.92290,-15.95970
67.10001,-7.93120,-15.98654
67.20001,-7.93950,-15.99996
67.30000,-7.94790,-16.01339
67.40000,-7.95620,-16.04023
67.50000,-7.96450,-16.05366
67.60001,-7.97290,-16.08050
67.70001,-7.98120,-16.10735
67.80000,-7.98950,-16.10735
67.90000,-7.99790,-16.13419
68.00000,-8.00620,-16.14761
68.10001,-8.01450,-16.16104
68.20001,-8.02290,-16.18788
68.30000,-8.03120,-16.21473
68.40000,-8.03950,-16.22815
68.50000,-8.04790,-16.24157
68.60001,-8.05620,-16.25500
68.70001,-8.06450,-16.28184
68.80000,-8.07290,-16.30869
68.90000,-8.08120,-16.32211
69.00000,-8.08950,-16.34896
69.10001,-8.09790,-16.36238
69.20001,-8.10620,-16.37580
69.30000,-8.11450,-16.38922
69.40000,-8.12290,-16.40265
69.50000,-8.13120,-16.42949
69.60001,-8.13950,-16.45634
69.70001,-8.14790,-16.46976
69.80000,-8.15620,-16.49661
69.90000,-8.16450,-16.52345
70.00000,-8.17290,-16.52345
70.10001,-8.18120,-16.55030
70.20001,-8.18950,-16.56372
70.30000,-8.19790,-16.57714
70.40000,-8.20620,-16.60399
70.50000,-8.21450,-16.61741
70.60001,-8.22290,-16.64426
70.70001,-8.23120,-16.65768
70.80000,-8.23950,-16.68453
70.90000,-8.24790,-16.69795
71.00000,-8.25620,-16.71137
71.10001,-8.26450,-16.72479
71.20001,-8.27290,-16.75164
71.30000,-8.28120,-16.76506
71.40000,-8.28950,-16.79191
71.50000,-8.29790,-16.80533
71.60001,-8.30620,-16.83218
71.70001,-8.31450,-16.84560
71.80000,-8.32290,-16.85902
71.90000,-8.33120,-16.88587
72.00000,-8.33950,-16.89929
72.10001,-8.34780,-16.91271
72.20001,-8.35620,-16.92614
72.30000,-8.36450,-16.96640
72.40000,-8.37280,-16.96640
72.50000,-8.38120,-16.99325
72.60001,-8.38950,-17.02010
72.70001,-8.39780,-17.02010
72.80000,-8.40620,-17.04694
72.90000,-8.41450,-17.06036
73.00000,-8.42280,-17.07379
73.10001,-8.43120,-17.10063
73.20001,-8.43950,-17.12748
73.30000,-8.44780,-17.14090
73.40000,-8.45620,-17.15432
73.50000,-8.46450,-17.16775
73.60001,-8.47280,-17.19459
73.70001,-8.48120,-17.20801
73.80000,-8.48950,-17.22144
73.90000,-8.49780,-17.24828
74.00000,-8.50620,-17.26171
74.10001,-8.51450,-17.28855
74.20001,-8.52280,-17.31540
74.30000,-8.53120,-17.31540
74.40000,-8.53950,-17.34224
74.50000,-8.54780,-17.35567
74.60001,-8.55620,-17.36909
74.70001,-8.56450,-17.39593
74.80000,-8.57280,-17.40936
74.90000,-8.58120,-17.42278
75.00000,-8.58950,-17.44962
75.10001,-8.59780,-17.46305
75.20001,-8.60620,-17.47647
75.30000,-8.61450,-17.48989
75.40000,-8.62280,-17.50332
75.50000,-8.63120,-17.53016
75.60001,-8.63950,-17.54358
75.70001,-8.64780,-17.57043
75.80000,-8.65620,-17.58385
75.90000,-8.66450,-17.61070
76.00000,-8.67280,-17.62412
76.10001,-8.68120,-17.63754
76.20001,-8.68950,-17.65097
76.30000,-8.69780,-17.66439
76.40000,-8.70620,-17.69123
76.50000,-8.71450,-17.70466
76.60001,-8.72280,-17.73150
76.70001,-8.73120,-17.74493
76.80000,-8.73950,-17.75835
76.90000,-8.74780,-17.77177
77.00000,-8.75620,-17.79862
77.10001,-8.76450,-17.81204
77.20001,-8.77280,-17.83889
77.30000,-8.78120,-17.85231
77.40000,-8.78950,-17.86573
77.50000,-8.79780,-17.87915
77.60001,-8.80620,-17.90600
77.70001,-8.81450,-17.93284
77.80000,-8.82280,-17.94627
77.90000,-8.83120,-17.95969
78.00000,-8.83950,-17.98654
78.10001,-8.84780,-17.99996
78.20001,-8.85610,-18.01338
78.30000,-8.86450,-18.02680
78.40000,-8.87280,-18.05365
78.50000,-8.88110,-18.06707
78.60001,-8.88950,-18.08050
78.70001,-8.89780,-18.09392
78.80000,-8.90610,-18.12076
78.90000,-8.91450,-18.13419
79.00000,-8.92280,-18.14761
79.10001,-8.93110,-18.17446
79.20001,-8.93950,-18.18788
79.30000,-8.94780,-18.20130
79.40000,-8.95610,-18.21472
79.50000,-8.96450,-18.22815
79.60001,-8.97280,-18.25499
79.70001,-8.98110,-18.26841
79.80000,-8.98950,-18.29526
79.90000,-8.99780,-18.30868
80.00000,-9.00610,-18.32211
80.10001,-9.01450,-18.33553
80.20001,-9.02280,-18.34895
80.30000,-9.03110,-18.36237
80.40000,-9.03950,-18.40264
80.50001,-9.04780,-18.40264
80.60001,-9.05610,-18.42949
80.70001,-9.06450,-18.44291
80.80000,-9.07280,-18.45633
80.90000,-9.08110,-18.46976
81.00001,-9.08950,-18.48318
81.10001,-9.09780,-18.49660
81.20001,-9.10610,-18.52345
81.30000,-9.11450,-18.53687
81.40000,-9.12280,-18.55029
81.50001,-9.13110,-18.56372
81.60001,-9.13950,-18.59056
81.70001,-9.14780,-18.60398
81.80000,-9.15610,-18.63083
81.90000,-9.16450,-18.63083
82.00001,-9.17280,-18.67110
82.10001,-9.18110,-18.67110
82.20001,-9.18950,-18.69794
82.30000,-9.19780,-18.71137
82.40000,-9.20610,-18.72479
82.50001,-9.21450,-18.75163
82.60001,-9.22280,-18.75163
82.70001,-9.23110,-18.76506
82.80000,-9.23950,-18.79190
82.90000,-9.24780,-18.80533
83.00001,-9.25610,-18.81875
83.10001,-9.26450,-18.85902
83.20001,-9.27280,-18.85902
83.30000,-9.28110,-18.87244
83.40000,-9.28950,-18.89929
83.50001,-9.29780,-18.89929
83.60001,-9.30610,-18.92613
83.70001,-9.31450,-18.93955
83.80000,-9.32280,-18.96640
83.90000,-9.33110,-18.97982
84.00001,-9.33950,-18.99324
84.10001,-9.34780,-19.00667
84.20001,-9.35610,-19.02009
84.30000,-9.36450,-19.03351
84.40000,-9.37280,-19.04694
84.50001,-9.38110,-19.07378
84.60001,-9.38940,-19.08720
84.70001,-9.39780,-19.10063
84.80000,-9.40610,-19.11405
84.90000,-9.41440,-19.14090
85.00001,-9.42280,-19.15432
85.10001,-9.43110,-19.16774
85.20001,-9.43940,-19.18116
85.30000,-9.44780,-19.19459
85.40000,-9.45610,-19.20801
85.50001,-9.46440,-19.22143
85.60001,-9.47280,-19.23486
85.70001,-9.48110,-19.26170
85.80000,-9.48940,-19.27512
85.90000,-9.49780,-19.28855
86.00001,-9.50610,-19.30197
86.10001,-9.51440,-19.32881
86.20001,-9.52280,-19.32881
86.30000,-9.53110,-19.35566
86.40000,-9.53940,-19.35566
86.50001,-9.54780,-19.38251
86.60001,-9.55610,-19.39593
86.70001,-9.56440,-19.40935
86.80000,-9.57280,-19.42277
86.90000,-9.58110,-19.44962
87.00001,-9.58940,-19.46304
87.10001,-9.59780,-19.47647
87.20001,-9.60610,-19.50331
87.30000,-9.61440,-19.50331
87.40000,-9.62280,-19.53016
87.50001,-9.63110,-19.54358
87.60001,-9.63940,-19.54358
87.70001,-9.64780,-19.57042
87.80000,-9.65610,-19.58385
87.90000,-9.66440,-19.61069
88.00001,-9.67280,-19.61069
88.10001,-9.68110,-19.63754
88.20001,-9.68940,-19.65096
88.30000,-9.69780,-19.66438
88.40000,-9.70610,-19.67781
88.50001,-9.71440,-19.69123
88.60001,-9.72280,-19.70465
88.70001,-9.73110,-19.71808
88.80000,-9.73940,-19.74492
88.90000,-9.74780,-19.75834
89.00001,-9.75610,-19.77177
89.10001,-9.76440,-19.78519
89.20001,-9.77280,-19.79861
89.30000,-9.78110,-19.81203
89.40000,-9.78940,-19.83888
89.50001,-9.79780,-19.83888
89.60001,-9.80610,-19.86573
89.70001,-9.81440,-19.86573
89.80000,-9.82280,-19.89257
89.90000,-9.83110,-19.90599
90.00001,-9.83940,-19.90599
90.10001,-9.84780,-19.93284
90.20001,-9.85610,-19.94626
90.30000,-9.86440,-19.95969
90.40000,-9.87280,-19.97311
90.50001,-9.88110,-19.98653
90.60001,-9.88940,-20.01338
90.70001,-9.89770,-20.02680
90.80000,-9.90610,-20.02680
90.90000,-9.91440,-20.04022
91.00001,-9.92270,-20.06707
91.10001,-9.93110,-20.08049
91.20001,-9.93940,-20.10734
91.30000,-9.94770,-20.12076
91.40000,-9.95610,-20.13418
91.50001,-9.96440,-20.14760
91.60001,-9.97270,-20.16103
91.70001,-9.98110,-20.17445
91.80000,-9.98940,-20.18787
91.90000,-9.99770,-20.21472
91.95001,-10.00190,-20.22814
