Time,Extension,Load
(sec),(mm),(N)
0.00000,-2.24730,-1.07383
0.10000,-2.25660,-1.10067
0.20000,-2.26500,-1.12752
0.30000,-2.27330,-1.12752
0.40000,-2.28160,-1.15436
0.50000,-2.29000,-1.16779
0.60000,-2.29830,-1.19463
0.70000,-2.30660,-1.22148
0.80000,-2.31500,-1.22148
0.90000,-2.32330,-1.24832
1.00000,-2.33160,-1.26175
1.10000,-2.34000,-1.28859
1.20000,-2.34830,-1.30202
1.30000,-2.35660,-1.32886
1.40000,-2.36500,-1.34228
1.50000,-2.37330,-1.35571
1.60000,-2.38160,-1.38255
1.70000,-2.39000,-1.39597
1.80000,-2.39830,-1.42282
1.90000,-2.40660,-1.43624
2.00000,-2.41500,-1.46309
2.10000,-2.42330,-1.47651
2.20000,-2.43160,-1.48993
2.30000,-2.44000,-1.50336
2.40000,-2.44830,-1.51678
2.50000,-2.45660,-1.54363
2.60000,-2.46500,-1.57047
2.70000,-2.47330,-1.58389
2.80000,-2.48160,-1.61074
2.90000,-2.49000,-1.61074
3.00000,-2.49830,-1.63758
3.10000,-2.50660,-1.65101
3.20000,-2.51500,-1.67785
3.30000,-2.52330,-1.69128
3.40000,-2.53160,-1.71812
3.50000,-2.54000,-1.73154
3.60000,-2.54830,-1.74497
3.70000,-2.55660,-1.77181
3.80000,-2.56500,-1.78524
3.90000,-2.57330,-1.81208
4.00000,-2.58160,-1.82550
4.10000,-2.59000,-1.83893
4.20000,-2.59830,-1.85235
4.30000,-2.60660,-1.87919
4.40000,-2.61500,-1.90604
4.50000,-2.62330,-1.91946
4.60000,-2.63160,-1.94631
4.70000,-2.64000,-1.95973
4.80000,-2.64830,-1.98658
4.90000,-2.65660,-2.00000
5.00000,-2.66490,-2.01342
5.10000,-2.67330,-2.02685
5.20000,-2.68160,-2.05369
5.30000,-2.68990,-2.08054
5.40000,-2.69830,-2.10738
5.50000,-2.70660,-2.12080
5.60000,-2.71490,-2.13423
5.70000,-2.72330,-2.16107
5.80000,-2.73160,-2.16107
5.90000,-2.73990,-2.18792
6.00000,-2.74830,-2.20134
6.10000,-2.75660,-2.22819
6.20000,-2.76490,-2.24161
6.30000,-2.77330,-2.25503
6.40000,-2.78160,-2.29530
6.50000,-2.78990,-2.30872
6.60000,-2.79830,-2.32215
6.70000,-2.80660,-2.34899
6.80000,-2.81490,-2.36242
6.90000,-2.82330,-2.37584
7.00000,-2.83160,-2.40268
7.10000,-2.83990,-2.41611
7.20000,-2.84830,-2.42953
7.30000,-2.85660,-2.45637
7.40000,-2.86490,-2.48322
7.50000,-2.87330,-2.49664
7.60000,-2.88160,-2.51007
7.70000,-2.88990,-2.53691
7.80000,-2.89830,-2.55033
7.90000,-2.90660,-2.56376
8.00000,-2.91490,-2.59060
8.10000,-2.92330,-2.61745
8.20000,-2.93160,-2.63087
8.30000,-2.93990,-2.64429
8.40000,-2.94830,-2.67114
8.50000,-2.95660,-2.68456
8.60000,-2.96490,-2.71141
8.70000,-2.97330,-2.72483
8.80000,-2.98160,-2.75168
8.90000,-2.98990,-2.76510
9.00000,-2.99830,-2.77852
9.10000,-3.00660,-2.80537
9.20000,-3.01490,-2.81879
9.30000,-3.02330,-2.84564
9.40000,-3.03160,-2.85906
9.50000,-3.03990,-2.87248
9.60000,-3.04830,-2.89933
9.70000,-3.05660,-2.91275
9.80000,-3.06490,-2.93959
9.90000,-3.07330,-2.96644
10.00000,-3.08160,-2.97986
10.10000,-3.08990,-2.99329
10.20000,-3.09830,-3.02013
10.30000,-3.10660,-3.03355
10.40000,-3.11490,-3.04698
10.50000,-3.12330,-3.07382
10.60000,-3.13160,-3.08725
10.70000,-3.13990,-3.11409
10.80000,-3.14830,-3.12751
10.90000,-3.15660,-3.15436
11.00000,-3.16490,-3.16778
11.10000,-3.17320,-3.18120
11.20000,-3.18160,-3.19463
11.30000,-3.18990,-3.22147
11.40000,-3.19820,-3.24832
11.50000,-3.20660,-3.27516
11.60000,-3.21490,-3.28859
11.70000,-3.22320,-3.30201
11.80000,-3.23160,-3.32886
11.90000,-3.23990,-3.32886
12.00000,-3.24820,-3.36912
12.10000,-3.25660,-3.36912
12.20000,-3.26490,-3.39597
12.30000,-3.27320,-3.42282
12.40000,-3.28160,-3.43624
12.50000,-3.28990,-3.46308
12.60000,-3.29820,-3.47651
12.70000,-3.30660,-3.48993
12.80000,-3.31490,-3.51677
12.90000,-3.32320,-3.53020
13.00000,-3.33160,-3.54362
13.10000,-3.33990,-3.57047
13.20000,-3.34820,-3.58389
13.30000,-3.35660,-3.61073
13.40000,-3.36490,-3.63758
13.50000,-3.37320,-3.65100
13.60000,-3.38160,-3.67785
13.70000,-3.38990,-3.69127
13.80000,-3.39820,-3.71812
13.90000,-3.40660,-3.73154
14.00000,-3.41490,-3.74496
14.10000,-3.42320,-3.77181
14.20000,-3.43160,-3.78523
14.30000,-3.43990,-3.81208
14.40000,-3.44820,-3.82550
14.50000,-3.45660,-3.83892
14.60000,-3.46490,-3.86577
14.70000,-3.47320,-3.89261
14.80000,-3.48160,-3.90604
14.90000,-3.48990,-3.91946
15.00000,-3.49820,-3.93288
15.10000,-3.50660,-3.94630
15.20000,-3.51490,-3.97315
15.30000,-3.52320,-3.99999
15.40000,-3.53160,-4.02684
15.50000,-3.53990,-4.04026
15.60000,-3.54820,-4.06711
15.70000,-3.55660,-4.06711
15.80000,-3.56490,-4.09395
15.90000,-3.57320,-4.12080
16.00000,-3.58160,-4.13422
16.10000,-3.58990,-4.14765
16.20000,-3.59820,-4.17449
16.30000,-3.60660,-4.18791
16.40000,-3.61490,-4.21476
16.50000,-3.62320,-4.22818
16.60000,-3.63160,-4.24160
16.70000,-3.63990,-4.26845
16.80000,-3.64820,-4.29530
16.90000,-3.65660,-4.30872
17.00000,-3.66490,-4.32214
17.10000,-3.67320,-4.34899
17.20000,-3.68160,-4.37583
17.30000,-3.68990,-4.38926
17.40000,-3.69820,-4.41610
17.50000,-3.70650,-4.42952
17.60000,-3.71490,-4.44295
17.70000,-3.72320,-4.46979
17.80000,-3.73150,-4.48321
17.90000,-3.73990,-4.49664
18.00000,-3.74820,-4.52348
18.10000,-3.75650,-4.55033
18.20000,-3.76490,-4.56375
18.30000,-3.77320,-4.59060
18.40000,-3.78150,-4.60402
18.50000,-3.78990,-4.63087
18.60000,-3.79820,-4.64429
18.70000,-3.80650,-4.65771
18.80000,-3.81490,-4.68456
18.90000,-3.82320,-4.71140
19.00000,-3.83150,-4.72483
19.10000,-3.83990,-4.73825
19.20000,-3.84820,-4.76509
19.30000,-3.85650,-4.77852
19.40000,-3.86490,-4.79194
19.50000,-3.87320,-4.81878
19.60000,-3.88150,-4.84563
19.70000,-3.88990,-4.85905
19.80000,-3.89820,-4.88590
19.90000,-3.90650,-4.89932
20.00000,-3.91490,-4.91274
20.10000,-3.92320,-4.93959
20.20000,-3.93150,-4.96644
20.30000,-3.93990,-4.97986
20.40000,-3.94820,-4.99328
20.50000,-3.95650,-5.02013
20.60000,-3.96490,-5.03355
20.70000,-3.97320,-5.06039
20.80000,-3.98150,-5.08724
20.90000,-3.98990,-5.11409
21.00000,-3.99820,-5.12751
21.10000,-4.00650,-5.14093
21.20000,-4.01490,-5.14093
21.30000,-4.02320,-5.16778
21.40000,-4.03150,-5.19462
21.50000,-4.03990,-5.22147
21.60000,-4.04820,-5.24831
21.70000,-4.05650,-5.26174
21.80000,-4.06490,-5.27516
21.90000,-4.07320,-5.30200
22.00000,-4.08150,-5.31543
22.10000,-4.08990,-5.34227
22.20000,-4.09820,-5.35570
22.30000,-4.10650,-5.36912
22.40000,-4.11490,-5.39596
22.50000,-4.12320,-5.40939
22.60000,-4.13150,-5.43623
22.70000,-4.13990,-5.46308
22.80000,-4.14820,-5.47650
22.90000,-4.15650,-5.50335
23.00000,-4.16490,-5.51677
23.10000,-4.17320,-5.53019
23.20000,-4.18150,-5.55704
23.30000,-4.18990,-5.57046
23.40000,-4.19820,-5.59731
23.50000,-4.20650,-5.61073
23.60000,-4.21480,-5.63757
23.70000,-4.22320,-5.65100
23.80000,-4.23150,-5.67784
23.90000,-4.23980,-5.70469
24.00000,-4.24820,-5.71811
24.10000,-4.25650,-5.73153
24.20000,-4.26480,-5.77180
24.30000,-4.27320,-5.77180
24.40000,-4.28150,-5.79865
24.50000,-4.28980,-5.81207
24.60000,-4.29820,-5.83892
24.70000,-4.30650,-5.85234
24.80000,-4.31480,-5.87918
24.90000,-4.32320,-5.89261
25.00000,-4.33150,-5.90603
25.10000,-4.33980,-5.94630
25.20000,-4.34820,-5.94630
25.30000,-4.35650,-5.98657
25.40000,-4.36480,-5.99999
25.50000,-4.37320,-6.01341
25.60000,-4.38150,-6.02684
25.70000,-4.38980,-6.05368
25.80000,-4.39820,-6.06710
25.90000,-4.40650,-6.09395
26.00000,-4.41480,-6.12079
26.10000,-4.42320,-6.13422
26.20000,-4.43150,-6.16106
26.30000,-4.43980,-6.17449
26.40000,-4.44820,-6.20133
26.50000,-4.45650,-6.21475
26.60000,-4.46480,-6.24160
26.70000,-4.47320,-6.25502
26.80000,-4.48150,-6.26845
26.90000,-4.48980,-6.29529
27.00000,-4.49820,-6.32214
27.10000,-4.50650,-6.33556
27.20000,-4.51480,-6.36240
27.30000,-4.52320,-6.37583
27.40000,-4.53150,-6.38925
27.50000,-4.53980,-6.40267
27.60000,-4.54820,-6.42952
27.70000,-4.55640,-6.46979
27.80000,-4.56480,-6.48321
27.90000,-4.57310,-6.49663
28.00000,-4.58140,-6.52348
28.10000,-4.58980,-6.53690
28.20000,-4.59810,-6.55032
28.30000,-4.60640,-6.57717
28.40000,-4.61480,-6.59059
28.50000,-4.62310,-6.61744
28.60000,-4.63140,-6.63086
28.70000,-4.63980,-6.64428
28.80000,-4.64810,-6.68455
28.90000,-4.65640,-6.69797
29.00000,-4.66480,-6.72482
29.10000,-4.67310,-6.73824
29.20000,-4.68140,-6.75167
29.30000,-4.68970,-6.76509
29.40000,-4.69810,-6.79193
29.50000,-4.70640,-6.81878
29.60000,-4.71470,-6.84563
29.70000,-4.72310,-6.85905
29.80000,-4.73140,-6.88589
29.90000,-4.73970,-6.89932
30.00000,-4.74810,-6.91274
30.10000,-4.75640,-6.93958
30.20000,-4.76470,-6.95301
30.30000,-4.77310,-6.97985
30.40000,-4.78140,-6.99328
30.50000,-4.78970,-7.00670
30.60000,-4.79810,-7.03354
30.70000,-4.80640,-7.04697
30.80000,-4.81470,-7.07381
30.90000,-4.82310,-7.10066
31.00000,-4.83140,-7.11408
31.10000,-4.83970,-7.12750
31.20000,-4.84810,-7.14093
31.30000,-4.85640,-7.16777
31.40000,-4.86470,-7.18119
31.50000,-4.87310,-7.20804
31.60000,-4.88140,-7.23489
31.70000,-4.88970,-7.24831
31.80000,-4.89810,-7.27515
31.90000,-4.90640,-7.27515
32.00000,-4.91470,-7.31542
32.10000,-4.92310,-7.31542
32.20000,-4.93140,-7.34227
32.30000,-4.93970,-7.36911
32.40000,-4.94810,-7.38254
32.50000,-4.95640,-7.40938
32.60000,-4.96470,-7.42280
32.70000,-4.97310,-7.44965
32.80000,-4.98140,-7.47650
32.90000,-4.98970,-7.48992
33.00000,-4.99810,-7.50334
33.10000,-5.00640,-7.53019
33.20000,-5.01470,-7.54361
33.30000,-5.02310,-7.57046
33.40000,-5.03140,-7.58388
33.50000,-5.03970,-7.61072
33.60000,-5.04810,-7.62415
33.70000,-5.05640,-7.65099
33.80000,-5.06470,-7.66441
33.90000,-5.07310,-7.69126
34.00000,-5.08140,-7.70468
34.10000,-5.08970,-7.71811
34.20000,-5.09810,-7.74495
34.30000,-5.10640,-7.75837
34.40000,-5.11470,-7.78522
34.50000,-5.12310,-7.79864
34.60000,-5.13140,-7.82549
34.70000,-5.13970,-7.83891
34.80000,-5.14810,-7.86576
34.90000,-5.15640,-7.86576
35.00000,-5.16470,-7.90603
35.10000,-5.17310,-7.91945
35.20000,-5.18140,-7.94629
35.30000,-5.18970,-7.95972
35.40000,-5.19810,-7.97314
35.50000,-5.20640,-7.99998
35.60000,-5.21470,-8.01341
35.70000,-5.22300,-8.04025
35.80000,-5.23140,-8.05368
35.90000,-5.23970,-8.08052
36.00000,-5.24800,-8.09394
36.10000,-5.25640,-8.12079
36.20000,-5.26470,-8.13421
36.30000,-5.27300,-8.16106
36.40000,-5.28140,-8.17448
36.50000,-5.28970,-8.18790
36.60000,-5.29800,-8.21475
36.70000,-5.30640,-8.22817
36.80000,-5.31470,-8.25502
36.90000,-5.32300,-8.28186
37.00000,-5.33140,-8.30871
37.10000,-5.33970,-8.32213
37.20000,-5.34800,-8.34898
37.30000,-5.35640,-8.34898
37.40000,-5.36470,-8.36240
37.50000,-5.37300,-8.38925
37.60000,-5.38140,-8.41609
37.70000,-5.38970,-8.44294
37.80000,-5.39800,-8.45636
37.90000,-5.40640,-8.46978
38.00000,-5.41470,-8.48320
38.10000,-5.42300,-8.51005
38.20000,-5.43140,-8.53690
38.30000,-5.43970,-8.55032
38.40000,-5.44800,-8.56374
38.50000,-5.45640,-8.59059
38.60000,-5.46470,-8.60401
38.70000,-5.47300,-8.63086
38.80000,-5.48140,-8.64428
38.90000,-5.48970,-8.67112
39.00000,-5.49800,-8.68455
39.10000,-5.50640,-8.69797
39.20000,-5.51470,-8.71139
39.30000,-5.52300,-8.73824
39.40000,-5.53140,-8.76508
39.50000,-5.53970,-8.77851
39.60000,-5.54800,-8.80535
39.70000,-5.55640,-8.81877
39.80000,-5.56470,-8.84562
39.90000,-5.57300,-8.85904
40.00000,-5.58140,-8.87247
40.10000,-5.58970,-8.89931
40.20000,-5.59800,-8.91273
40.30000,-5.60640,-8.92616
40.40000,-5.61470,-8.95300
40.50000,-5.62300,-8.97985
40.60000,-5.63140,-8.99327
40.70000,-5.63970,-9.02012
40.80000,-5.64800,-9.03354
40.90000,-5.65640,-9.06038
41.00000,-5.66470,-9.07381
41.10000,-5.67300,-9.10065
41.20000,-5.68140,-9.11408
41.30000,-5.68970,-9.12750
41.40000,-5.69800,-9.14092
41.50000,-5.70640,-9.16777
41.60000,-5.71470,-9.18119
41.70000,-5.72300,-9.20804
41.80000,-5.73130,-9.22146
41.90000,-5.73970,-9.24830
42.00000,-5.74800,-9.26173
42.10000,-5.75630,-9.28857
42.20000,-5.76470,-9.28857
42.30000,-5.77300,-9.32884
42.40000,-5.78130,-9.32884
42.50000,-5.78970,-9.36911
42.60000,-5.79800,-9.38253
42.70000,-5.80630,-9.39595
42.80000,-5.81470,-9.40938
42.90000,-5.82300,-9.43622
43.00000,-5.83130,-9.44965
43.10000,-5.83970,-9.47649
43.20000,-5.84800,-9.48991
43.30000,-5.85630,-9.51676
43.40000,-5.86470,-9.53018
43.50000,-5.87300,-9.54360
43.60000,-5.88130,-9.55703
43.70000,-5.88970,-9.58387
43.80000,-5.89800,-9.61072
43.90000,-5.90630,-9.62414
44.00000,-5.91470,-9.63756
44.10000,-5.92300,-9.66441
44.20000,-5.93130,-9.67783
44.30000,-5.93970,-9.70468
44.40000,-5.94800,-9.71810
44.50000,-5.95630,-9.74495
44.60000,-5.96470,-9.75837
44.70000,-5.97300,-9.77179
44.80000,-5.98130,-9.78521
44.90000,-5.98970,-9.81206
45.00000,-5.99800,-9.83891
45.10000,-6.00630,-9.85233
45.20000,-6.01470,-9.86575
45.30000,-6.02300,-9.89260
45.40000,-6.03130,-9.89260
45.50000,-6.03970,-9.91944
45.60000,-6.04800,-9.94629
45.70000,-6.05630,-9.95971
45.80000,-6.06470,-9.98656
45.90000,-6.07300,-10.01340
46.00000,-6.08130,-10.02682
46.10000,-6.08970,-10.02682
46.20000,-6.09800,-10.05367
46.30000,-6.10630,-10.06709
46.40000,-6.11470,-10.09394
46.50000,-6.12300,-10.12078
46.60000,-6.13130,-10.13421
46.70000,-6.13970,-10.14763
46.80000,-6.14800,-10.17448
46.90000,-6.15630,-10.18790
47.00000,-6.16470,-10.21474
47.10000,-6.17300,-10.22817
47.20000,-6.18130,-10.24159
47.30000,-6.18970,-10.25501
47.40000,-6.19800,-10.26844
47.50000,-6.20630,-10.30870
47.60000,-6.21470,-10.32213
47.70000,-6.22300,-10.33555
47.80000,-6.23130,-10.36239
47.90000,-6.23970,-10.37582
48.00000,-6.24800,-10.40266
48.10000,-6.25630,-10.41609
48.20000,-6.26460,-10.42951
48.30000,-6.27300,-10.44293
48.40000,-6.28130,-10.45635
48.50000,-6.28960,-10.48320
48.60000,-6.29800,-10.51005
48.70000,-6.30630,-10.52347
48.80000,-6.31460,-10.55031
48.90000,-6.32300,-10.56374
49.00000,-6.33130,-10.57716
49.10000,-6.33960,-10.60400
49.20000,-6.34800,-10.61743
49.30000,-6.35630,-10.63085
49.40000,-6.36460,-10.65770
49.50000,-6.37300,-10.67112
49.60000,-6.38130,-10.69796
49.70000,-6.38960,-10.71139
49.80000,-6.39800,-10.73823
49.90000,-6.40630,-10.75166
50.00000,-6.41460,-10.77850
50.10000,-6.42300,-10.79192
50.20000,-6.43130,-10.80535
50.30000,-6.43960,-10.81877
50.40000,-6.44800,-10.83219
50.50000,-6.45630,-10.87246
50.60000,-6.46460,-10.88588
50.70000,-6.47300,-10.89931
50.80000,-6.48130,-10.91273
50.90000,-6.48960,-10.93957
51.00000,-6.49800,-10.93957
51.10000,-6.50630,-10.96642
51.20000,-6.51460,-10.97984
51.30000,-6.52300,-11.00669
51.40000,-6.53130,-11.03353
51.50000,-6.53960,-11.04696
51.60000,-6.54800,-11.06038
51.70000,-6.55630,-11.07380
51.80000,-6.56460,-11.10065
51.90000,-6.57300,-11.12749
52.00000,-6.58130,-11.14092
52.10000,-6.58960,-11.15434
52.20000,-6.59800,-11.16776
52.30000,-6.60630,-11.18118
52.40000,-6.61460,-11.20803
52.50000,-6.62300,-11.22145
52.60000,-6.63130,-11.24830
52.70000,-6.63960,-11.26172
52.80000,-6.64800,-11.28857
52.90000,-6.65630,-11.28857
53.00000,-6.66460,-11.30199
53.10000,-6.67300,-11.34226
53.20000,-6.68130,-11.35568
53.30000,-6.68960,-11.36910
53.40000,-6.69800,-11.39595
53.50000,-6.70630,-11.40937
53.60000,-6.71460,-11.42279
53.70000,-6.72300,-11.44964
53.80000,-6.73130,-11.44964
53.90000,-6.73960,-11.47649
54.00000,-6.74800,-11.50333
54.10000,-6.75630,-11.51675
54.20000,-6.76460,-11.53018
54.30000,-6.77290,-11.55702
54.40000,-6.78130,-11.57045
54.50000,-6.78960,-11.58387
54.60000,-6.79790,-11.59729
54.70000,-6.80630,-11.62414
54.80000,-6.81460,-11.63756
54.90000,-6.82290,-11.65098
55.00000,-6.83130,-11.67783
55.10000,-6.83960,-11.69125
55.20000,-6.84790,-11.71810
55.30000,-6.85630,-11.73152
55.40000,-6.86460,-11.74494
55.50000,-6.87290,-11.77179
55.60000,-6.88130,-11.78521
55.70000,-6.88960,-11.79863
55.80000,-6.89790,-11.82548
55.90000,-6.90630,-11.83890
56.00000,-6.91460,-11.86575
56.10000,-6.92290,-11.86575
56.20000,-6.93130,-11.89259
56.30000,-6.93960,-11.90601
56.40000,-6.94790,-11.91944
56.50000,-6.95630,-11.93286
56.60000,-6.96460,-11.95971
56.70000,-6.97290,-11.97313
56.80000,-6.98130,-11.99997
56.90000,-6.98960,-12.01340
57.00000,-6.99790,-12.04024
57.10000,-7.00630,-12.05367
57.20000,-7.01460,-12.06709
57.30000,-7.02290,-12.08051
57.40000,-7.03130,-12.09393
57.50000,-7.03960,-12.10736
57.60000,-7.04790,-12.13420
57.70000,-7.05630,-12.16105
57.80000,-7.06460,-12.17447
57.90000,-7.07290,-12.18789
58.00000,-7.08130,-12.20132
58.10000,-7.08960,-12.21474
58.20000,-7.09790,-12.24158
58.30000,-7.10630,-12.25501
58.40000,-7.11460,-12.26843
58.50000,-7.12290,-12.29528
58.60000,-7.13130,-12.30870
58.70000,-7.13960,-12.32212
58.80000,-7.14790,-12.34897
58.90000,-7.15630,-12.36239
59.00000,-7.16460,-12.37581
59.10000,-7.17290,-12.38924
59.20000,-7.18130,-12.41608
59.30000,-7.18960,-12.42950
59.40000,-7.19790,-12.45635
59.50000,-7.20630,-12.46977
59.60000,-7.21460,-12.48319
59.70000,-7.22290,-12.49662
59.80000,-7.23130,-12.51004
59.90000,-7.23960,-12.53689
60.00000,-7.24790,-12.55031
60.10000,-7.25630,-12.57715
60.20000,-7.26460,-12.59058
60.30000,-7.27290,-12.60400
60.40000,-7.28130,-12.61742
60.50000,-7.28960,-12.63085
60.60000,-7.29790,-12.65769
60.70000,-7.30620,-12.67111
60.80000,-7.31460,-12.69796
60.90000,-7.32290,-12.71138
61.00000,-7.33120,-12.72480
61.10000,-7.33960,-12.73823
61.20000,-7.34790,-12.75165
61.30000,-7.35620,-12.77850
61.40000,-7.36460,-12.79192
61.50000,-7.37290,-12.80534
61.60000,-7.38120,-12.81876
61.70000,-7.38960,-12.83219
61.80000,-7.39790,-12.84561
61.90000,-7.40620,-12.87246
62.00000,-7.41460,-12.89930
62.10000,-7.42290,-12.91272
62.20000,-7.43120,-12.92615
62.30000,-7.43960,-12.93957
62.40000,-7.44790,-12.96641
62.50000,-7.45620,-12.96641
62.60000,-7.46460,-13.00668
62.70000,-7.47290,-13.00668
62.80000,-7.48120,-13.02011
62.90000,-7.48960,-13.04695
63.00000,-7.49790,-13.06037
63.10000,-7.50620,-13.07380
63.20000,-7.51460,-13.10064
63.30000,-7.52290,-13.11407
63.40000,-7.53120,-13.14091
63.50000,-7.53960,-13.14091
63.60000,-7.54790,-13.15433
63.70000,-7.55620,-13.18118
63.80000,-7.56460,-13.19460
63.90000,-7.57290,-13.20802
64.00000,-7.58120,-13.23487
64.10001,-7.58960,-13.24829
64.20000,-7.59790,-13.26172
64.30000,-7.60620,-13.27514
64.40000,-7.61460,-13.28856
64.50000,-7.62290,-13.31541
64.60001,-7.63120,-13.32883
64.70000,-7.63960,-13.34225
64.80000,-7.64790,-13.35568
64.90000,-7.65620,-13.38252
65.00000,-7.66460,-13.39594
65.10001,-7.67290,-13.40937
65.20000,-7.68120,-13.42279
65.30000,-7.68960,-13.44963
65.40000,-7.69790,-13.44963
65.50000,-7.70620,-13.47648
65.60001,-7.71460,-13.48990
65.70001,-7.72290,-13.50333
65.80000,-7.73120,-13.53017
65.90000,-7.73960,-13.53017
66.00000,-7.74790,-13.55702
66.10001,-7.75620,-13.57044
66.20001,-7.76460,-13.58386
66.30000,-7.77290,-13.61071
66.40000,-7.78120,-13.62413
66.50000,-7.78960,-13.63755
66.60001,-7.79790,-13.66440
66.70001,-7.80620,-13.67782
66.80000,-7.81450,-13.69125
66.90000,-7.82290,-13.71809
67.00000,-7.83120,-13.71809
67.10001,-7.83950,-13.73151
67.20001,-7.84790,-13.75836
67.30000,-7.85620,-13.75836
67.40000,-7.86450,-13.78520
67.50000,-7.87290,-13.79863
67.60001,-7.88120,-13.81205
67.70001,-7.88950,-13.83890
67.80000,-7.89790,-13.85232
67.90000,-7.90620,-13.86574
68.00000,-7.91450,-13.87916
68.10001,-7.92290,-13.89259
68.20001,-7.93120,-13.91943
68.30000,-7.93950,-13.93286
68.40000,-7.94790,-13.94628
68.50000,-7.95620,-13.95970
68.60001,-7.96450,-13.97312
68.70001,-7.97290,-13.99997
68.80000,-7.98120,-14.01339
68.90000,-7.98950,-14.02681
69.00000,-7.99790,-14.04024
69.10001,-8.00620,-14.05366
69.20001,-8.01450,-14.06708
69.30000,-8.02290,-14.09393
69.40000,-8.03120,-14.10735
69.50000,-8.03950,-14.12077
69.60001,-8.04790,-14.13420
69.70001,-8.05620,-14.13420
69.80000,-8.06450,-14.14762
69.90000,-8.07290,-14.17447
70.00000,-8.08120,-14.20131
70.10001,-8.08950,-14.21473
70.20001,-8.09790,-14.22816
70.30000,-8.10620,-14.24158
70.40000,-8.11450,-14.25500
70.50000,-8.12290,-14.26842
70.60001,-8.13120,-14.29527
70.70001,-8.13950,-14.29527
70.80000,-8.14790,-14.30869
70.90000,-8.15620,-14.33554
71.00000,-8.16450,-14.34896
71.10001,-8.17290,-14.36238
71.20001,-8.18120,-14.37581
71.30000,-8.18950,-14.40265
71.40000,-8.19790,-14.40265
71.50000,-8.20620,-14.42950
71.60001,-8.21450,-14.44292
71.70001,-8.22290,-14.44292
71.80000,-8.23120,-14.45634
71.90000,-8.23950,-14.48319
72.00000,-8.24790,-14.49661
72.10001,-8.25620,-14.52346
72.20001,-8.26450,-14.52346
72.30000,-8.27290,-14.55030
72.40000,-8.28120,-14.55030
72.50000,-8.28950,-14.56373
72.60001,-8.29790,-14.59057
72.70001,-8.30620,-14.60399
72.80000,-8.31450,-14.61742
72.90000,-8.32290,-14.63084
73.00000,-8.33120,-14.65769
73.10001,-8.33950,-14.67111
73.20001,-8.34780,-14.68453
73.30000,-8.35620,-14.69795
73.40000,-8.36450,-14.71138
73.50000,-8.37280,-14.72480
73.60001,-8.38120,-14.72480
73.70001,-8.38950,-14.75165
73.80000,-8.39780,-14.77849
73.90000,-8.40620,-14.79191
74.00000,-8.41450,-14.80534
74.10001,-8.42280,-14.81876
74.20001,-8.43120,-14.83218
74.30000,-8.43950,-14.84560
74.40000,-8.44780,-14.85903
74.50000,-8.45620,-14.87245
74.60001,-8.46450,-14.88587
74.70001,-8.47280,-14.91272
74.80000,-8.48120,-14.92614
74.90000,-8.48950,-14.92614
75.00000,-8.49780,-14.95299
75.10001,-8.50620,-14.96641
75.20001,-8.51450,-14.97983
75.30000,-8.52280,-15.00668
75.40000,-8.53120,-15.00668
75.50000,-8.53950,-15.02010
75.60001,-8.54780,-15.03352
75.70001,-8.55620,-15.06037
75.80000,-8.56450,-15.07379
75.90000,-8.57280,-15.07379
76.00000,-8.58120,-15.10064
76.10001,-8.58950,-15.10064
76.20001,-8.59780,-15.12748
76.30000,-8.60620,-15.14091
76.40000,-8.61450,-15.15433
76.50000,-8.62280,-15.16775
76.60001,-8.63120,-15.18117
76.70001,-8.63950,-15.19460
76.80000,-8.64780,-15.20802
76.90000,-8.65620,-15.22144
77.00000,-8.66450,-15.24829
77.10001,-8.67280,-15.24829
77.20001,-8.68120,-15.27513
77.30000,-8.68950,-15.27513
77.40000,-8.69780,-15.30198
77.50000,-8.70620,-15.31540
77.60001,-8.71450,-15.32882
77.70001,-8.72280,-15.34225
77.80000,-8.73120,-15.35567
77.90000,-8.73950,-15.35567
78.00000,-8.74780,-15.36909
78.10001,-8.75620,-15.39594
78.20001,-8.76450,-15.40936
78.30000,-8.77280,-15.43621
78.40000,-8.78120,-15.43621
78.50000,-8.78950,-15.44963
78.60001,-8.79780,-15.46305
78.70001,-8.80620,-15.46305
78.80000,-8.81450,-15.48990
78.90000,-8.82280,-15.50332
79.00000,-8.83120,-15.51674
79.10001,-8.83950,-15.53017
79.20001,-8.84780,-15.54359
79.30000,-8.85610,-15.55701
79.40000,-8.86450,-15.57043
79.50000,-8.87280,-15.58386
79.60001,-8.88110,-15.59728
79.70001,-8.88950,-15.61070
79.80000,-8.89780,-15.62413
79.90000,-8.90610,-15.63755
80.00000,-8.91450,-15.65097
80.10001,-8.92280,-15.67782
80.20001,-8.93110,-15.69124
80.30000,-8.93950,-15.70466
80.40000,-8.94780,-15.71809
80.50001,-8.95610,-15.71809
80.60001,-8.96450,-15.73151
80.70001,-8.97280,-15.74493
80.80000,-8.98110,-15.77178
80.90000,-8.98950,-15.78520
81.00001,-8.99780,-15.79862
81.10001,-9.00610,-15.79862
81.20001,-9.01450,-15.82547
81.30000,-9.02280,-15.82547
81.40000,-9.03110,-15.83889
81.50001,-9.03950,-15.86574
81.60001,-9.04780,-15.86574
81.70001,-9.05610,-15.87916
81.80000,-9.06450,-15.89258
81.90000,-9.07280,-15.90600
82.00001,-9.08110,-15.93285
82.10001,-9.08950,-15.93285
82.20001,-9.09780,-15.94627
82.30000,-9.10610,-15.97312
82.40000,-9.11450,-15.97312
82.50001,-9.12280,-15.98654
82.60001,-9.13110,-15.99996
82.70001,-9.13950,-16.02681
82.80000,-9.14780,-16.04023
82.90000,-9.15610,-16.05366
83.00001,-9.16450,-16.06708
83.10001,-9.17280,-16.06708
83.20001,-9.18110,-16.08050
83.30000,-9.18950,-16.09392
83.40000,-9.19780,-16.12077
83.50001,-9.20610,-16.12077
83.60001,-9.21450,-16.13419
83.70001,-9.22280,-16.16104
83.80000,-9.23110,-16.17446
83.90000,-9.23950,-16.18788
84.00001,-9.24780,-16.18788
84.10001,-9.25610,-16.20131
84.20001,-9.26450,-16.21473
84.30000,-9.27280,-16.22815
84.40000,-9.28110,-16.24157
84.50001,-9.28950,-16.25500
84.60001,-9.29780,-16.26842
84.70001,-9.30610,-16.28184
84.80000,-9.31450,-16.29527
84.90000,-9.32280,-16.30869
85.00001,-9.33110,-16.33553
85.10001,-9.33950,-16.33553
85.20001,-9.34780,-16.34896
85.30000,-9.35610,-16.36238
85.40000,-9.36450,-16.36238
85.50001,-9.37280,-16.38922
85.60001,-9.38110,-16.40265
85.70001,-9.38940,-16.41607
85.80000,-9.39780,-16.42949
85.90000,-9.40610,-16.42949
86.00001,-9.41440,-16.44292
86.10001,-9.42280,-16.46976
86.20001,-9.43110,-16.46976
86.30000,-9.43940,-16.48318
86.40000,-9.44780,-16.51003
86.50001,-9.45610,-16.51003
86.60001,-9.46440,-16.52345
86.70001,-9.47280,-16.53688
86.80000,-9.48110,-16.55030
86.90000,-9.48940,-16.56372
87.00001,-9.49780,-16.57714
87.10001,-9.50610,-16.59057
87.20001,-9.51440,-16.60399
87.30000,-9.52280,-16.61741
87.40000,-9.53110,-16.63083
87.50001,-9.53940,-16.64426
87.60001,-9.54780,-16.65768
87.70001,-9.55610,-16.65768
87.80000,-9.56440,-16.67110
87.90000,-9.57280,-16.67110
88.00001,-9.58110,-16.69795
88.10001,-9.58940,-16.71137
88.20001,-9.59780,-16.72479
88.30000,-9.60610,-16.73822
88.40000,-9.61440,-16.75164
88.50001,-9.62280,-16.75164
88.60001,-9.63110,-16.75164
88.70001,-9.63940,-16.77849
88.80000,-9.64780,-16.79191
88.90000,-9.65610,-16.80533
89.00001,-9.66440,-16.81875
89.10001,-9.67280,-16.83218
89.20001,-9.68110,-16.84560
89.30000,-9.68940,-16.85902
89.40000,-9.69780,-16.87245
89.50001,-9.70610,-16.87245
89.60001,-9.71440,-16.89929
89.70001,-9.72280,-16.89929
89.80000,-9.73110,-16.91271
89.90000,-9.73940,-16.92614
90.00001,-9.74780,-16.93956
90.10001,-9.75610,-16.95298
90.20001,-9.76440,-16.96640
90.30000,-9.77280,-16.97983
90.40000,-9.78110,-16.97983
90.50001,-9.78940,-16.99325
90.60001,-9.79780,-16.99325
90.70001,-9.80610,-17.02010
90.80000,-9.81440,-17.03352
90.90000,-9.82280,-17.04694
91.00001,-9.83110,-17.06036
91.10001,-9.83940,-17.07379
91.20001,-9.84780,-17.08721
91.30000,-9.85610,-17.08721
91.40000,-9.86440,-17.10063
91.50001,-9.87280,-17.11406
91.60001,-9.88110,-17.11406
91.70001,-9.88940,-17.12748
91.80000,-9.89770,-17.15432
91.90000,-9.90610,-17.16775
92.00001,-9.91440,-17.16775
92.10001,-9.92270,-17.19459
92.20001,-9.93110,-17.18117
92.30000,-9.93940,-17.20801
92.40000,-9.94770,-17.22144
92.50001,-9.95610,-17.22144
92.60001,-9.96440,-17.23486
92.70001,-9.97270,-17.24828
92.80000,-9.98110,-17.26171
92.90000,-9.98940,-17.27513
93.00001,-9.99770,-17.28855
93.10001,-10.00610,-17.30197
93.20001,-10.01440,-17.30197
93.30000,-10.02270,-17.31540
93.35001,-10.02690,-17.31540
