Time,Extension,Load
(sec),(mm),(N)
0.00000,-1.12200,-1.34228
0.10000,-1.13090,-1.50336
0.20000,-1.13920,-1.61074
0.30000,-1.14750,-1.71812
0.40000,-1.15590,-1.82550
0.50000,-1.16420,-1.91946
0.60000,-1.17250,-2.01342
0.70000,-1.18090,-2.12080
0.80000,-1.18920,-2.22819
0.90000,-1.19750,-2.32215
1.00000,-1.20590,-2.41611
1.10000,-1.21420,-2.52349
1.20000,-1.22250,-2.63087
1.30000,-1.23090,-2.73825
1.40000,-1.23920,-2.84564
1.50000,-1.24750,-2.93959
1.60000,-1.25590,-3.04698
1.70000,-1.26420,-3.14094
1.80000,-1.27250,-3.23490
1.90000,-1.28090,-3.34228
2.00000,-1.28920,-3.44966
2.10000,-1.29750,-3.55704
2.20000,-1.30590,-3.66443
2.30000,-1.31420,-3.77181
2.40000,-1.32250,-3.86577
2.50000,-1.33090,-3.97315
2.60000,-1.33920,-4.06711
2.70000,-1.34750,-4.16107
2.80000,-1.35590,-4.28187
2.90000,-1.36420,-4.37583
3.00000,-1.37250,-4.46979
3.10000,-1.38090,-4.59060
3.20000,-1.38920,-4.69798
3.30000,-1.39750,-4.80536
3.40000,-1.40590,-4.89932
3.50000,-1.41420,-4.99328
3.60000,-1.42250,-5.10066
3.70000,-1.43090,-5.19462
3.80000,-1.43920,-5.30200
3.90000,-1.44750,-5.40939
4.00000,-1.45590,-5.50335
4.10000,-1.46420,-5.62415
4.20000,-1.47250,-5.70469
4.30000,-1.48090,-5.81207
4.40000,-1.48920,-5.91945
4.50000,-1.49750,-6.01341
4.60000,-1.50590,-6.12079
4.70000,-1.51420,-6.21475
4.80000,-1.52250,-6.30871
4.90000,-1.53090,-6.42952
5.00000,-1.53920,-6.53690
5.10000,-1.54750,-6.63086
5.20000,-1.55590,-6.73824
5.30000,-1.56420,-6.83220
5.40000,-1.57250,-6.92616
5.50000,-1.58090,-7.03354
5.60000,-1.58920,-7.12750
5.70000,-1.59750,-7.23489
5.80000,-1.60580,-7.32885
5.90000,-1.61420,-7.43623
6.00000,-1.62250,-7.53019
6.10000,-1.63080,-7.63757
6.20000,-1.63920,-7.75837
6.30000,-1.64750,-7.85233
6.40000,-1.65580,-7.94629
6.50000,-1.66420,-8.04025
6.60000,-1.67250,-8.13421
6.70000,-1.68080,-8.24159
6.80000,-1.68920,-8.34898
6.90000,-1.69750,-8.45636
7.00000,-1.70580,-8.56374
7.10000,-1.71420,-8.65770
7.20000,-1.72250,-8.76508
7.30000,-1.73080,-8.87247
7.40000,-1.73920,-8.96642
7.50000,-1.74750,-9.07381
7.60000,-1.75580,-9.16777
7.70000,-1.76420,-9.27515
7.80000,-1.77250,-9.36911
7.90000,-1.78080,-9.47649
8.00000,-1.78920,-9.58387
8.10000,-1.79750,-9.67783
8.20000,-1.80580,-9.78521
8.30000,-1.81420,-9.87917
8.40000,-1.82250,-9.98656
8.50000,-1.83080,-10.08052
8.60000,-1.83920,-10.20132
8.70000,-1.84750,-10.29528
8.80000,-1.85580,-10.38924
8.90000,-1.86420,-10.49662
9.00000,-1.87250,-10.59058
9.10000,-1.88080,-10.69796
9.20000,-1.88920,-10.80535
9.30000,-1.89750,-10.89931
9.40000,-1.90580,-11.00669
9.50000,-1.91420,-11.11407
9.60000,-1.92250,-11.22145
9.70000,-1.93080,-11.32884
9.80000,-1.93920,-11.42279
9.90000,-1.94750,-11.51675
10.00000,-1.95580,-11.62414
10.10000,-1.96420,-11.71810
10.20000,-1.97250,-11.82548
10.30000,-1.98080,-11.93286
10.40000,-1.98920,-12.04024
10.50000,-1.99750,-12.13420
10.60000,-2.00580,-12.22816
10.70000,-2.01420,-12.32212
10.80000,-2.02250,-12.42950
10.90000,-2.03080,-12.52346
11.00000,-2.03920,-12.63085
11.10000,-2.04750,-12.72480
11.20000,-2.05580,-12.83219
11.30000,-2.06420,-12.92615
11.40000,-2.07250,-13.03353
11.50000,-2.08080,-13.12749
11.60000,-2.08920,-13.23487
11.70000,-2.09750,-13.32883
11.80000,-2.10580,-13.43621
11.90000,-2.11420,-13.53017
12.00000,-2.12250,-13.62413
12.10000,-2.13080,-13.73151
12.20000,-2.13910,-13.83890
12.30000,-2.14750,-13.93286
12.40000,-2.15580,-14.02681
12.50000,-2.16410,-14.12077
12.60000,-2.17250,-14.21473
12.70000,-2.18080,-14.30869
12.80000,-2.18910,-14.41608
12.90000,-2.19750,-14.52346
13.00000,-2.20580,-14.63084
13.10000,-2.21410,-14.72480
13.20000,-2.22250,-14.81876
13.30000,-2.23080,-14.92614
13.40000,-2.23910,-15.02010
13.50000,-2.24750,-15.12748
13.60000,-2.25580,-15.23487
13.70000,-2.26410,-15.31540
13.80000,-2.27250,-15.42278
13.90000,-2.28080,-15.51674
14.00000,-2.28910,-15.62413
14.10000,-2.29750,-15.73151
14.20000,-2.30580,-15.82547
14.30000,-2.31410,-15.91943
14.40000,-2.32250,-16.01339
14.50000,-2.33080,-16.12077
14.60000,-2.33910,-16.21473
14.70000,-2.34750,-16.32211
14.80000,-2.35580,-16.41607
14.90000,-2.36410,-16.51003
15.00000,-2.37250,-16.60399
15.10000,-2.38080,-16.71137
15.20000,-2.38910,-16.81875
15.30000,-2.39750,-16.91271
15.40000,-2.40580,-17.02010
15.50000,-2.41410,-17.11406
15.60000,-2.42250,-17.20801
15.70000,-2.43080,-17.31540
15.80000,-2.43910,-17.40936
15.90000,-2.44750,-17.50332
16.00000,-2.45580,-17.61070
16.10000,-2.46410,-17.70466
16.20000,-2.47250,-17.79862
16.30000,-2.48080,-17.90600
16.40000,-2.48910,-18.01338
16.50000,-2.49750,-18.12076
16.60000,-2.50580,-18.21472
16.70000,-2.51410,-18.30868
16.80000,-2.52250,-18.40264
16.90000,-2.53080,-18.49660
17.00000,-2.53910,-18.60398
17.10000,-2.54750,-18.71137
17.20000,-2.55580,-18.80533
17.30000,-2.56410,-18.91271
17.40000,-2.57250,-19.00667
17.50000,-2.58080,-19.08720
17.60000,-2.58910,-19.20801
17.70000,-2.59750,-19.30197
17.80000,-2.60580,-19.40935
17.90000,-2.61410,-19.50331
18.00000,-2.62250,-19.59727
18.10000,-2.63080,-19.67781
18.20000,-2.63910,-19.78519
18.30000,-2.64740,-19.89257
18.40000,-2.65580,-19.98653
18.50000,-2.66410,-20.09391
18.60000,-2.67240,-20.18787
18.70000,-2.68080,-20.28183
18.80000,-2.68910,-20.37579
18.90000,-2.69740,-20.46975
19.00000,-2.70580,-20.57713
19.10000,-2.71410,-20.67109
19.20000,-2.72240,-20.76505
19.30000,-2.73080,-20.85901
19.40000,-2.73910,-20.96639
19.50000,-2.74740,-21.06035
19.60000,-2.75580,-21.15431
19.70000,-2.76410,-21.26170
19.80000,-2.77240,-21.35566
19.90000,-2.78080,-21.46304
20.00000,-2.78910,-21.55700
20.10000,-2.79740,-21.65096
20.20000,-2.80580,-21.75834
20.30000,-2.81410,-21.86572
20.40000,-2.82240,-21.94626
20.50000,-2.83080,-22.05364
20.60000,-2.83910,-22.14760
20.70000,-2.84740,-22.24156
20.80000,-2.85580,-22.33552
20.90000,-2.86410,-22.42948
21.00000,-2.87240,-22.52344
21.10000,-2.88080,-22.63082
21.20000,-2.88910,-22.73820
21.30000,-2.89740,-22.81874
21.40000,-2.90580,-22.91270
21.50000,-2.91410,-23.02008
21.60000,-2.92240,-23.11404
21.70000,-2.93080,-23.20800
21.80000,-2.93910,-23.30196
21.90000,-2.94740,-23.39592
22.00000,-2.95580,-23.50330
22.10000,-2.96410,-23.59726
22.20000,-2.97240,-23.69122
22.30000,-2.98080,-23.79860
22.40000,-2.98910,-23.89256
22.50000,-2.99740,-23.97310
22.60000,-3.00580,-24.06706
22.70000,-3.01410,-24.17444
22.80000,-3.02240,-24.25498
22.90000,-3.03080,-24.37578
23.00000,-3.03910,-24.45632
23.10000,-3.04740,-24.56370
23.20000,-3.05580,-24.64424
23.30000,-3.06410,-24.73820
23.40000,-3.07240,-24.83216
23.50000,-3.08080,-24.93954
23.60000,-3.08910,-25.03350
23.70000,-3.09740,-25.12746
23.80000,-3.10580,-25.22142
23.90000,-3.11410,-25.31538
24.00000,-3.12240,-25.40934
24.10000,-3.13080,-25.50330
24.20000,-3.13910,-25.59725
24.30000,-3.14740,-25.69121
24.40000,-3.15580,-25.78517
24.50000,-3.16410,-25.87913
24.60000,-3.17240,-25.97309
24.70000,-3.18070,-26.06705
24.80000,-3.18910,-26.16101
24.90000,-3.19740,-26.25497
25.00000,-3.20570,-26.34893
25.10000,-3.21410,-26.42947
25.20000,-3.22240,-26.53685
25.30000,-3.23070,-26.63081
25.40000,-3.23910,-26.72477
25.50000,-3.24740,-26.81873
25.60000,-3.25570,-26.91269
25.70000,-3.26410,-27.00665
25.80000,-3.27240,-27.10061
25.90000,-3.28070,-27.18114
26.00000,-3.28910,-27.28853
26.10000,-3.29740,-27.38249
26.20000,-3.30570,-27.47644
26.30000,-3.31410,-27.57040
26.40000,-3.32240,-27.66436
26.50000,-3.33070,-27.75832
26.60000,-3.33910,-27.85228
26.70000,-3.34740,-27.94624
26.80000,-3.35570,-28.04020
26.90000,-3.36410,-28.13416
27.00000,-3.37240,-28.21470
27.10000,-3.38070,-28.30866
27.20000,-3.38910,-28.40262
27.30000,-3.39740,-28.49658
27.40000,-3.40570,-28.59054
27.50000,-3.41410,-28.68450
27.60000,-3.42240,-28.77845
27.70000,-3.43070,-28.85899
27.80000,-3.43910,-28.95295
27.90000,-3.44740,-29.04691
28.00000,-3.45570,-29.14087
28.10000,-3.46410,-29.22141
28.20000,-3.47240,-29.32879
28.30000,-3.48070,-29.42275
28.40000,-3.48910,-29.51671
28.50000,-3.49740,-29.61067
28.60000,-3.50570,-29.69120
28.70000,-3.51410,-29.79859
28.80000,-3.52240,-29.87912
28.90000,-3.53070,-29.95966
29.00000,-3.53910,-30.05362
29.10000,-3.54740,-30.14758
29.20000,-3.55570,-30.24154
29.30000,-3.56410,-30.33550
29.40000,-3.57240,-30.42946
29.50000,-3.58070,-30.52342
29.60000,-3.58910,-30.61738
29.70000,-3.59740,-30.69791
29.80000,-3.60570,-30.79187
29.90000,-3.61410,-30.87241
30.00000,-3.62240,-30.97979
30.10000,-3.63070,-31.06033
30.20000,-3.63910,-31.15429
30.30000,-3.64740,-31.24825
30.40000,-3.65570,-31.32878
30.50000,-3.66410,-31.43617
30.60000,-3.67240,-31.53013
30.70000,-3.68070,-31.61066
30.80000,-3.68900,-31.70462
30.90000,-3.69740,-31.78516
31.00000,-3.70570,-31.86570
31.10000,-3.71400,-31.97308
31.20000,-3.72240,-32.06704
31.30000,-3.73070,-32.14757
31.40000,-3.73900,-32.24153
31.50000,-3.74740,-32.32207
31.60000,-3.75570,-32.41603
31.70000,-3.76400,-32.50999
31.80000,-3.77240,-32.59053
31.90000,-3.78070,-32.68449
32.00000,-3.78900,-32.77844
32.10000,-3.79740,-32.87240
32.20000,-3.80570,-32.95294
32.30000,-3.81400,-33.03348
32.40000,-3.82240,-33.12744
32.50000,-3.83070,-33.20797
32.60000,-3.83900,-33.31536
32.70000,-3.84740,-33.40932
32.80000,-3.85570,-33.48985
32.90000,-3.86400,-33.57039
33.00000,-3.87240,-33.66435
33.10000,-3.88070,-33.74489
33.20000,-3.88900,-33.85227
33.30000,-3.89740,-33.93280
33.40000,-3.90570,-34.02676
33.50000,-3.91400,-34.10730
33.60000,-3.92240,-34.20126
33.70000,-3.93070,-34.28180
33.80000,-3.93900,-34.37576
33.90000,-3.94740,-34.46972
34.00000,-3.95570,-34.55025
34.10000,-3.96400,-34.64421
34.20000,-3.97240,-34.72475
34.30000,-3.98070,-34.81871
34.40000,-3.98900,-34.89924
34.50000,-3.99740,-34.99320
34.60000,-4.00570,-35.08716
34.70000,-4.01400,-35.18112
34.80000,-4.02240,-35.26166
34.90000,-4.03070,-35.35562
35.00000,-4.03900,-35.43616
35.10000,-4.04740,-35.50327
35.20000,-4.05570,-35.61065
35.30000,-4.06400,-35.70461
35.40000,-4.07240,-35.79857
35.50000,-4.08070,-35.87911
35.60000,-4.08900,-35.97307
35.70000,-4.09740,-36.06703
35.80000,-4.10570,-36.14756
35.90000,-4.11400,-36.24152
36.00000,-4.12240,-36.33548
36.10000,-4.13070,-36.41602
36.20000,-4.13900,-36.49656
36.30000,-4.14740,-36.59052
36.40000,-4.15570,-36.67105
36.50000,-4.16400,-36.77843
36.60000,-4.17240,-36.87239
36.70000,-4.18070,-36.95293
36.80000,-4.18900,-37.04689
36.90000,-4.19740,-37.11400
37.00000,-4.20570,-37.20796
37.10000,-4.21400,-37.30192
37.20000,-4.22230,-37.39588
37.30000,-4.23070,-37.47642
37.40000,-4.23900,-37.58380
37.50000,-4.24730,-37.66434
37.60000,-4.25570,-37.74487
37.70000,-4.26400,-37.83883
37.80000,-4.27230,-37.91937
37.90000,-4.28070,-38.01333
38.00000,-4.28900,-38.09387
38.10000,-4.29730,-38.18783
38.20000,-4.30570,-38.26836
38.30000,-4.31400,-38.34890
38.40000,-4.32230,-38.44286
38.50000,-4.33070,-38.53682
38.60000,-4.33900,-38.61736
38.70000,-4.34730,-38.71132
38.80000,-4.35570,-38.79185
38.90000,-4.36400,-38.88581
39.00000,-4.37230,-38.96635
39.10000,-4.38070,-39.04688
39.20000,-4.38900,-39.14084
39.30000,-4.39730,-39.23480
39.40000,-4.40570,-39.32876
39.50000,-4.41400,-39.39588
39.60000,-4.42230,-39.48984
39.70000,-4.43070,-39.57037
39.80000,-4.43900,-39.66433
39.90000,-4.44730,-39.75829
40.00000,-4.45570,-39.83883
40.10000,-4.46400,-39.93279
40.20000,-4.47230,-40.01333
40.30000,-4.48070,-40.09386
40.40000,-4.48900,-40.18782
40.50000,-4.49730,-40.26836
40.60000,-4.50570,-40.36232
40.70000,-4.51400,-40.44285
40.80000,-4.52230,-40.52339
40.90000,-4.53070,-40.60393
41.00000,-4.53900,-40.69789
41.10000,-4.54730,-40.77842
41.20000,-4.55560,-40.85896
41.30000,-4.56390,-40.95292
41.40000,-4.57230,-41.03346
41.50000,-4.58060,-41.12742
41.60000,-4.58890,-41.19453
41.70000,-4.59730,-41.27507
41.80000,-4.60560,-41.36903
41.90000,-4.61390,-41.46299
42.00000,-4.62230,-41.54352
42.10000,-4.63060,-41.62406
42.20000,-4.63890,-41.70460
42.30000,-4.64730,-41.78513
42.40000,-4.65560,-41.86567
42.50000,-4.66390,-41.95963
42.60000,-4.67230,-42.04017
42.70000,-4.68060,-42.12070
42.80000,-4.68890,-42.21466
42.90000,-4.69720,-42.29520
43.00000,-4.70560,-42.37574
43.10000,-4.71390,-42.46969
43.20000,-4.72220,-42.55023
43.30000,-4.73060,-42.63077
43.40000,-4.73890,-42.72473
43.50000,-4.74720,-42.79184
43.60000,-4.75560,-42.88580
43.70000,-4.76390,-42.96634
43.80000,-4.77220,-43.04687
43.90000,-4.78060,-43.14083
44.00000,-4.78890,-43.22137
44.10000,-4.79720,-43.30191
44.20000,-4.80560,-43.36902
44.30000,-4.81390,-43.44956
44.40000,-4.82220,-43.54352
44.50000,-4.83060,-43.63748
44.60000,-4.83890,-43.71801
44.70000,-4.84720,-43.79855
44.80000,-4.85560,-43.87909
44.90000,-4.86390,-43.95962
45.00000,-4.87220,-44.04016
45.10000,-4.88060,-44.10727
45.20000,-4.88890,-44.20123
45.30000,-4.89720,-44.28177
45.40000,-4.90560,-44.36231
45.50000,-4.91390,-44.45627
45.60000,-4.92220,-44.52338
45.70000,-4.93060,-44.60392
45.80000,-4.93890,-44.68445
45.90000,-4.94720,-44.76499
46.00000,-4.95560,-44.84553
46.10000,-4.96390,-44.92606
46.20000,-4.97220,-45.00660
46.30000,-4.98060,-45.08714
46.40000,-4.98890,-45.16767
46.50000,-4.99720,-45.24821
46.60000,-5.00560,-45.34217
46.70000,-5.01390,-45.42271
46.80000,-5.02220,-45.48982
46.90000,-5.03060,-45.57036
47.00000,-5.03890,-45.65089
47.10000,-5.04720,-45.73143
47.20000,-5.05560,-45.81197
47.30000,-5.06390,-45.90593
47.40000,-5.07220,-45.98646
47.50000,-5.08060,-46.05358
47.60000,-5.08890,-46.12069
47.70000,-5.09720,-46.20123
47.80000,-5.10560,-46.28177
47.90000,-5.11390,-46.36230
48.00000,-5.12220,-46.42942
48.10000,-5.13060,-46.50995
48.20000,-5.13890,-46.59049
48.30000,-5.14720,-46.67103
48.40000,-5.15560,-46.75156
48.50000,-5.16390,-46.83210
48.60000,-5.17220,-46.91264
48.70000,-5.18060,-46.99317
48.80000,-5.18890,-47.07371
48.90000,-5.19720,-47.14082
49.00000,-5.20560,-47.22136
49.10000,-5.21390,-47.28847
49.20000,-5.22220,-47.38243
49.30000,-5.23050,-47.46297
49.40000,-5.23890,-47.54351
49.50000,-5.24720,-47.62404
49.60000,-5.25550,-47.70458
49.70000,-5.26390,-47.78512
49.80000,-5.27220,-47.86565
49.90000,-5.28050,-47.94619
50.00000,-5.28890,-48.02673
50.10000,-5.29720,-48.10726
50.20000,-5.30550,-48.16096
50.30000,-5.31390,-48.24149
50.40000,-5.32220,-48.32203
50.50000,-5.33050,-48.40257
50.60000,-5.33890,-48.48310
50.70000,-5.34720,-48.56364
50.80000,-5.35550,-48.64418
50.90000,-5.36390,-48.72471
51.00000,-5.37220,-48.77840
51.10000,-5.38050,-48.85894
51.20000,-5.38890,-48.93948
51.30000,-5.39720,-49.02001
51.40000,-5.40550,-49.10055
51.50000,-5.41390,-49.18109
51.60000,-5.42220,-49.23478
51.70000,-5.43050,-49.31531
51.80000,-5.43890,-49.39585
51.90000,-5.44720,-49.47639
52.00000,-5.45550,-49.55693
52.10000,-5.46390,-49.63746
52.20000,-5.47220,-49.69115
52.30000,-5.48050,-49.77169
52.40000,-5.48890,-49.85223
52.50000,-5.49720,-49.93276
52.60000,-5.50550,-49.98645
52.70000,-5.51390,-50.06699
52.80000,-5.52220,-50.14753
52.90000,-5.53050,-50.22806
53.00000,-5.53890,-50.30860
53.10000,-5.54720,-50.38914
53.20000,-5.55550,-50.44283
53.30000,-5.56390,-50.52337
53.40000,-5.57220,-50.60390
53.50000,-5.58050,-50.68444
53.60000,-5.58890,-50.76498
53.70000,-5.59720,-50.84551
53.80000,-5.60550,-50.89920
53.90000,-5.61390,-50.97974
54.00000,-5.62220,-51.06028
54.10000,-5.63050,-51.11397
54.20000,-5.63890,-51.19450
54.30000,-5.64720,-51.27504
54.40000,-5.65550,-51.35558
54.50000,-5.66390,-51.40927
54.60000,-5.67220,-51.48981
54.70000,-5.68050,-51.57034
54.80000,-5.68890,-51.62403
54.90000,-5.69720,-51.70457
55.00000,-5.70550,-51.78511
55.10000,-5.71390,-51.83880
55.20000,-5.72220,-51.91934
55.30000,-5.73050,-51.99987
55.40000,-5.73880,-52.08041
55.50000,-5.74720,-52.16095
55.60000,-5.75550,-52.21464
55.70000,-5.76380,-52.29517
55.80000,-5.77220,-52.37571
55.90000,-5.78050,-52.42940
56.00000,-5.78880,-52.50994
56.10000,-5.79720,-52.59047
56.20000,-5.80550,-52.64417
56.30000,-5.81380,-52.72470
56.40000,-5.82220,-52.80524
56.50000,-5.83050,-52.88578
56.60000,-5.83880,-52.96631
56.70000,-5.84720,-53.02000
56.80000,-5.85550,-53.07369
56.90000,-5.86380,-53.15423
57.00000,-5.87220,-53.23477
57.10000,-5.88050,-53.31530
57.20000,-5.88880,-53.36900
57.30000,-5.89720,-53.44953
57.40000,-5.90550,-53.53007
57.50000,-5.91380,-53.58376
57.60000,-5.92220,-53.66430
57.70000,-5.93050,-53.74483
57.80000,-5.93880,-53.82537
57.90000,-5.94720,-53.87906
58.00000,-5.95550,-53.95960
58.10000,-5.96380,-54.01329
58.20000,-5.97220,-54.09383
58.30000,-5.98050,-54.17436
58.40000,-5.98880,-54.22805
58.50000,-5.99720,-54.30859
58.60000,-6.00550,-54.38913
58.70000,-6.01380,-54.46966
58.80000,-6.02220,-54.52336
58.90000,-6.03050,-54.57705
59.00000,-6.03880,-54.65758
59.10000,-6.04720,-54.73812
59.20000,-6.05550,-54.79181
59.30000,-6.06380,-54.87235
59.40000,-6.07220,-54.92604
59.50000,-6.08050,-55.00658
59.60000,-6.08880,-55.08711
59.70000,-6.09720,-55.14080
59.80000,-6.10550,-55.22134
59.90000,-6.11380,-55.30188
60.00000,-6.12220,-55.35557
60.10000,-6.13050,-55.43610
60.20000,-6.13880,-55.51664
60.30000,-6.14720,-55.57033
60.40000,-6.15550,-55.65087
60.50000,-6.16380,-55.70456
60.60000,-6.17220,-55.78510
60.70000,-6.18050,-55.86563
60.80000,-6.18880,-55.91932
60.90000,-6.19720,-55.99986
61.00000,-6.20550,-56.05355
61.10000,-6.21380,-56.13409
61.20000,-6.22220,-56.21463
61.30000,-6.23050,-56.26832
61.40000,-6.23880,-56.34885
61.50000,-6.24720,-56.40255
61.60000,-6.25550,-56.45624
61.70000,-6.26380,-56.53677
61.80000,-6.27210,-56.61731
61.90000,-6.28050,-56.67100
62.00000,-6.28880,-56.75154
62.10000,-6.29710,-56.80523
62.20000,-6.30550,-56.88577
62.30000,-6.31380,-56.93946
62.40000,-6.32210,-57.01999
62.50000,-6.33050,-57.10053
62.60000,-6.33880,-57.15422
62.70000,-6.34710,-57.23476
62.80000,-6.35550,-57.28845
62.90000,-6.36380,-57.36899
63.00000,-6.37210,-57.42268
63.10000,-6.38050,-57.50321
63.20000,-6.38880,-57.55690
63.30000,-6.39710,-57.63744
63.40000,-6.40550,-57.69113
63.50000,-6.41380,-57.74482
63.60000,-6.42210,-57.82536
63.70000,-6.43050,-57.90590
63.80000,-6.43880,-57.98643
63.90000,-6.44710,-58.04012
64.00000,-6.45550,-58.09382
64.10001,-6.46380,-58.17435
64.20000,-6.47210,-58.22804
64.30000,-6.48050,-58.28173
64.40000,-6.48880,-58.36227
64.50000,-6.49710,-58.44281
64.60001,-6.50550,-58.49650
64.70000,-6.51380,-58.57704
64.80000,-6.52210,-58.63073
64.90000,-6.53050,-58.71126
65.00000,-6.53880,-58.76496
65.10001,-6.54710,-58.81865
65.20000,-6.55550,-58.89918
65.30000,-6.56380,-58.95287
65.40000,-6.57210,-59.03341
65.50000,-6.58050,-59.08710
65.60001,-6.58880,-59.16764
65.70001,-6.59710,-59.22133
65.80000,-6.60550,-59.30187
65.90000,-6.61380,-59.35556
66.00000,-6.62210,-59.40925
66.10001,-6.63050,-59.46294
66.20001,-6.63880,-59.54348
66.30000,-6.64710,-59.62401
66.40000,-6.65550,-59.67770
66.50000,-6.66380,-59.73140
66.60001,-6.67210,-59.81193
66.70001,-6.68050,-59.86562
66.80000,-6.68880,-59.91931
66.90000,-6.69710,-59.99985
67.00000,-6.70550,-60.05354
67.10001,-6.71380,-60.13408
67.20001,-6.72210,-60.18777
67.30000,-6.73050,-60.24146
67.40000,-6.73880,-60.32200
67.50000,-6.74710,-60.37569
67.60001,-6.75550,-60.42938
67.70001,-6.76380,-60.50992
67.80000,-6.77210,-60.56361
67.90000,-6.78040,-60.61730
68.00000,-6.78880,-60.69784
68.10001,-6.79710,-60.75153
68.20001,-6.80540,-60.83206
68.30000,-6.81380,-60.85891
68.40000,-6.82210,-60.93945
68.50000,-6.83040,-60.99314
68.60001,-6.83880,-61.07367
68.70001,-6.84710,-61.12737
68.80000,-6.85540,-61.18106
68.90000,-6.86380,-61.26159
69.00000,-6.87210,-61.31528
69.10001,-6.88040,-61.36898
69.20001,-6.88880,-61.44951
69.30000,-6.89710,-61.50320
69.40000,-6.90540,-61.55689
69.50000,-6.91380,-61.61059
69.60001,-6.92210,-61.69112
69.70001,-6.93040,-61.74481
69.80000,-6.93880,-61.82535
69.90000,-6.94710,-61.87904
70.00000,-6.95540,-61.93273
70.10001,-6.96380,-62.01327
70.20001,-6.97210,-62.04011
70.30000,-6.98040,-62.12065
70.40000,-6.98880,-62.20119
70.50000,-6.99710,-62.25488
70.60001,-7.00540,-62.30857
70.70001,-7.01380,-62.38911
70.80000,-7.02210,-62.41595
70.90000,-7.03040,-62.49649
71.00000,-7.03880,-62.55018
71.10001,-7.04710,-62.60387
71.20001,-7.05540,-62.65756
71.30000,-7.06380,-62.71125
71.40000,-7.07210,-62.76494
71.50000,-7.08040,-62.84548
71.60001,-7.08880,-62.89917
71.70001,-7.09710,-62.95286
71.80000,-7.10540,-63.00656
71.90000,-7.11380,-63.08709
72.00000,-7.12210,-63.14078
72.10001,-7.13040,-63.19447
72.20001,-7.13880,-63.24817
72.30000,-7.14710,-63.30186
72.40000,-7.15540,-63.35555
72.50000,-7.16380,-63.43608
72.60001,-7.17210,-63.48978
72.70001,-7.18040,-63.54347
72.80000,-7.18880,-63.62400
72.90000,-7.19710,-63.65085
73.00000,-7.20540,-63.73139
73.10001,-7.21380,-63.78508
73.20001,-7.22210,-63.83877
73.30000,-7.23040,-63.89246
73.40000,-7.23880,-63.94615
73.50000,-7.24710,-63.99984
73.60001,-7.25540,-64.08038
73.70001,-7.26380,-64.13407
73.80000,-7.27210,-64.18776
73.90000,-7.28040,-64.24145
74.00000,-7.28880,-64.29514
74.10001,-7.29710,-64.34883
74.20001,-7.30540,-64.40252
74.30000,-7.31370,-64.45622
74.40000,-7.32210,-64.50991
74.50000,-7.33040,-64.56360
74.60001,-7.33870,-64.64413
74.70001,-7.34710,-64.69783
74.80000,-7.35540,-64.72467
74.90000,-7.36370,-64.80521
75.00000,-7.37210,-64.85890
75.10001,-7.38040,-64.88574
75.20001,-7.38870,-64.96628
75.30000,-7.39710,-65.01997
75.40000,-7.40540,-65.07366
75.50000,-7.41370,-65.12736
75.60001,-7.42210,-65.18105
75.70001,-7.43040,-65.23474
75.80000,-7.43870,-65.28843
75.90000,-7.44710,-65.34212
76.00000,-7.45540,-65.39581
76.10001,-7.46370,-65.44950
76.20001,-7.47210,-65.50319
76.30000,-7.48040,-65.55688
76.40000,-7.48870,-65.61058
76.50000,-7.49710,-65.66427
76.60001,-7.50540,-65.71796
76.70001,-7.51370,-65.77165
76.80000,-7.52210,-65.82534
76.90000,-7.53040,-65.87903
77.00000,-7.53870,-65.93272
77.10001,-7.54710,-65.98641
77.20001,-7.55540,-66.04010
77.30000,-7.56370,-66.09380
77.40000,-7.57210,-66.14749
77.50000,-7.58040,-66.20118
77.60001,-7.58870,-66.25487
77.70001,-7.59710,-66.30856
77.80000,-7.60540,-66.36225
77.90000,-7.61370,-66.41594
78.00000,-7.62210,-66.46963
78.10001,-7.63040,-66.52332
78.20001,-7.63870,-66.57702
78.30000,-7.64710,-66.60386
78.40000,-7.65540,-66.65755
78.50000,-7.66370,-66.71124
78.60001,-7.67210,-66.76493
78.70001,-7.68040,-66.81863
78.80000,-7.68870,-66.87232
78.90000,-7.69710,-66.92601
79.00000,-7.70540,-66.97970
79.10001,-7.71370,-67.03339
79.20001,-7.72210,-67.06024
79.30000,-7.73040,-67.14077
79.40000,-7.73870,-67.16762
79.50000,-7.74710,-67.22131
79.60001,-7.75540,-67.27500
79.70001,-7.76370,-67.32869
79.80000,-7.77210,-67.40923
79.90000,-7.78040,-67.43607
80.00000,-7.78870,-67.48977
80.10001,-7.79710,-67.54346
80.20001,-7.80540,-67.59715
80.30000,-7.81370,-67.65084
80.40000,-7.82200,-67.70453
80.50001,-7.83040,-67.73138
80.60001,-7.83870,-67.81191
80.70001,-7.84700,-67.86560
80.80000,-7.85540,-67.89245
80.90000,-7.86370,-67.97299
81.00001,-7.87200,-67.99983
81.10001,-7.88040,-68.05352
81.20001,-7.88870,-68.10721
81.30000,-7.89700,-68.16090
81.40000,-7.90540,-68.18775
81.50001,-7.91370,-68.26829
81.60001,-7.92200,-68.29513
81.70001,-7.93040,-68.34882
81.80000,-7.93870,-68.40251
81.90000,-7.94700,-68.45621
82.00001,-7.95540,-68.50990
82.10001,-7.96370,-68.53674
82.20001,-7.97200,-68.59043
82.30000,-7.98040,-68.64412
82.40000,-7.98870,-68.69782
82.50001,-7.99700,-68.75151
82.60001,-8.00540,-68.77835
82.70001,-8.01370,-68.85889
82.80000,-8.02200,-68.88573
82.90000,-8.03040,-68.93943
83.00001,-8.03870,-68.99312
83.10001,-8.04700,-69.04681
83.20001,-8.05540,-69.07365
83.30000,-8.06370,-69.12734
83.40000,-8.07200,-69.18104
83.50001,-8.08040,-69.23473
83.60001,-8.08870,-69.28842
83.70001,-8.09700,-69.34211
83.80000,-8.10540,-69.36895
83.90000,-8.11370,-69.42265
84.00001,-8.12200,-69.47634
84.10001,-8.13040,-69.53003
84.20001,-8.13870,-69.58372
84.30000,-8.14700,-69.61057
84.40000,-8.15540,-69.63741
84.50001,-8.16370,-69.71795
84.60001,-8.17200,-69.74479
84.70001,-8.18040,-69.79848
84.80000,-8.18870,-69.85218
84.90000,-8.19700,-69.87902
85.00001,-8.20540,-69.93271
85.10001,-8.21370,-69.95956
85.20001,-8.22200,-70.04009
85.30000,-8.23040,-70.06694
85.40000,-8.23870,-70.12063
85.50001,-8.24700,-70.17432
85.60001,-8.25540,-70.20117
85.70001,-8.26370,-70.25486
85.80000,-8.27200,-70.30855
85.90000,-8.28040,-70.33540
86.00001,-8.28870,-70.38909
86.10001,-8.29700,-70.44278
86.20001,-8.30540,-70.46962
86.30000,-8.31370,-70.52331
86.40000,-8.32200,-70.57701
86.50001,-8.33040,-70.60385
86.60001,-8.33870,-70.68439
86.70001,-8.34700,-70.71123
86.80000,-8.35530,-70.76492
86.90000,-8.36370,-70.81862
87.00001,-8.37200,-70.84546
87.10001,-8.38030,-70.89915
87.20001,-8.38870,-70.95284
87.30000,-8.39700,-70.97969
87.40000,-8.40530,-71.03338
87.50001,-8.41370,-71.06023
87.60001,-8.42200,-71.11392
87.70001,-8.43030,-71.16761
87.80000,-8.43870,-71.22130
87.90000,-8.44700,-71.27499
88.00001,-8.45530,-71.30184
88.10001,-8.46370,-71.32868
88.20001,-8.47200,-71.38237
88.30000,-8.48030,-71.43606
88.40000,-8.48870,-71.48975
88.50001,-8.49700,-71.54345
88.60001,-8.50530,-71.57029
88.70001,-8.51370,-71.62398
88.80000,-8.52200,-71.67767
88.90000,-8.53030,-71.70452
89.00001,-8.53870,-71.75821
89.10001,-8.54700,-71.78506
89.20001,-8.55530,-71.81190
89.30000,-8.56370,-71.86559
89.40000,-8.57200,-71.89244
89.50001,-8.58030,-71.94613
89.60001,-8.58870,-71.99982
89.70001,-8.59700,-72.05351
89.80000,-8.60530,-72.08036
89.90000,-8.61370,-72.13405
90.00001,-8.62200,-72.16089
90.10001,-8.63030,-72.21459
90.20001,-8.63870,-72.26828
90.30000,-8.64700,-72.29512
90.40000,-8.65530,-72.34881
90.50001,-8.66370,-72.37566
90.60001,-8.67200,-72.42935
90.70001,-8.68030,-72.45620
90.80000,-8.68870,-72.50989
90.90000,-8.69700,-72.53673
91.00001,-8.70530,-72.56358
91.10001,-8.71370,-72.61727
91.20001,-8.72200,-72.67096
91.30000,-8.73030,-72.69781
91.40000,-8.73870,-72.72465
91.50001,-8.74700,-72.77834
91.60001,-8.75530,-72.80519
91.70001,-8.76370,-72.85888
91.80000,-8.77200,-72.88572
91.90000,-8.78030,-72.93942
92.00001,-8.78870,-72.96626
92.10001,-8.79700,-72.99311
92.20001,-8.80530,-73.04680
92.30000,-8.81370,-73.07364
92.40000,-8.82200,-73.12733
92.50001,-8.83030,-73.15418
92.60001,-8.83870,-73.20787
92.70001,-8.84700,-73.23472
92.80000,-8.85530,-73.28841
92.90000,-8.86360,-73.31525
93.00001,-8.87200,-73.34210
93.10001,-8.88030,-73.39579
93.20001,-8.88860,-73.42264
93.30000,-8.89700,-73.47633
93.40000,-8.90530,-73.50317
93.50001,-8.91360,-73.53002
93.60001,-8.92200,-73.58371
93.70001,-8.93030,-73.63740
93.80000,-8.93860,-73.66425
93.90000,-8.94700,-73.71794
94.00001,-8.95530,-73.74478
94.10001,-8.96360,-73.77163
94.20001,-8.97200,-73.82532
94.30000,-8.98030,-73.85216
94.40000,-8.98860,-73.90586
94.50001,-8.99700,-73.93270
94.60001,-9.00530,-73.95955
94.70001,-9.01360,-74.01324
94.80000,-9.02200,-74.04008
94.90000,-9.03030,-74.06693
95.00001,-9.03860,-74.12062
95.10001,-9.04700,-74.14747
95.20001,-9.05530,-74.20116
95.30000,-9.06360,-74.22800
95.40000,-9.07200,-74.25485
95.50001,-9.08030,-74.28169
95.60001,-9.08860,-74.33539
95.70001,-9.09700,-74.36223
95.80000,-9.10530,-74.41592
95.90000,-9.11360,-74.44277
96.00001,-9.12200,-74.46961
96.10001,-9.13030,-74.52330
96.20001,-9.13860,-74.55015
96.30000,-9.14700,-74.57700
96.40000,-9.15530,-74.63069
96.50001,-9.16360,-74.65753
96.60001,-9.17200,-74.71122
96.70001,-9.18030,-74.73807
96.80000,-9.18860,-74.79176
96.90000,-9.19700,-74.81861
97.00001,-9.20530,-74.84545
97.10001,-9.21360,-74.89914
97.20001,-9.22200,-74.92599
97.30000,-9.23030,-74.95283
97.40000,-9.23860,-75.00652
97.50001,-9.24700,-75.00652
97.60001,-9.25530,-75.06022
97.70001,-9.26360,-75.11391
97.80000,-9.27200,-75.14075
97.90000,-9.28030,-75.16760
98.00001,-9.28860,-75.22129
98.10001,-9.29700,-75.24813
98.20001,-9.30530,-75.27498
98.30000,-9.31360,-75.30183
98.40000,-9.32200,-75.35552
98.50001,-9.33030,-75.38236
98.60001,-9.33860,-75.40921
98.70001,-9.34700,-75.46290
98.80000,-9.35530,-75.48974
98.90000,-9.36360,-75.51659
99.00001,-9.37200,-75.57028
99.10001,-9.38030,-75.59713
99.20001,-9.38860,-75.62397
99.30000,-9.39690,-75.67766
99.40000,-9.40530,-75.70451
99.50001,-9.41360,-75.73135
99.60001,-9.42190,-75.75820
99.70001,-9.43030,-75.78505
99.80000,-9.43860,-75.83874
99.90000,-9.44690,-75.86558
100.00001,-9.45530,-75.89243
100.10001,-9.46360,-75.94612
100.20001,-9.47190,-75.97296
100.30000,-9.48030,-75.99981
100.40000,-9.48860,-76.05350
100.50001,-9.49690,-76.08035
100.60001,-9.50530,-76.10719
100.70001,-9.51360,-76.16088
100.80000,-9.52190,-76.18773
100.90000,-9.53030,-76.21457
101.00001,-9.53860,-76.24142
101.10001,-9.54690,-76.29511
101.20001,-9.55530,-76.32196
101.30000,-9.56360,-76.34880
101.40000,-9.57190,-76.37565
101.50001,-9.58030,-76.42934
101.60001,-9.58860,-76.45619
101.70001,-9.59690,-76.48303
101.80000,-9.60530,-76.50988
101.90000,-9.61360,-76.56357
102.00001,-9.62190,-76.59041
102.10001,-9.63030,-76.61726
102.20001,-9.63860,-76.64410
102.30000,-9.64690,-76.69780
102.40000,-9.65530,-76.69780
102.50001,-9.66360,-76.75149
102.60001,-9.67190,-76.77833
102.70001,-9.68030,-76.80518
102.80000,-9.68860,-76.85887
102.90000,-9.69690,-76.88571
103.00001,-9.70530,-76.93941
103.10001,-9.71360,-76.96625
103.20001,-9.72190,-76.96625
103.30000,-9.73030,-77.01994
103.40000,-9.73860,-77.04679
103.50001,-9.74690,-77.07363
103.60001,-9.75530,-77.12732
103.70001,-9.76360,-77.15417
103.80000,-9.77190,-77.18102
103.90000,-9.78030,-77.23471
104.00001,-9.78860,-77.26155
104.10001,-9.79690,-77.28840
104.20001,-9.80530,-77.31524
104.30000,-9.81360,-77.34209
104.40000,-9.82190,-77.36893
104.50001,-9.83030,-77.39578
104.60001,-9.83860,-77.42263
104.70001,-9.84690,-77.47632
104.80000,-9.85530,-77.50316
104.90000,-9.86360,-77.53001
105.00001,-9.87190,-77.55685
105.10001,-9.88030,-77.58370
105.20001,-9.88860,-77.63739
105.30000,-9.89690,-77.66424
105.40000,-9.90520,-77.69108
105.50001,-9.91360,-77.71793
105.60001,-9.92190,-77.74477
105.70001,-9.93020,-77.77162
105.80000,-9.93860,-77.82531
105.90000,-9.94690,-77.82531
106.00001,-9.95520,-77.87900
106.10001,-9.96360,-77.90585
106.20001,-9.97190,-77.93269
106.30000,-9.98020,-77.95954
106.40000,-9.98860,-77.98638
106.50001,-9.99690,-78.01323
106.55000,-10.00110,-78.01323
