Time,Extension,Load
(sec),(mm),(N)
0.00000,-2.28890,-1.48000
0.10000,-2.29640,-1.62000
0.20000,-2.30310,-1.75000
0.30000,-2.30980,-1.88000
0.40000,-2.31640,-1.88000
0.50000,-2.32310,-2.02000
0.60000,-2.32980,-2.15000
0.70000,-2.33640,-2.29000
0.80000,-2.34310,-2.42000
0.90000,-2.34980,-2.42000
1.00000,-2.35640,-2.56000
1.10000,-2.36310,-2.69000
1.20000,-2.36980,-2.69000
1.30000,-2.37640,-2.82000
1.40000,-2.38310,-2.96000
1.50000,-2.38980,-3.09000
1.60000,-2.39640,-3.23000
1.70000,-2.40310,-3.23000
1.80000,-2.40980,-3.36000
1.90000,-2.41640,-3.49000
2.00000,-2.42310,-3.63000
2.10000,-2.42980,-3.76000
2.20000,-2.43640,-3.76000
2.30000,-2.44310,-3.76000
2.40000,-2.44980,-3.90000
2.50000,-2.45640,-4.03000
2.60000,-2.46310,-4.17000
2.70000,-2.46980,-4.30000
2.80000,-2.47640,-4.43000
2.90000,-2.48310,-4.43000
3.00000,-2.48980,-4.57000
3.10000,-2.49640,-4.70000
3.20000,-2.50310,-4.70000
3.30000,-2.50980,-4.84000
3.40000,-2.51640,-4.97000
3.50000,-2.52310,-5.11000
3.60000,-2.52970,-5.11000
3.70000,-2.53640,-5.37000
3.80000,-2.54310,-5.37000
3.90000,-2.54970,-5.51000
4.00000,-2.55640,-5.64000
4.10000,-2.56310,-5.64000
4.20000,-2.56970,-5.78000
4.30000,-2.57640,-5.78000
4.40000,-2.58310,-6.05000
4.50000,-2.58970,-6.05000
4.60000,-2.59640,-6.18000
4.70000,-2.60310,-6.31000
4.80000,-2.60970,-6.31000
4.90000,-2.61640,-6.45000
5.00000,-2.62310,-6.58000
5.10000,-2.62970,-6.72000
5.20000,-2.63640,-6.72000
5.30000,-2.64310,-6.85000
5.40000,-2.64970,-6.85000
5.50000,-2.65640,-6.98000
5.60000,-2.66310,-7.12000
5.70000,-2.66970,-7.25000
5.80000,-2.67640,-7.52000
5.90000,-2.68310,-7.52000
6.00000,-2.68970,-7.52000
6.10000,-2.69640,-7.66000
6.20000,-2.70310,-7.79000
6.30000,-2.70970,-7.79000
6.40000,-2.71640,-8.06000
6.50000,-2.72310,-8.06000
6.60000,-2.72970,-8.19000
6.70000,-2.73640,-8.33000
6.80000,-2.74310,-8.33000
6.90000,-2.74970,-8.46000
7.00000,-2.75640,-8.60000
7.10000,-2.76310,-8.73000
7.20000,-2.76970,-8.73000
7.30000,-2.77640,-8.86000
7.40000,-2.78310,-9.00000
7.50000,-2.78970,-9.13000
7.60000,-2.79640,-9.27000
7.70000,-2.80310,-9.27000
7.80000,-2.80970,-9.40000
7.90000,-2.81640,-9.40000
8.00000,-2.82310,-9.54000
8.10000,-2.82970,-9.67000
8.20000,-2.83640,-9.80000
8.30000,-2.84310,-9.94000
8.40000,-2.84970,-9.94000
8.50000,-2.85640,-10.07000
8.60000,-2.86310,-10.07000
8.70000,-2.86970,-10.21000
8.80000,-2.87640,-10.34000
8.90000,-2.88310,-10.61000
9.00000,-2.88970,-10.61000
9.10000,-2.89640,-10.74000
9.20000,-2.90310,-10.74000
9.30000,-2.90970,-10.74000
9.40000,-2.91640,-10.88000
9.50000,-2.92310,-11.01000
9.60000,-2.92970,-11.15000
9.70000,-2.93640,-11.15000
9.80000,-2.94310,-11.28000
9.90000,-2.94970,-11.28000
10.00000,-2.95640,-11.55000
10.10000,-2.96310,-11.55000
10.20000,-2.96970,-11.82000
10.30000,-2.97640,-11.82000
10.40000,-2.98310,-11.95000
10.50000,-2.98970,-11.95000
10.60000,-2.99640,-12.09000
10.70000,-3.00310,-12.09000
10.80000,-3.00970,-12.22000
10.90000,-3.01640,-12.35000
11.00000,-3.02310,-12.62000
11.10000,-3.02970,-12.62000
11.20000,-3.03640,-12.76000
11.30000,-3.04300,-12.62000
11.40000,-3.04970,-12.76000
11.50000,-3.05640,-12.89000
11.60000,-3.06300,-13.16000
11.70000,-3.06970,-13.16000
11.80000,-3.07640,-13.29000
11.90000,-3.08300,-13.43000
12.00000,-3.08970,-13.56000
12.10000,-3.09640,-13.56000
12.20000,-3.10300,-13.56000
12.30000,-3.10970,-13.70000
12.40000,-3.11640,-13.83000
12.50000,-3.12300,-13.96000
12.60000,-3.12970,-13.96000
12.70000,-3.13640,-14.10000
12.80000,-3.14300,-14.23000
12.90000,-3.14970,-14.23000
13.00000,-3.15640,-14.37000
13.10000,-3.16300,-14.50000
13.20000,-3.16970,-14.64000
13.30000,-3.17640,-14.64000
13.40000,-3.18300,-14.77000
13.50000,-3.18970,-14.90000
13.60000,-3.19640,-15.04000
13.70000,-3.20300,-15.04000
13.80000,-3.20970,-15.17000
13.90000,-3.21640,-15.31000
14.00000,-3.22300,-15.44000
14.10000,-3.22970,-15.44000
14.20000,-3.23640,-15.58000
14.30000,-3.24300,-15.71000
14.40000,-3.24970,-15.84000
14.50000,-3.25640,-15.84000
14.60000,-3.26300,-15.98000
14.70000,-3.26970,-16.11000
14.80000,-3.27640,-16.25000
14.90000,-3.28300,-16.25000
15.00000,-3.28970,-16.38000
15.10000,-3.29640,-16.52000
15.20000,-3.30300,-16.65000
15.30000,-3.30970,-16.52000
15.40000,-3.31640,-16.78000
15.50000,-3.32300,-16.92000
15.60000,-3.32970,-16.92000
15.70000,-3.33640,-17.05000
15.80000,-3.34300,-17.19000
15.90000,-3.34970,-17.32000
16.00000,-3.35640,-17.32000
16.10000,-3.36300,-17.45000
16.20000,-3.36970,-17.45000
16.30000,-3.37640,-17.59000
16.40000,-3.38300,-17.72000
16.50000,-3.38970,-17.86000
16.60000,-3.39640,-17.86000
16.70000,-3.40300,-17.99000
16.80000,-3.40970,-18.13000
16.90000,-3.41640,-18.26000
17.00000,-3.42300,-18.26000
17.10000,-3.42970,-18.39000
17.20000,-3.43640,-18.53000
17.30000,-3.44300,-18.53000
17.40000,-3.44970,-18.66000
17.50000,-3.45640,-18.66000
17.60000,-3.46300,-18.80000
17.70000,-3.46970,-18.93000
17.80000,-3.47640,-19.07000
17.90000,-3.48300,-19.07000
18.00000,-3.48970,-19.20000
18.10000,-3.49640,-19.33000
18.20000,-3.50300,-19.33000
18.30000,-3.50970,-19.47000
18.40000,-3.51640,-19.60000
18.50000,-3.52300,-19.60000
18.60000,-3.52970,-19.74000
18.70000,-3.53640,-19.74000
18.80000,-3.54300,-20.00000
18.90000,-3.54970,-20.00000
19.00000,-3.55640,-20.14000
19.10000,-3.56300,-20.14000
19.20000,-3.56970,-20.27000
19.30000,-3.57630,-20.41000
19.40000,-3.58300,-20.41000
19.50000,-3.58970,-20.54000
19.60000,-3.59630,-20.54000
19.70000,-3.60300,-20.81000
19.80000,-3.60970,-20.94000
19.90000,-3.61630,-20.94000
20.00000,-3.62300,-21.08000
20.10000,-3.62970,-21.08000
20.20000,-3.63630,-21.21000
20.30000,-3.64300,-21.21000
20.40000,-3.64970,-21.48000
20.50000,-3.65630,-21.48000
20.60000,-3.66300,-21.62000
20.70000,-3.66970,-21.62000
20.80000,-3.67630,-21.75000
20.90000,-3.68300,-21.88000
21.00000,-3.68970,-21.88000
21.10000,-3.69630,-22.02000
21.20000,-3.70300,-22.15000
21.30000,-3.70970,-22.15000
21.40000,-3.71630,-22.15000
21.50000,-3.72300,-22.29000
21.60000,-3.72970,-22.42000
21.70000,-3.73630,-22.56000
21.80000,-3.74300,-22.69000
21.90000,-3.74970,-22.82000
22.00000,-3.75630,-22.82000
22.10000,-3.76300,-22.82000
22.20000,-3.76970,-23.09000
22.30000,-3.77630,-23.09000
22.40000,-3.78300,-23.23000
22.50000,-3.78970,-23.36000
22.60000,-3.79630,-23.36000
22.70000,-3.80300,-23.49000
22.80000,-3.80970,-23.49000
22.90000,-3.81630,-23.63000
23.00000,-3.82300,-23.63000
23.10000,-3.82970,-23.90000
23.20000,-3.83630,-23.90000
23.30000,-3.84300,-24.03000
23.40000,-3.84970,-24.03000
23.50000,-3.85630,-24.17000
23.60000,-3.86300,-24.30000
23.70000,-3.86970,-24.43000
23.80000,-3.87630,-24.43000
23.90000,-3.88300,-24.57000
24.00000,-3.88970,-24.70000
24.10000,-3.89630,-24.70000
24.20000,-3.90300,-24.70000
24.30000,-3.90970,-24.84000
24.40000,-3.91630,-24.97000
24.50000,-3.92300,-25.11000
24.60000,-3.92970,-25.11000
24.70000,-3.93630,-25.24000
24.80000,-3.94300,-25.24000
24.90000,-3.94970,-25.37000
25.00000,-3.95630,-25.37000
25.10000,-3.96300,-25.64000
25.20000,-3.96970,-25.64000
25.30000,-3.97630,-25.78000
25.40000,-3.98300,-25.91000
25.50000,-3.98970,-25.91000
25.60000,-3.99630,-25.91000
25.70000,-4.00300,-26.05000
25.80000,-4.00970,-26.18000
25.90000,-4.01630,-26.18000
26.00000,-4.02300,-26.31000
26.10000,-4.02970,-26.45000
26.20000,-4.03630,-26.58000
26.30000,-4.04300,-26.58000
26.40000,-4.04970,-26.58000
26.50000,-4.05630,-26.72000
26.60000,-4.06300,-26.85000
26.70000,-4.06970,-26.85000
26.80000,-4.07630,-26.85000
26.90000,-4.08300,-27.12000
27.00000,-4.08960,-27.12000
27.10000,-4.09630,-27.25000
27.20000,-4.10300,-27.39000
27.30000,-4.10960,-27.52000
27.40000,-4.11630,-27.52000
27.50000,-4.12300,-27.52000
27.60000,-4.12960,-27.66000
27.70000,-4.13630,-27.66000
27.80000,-4.14300,-27.79000
27.90000,-4.14960,-27.92000
28.00000,-4.15630,-28.06000
28.10000,-4.16300,-28.19000
28.20000,-4.16960,-28.19000
28.30000,-4.17630,-28.33000
28.40000,-4.18300,-28.19000
28.50000,-4.18960,-28.46000
28.60000,-4.19630,-28.46000
28.70000,-4.20300,-28.60000
28.80000,-4.20960,-28.60000
28.90000,-4.21630,-28.86000
29.00000,-4.22300,-28.86000
29.10000,-4.22960,-29.00000
29.20000,-4.23630,-29.00000
29.30000,-4.24300,-29.13000
29.40000,-4.24960,-29.13000
29.50000,-4.25630,-29.27000
29.60000,-4.26300,-29.27000
29.70000,-4.26960,-29.40000
29.80000,-4.27630,-29.54000
29.90000,-4.28300,-29.67000
30.00000,-4.28960,-29.67000
30.10000,-4.29630,-29.80000
30.20000,-4.30300,-29.80000
30.30000,-4.30960,-29.94000
30.40000,-4.31630,-29.80000
30.50000,-4.32300,-30.07000
30.60000,-4.32960,-30.07000
30.70000,-4.33630,-30.21000
30.80000,-4.34300,-30.34000
30.90000,-4.34960,-30.47000
31.00000,-4.35630,-30.47000
31.10000,-4.36300,-30.61000
31.20000,-4.36960,-30.61000
31.30000,-4.37630,-30.74000
31.40000,-4.38300,-30.74000
31.50000,-4.38960,-30.74000
31.60000,-4.39630,-30.88000
31.70000,-4.40300,-31.01000
31.80000,-4.40960,-31.15000
31.90000,-4.41630,-31.28000
32.00000,-4.42300,-31.15000
32.10000,-4.42960,-31.28000
32.20000,-4.43630,-31.41000
32.30000,-4.44300,-31.41000
32.40000,-4.44960,-31.55000
32.50000,-4.45630,-31.68000
32.60000,-4.46300,-31.68000
32.70000,-4.46960,-31.95000
32.80000,-4.47630,-31.95000
32.90000,-4.48300,-31.95000
33.00000,-4.48960,-31.95000
33.10000,-4.49630,-32.22000
33.20000,-4.50300,-32.22000
33.30000,-4.50960,-32.35000
33.40000,-4.51630,-32.35000
33.50000,-4.52300,-32.49000
33.60000,-4.52960,-32.62000
33.70000,-4.53630,-32.62000
33.80000,-4.54300,-32.62000
33.90000,-4.54960,-32.76000
34.00000,-4.55630,-32.89000
34.10000,-4.56300,-33.03000
34.20000,-4.56960,-33.03000
34.30000,-4.57630,-33.03000
34.40000,-4.58300,-33.16000
34.50000,-4.58960,-33.16000
34.60000,-4.59630,-33.29000
34.70000,-4.60290,-33.29000
34.80000,-4.60960,-33.43000
34.90000,-4.61630,-33.43000
35.00000,-4.62290,-33.70000
35.10000,-4.62960,-33.70000
35.20000,-4.63630,-33.70000
35.30000,-4.64290,-33.83000
35.40000,-4.64960,-33.96000
35.50000,-4.65630,-34.10000
35.60000,-4.66290,-33.96000
35.70000,-4.66960,-34.10000
35.80000,-4.67630,-34.10000
35.90000,-4.68290,-34.23000
36.00000,-4.68960,-34.37000
36.10000,-4.69630,-34.50000
36.20000,-4.70290,-34.50000
36.30000,-4.70960,-34.64000
36.40000,-4.71630,-34.64000
36.50000,-4.72290,-34.77000
36.60000,-4.72960,-34.77000
36.70000,-4.73630,-34.77000
36.80000,-4.74290,-34.90000
36.90000,-4.74960,-34.90000
37.00000,-4.75630,-35.17000
37.10000,-4.76290,-35.17000
37.20000,-4.76960,-35.31000
37.30000,-4.77630,-35.44000
37.40000,-4.78290,-35.44000
37.50000,-4.78960,-35.44000
37.60000,-4.79630,-35.44000
37.70000,-4.80290,-35.58000
37.80000,-4.80960,-35.58000
37.90000,-4.81630,-35.71000
38.00000,-4.82290,-35.84000
38.10000,-4.82960,-35.98000
38.20000,-4.83630,-36.11000
38.30000,-4.84290,-35.98000
38.40000,-4.84960,-36.11000
38.50000,-4.85630,-36.11000
38.60000,-4.86290,-36.38000
38.70000,-4.86960,-36.38000
38.80000,-4.87630,-36.52000
38.90000,-4.88290,-36.52000
39.00000,-4.88960,-36.65000
39.10000,-4.89630,-36.65000
39.20000,-4.90290,-36.78000
39.30000,-4.90960,-36.78000
39.40000,-4.91630,-36.92000
39.50000,-4.92290,-36.92000
39.60000,-4.92960,-36.92000
39.70000,-4.93630,-37.05000
39.80000,-4.94290,-37.19000
39.90000,-4.94960,-37.19000
40.00000,-4.95630,-37.32000
40.10000,-4.96290,-37.45000
40.20000,-4.96960,-37.59000
40.30000,-4.97630,-37.45000
40.40000,-4.98290,-37.59000
40.50000,-4.98960,-37.59000
40.60000,-4.99630,-37.72000
40.70000,-5.00290,-37.72000
40.80000,-5.00960,-37.86000
40.85000,-5.01290,-37.86000
40.95000,-5.01290,-37.86000
41.05000,-5.00630,-37.99000
41.15000,-4.99960,-37.86000
41.25000,-4.99290,-37.59000
41.35000,-4.98630,-37.45000
41.45000,-4.97960,-37.32000
41.55000,-4.97290,-37.05000
41.65000,-4.96630,-36.78000
41.75000,-4.95960,-36.78000
41.85000,-4.95290,-36.52000
41.95000,-4.94630,-36.38000
42.05000,-4.93960,-36.25000
42.15000,-4.93290,-36.11000
42.25000,-4.92630,-36.11000
42.35000,-4.91960,-35.98000
42.45000,-4.91290,-35.84000
42.55000,-4.90630,-35.58000
42.65000,-4.89960,-35.58000
42.75000,-4.89290,-35.31000
42.85000,-4.88630,-35.31000
42.95000,-4.87960,-35.04000
43.05000,-4.87290,-34.90000
43.15000,-4.86630,-34.77000
43.25000,-4.85960,-34.77000
43.35000,-4.85290,-34.64000
43.45000,-4.84630,-34.50000
43.55000,-4.83960,-34.37000
43.65000,-4.83290,-34.23000
43.75000,-4.82630,-34.10000
43.85000,-4.81960,-33.96000
43.95000,-4.81290,-33.83000
44.05000,-4.80630,-33.83000
44.15000,-4.79960,-33.83000
44.25000,-4.79290,-33.56000
44.35000,-4.78630,-33.43000
44.45000,-4.77960,-33.29000
44.55000,-4.77290,-33.16000
44.65000,-4.76630,-33.03000
44.75000,-4.75960,-32.89000
44.85000,-4.75290,-32.89000
44.95000,-4.74630,-32.76000
45.05000,-4.73960,-32.62000
45.15000,-4.73290,-32.62000
45.25000,-4.72630,-32.35000
45.35000,-4.71960,-32.35000
45.45000,-4.71290,-32.35000
45.55000,-4.70630,-32.09000
45.65000,-4.69960,-31.95000
45.75000,-4.69290,-31.82000
45.85000,-4.68630,-31.82000
45.95000,-4.67960,-31.68000
46.05000,-4.67290,-31.68000
46.15000,-4.66630,-31.55000
46.25000,-4.65960,-31.41000
46.35000,-4.65290,-31.28000
46.45000,-4.64630,-31.15000
46.55000,-4.63960,-30.88000
46.65000,-4.63290,-30.74000
46.75000,-4.62630,-30.74000
46.85000,-4.61960,-30.74000
46.95000,-4.61290,-30.61000
47.05000,-4.60630,-30.47000
47.15000,-4.59960,-30.34000
47.25000,-4.59300,-30.21000
47.35000,-4.58630,-30.21000
47.45000,-4.57960,-30.07000
47.55000,-4.57300,-29.80000
47.65000,-4.56630,-29.80000
47.75000,-4.55960,-29.67000
47.85000,-4.55300,-29.54000
47.95000,-4.54630,-29.54000
48.05000,-4.53960,-29.54000
48.15000,-4.53300,-29.40000
48.25000,-4.52630,-29.13000
48.35000,-4.51960,-29.13000
48.45000,-4.51300,-29.00000
48.55000,-4.50630,-28.73000
48.65000,-4.49960,-28.73000
48.75000,-4.49300,-28.60000
48.85000,-4.48630,-28.46000
48.95000,-4.47960,-28.46000
49.05000,-4.47300,-28.33000
49.15000,-4.46630,-28.19000
49.25000,-4.45960,-28.06000
49.35000,-4.45300,-27.92000
49.45000,-4.44630,-27.92000
49.55000,-4.43960,-27.79000
49.65000,-4.43300,-27.66000
49.75000,-4.42630,-27.52000
49.85000,-4.41960,-27.52000
49.95000,-4.41300,-27.39000
50.05000,-4.40630,-27.25000
50.15000,-4.39960,-27.12000
50.25000,-4.39300,-27.12000
50.35000,-4.38630,-26.98000
50.45000,-4.37960,-26.85000
50.55000,-4.37300,-26.72000
50.65000,-4.36630,-26.58000
50.75000,-4.35960,-26.58000
50.85000,-4.35300,-26.45000
50.95000,-4.34630,-26.31000
51.05000,-4.33960,-26.18000
51.15000,-4.33300,-26.18000
51.25000,-4.32630,-26.05000
51.35000,-4.31960,-25.91000
51.45000,-4.31300,-25.91000
51.55000,-4.30630,-25.64000
51.65000,-4.29960,-25.64000
51.75000,-4.29300,-25.51000
51.85000,-4.28630,-25.37000
51.95000,-4.27960,-25.24000
52.05000,-4.27300,-25.11000
52.15000,-4.26630,-25.11000
52.25000,-4.25960,-25.11000
52.35000,-4.25300,-24.97000
52.45000,-4.24630,-24.70000
52.55000,-4.23960,-24.57000
52.65000,-4.23300,-24.57000
52.75000,-4.22630,-24.43000
52.85000,-4.21960,-24.43000
52.95000,-4.21300,-24.30000
53.05000,-4.20630,-24.17000
53.15000,-4.19960,-24.03000
53.25000,-4.19300,-24.03000
53.35000,-4.18630,-23.90000
53.45000,-4.17960,-23.90000
53.55000,-4.17300,-23.63000
53.65000,-4.16630,-23.63000
53.75000,-4.15960,-23.49000
53.85000,-4.15300,-23.36000
53.95000,-4.14630,-23.23000
54.05000,-4.13960,-23.09000
54.15000,-4.13300,-23.09000
54.25000,-4.12630,-22.96000
54.35000,-4.11960,-22.96000
54.45000,-4.11300,-22.69000
54.55000,-4.10630,-22.56000
54.65000,-4.09960,-22.56000
54.75000,-4.09300,-22.42000
54.85000,-4.08630,-22.29000
54.95000,-4.07960,-22.29000
55.05000,-4.07300,-22.15000
55.15000,-4.06630,-22.02000
55.25000,-4.05970,-22.02000
55.35000,-4.05300,-21.88000
55.45000,-4.04630,-21.75000
55.55000,-4.03970,-21.62000
55.65000,-4.03300,-21.48000
55.75000,-4.02630,-21.35000
55.85000,-4.01970,-21.35000
55.95000,-4.01300,-21.21000
56.05000,-4.00630,-21.08000
56.15000,-3.99970,-21.08000
56.25000,-3.99300,-20.94000
56.35000,-3.98630,-20.81000
56.45000,-3.97970,-20.81000
56.55000,-3.97300,-20.68000
56.65000,-3.96630,-20.54000
56.75000,-3.95970,-20.41000
56.85000,-3.95300,-20.41000
56.95000,-3.94630,-20.27000
57.05000,-3.93970,-20.14000
57.15000,-3.93300,-20.00000
57.25000,-3.92630,-20.00000
57.35000,-3.91970,-19.87000
57.45000,-3.91300,-19.74000
57.55000,-3.90630,-19.74000
57.65000,-3.89970,-19.47000
57.75000,-3.89300,-19.47000
57.85000,-3.88630,-19.33000
57.95000,-3.87970,-19.20000
58.05000,-3.87300,-19.07000
58.15000,-3.86630,-19.07000
58.25000,-3.85970,-18.93000
58.35000,-3.85300,-18.93000
58.45000,-3.84630,-18.80000
58.55000,-3.83970,-18.66000
58.65000,-3.83300,-18.53000
58.75000,-3.82630,-18.39000
58.85000,-3.81970,-18.39000
58.95000,-3.81300,-18.26000
59.05000,-3.80630,-18.13000
59.15000,-3.79970,-17.99000
59.25000,-3.79300,-17.99000
59.35000,-3.78630,-17.86000
59.45000,-3.77970,-17.86000
59.55000,-3.77300,-17.72000
59.65000,-3.76630,-17.59000
59.75000,-3.75970,-17.45000
59.85000,-3.75300,-17.32000
59.95000,-3.74630,-17.19000
60.05000,-3.73970,-17.05000
60.15000,-3.73300,-17.05000
60.25000,-3.72630,-17.05000
60.35000,-3.71970,-16.92000
60.45000,-3.71300,-16.78000
60.55000,-3.70630,-16.65000
60.65000,-3.69970,-16.52000
60.75000,-3.69300,-16.38000
60.85000,-3.68630,-16.38000
60.95000,-3.67970,-16.25000
61.05000,-3.67300,-16.11000
61.15000,-3.66630,-16.11000
61.25000,-3.65970,-15.98000
61.35000,-3.65300,-15.84000
61.45000,-3.64630,-15.71000
61.55000,-3.63970,-15.84000
61.65000,-3.63300,-15.58000
61.75000,-3.62630,-15.58000
61.85000,-3.61970,-15.44000
61.95000,-3.61300,-15.31000
62.05000,-3.60630,-15.17000
62.15000,-3.59970,-15.17000
62.25000,-3.59300,-15.04000
62.35000,-3.58630,-14.90000
62.45000,-3.57970,-14.90000
62.55000,-3.57300,-14.77000
62.65000,-3.56630,-14.50000
62.75000,-3.55970,-14.50000
62.85000,-3.55300,-14.37000
62.95000,-3.54640,-14.37000
63.05000,-3.53970,-14.37000
63.15000,-3.53300,-14.23000
63.25000,-3.52640,-14.10000
63.35000,-3.51970,-14.10000
63.45000,-3.51300,-13.96000
63.55000,-3.50640,-13.83000
63.65000,-3.49970,-13.70000
63.75000,-3.49300,-13.56000
63.85000,-3.48640,-13.56000
63.95000,-3.47970,-13.43000
64.05000,-3.47300,-13.29000
64.15000,-3.46640,-13.29000
64.25000,-3.45970,-13.16000
64.35001,-3.45300,-13.16000
64.45000,-3.44640,-13.03000
64.55000,-3.43970,-12.89000
64.65000,-3.43300,-12.62000
64.75000,-3.42640,-12.62000
64.85001,-3.41970,-12.62000
64.95000,-3.41300,-12.49000
65.05000,-3.40640,-12.49000
65.15000,-3.39970,-12.35000
65.25000,-3.39300,-12.22000
65.35001,-3.38640,-12.09000
65.45000,-3.37970,-11.95000
65.55000,-3.37300,-11.82000
65.65000,-3.36640,-11.82000
65.75000,-3.35970,-11.82000
65.85001,-3.35300,-11.68000
65.95001,-3.34640,-11.55000
66.05000,-3.33970,-11.41000
66.15000,-3.33300,-11.28000
66.25000,-3.32640,-11.28000
66.35001,-3.31970,-11.15000
66.45001,-3.31300,-11.15000
66.55000,-3.30640,-11.01000
66.65000,-3.29970,-10.88000
66.75000,-3.29300,-10.74000
66.85001,-3.28640,-10.61000
66.95001,-3.27970,-10.61000
67.05000,-3.27300,-10.47000
67.15000,-3.26640,-10.34000
67.25000,-3.25970,-10.34000
67.35001,-3.25300,-10.21000
67.45001,-3.24640,-10.07000
67.55000,-3.23970,-10.07000
67.65000,-3.23300,-9.94000
67.75000,-3.22640,-9.80000
67.85001,-3.21970,-9.80000
67.95001,-3.21300,-9.67000
68.05000,-3.20640,-9.54000
68.15000,-3.19970,-9.40000
68.25000,-3.19300,-9.40000
68.35001,-3.18640,-9.27000
68.45001,-3.17970,-9.27000
68.55000,-3.17300,-9.13000
68.65000,-3.16640,-9.00000
68.75000,-3.15970,-9.00000
68.85001,-3.15300,-8.73000
68.95001,-3.14640,-8.73000
69.05000,-3.13970,-8.60000
69.15000,-3.13300,-8.46000
69.25000,-3.12640,-8.46000
69.35001,-3.11970,-8.46000
69.45001,-3.11300,-8.33000
69.55000,-3.10640,-8.19000
69.65000,-3.09970,-8.19000
69.75000,-3.09300,-8.06000
69.85001,-3.08640,-7.92000
69.95001,-3.07970,-7.92000
70.05000,-3.07300,-7.79000
70.15000,-3.06640,-7.66000
70.25000,-3.05970,-7.66000
70.35001,-3.05300,-7.52000
70.45001,-3.04640,-7.39000
70.55000,-3.03970,-7.25000
70.65000,-3.03310,-7.12000
70.75000,-3.02640,-7.12000
70.85001,-3.01970,-6.98000
70.95001,-3.01310,-6.85000
71.05000,-3.00640,-6.85000
71.15000,-2.99970,-6.72000
71.25000,-2.99310,-6.72000
71.35001,-2.98640,-6.58000
71.45001,-2.97970,-6.45000
71.55000,-2.97310,-6.45000
71.65000,-2.96640,-6.18000
71.75000,-2.95970,-6.18000
71.85001,-2.95310,-6.05000
71.95001,-2.94640,-5.91000
72.05000,-2.93970,-5.91000
72.15000,-2.93310,-5.78000
72.25000,-2.92640,-5.78000
72.35001,-2.91970,-5.78000
72.45001,-2.91310,-5.51000
72.55000,-2.90640,-5.37000
72.65000,-2.89970,-5.37000
72.75000,-2.89310,-5.24000
72.85001,-2.88640,-5.24000
72.95001,-2.87970,-5.11000
73.05000,-2.87310,-5.11000
73.15000,-2.86640,-4.97000
73.25000,-2.85970,-4.84000
73.35001,-2.85310,-4.70000
73.45001,-2.84640,-4.57000
73.55000,-2.83970,-4.57000
73.65000,-2.83310,-4.43000
73.75000,-2.82640,-4.43000
73.85001,-2.81970,-4.30000
73.95001,-2.81310,-4.17000
74.05000,-2.80640,-4.03000
74.15000,-2.79970,-4.03000
74.25000,-2.79310,-4.03000
74.35001,-2.78640,-3.90000
74.45001,-2.77970,-3.90000
74.55000,-2.77310,-3.76000
74.65000,-2.76640,-3.63000
74.75000,-2.75970,-3.49000
74.85001,-2.75310,-3.49000
74.95001,-2.74640,-3.36000
75.05000,-2.73970,-3.36000
75.15000,-2.73310,-3.23000
75.25000,-2.72640,-3.09000
75.35001,-2.71970,-2.96000
75.45001,-2.71310,-2.96000
75.55000,-2.70640,-2.82000
75.65000,-2.69970,-2.82000
75.75000,-2.69310,-2.69000
75.85001,-2.68640,-2.69000
75.95001,-2.67970,-2.56000
76.05000,-2.67310,-2.42000
76.15000,-2.66640,-2.29000
76.25000,-2.65970,-2.29000
76.35001,-2.65310,-2.15000
76.45001,-2.64640,-2.02000
76.55000,-2.63970,-2.02000
76.65000,-2.63310,-1.88000
76.75000,-2.62640,-1.75000
76.85001,-2.61970,-1.62000
76.95001,-2.61310,-1.62000
77.05000,-2.60640,-1.62000
77.15000,-2.59970,-1.48000
77.25000,-2.59310,-1.48000
77.35001,-2.58640,-1.35000
77.45001,-2.57970,-1.21000
77.55000,-2.57310,-1.08000
77.65000,-2.56640,-0.94000
77.75000,-2.55970,-0.94000
77.85001,-2.55310,-0.81000
77.95001,-2.54640,-0.68000
78.05000,-2.53970,-0.54000
78.15000,-2.53310,-0.54000
78.25000,-2.52640,-0.41000
78.35001,-2.51970,-0.41000
78.45001,-2.51310,-0.27000
78.55000,-2.50640,-0.27000
78.65000,-2.49980,-0.14000
78.75000,-2.49310,0.13000
78.85001,-2.48640,0.13000
78.95001,-2.47980,0.26000
79.05000,-2.47310,0.26000
79.15000,-2.46640,0.40000
79.25000,-2.45980,0.26000
79.35001,-2.45310,0.40000
79.45001,-2.44640,0.53000
79.55000,-2.43980,0.53000
79.65000,-2.43310,0.40000
79.75000,-2.42640,0.40000
79.85001,-2.41980,0.53000
79.95001,-2.41310,0.53000
80.05000,-2.40640,0.53000
80.15000,-2.39980,0.53000
80.25000,-2.39310,0.40000
80.35001,-2.38640,0.40000
80.45001,-2.37980,0.26000
80.55000,-2.37310,0.26000
80.65000,-2.36640,0.40000
80.75001,-2.35980,0.40000
80.85001,-2.35310,0.53000
80.95001,-2.34640,0.53000
81.05000,-2.33980,0.26000
81.15000,-2.33310,0.40000
81.25001,-2.32640,0.40000
81.35001,-2.31980,0.26000
81.45001,-2.31310,0.53000
81.55000,-2.30640,0.40000
81.65000,-2.29980,0.53000
81.75001,-2.29310,0.40000
81.85001,-2.28640,0.40000
81.95001,-2.27980,0.40000
82.05000,-2.27310,0.40000
82.15000,-2.26640,0.53000
82.25001,-2.25980,0.53000
82.35001,-2.25310,0.40000
82.45001,-2.24640,0.53000
82.55000,-2.23980,0.53000
82.65000,-2.23310,0.40000
82.75001,-2.22640,0.40000
82.85001,-2.21980,0.40000
82.95001,-2.21310,0.53000
83.05000,-2.20640,0.53000
83.15000,-2.19980,0.40000
83.25001,-2.19310,0.40000
83.35001,-2.18640,0.40000
83.45001,-2.17980,0.40000
83.55000,-2.17310,0.40000
83.65000,-2.16640,0.53000
83.75001,-2.15980,0.40000
83.85001,-2.15310,0.40000
83.95001,-2.14640,0.40000
84.05000,-2.13980,0.40000
84.15000,-2.13310,0.53000
84.25001,-2.12640,0.53000
84.35001,-2.11980,0.40000
84.45001,-2.11310,0.53000
84.55000,-2.10640,0.40000
84.65000,-2.09980,0.40000
84.75001,-2.09310,0.53000
84.85001,-2.08640,0.53000
84.95001,-2.07980,0.53000
85.05000,-2.07310,0.53000
85.15000,-2.06640,0.53000
85.25001,-2.05980,0.40000
85.35001,-2.05310,0.53000
85.45001,-2.04640,0.53000
85.55000,-2.03980,0.40000
85.65000,-2.03310,0.53000
85.75001,-2.02640,0.40000
85.85001,-2.01980,0.26000
85.95001,-2.01310,0.40000
86.05000,-2.00640,0.53000
86.15000,-1.99980,0.40000
86.25001,-1.99310,0.40000
86.35001,-1.98650,0.26000
86.45001,-1.97980,0.40000
86.55000,-1.97310,0.40000
86.65000,-1.96650,0.40000
86.75001,-1.95980,0.40000
86.85001,-1.95310,0.53000
86.95001,-1.94650,0.53000
87.05000,-1.93980,0.53000
87.15000,-1.93310,0.53000
87.25001,-1.92650,0.40000
87.35001,-1.91980,0.26000
87.45001,-1.91310,0.40000
87.55000,-1.90650,0.53000
87.65000,-1.89980,0.40000
87.75001,-1.89310,0.40000
87.85001,-1.88650,0.53000
87.95001,-1.87980,0.40000
88.05000,-1.87310,0.40000
88.15000,-1.86650,0.53000
88.25001,-1.85980,0.53000
88.35001,-1.85310,0.40000
88.45001,-1.84650,0.53000
88.55000,-1.83980,0.26000
88.65000,-1.83310,0.26000
88.75001,-1.82650,0.40000
88.85001,-1.81980,0.53000
88.95001,-1.81310,0.53000
89.05000,-1.80650,0.53000
89.15000,-1.79980,0.40000
89.25001,-1.79310,0.26000
89.35001,-1.78650,0.26000
89.45001,-1.77980,0.40000
89.55000,-1.77310,0.53000
89.65000,-1.76650,0.53000
89.75001,-1.75980,0.53000
89.85001,-1.75310,0.67000
89.95001,-1.74650,0.53000
90.05000,-1.73980,0.53000
90.15000,-1.73310,0.40000
90.25001,-1.72650,0.53000
90.35001,-1.71980,0.40000
90.45001,-1.71310,0.40000
90.55000,-1.70650,0.40000
90.65000,-1.69980,0.40000
90.75001,-1.69310,0.53000
90.85001,-1.68650,0.53000
90.95001,-1.67980,0.53000
91.05000,-1.67310,0.53000
91.15000,-1.66650,0.53000
91.25001,-1.65980,0.40000
91.35001,-1.65310,0.26000
91.45001,-1.64650,0.40000
91.55000,-1.63980,0.53000
91.65000,-1.63310,0.53000
91.75001,-1.62650,0.53000
91.85001,-1.61980,0.53000
91.95001,-1.61310,0.40000
92.05000,-1.60650,0.40000
92.15000,-1.59980,0.53000
92.25001,-1.59310,0.53000
92.35001,-1.58650,0.53000
92.45001,-1.57980,0.53000
92.55000,-1.57310,0.40000
92.65000,-1.56650,0.40000
92.75001,-1.55980,0.26000
92.85001,-1.55310,0.40000
92.95001,-1.54650,0.53000
93.05000,-1.53980,0.40000
93.15000,-1.53310,0.40000
93.25001,-1.52650,0.53000
93.35001,-1.51980,0.40000
93.45001,-1.51310,0.40000
93.55000,-1.50650,0.40000
93.65000,-1.49980,0.40000
93.75001,-1.49310,0.40000
93.85001,-1.48650,0.40000
93.95001,-1.47980,0.26000
94.05000,-1.47320,0.40000
94.15000,-1.46650,0.53000
94.25001,-1.45980,0.53000
94.35001,-1.45320,0.53000
94.45001,-1.44650,0.53000
94.55000,-1.43980,0.40000
94.65000,-1.43320,0.40000
94.75001,-1.42650,0.40000
94.85001,-1.41980,0.26000
94.95001,-1.41320,0.53000
95.05000,-1.40650,0.53000
95.15000,-1.39980,0.53000
95.25001,-1.39320,0.53000
95.35001,-1.38650,0.40000
95.45001,-1.37980,0.40000
95.55000,-1.37320,0.40000
95.65000,-1.36650,0.53000
95.75001,-1.35980,0.53000
95.85001,-1.35320,0.40000
95.95001,-1.34650,0.40000
96.05000,-1.33980,0.40000
96.15000,-1.33320,0.40000
96.25001,-1.32650,0.53000
96.35001,-1.31980,0.53000
96.45001,-1.31320,0.53000
96.55000,-1.30650,0.53000
96.65000,-1.29980,0.40000
96.75001,-1.29320,0.40000
96.85001,-1.28650,0.40000
96.95001,-1.27980,0.40000
97.05000,-1.27320,0.53000
97.15000,-1.26650,0.53000
97.25001,-1.25980,0.53000
97.35001,-1.25320,0.53000
97.45001,-1.24650,0.40000
97.55000,-1.23980,0.40000
97.65000,-1.23320,0.53000
97.75001,-1.22650,0.53000
97.85001,-1.21980,0.40000
97.95001,-1.21320,0.53000
98.05000,-1.20650,0.53000
98.15000,-1.19980,0.40000
98.25001,-1.19320,0.40000
98.35001,-1.18650,0.40000
98.45001,-1.17980,0.40000
98.55000,-1.17320,0.26000
98.65000,-1.16650,0.40000
98.75001,-1.15980,0.40000
98.85001,-1.15320,0.40000
98.95001,-1.14650,0.53000
99.05000,-1.13980,0.40000
99.15000,-1.13320,0.26000
99.25001,-1.12650,0.40000
99.35001,-1.11980,0.26000
99.45001,-1.11320,0.26000
99.55000,-1.10650,0.40000
99.65000,-1.09980,0.40000
99.75001,-1.09320,0.40000
99.85001,-1.08650,0.53000
99.95001,-1.07980,0.53000
100.05000,-1.07320,0.40000
100.15000,-1.06650,0.40000
100.25001,-1.05980,0.40000
100.35001,-1.05320,0.53000
100.45001,-1.04650,0.40000
100.55000,-1.03980,0.40000
100.65000,-1.03320,0.40000
100.75001,-1.02650,0.40000
100.85001,-1.01980,0.40000
100.95001,-1.01320,0.40000
101.05000,-1.00650,0.53000
101.15000,-0.99980,0.53000
101.25001,-0.99320,0.53000
101.35001,-0.98650,0.40000
101.45001,-0.97980,0.40000
101.55000,-0.97320,0.53000
101.65000,-0.96650,0.40000
101.75001,-0.95980,0.53000
101.85001,-0.95320,0.53000
101.95001,-0.94650,0.53000
102.05000,-0.93990,0.40000
102.15000,-0.93320,0.53000
102.25001,-0.92650,0.53000
102.35001,-0.91990,0.40000
102.45001,-0.91320,0.40000
102.55000,-0.90650,0.53000
102.65000,-0.89990,0.53000
102.75001,-0.89320,0.40000
102.85001,-0.88650,0.26000
102.95001,-0.87990,0.53000
103.05000,-0.87320,0.67000
103.15000,-0.86650,0.53000
103.25001,-0.85990,0.53000
103.35001,-0.85320,0.40000
103.45001,-0.84650,0.40000
103.55000,-0.83990,0.40000
103.65000,-0.83320,0.40000
103.75001,-0.82650,0.40000
103.85001,-0.81990,0.40000
103.95001,-0.81320,0.53000
104.05000,-0.80650,0.40000
104.15000,-0.79990,0.40000
104.25001,-0.79320,0.53000
104.35001,-0.78650,0.40000
104.45001,-0.77990,0.40000
104.55000,-0.77320,0.40000
104.65000,-0.76650,0.40000
104.75001,-0.75990,0.26000
104.85001,-0.75320,0.40000
104.95001,-0.74650,0.53000
105.05000,-0.73990,0.40000
105.15000,-0.73320,0.40000
105.25001,-0.72650,0.53000
105.35001,-0.71990,0.40000
105.45001,-0.71320,0.40000
105.55000,-0.70650,0.26000
105.65000,-0.69990,0.40000
105.75001,-0.69320,0.53000
105.85001,-0.68650,0.53000
105.95001,-0.67990,0.40000
106.05000,-0.67320,0.40000
106.15000,-0.66650,0.40000
106.25001,-0.65990,0.40000
106.35001,-0.65320,0.40000
106.45001,-0.64650,0.40000
106.55000,-0.63990,0.40000
106.65000,-0.63320,0.40000
106.75001,-0.62650,0.40000
106.85001,-0.61990,0.53000
106.95001,-0.61320,0.40000
107.05000,-0.60650,0.40000
107.15000,-0.59990,0.53000
107.25001,-0.59320,0.40000
107.35001,-0.58650,0.40000
107.45001,-0.57990,0.40000
107.55000,-0.57320,0.26000
107.65000,-0.56650,0.53000
107.75001,-0.55990,0.40000
107.85001,-0.55320,0.40000
107.95001,-0.54650,0.40000
108.05000,-0.53990,0.40000
108.15000,-0.53320,0.40000
108.25001,-0.52650,0.40000
108.35001,-0.51990,0.40000
108.45001,-0.51320,0.53000
108.55000,-0.50650,0.53000
108.65000,-0.49990,0.53000
108.75001,-0.49320,0.40000
108.85001,-0.48650,0.40000
108.95001,-0.47990,0.40000
109.05000,-0.47320,0.53000
109.15000,-0.46650,0.53000
109.25001,-0.45990,0.40000
109.35001,-0.45320,0.53000
109.45001,-0.44650,0.53000
109.55000,-0.43990,0.40000
109.65000,-0.43320,0.26000
109.75001,-0.42660,0.40000
109.85001,-0.41990,0.40000
109.95001,-0.41320,0.53000
110.05000,-0.40660,0.53000
110.15000,-0.39990,0.26000
110.25001,-0.39320,0.40000
110.35001,-0.38660,0.53000
110.45001,-0.37990,0.40000
110.55000,-0.37320,0.53000
110.65000,-0.36660,0.53000
110.75001,-0.35990,0.40000
110.85001,-0.35320,0.40000
110.95001,-0.34660,0.40000
111.05000,-0.33990,0.40000
111.15000,-0.33320,0.40000
111.25001,-0.32660,0.53000
111.35001,-0.31990,0.53000
111.45001,-0.31320,0.40000
111.55000,-0.30660,0.40000
111.65000,-0.29990,0.26000
111.75001,-0.29320,0.53000
111.85001,-0.28660,0.53000
111.95001,-0.27990,0.53000
112.05000,-0.27320,0.53000
112.15000,-0.26660,0.40000
112.25001,-0.25990,0.53000
112.35001,-0.25320,0.53000
112.45001,-0.24660,0.40000
112.55000,-0.23990,0.40000
112.65001,-0.23320,0.40000
112.75001,-0.22660,0.53000
112.85001,-0.21990,0.26000
112.95001,-0.21320,0.40000
113.05000,-0.20660,0.53000
113.15001,-0.19990,0.53000
113.25001,-0.19320,0.53000
113.35001,-0.18660,0.53000
113.45001,-0.17990,0.53000
113.55000,-0.17320,0.40000
113.65001,-0.16660,0.40000
113.75001,-0.15990,0.40000
113.85001,-0.15320,0.53000
113.95001,-0.14660,0.53000
114.05000,-0.13990,0.53000
114.15001,-0.13320,0.53000
114.25001,-0.12660,0.53000
114.35001,-0.11990,0.40000
114.45001,-0.11320,0.53000
114.55000,-0.10660,0.40000
114.65001,-0.09990,0.53000
114.75001,-0.09320,0.40000
114.85001,-0.08660,0.40000
114.95001,-0.07990,0.40000
115.05000,-0.07320,0.53000
115.15001,-0.06660,0.40000
115.25001,-0.05990,0.40000
115.35001,-0.05320,0.53000
115.45001,-0.04660,0.53000
115.55000,-0.03990,0.26000
115.65001,-0.03320,0.40000
115.75001,-0.02660,0.40000
115.85001,-0.01990,0.53000
115.95001,-0.01320,0.40000
116.05000,-0.00660,0.53000
116.15001,0.00010,0.40000
116.25001,0.00680,0.40000
116.30000,0.01010,0.53000
116.40001,0.00880,0.40000
116.50001,0.00210,0.53000
116.60001,-0.00460,0.53000
116.70001,-0.01120,0.40000
116.80000,-0.01790,0.53000
116.90001,-0.02460,0.40000
117.00001,-0.03120,0.40000
117.10001,-0.03790,0.40000
117.20001,-0.04460,0.26000
117.30000,-0.05120,0.40000
117.40001,-0.05790,0.53000
117.50001,-0.06460,0.40000
117.60001,-0.07120,0.40000
117.70001,-0.07790,0.40000
117.80000,-0.08460,0.53000
117.90001,-0.09120,0.53000
118.00001,-0.09790,0.40000
118.10001,-0.10460,0.40000
118.20001,-0.11120,0.53000
118.30000,-0.11790,0.40000
118.40001,-0.12460,0.53000
118.50001,-0.13120,0.53000
118.60001,-0.13790,0.53000
118.70001,-0.14460,0.53000
118.80000,-0.15120,0.40000
118.90001,-0.15790,0.26000
119.00001,-0.16460,0.40000
119.10001,-0.17120,0.53000
119.20001,-0.17790,0.53000
119.30000,-0.18460,0.53000
119.40001,-0.19120,0.53000
119.50001,-0.19790,0.67000
119.60001,-0.20460,0.40000
119.70001,-0.21120,0.40000
119.80000,-0.21790,0.40000
119.90001,-0.22450,0.53000
120.00001,-0.23120,0.53000
120.10001,-0.23790,0.53000
120.20001,-0.24450,0.53000
120.30000,-0.25120,0.53000
120.40001,-0.25790,0.53000
120.50001,-0.26450,0.53000
120.60001,-0.27120,0.53000
120.70001,-0.27790,0.40000
120.80000,-0.28450,0.40000
120.90001,-0.29120,0.53000
121.00001,-0.29790,0.26000
121.10001,-0.30450,0.40000
121.20001,-0.31120,0.53000
121.30000,-0.31790,0.53000
121.40001,-0.32450,0.53000
121.50001,-0.33120,0.53000
121.60001,-0.33790,0.26000
121.70001,-0.34450,0.40000
121.80000,-0.35120,0.26000
121.90001,-0.35790,0.26000
122.00001,-0.36450,0.53000
122.10001,-0.37120,0.53000
122.20001,-0.37790,0.53000
122.30000,-0.38450,0.40000
122.40001,-0.39120,0.53000
122.50001,-0.39790,0.40000
122.60001,-0.40450,0.40000
122.70001,-0.41120,0.40000
122.80000,-0.41790,0.40000
122.90001,-0.42450,0.40000
123.00001,-0.43120,0.40000
123.10001,-0.43790,0.53000
123.20001,-0.44450,0.53000
123.30000,-0.45120,0.53000
123.40001,-0.45790,0.53000
123.50001,-0.46450,0.53000
123.60001,-0.47120,0.53000
123.70001,-0.47790,0.40000
123.80000,-0.48450,0.40000
123.90001,-0.49120,0.53000
124.00001,-0.49790,0.53000
124.10001,-0.50450,0.67000
124.20001,-0.51120,0.53000
124.30000,-0.51790,0.53000
124.40001,-0.52450,0.53000
124.50001,-0.53120,0.53000
124.60001,-0.53790,0.26000
124.70001,-0.54450,0.53000
124.80000,-0.55120,0.53000
124.90001,-0.55790,0.53000
125.00001,-0.56450,0.40000
125.10001,-0.57120,0.53000
125.20001,-0.57790,0.53000
125.30000,-0.58450,0.40000
125.40001,-0.59120,0.53000
125.50001,-0.59790,0.53000
125.60001,-0.60450,0.53000
125.70001,-0.61120,0.53000
125.80000,-0.61790,0.40000
125.90001,-0.62450,0.53000
126.00001,-0.63120,0.53000
126.10001,-0.63790,0.40000
126.20001,-0.64450,0.53000
126.30000,-0.65120,0.53000
126.40001,-0.65790,0.53000
126.50001,-0.66450,0.67000
126.60001,-0.67120,0.40000
126.70001,-0.67790,0.53000
126.80000,-0.68450,0.53000
126.90001,-0.69120,0.53000
127.00001,-0.69790,0.53000
127.10001,-0.70450,0.40000
127.20001,-0.71120,0.40000
127.30000,-0.71790,0.40000
127.40001,-0.72450,0.53000
127.50001,-0.73120,0.53000
127.60001,-0.73780,0.53000
127.70001,-0.74450,0.40000
127.80000,-0.75120,0.53000
127.90001,-0.75780,0.40000
128.00000,-0.76450,0.40000
128.10001,-0.77120,0.40000
128.20002,-0.77780,0.40000
128.30000,-0.78450,0.53000
128.40001,-0.79120,0.40000
128.50000,-0.79780,0.40000
128.60001,-0.80450,0.40000
128.70002,-0.81120,0.53000
128.80000,-0.81780,0.40000
128.90001,-0.82450,0.40000
129.00000,-0.83120,0.40000
129.10001,-0.83780,0.40000
129.20002,-0.84450,0.40000
129.30000,-0.85120,0.53000
129.40001,-0.85780,0.53000
129.50000,-0.86450,0.53000
129.60001,-0.87120,0.53000
129.70002,-0.87780,0.40000
129.80000,-0.88450,0.40000
129.90001,-0.89120,0.40000
130.00000,-0.89780,0.40000
130.10001,-0.90450,0.53000
130.20002,-0.91120,0.53000
130.30000,-0.91780,0.53000
130.40001,-0.92450,0.40000
130.50000,-0.93120,0.40000
130.60001,-0.93780,0.26000
130.70002,-0.94450,0.40000
130.80000,-0.95120,0.40000
130.90001,-0.95780,0.40000
131.00000,-0.96450,0.53000
131.10000,-0.97120,0.40000
131.20002,-0.97780,0.67000
131.30000,-0.98450,0.53000
131.40002,-0.99120,0.53000
131.50000,-0.99780,0.53000
131.60000,-1.00450,0.53000
131.70002,-1.01120,0.53000
131.80000,-1.01780,0.40000
131.90002,-1.02450,0.53000
132.00000,-1.03120,0.53000
132.10000,-1.03780,0.53000
132.20002,-1.04450,0.53000
132.30000,-1.05120,0.53000
132.40002,-1.05780,0.40000
132.50000,-1.06450,0.53000
132.60000,-1.07120,0.53000
132.70002,-1.07780,0.26000
132.80000,-1.08450,0.53000
132.90002,-1.09120,0.53000
133.00000,-1.09780,0.53000
133.10000,-1.10450,0.40000
133.20002,-1.11120,0.40000
133.30000,-1.11780,0.40000
133.40002,-1.12450,0.40000
133.50000,-1.13120,0.40000
133.60000,-1.13780,0.40000
133.70002,-1.14450,0.40000
133.80000,-1.15120,0.40000
133.90002,-1.15780,0.53000
134.00000,-1.16450,0.40000
134.10000,-1.17120,0.53000
134.20002,-1.17780,0.53000
134.30000,-1.18450,0.40000
134.40002,-1.19120,0.53000
134.50000,-1.19780,0.40000
134.60000,-1.20450,0.40000
134.70002,-1.21120,0.40000
134.80000,-1.21780,0.53000
134.90002,-1.22450,0.53000
135.00000,-1.23120,0.40000
135.10000,-1.23780,0.26000
135.20002,-1.24450,0.40000
135.30000,-1.25120,0.40000
135.40002,-1.25780,0.40000
135.50000,-1.26450,0.53000
135.60000,-1.27110,0.53000
135.70002,-1.27780,0.53000
135.80000,-1.28450,0.40000
135.90002,-1.29110,0.40000
136.00000,-1.29780,0.40000
136.10000,-1.30450,0.40000
136.20002,-1.31110,0.53000
136.30000,-1.31780,0.40000
136.40002,-1.32450,0.53000
136.50000,-1.33110,0.40000
136.60000,-1.33780,0.53000
136.70002,-1.34450,0.40000
136.80000,-1.35110,0.53000
136.90002,-1.35780,0.40000
137.00000,-1.36450,0.40000
137.10000,-1.37110,0.40000
137.20002,-1.37780,0.40000
137.30000,-1.38450,0.53000
137.40002,-1.39110,0.53000
137.50000,-1.39780,0.67000
137.60000,-1.40450,0.53000
137.70002,-1.41110,0.40000
137.80000,-1.41780,0.40000
137.90002,-1.42450,0.40000
138.00000,-1.43110,0.40000
138.10000,-1.43780,0.40000
138.20002,-1.44450,0.67000
138.30000,-1.45110,0.53000
138.40002,-1.45780,0.67000
138.50000,-1.46450,0.40000
138.60000,-1.47110,0.53000
138.70002,-1.47780,0.26000
138.80000,-1.48450,0.40000
138.90002,-1.49110,0.53000
139.00000,-1.49780,0.40000
139.10000,-1.50450,0.40000
139.20002,-1.51110,0.40000
139.30000,-1.51780,0.53000
139.40002,-1.52450,0.40000
139.50000,-1.53110,0.53000
139.60000,-1.53780,0.53000
139.70002,-1.54450,0.40000
139.80000,-1.55110,0.40000
139.90002,-1.55780,0.40000
140.00000,-1.56450,0.40000
140.10000,-1.57110,0.53000
140.20002,-1.57780,0.53000
140.30000,-1.58450,0.53000
140.40002,-1.59110,0.53000
140.50000,-1.59780,0.40000
140.60000,-1.60450,0.40000
140.70002,-1.61110,0.40000
140.80000,-1.61780,0.40000
140.90002,-1.62450,0.53000
141.00000,-1.63110,0.53000
141.10000,-1.63780,0.40000
141.20002,-1.64450,0.40000
141.30000,-1.65110,0.53000
141.40002,-1.65780,0.40000
141.50000,-1.66450,0.53000
141.60000,-1.67110,0.53000
141.70002,-1.67780,0.53000
141.80000,-1.68450,0.53000
141.90002,-1.69110,0.40000
142.00000,-1.69780,0.40000
142.10000,-1.70450,0.40000
142.20002,-1.71110,0.53000
142.30000,-1.71780,0.53000
142.40002,-1.72450,0.40000
142.50000,-1.73110,0.53000
142.60000,-1.73780,0.53000
142.70002,-1.74450,0.53000
142.80000,-1.75110,0.53000
142.90002,-1.75780,0.53000
143.00000,-1.76450,0.53000
143.10000,-1.77110,0.53000
143.20002,-1.77780,0.53000
143.30000,-1.78440,0.53000
143.40002,-1.79110,0.53000
143.50000,-1.79780,0.53000
143.60000,-1.80440,0.67000
143.70002,-1.81110,0.53000
143.80000,-1.81780,0.53000
143.90002,-1.82440,0.40000
144.00000,-1.83110,0.53000
144.10000,-1.83780,0.40000
144.20002,-1.84440,0.40000
144.30000,-1.85110,0.53000
144.40002,-1.85780,0.53000
144.50000,-1.86440,0.53000
144.60000,-1.87110,0.53000
144.70002,-1.87780,0.53000
144.80000,-1.88440,0.53000
144.90002,-1.89110,0.53000
145.00000,-1.89780,0.40000
145.10000,-1.90440,0.40000
145.20002,-1.91110,0.40000
145.30000,-1.91780,0.40000
145.40002,-1.92440,0.40000
145.50000,-1.93110,0.53000
145.60000,-1.93780,0.53000
145.70002,-1.94440,0.53000
145.80000,-1.95110,0.53000
145.90002,-1.95780,0.26000
146.00000,-1.96440,0.40000
146.10000,-1.97110,0.40000
146.20002,-1.97780,0.40000
146.30000,-1.98440,0.53000
146.40002,-1.99110,0.53000
146.50000,-1.99780,0.40000
146.60000,-2.00440,0.40000
146.70002,-2.01110,0.40000
146.80000,-2.01780,0.40000
146.90002,-2.02440,0.40000
147.00000,-2.03110,0.53000
147.10000,-2.03780,0.40000
147.20002,-2.04440,0.53000
147.30000,-2.05110,0.53000
147.40002,-2.05780,0.53000
147.50000,-2.06440,0.53000
147.60000,-2.07110,0.53000
147.70002,-2.07780,0.40000
147.80000,-2.08440,0.40000
147.90002,-2.09110,0.40000
148.00000,-2.09780,0.40000
148.10000,-2.10440,0.53000
148.20002,-2.11110,0.53000
148.30000,-2.11780,0.67000
148.40002,-2.12440,0.53000
148.50000,-2.13110,0.53000
148.60000,-2.13780,0.40000
148.70002,-2.14440,0.53000
148.80000,-2.15110,0.40000
148.90002,-2.15780,0.40000
149.00000,-2.16440,0.53000
149.10000,-2.17110,0.53000
149.20002,-2.17780,0.53000
149.30000,-2.18440,0.53000
149.40002,-2.19110,0.53000
149.50000,-2.19780,0.53000
149.60000,-2.20440,0.53000
149.70002,-2.21110,0.53000
149.80000,-2.21780,0.40000
149.90002,-2.22440,0.53000
150.00000,-2.23110,0.40000
150.10000,-2.23780,0.53000
150.20002,-2.24440,0.53000
150.30000,-2.25110,0.67000
150.40002,-2.25780,0.67000
150.50000,-2.26440,0.53000
150.60000,-2.27110,0.53000
150.70002,-2.27780,0.53000
150.80000,-2.28440,0.40000
150.90002,-2.29110,0.40000
151.00000,-2.29780,0.53000
151.10000,-2.30440,0.40000
151.20002,-2.31110,0.53000
151.30000,-2.31770,0.53000
151.40002,-2.32440,0.26000
151.50000,-2.33110,0.26000
151.60000,-2.33770,0.00000
151.70002,-2.34440,0.13000
151.80000,-2.35110,-0.14000
151.90002,-2.35770,-0.14000
152.00000,-2.36440,-0.27000
152.10000,-2.37110,-0.41000
152.20002,-2.37770,-0.41000
152.30000,-2.38440,-0.54000
152.40002,-2.39110,-0.68000
152.50000,-2.39770,-0.68000
152.60000,-2.40440,-0.68000
152.70002,-2.41110,-0.94000
152.80000,-2.41770,-1.08000
152.90002,-2.42440,-1.21000
153.00000,-2.43110,-1.21000
153.10000,-2.43770,-1.35000
153.20002,-2.44440,-1.35000
153.30000,-2.45110,-1.48000
153.40002,-2.45770,-1.75000
153.50000,-2.46440,-1.75000
153.60000,-2.47110,-1.88000
153.70002,-2.47770,-1.88000
153.80000,-2.48440,-2.02000
153.90002,-2.49110,-2.15000
154.00000,-2.49770,-2.29000
154.10000,-2.50440,-2.42000
154.20002,-2.51110,-2.56000
154.30000,-2.51770,-2.69000
154.40002,-2.52440,-2.69000
154.50000,-2.53110,-2.82000
154.60000,-2.53770,-2.82000
154.70002,-2.54440,-3.09000
154.80000,-2.55110,-3.09000
154.90002,-2.55770,-3.23000
155.00000,-2.56440,-3.36000
155.10000,-2.57110,-3.49000
155.20002,-2.57770,-3.49000
155.30000,-2.58440,-3.49000
155.40002,-2.59110,-3.76000
155.50000,-2.59770,-3.76000
155.60000,-2.60440,-3.90000
155.70002,-2.61110,-3.90000
155.80000,-2.61770,-4.17000
155.90002,-2.62440,-4.30000
156.00000,-2.63110,-4.30000
156.10000,-2.63770,-4.43000
156.20002,-2.64440,-4.57000
156.30000,-2.65110,-4.57000
156.40002,-2.65770,-4.70000
156.50000,-2.66440,-4.84000
156.60000,-2.67110,-4.97000
156.70002,-2.67770,-4.97000
156.80000,-2.68440,-5.24000
156.90002,-2.69110,-5.37000
157.00000,-2.69770,-5.37000
157.10000,-2.70440,-5.51000
157.20002,-2.71110,-5.64000
157.30000,-2.71770,-5.78000
157.40002,-2.72440,-5.78000
157.50000,-2.73110,-5.91000
157.60000,-2.73770,-6.05000
157.70002,-2.74440,-6.05000
157.80000,-2.75110,-6.18000
157.90002,-2.75770,-6.31000
158.00000,-2.76440,-6.31000
158.10000,-2.77110,-6.58000
158.20002,-2.77770,-6.58000
158.30000,-2.78440,-6.72000
158.40002,-2.79110,-6.72000
158.50000,-2.79770,-6.85000
158.60000,-2.80440,-6.98000
158.70002,-2.81110,-6.98000
158.80000,-2.81770,-7.25000
158.90002,-2.82440,-7.39000
159.00000,-2.83100,-7.39000
159.10000,-2.83770,-7.39000
159.20002,-2.84440,-7.52000
159.30000,-2.85100,-7.66000
159.40002,-2.85770,-7.79000
159.50000,-2.86440,-7.79000
159.60000,-2.87100,-8.06000
159.70002,-2.87770,-8.19000
159.80000,-2.88440,-8.19000
159.90002,-2.89100,-8.33000
160.00000,-2.89770,-8.33000
160.10000,-2.90440,-8.46000
160.20002,-2.91100,-8.60000
160.30000,-2.91770,-8.73000
160.40002,-2.92440,-8.73000
160.50000,-2.93100,-8.86000
160.60000,-2.93770,-8.86000
160.70002,-2.94440,-9.00000
160.80000,-2.95100,-9.13000
160.90002,-2.95770,-9.27000
161.00002,-2.96440,-9.40000
161.10000,-2.97100,-9.40000
161.20002,-2.97770,-9.54000
161.30000,-2.98440,-9.67000
161.40002,-2.99100,-9.67000
161.50002,-2.99770,-9.80000
161.60000,-3.00440,-9.94000
161.70002,-3.01100,-10.07000
161.80000,-3.01770,-10.07000
161.90002,-3.02440,-10.34000
162.00002,-3.03100,-10.34000
162.10000,-3.03770,-10.47000
162.20002,-3.04440,-10.61000
162.30000,-3.05100,-10.74000
162.40002,-3.05770,-10.74000
162.50002,-3.06440,-10.74000
162.60000,-3.07100,-10.88000
162.70002,-3.07770,-11.01000
162.80000,-3.08440,-11.28000
162.90002,-3.09100,-11.41000
163.00002,-3.09770,-11.41000
163.10000,-3.10440,-11.41000
163.20002,-3.11100,-11.55000
163.30000,-3.11770,-11.68000
163.40002,-3.12440,-11.68000
163.50002,-3.13100,-11.95000
163.60000,-3.13770,-11.95000
163.70002,-3.14440,-12.09000
163.80000,-3.15100,-12.09000
163.90002,-3.15770,-12.35000
164.00002,-3.16440,-12.35000
164.10000,-3.17100,-12.49000
164.20002,-3.17770,-12.62000
164.30000,-3.18440,-12.62000
164.40002,-3.19100,-12.62000
164.50002,-3.19770,-12.76000
164.60000,-3.20440,-12.89000
164.70002,-3.21100,-13.03000
164.80000,-3.21770,-13.16000
164.90002,-3.22440,-13.29000
165.00002,-3.23100,-13.43000
165.10000,-3.23770,-13.43000
165.20002,-3.24440,-13.56000
165.30000,-3.25100,-13.56000
165.40002,-3.25770,-13.56000
165.50002,-3.26440,-13.70000
165.60000,-3.27100,-13.83000
165.70002,-3.27770,-14.10000
165.80000,-3.28440,-14.10000
165.90002,-3.29100,-14.23000
166.00002,-3.29770,-14.37000
166.10000,-3.30440,-14.37000
166.20002,-3.31100,-14.50000
166.30000,-3.31770,-14.64000
166.40002,-3.32440,-14.64000
166.50002,-3.33100,-14.64000
166.60000,-3.33770,-14.90000
166.70002,-3.34430,-14.90000
166.80000,-3.35100,-14.90000
166.90002,-3.35770,-15.04000
167.00002,-3.36430,-15.17000
167.10000,-3.37100,-15.31000
167.20002,-3.37770,-15.31000
167.30000,-3.38430,-15.44000
167.40002,-3.39100,-15.58000
167.50002,-3.39770,-15.71000
167.60000,-3.40430,-15.84000
167.70002,-3.41100,-15.84000
167.80000,-3.41770,-16.11000
167.90002,-3.42430,-16.11000
168.00002,-3.43100,-16.11000
168.10000,-3.43770,-16.25000
168.20002,-3.44430,-16.52000
168.30000,-3.45100,-16.52000
168.40002,-3.45770,-16.65000
168.50002,-3.46430,-16.65000
168.60000,-3.47100,-16.65000
168.70002,-3.47770,-16.92000
168.80000,-3.48430,-16.78000
168.90002,-3.49100,-17.05000
169.00002,-3.49770,-17.19000
169.10000,-3.50430,-17.32000
169.20002,-3.51100,-17.19000
169.30000,-3.51770,-17.32000
169.40002,-3.52430,-17.59000
169.50002,-3.53100,-17.59000
169.60000,-3.53770,-17.72000
169.70002,-3.54430,-17.72000
169.80000,-3.55100,-17.86000
169.90002,-3.55770,-17.99000
170.00002,-3.56430,-18.13000
170.10000,-3.57100,-18.13000
170.20002,-3.57770,-18.26000
170.30000,-3.58430,-18.39000
170.40002,-3.59100,-18.53000
170.50002,-3.59770,-18.53000
170.60000,-3.60430,-18.53000
170.70002,-3.61100,-18.66000
170.80000,-3.61770,-18.80000
170.90002,-3.62430,-18.93000
171.00002,-3.63100,-19.07000
171.10000,-3.63770,-19.20000
171.20002,-3.64430,-19.20000
171.30000,-3.65100,-19.33000
171.40002,-3.65770,-19.33000
171.50002,-3.66430,-19.47000
171.60000,-3.67100,-19.47000
171.70002,-3.67770,-19.60000
171.80000,-3.68430,-19.74000
171.90002,-3.69100,-19.74000
172.00002,-3.69770,-20.00000
172.10000,-3.70430,-20.00000
172.20002,-3.71100,-20.14000
172.30000,-3.71770,-20.27000
172.40002,-3.72430,-20.27000
172.50002,-3.73100,-20.27000
172.60000,-3.73770,-20.27000
172.70002,-3.74430,-20.41000
172.80000,-3.75100,-20.54000
172.90002,-3.75770,-20.68000
173.00002,-3.76430,-20.81000
173.10000,-3.77100,-20.94000
173.20002,-3.77770,-21.08000
173.30000,-3.78430,-21.08000
173.40002,-3.79100,-21.08000
173.50002,-3.79770,-21.21000
173.60000,-3.80430,-21.48000
173.70002,-3.81100,-21.35000
173.80000,-3.81770,-21.62000
173.90002,-3.82430,-21.75000
174.00002,-3.83100,-21.75000
174.10000,-3.83770,-21.88000
174.20002,-3.84430,-21.88000
174.30000,-3.85100,-22.02000
174.40002,-3.85770,-22.15000
174.50002,-3.86430,-22.15000
174.60000,-3.87100,-22.29000
174.70002,-3.87760,-22.42000
174.80000,-3.88430,-22.42000
174.90002,-3.89100,-22.56000
175.00002,-3.89760,-22.82000
175.10000,-3.90430,-22.82000
175.20002,-3.91100,-22.82000
175.30000,-3.91760,-22.82000
175.40002,-3.92430,-23.09000
175.50002,-3.93100,-23.09000
175.60000,-3.93760,-23.36000
175.70002,-3.94430,-23.36000
175.80000,-3.95100,-23.36000
175.90002,-3.95760,-23.49000
176.00002,-3.96430,-23.49000
176.10000,-3.97100,-23.63000
176.20002,-3.97760,-23.76000
176.30000,-3.98430,-23.90000
176.40002,-3.99100,-24.03000
176.50002,-3.99760,-24.03000
176.60000,-4.00430,-24.17000
176.70002,-4.01100,-24.17000
176.80000,-4.01760,-24.30000
176.90002,-4.02430,-24.30000
177.00002,-4.03100,-24.57000
177.10000,-4.03760,-24.57000
177.20002,-4.04430,-24.70000
177.30000,-4.05100,-24.70000
177.40002,-4.05760,-24.84000
177.50002,-4.06430,-24.84000
177.60000,-4.07100,-24.97000
177.70002,-4.07760,-25.11000
177.80000,-4.08430,-25.11000
177.90002,-4.09100,-25.24000
178.00002,-4.09760,-25.37000
178.10000,-4.10430,-25.37000
178.20002,-4.11100,-25.51000
178.30000,-4.11760,-25.64000
178.40002,-4.12430,-25.78000
178.50002,-4.13100,-25.78000
178.60000,-4.13760,-25.91000
178.70002,-4.14430,-25.91000
178.80000,-4.15100,-26.05000
178.90002,-4.15760,-26.05000
179.00002,-4.16430,-26.31000
179.10000,-4.17100,-26.31000
179.20002,-4.17760,-26.31000
179.30000,-4.18430,-26.58000
179.40002,-4.19100,-26.58000
179.50002,-4.19760,-26.58000
179.60000,-4.20430,-26.72000
179.70002,-4.21100,-26.85000
179.80000,-4.21760,-26.85000
179.90002,-4.22430,-26.98000
180.00002,-4.23100,-26.98000
180.10000,-4.23760,-27.12000
180.20002,-4.24430,-27.25000
180.30000,-4.25100,-27.39000
180.40002,-4.25760,-27.52000
180.50002,-4.26430,-27.52000
180.60000,-4.27100,-27.66000
180.70002,-4.27760,-27.66000
180.80000,-4.28430,-27.79000
180.90002,-4.29100,-27.92000
181.00002,-4.29760,-27.92000
181.10000,-4.30430,-28.19000
181.20002,-4.31100,-28.33000
181.30000,-4.31760,-28.33000
181.40002,-4.32430,-28.33000
181.50002,-4.33100,-28.33000
181.60000,-4.33760,-28.46000
181.70002,-4.34430,-28.60000
181.80000,-4.35100,-28.60000
181.90002,-4.35760,-28.86000
182.00002,-4.36430,-28.86000
182.10000,-4.37100,-29.00000
182.20002,-4.37760,-29.00000
182.30000,-4.38430,-29.13000
182.40002,-4.39090,-29.27000
182.50002,-4.39760,-29.27000
182.60000,-4.40430,-29.40000
182.70002,-4.41090,-29.40000
182.80000,-4.41760,-29.54000
182.90002,-4.42430,-29.67000
183.00002,-4.43090,-29.67000
183.10000,-4.43760,-29.80000
183.20002,-4.44430,-29.94000
183.30000,-4.45090,-30.07000
183.40002,-4.45760,-30.07000
183.50002,-4.46430,-30.21000
183.60000,-4.47090,-30.21000
183.70002,-4.47760,-30.34000
183.80000,-4.48430,-30.34000
183.90002,-4.49090,-30.47000
184.00002,-4.49760,-30.61000
184.10000,-4.50430,-30.61000
184.20002,-4.51090,-30.74000
184.30000,-4.51760,-30.74000
184.40002,-4.52430,-31.01000
184.50002,-4.53090,-31.01000
184.60000,-4.53760,-31.15000
184.70002,-4.54430,-31.15000
184.80000,-4.55090,-31.15000
184.90002,-4.55750,-31.28000
185.00002,-4.56420,-31.28000
185.10000,-4.57090,-31.55000
185.20002,-4.57750,-31.55000
185.30000,-4.58420,-31.68000
185.40002,-4.59090,-31.68000
185.50002,-4.59750,-31.82000
185.60000,-4.60420,-31.82000
185.70002,-4.61090,-31.95000
185.80000,-4.61750,-32.09000
185.90002,-4.62420,-32.09000
186.00002,-4.63090,-32.22000
186.10000,-4.63750,-32.35000
186.20002,-4.64420,-32.35000
186.30000,-4.65090,-32.49000
186.40002,-4.65750,-32.62000
186.50002,-4.66420,-32.76000
186.60000,-4.67090,-32.76000
186.70002,-4.67750,-32.89000
186.80000,-4.68420,-32.76000
186.90002,-4.69090,-33.03000
187.00002,-4.69750,-33.03000
187.10000,-4.70420,-33.29000
187.20002,-4.71090,-33.29000
187.30000,-4.71750,-33.29000
187.40002,-4.72420,-33.43000
187.50002,-4.73090,-33.56000
187.60000,-4.73750,-33.56000
187.70002,-4.74420,-33.56000
187.80000,-4.75090,-33.70000
187.90002,-4.75750,-33.83000
188.00002,-4.76420,-33.96000
188.10000,-4.77090,-33.96000
188.20002,-4.77750,-34.23000
188.30000,-4.78420,-34.23000
188.40002,-4.79090,-34.23000
188.50002,-4.79750,-34.37000
188.60000,-4.80420,-34.37000
188.70002,-4.81090,-34.50000
188.80000,-4.81750,-34.50000
188.90002,-4.82420,-34.64000
189.00002,-4.83090,-34.77000
189.10000,-4.83750,-34.90000
189.20002,-4.84420,-34.90000
189.30000,-4.85090,-35.04000
189.40002,-4.85750,-35.04000
189.50002,-4.86420,-35.17000
189.60000,-4.87080,-35.17000
189.70002,-4.87750,-35.31000
189.80000,-4.88420,-35.44000
189.90002,-4.89080,-35.44000
190.00002,-4.89750,-35.58000
190.10000,-4.90420,-35.71000
190.20002,-4.91080,-35.84000
190.30000,-4.91750,-35.84000
190.40002,-4.92420,-35.84000
190.50002,-4.93080,-35.98000
190.60000,-4.93750,-36.11000
190.70002,-4.94420,-36.11000
190.80000,-4.95080,-36.11000
190.90002,-4.95750,-36.25000
191.00002,-4.96420,-36.25000
191.10000,-4.97080,-36.52000
191.20002,-4.97750,-36.65000
191.30000,-4.98420,-36.65000
191.40002,-4.99080,-36.65000
191.50002,-4.99750,-36.78000
191.60000,-5.00420,-36.78000
191.70002,-5.01080,-36.92000
191.80000,-5.01750,-37.05000
191.90002,-5.02420,-37.05000
192.00002,-5.03080,-37.19000
192.10000,-5.03750,-37.32000
192.20002,-5.04420,-37.32000
192.30000,-5.05080,-37.45000
192.40002,-5.05750,-37.59000
192.50002,-5.06420,-37.59000
192.60000,-5.07080,-37.72000
192.70002,-5.07750,-37.86000
192.80000,-5.08420,-37.99000
192.90002,-5.09080,-37.99000
193.00002,-5.09750,-37.99000
193.10000,-5.10420,-37.99000
193.20002,-5.11080,-38.26000
193.30000,-5.11750,-38.26000
193.40002,-5.12420,-38.26000
193.50002,-5.13080,-38.26000
193.60000,-5.13750,-38.53000
193.70002,-5.14420,-38.53000
193.80000,-5.15080,-38.66000
193.90002,-5.15750,-38.66000
194.00002,-5.16420,-38.80000
194.10000,-5.17080,-38.93000
194.20002,-5.17750,-38.93000
194.30000,-5.18420,-38.93000
194.40002,-5.19080,-39.07000
194.50002,-5.19750,-39.20000
194.60000,-5.20420,-39.33000
194.70002,-5.21080,-39.33000
194.80000,-5.21750,-39.47000
194.90002,-5.22420,-39.33000
195.00002,-5.23080,-39.47000
195.10000,-5.23750,-39.60000
195.20002,-5.24420,-39.74000
195.30000,-5.25080,-39.74000
195.40002,-5.25750,-39.87000
195.50002,-5.26420,-40.00000
195.60000,-5.27080,-40.00000
195.70002,-5.27750,-40.00000
195.80000,-5.28420,-40.14000
195.90002,-5.29080,-40.27000
196.00002,-5.29750,-40.27000
196.10000,-5.30420,-40.27000
196.20002,-5.31080,-40.41000
196.30000,-5.31750,-40.54000
196.40002,-5.32420,-40.68000
196.50002,-5.33080,-40.68000
196.60000,-5.33750,-40.81000
196.70002,-5.34420,-40.68000
196.80000,-5.35080,-40.81000
196.90002,-5.35750,-40.81000
197.00002,-5.36420,-40.94000
197.10000,-5.37080,-40.94000
197.20002,-5.37750,-41.08000
197.30000,-5.38410,-41.21000
197.40002,-5.39080,-41.35000
197.50002,-5.39750,-41.35000
197.60000,-5.40410,-41.35000
197.70002,-5.41080,-41.48000
197.80000,-5.41750,-41.62000
197.90002,-5.42410,-41.62000
198.00002,-5.43080,-41.62000
198.10000,-5.43750,-41.75000
198.20002,-5.44410,-41.88000
198.30000,-5.45080,-41.88000
198.40002,-5.45750,-42.02000
198.50002,-5.46410,-42.02000
198.60000,-5.47080,-42.15000
198.70002,-5.47750,-42.15000
198.80000,-5.48410,-42.29000
198.90002,-5.49080,-42.29000
199.00002,-5.49750,-42.29000
199.10000,-5.50410,-42.42000
199.20002,-5.51080,-42.56000
199.30000,-5.51750,-42.69000
199.40002,-5.52410,-42.69000
199.50002,-5.53080,-42.69000
199.60000,-5.53750,-42.82000
199.70002,-5.54410,-42.82000
199.80000,-5.55080,-42.82000
199.90002,-5.55750,-42.96000
200.00002,-5.56410,-42.96000
200.10000,-5.57080,-43.09000
200.20002,-5.57750,-43.23000
200.30000,-5.58410,-43.23000
200.40002,-5.59080,-43.23000
200.50002,-5.59750,-43.36000
200.60000,-5.60410,-43.49000
200.70002,-5.61080,-43.49000
200.80000,-5.61750,-43.63000
200.90002,-5.62410,-43.63000
201.00002,-5.63080,-43.63000
201.10000,-5.63750,-43.76000
201.20002,-5.64410,-43.76000
201.30000,-5.65080,-43.90000
201.40002,-5.65750,-43.90000
201.50002,-5.66410,-44.03000
201.60000,-5.67080,-44.03000
201.70002,-5.67750,-44.17000
201.80000,-5.68410,-44.30000
201.90002,-5.69080,-44.30000
202.00002,-5.69750,-44.30000
202.10000,-5.70410,-44.43000
202.20002,-5.71080,-44.57000
202.30000,-5.71750,-44.43000
202.40002,-5.72410,-44.57000
202.50002,-5.73080,-44.70000
202.60000,-5.73750,-44.70000
202.70002,-5.74410,-44.84000
202.80000,-5.75080,-44.84000
202.90002,-5.75750,-44.84000
203.00002,-5.76410,-44.84000
203.10000,-5.77080,-44.97000
203.20002,-5.77750,-45.11000
203.30000,-5.78410,-45.24000
203.40002,-5.79080,-45.24000
203.50002,-5.79750,-45.37000
203.60000,-5.80410,-45.37000
203.70002,-5.81080,-45.37000
203.80000,-5.81750,-45.51000
203.90002,-5.82410,-45.51000
204.00002,-5.83080,-45.51000
204.10000,-5.83750,-45.64000
204.20002,-5.84410,-45.78000
204.30000,-5.85080,-45.78000
204.40002,-5.85750,-45.91000
204.50002,-5.86410,-46.05000
204.60000,-5.87080,-46.05000
204.70002,-5.87750,-46.05000
204.80000,-5.88410,-46.18000
204.90002,-5.89080,-46.18000
205.00002,-5.89750,-46.18000
205.10000,-5.90410,-46.31000
205.20002,-5.91080,-46.45000
205.30000,-5.91740,-46.45000
205.40002,-5.92410,-46.58000
205.50002,-5.93080,-46.72000
205.60000,-5.93740,-46.72000
205.70002,-5.94410,-46.58000
205.80000,-5.95080,-46.72000
205.90002,-5.95740,-46.72000
206.00002,-5.96410,-46.85000
206.10000,-5.97080,-46.85000
206.20002,-5.97740,-46.98000
206.30000,-5.98410,-47.12000
206.40002,-5.99080,-47.12000
206.50002,-5.99740,-47.25000
206.60000,-6.00410,-47.25000
206.70002,-6.01080,-47.39000
206.80000,-6.01740,-47.39000
206.90002,-6.02410,-47.52000
207.00002,-6.03080,-47.39000
207.10000,-6.03740,-47.52000
207.20002,-6.04410,-47.66000
207.30000,-6.05080,-47.66000
207.40002,-6.05740,-47.79000
207.50002,-6.06410,-47.79000
207.60000,-6.07080,-47.92000
207.70002,-6.07740,-47.92000
207.80000,-6.08410,-47.92000
207.90002,-6.09080,-48.06000
208.00002,-6.09740,-48.06000
208.10000,-6.10410,-48.19000
208.20002,-6.11080,-48.19000
208.30000,-6.11740,-48.33000
208.40002,-6.12410,-48.33000
208.50002,-6.13080,-48.33000
208.60000,-6.13740,-48.46000
208.70002,-6.14410,-48.60000
208.80000,-6.15080,-48.60000
208.90002,-6.15740,-48.60000
209.00002,-6.16410,-48.73000
209.10000,-6.17080,-48.73000
209.20002,-6.17740,-48.73000
209.30000,-6.18410,-48.86000
209.40002,-6.19080,-49.00000
209.50002,-6.19740,-49.00000
209.60000,-6.20410,-49.13000
209.70002,-6.21080,-49.13000
209.80000,-6.21740,-49.27000
209.90002,-6.22410,-49.27000
210.00002,-6.23080,-49.27000
210.10000,-6.23740,-49.40000
210.20002,-6.24410,-49.40000
210.30000,-6.25080,-49.40000
210.40002,-6.25740,-49.54000
210.50002,-6.26410,-49.67000
210.60000,-6.27080,-49.67000
210.70002,-6.27740,-49.80000
210.80000,-6.28410,-49.80000
210.90002,-6.29080,-49.94000
211.00002,-6.29740,-49.94000
211.10000,-6.30410,-49.94000
211.20002,-6.31080,-49.94000
211.30000,-6.31740,-50.07000
211.40002,-6.32410,-50.21000
211.50002,-6.33080,-50.21000
211.60000,-6.33740,-50.34000
211.70002,-6.34410,-50.47000
211.80000,-6.35080,-50.47000
211.90002,-6.35740,-50.47000
212.00002,-6.36410,-50.47000
212.10000,-6.37080,-50.47000
212.20002,-6.37740,-50.74000
212.30000,-6.38410,-50.74000
212.40002,-6.39080,-50.74000
212.50002,-6.39740,-50.88000
212.60000,-6.40410,-50.88000
212.70002,-6.41080,-51.01000
212.80000,-6.41740,-51.01000
212.90002,-6.42410,-51.01000
213.00002,-6.43070,-51.15000
213.10000,-6.43740,-51.15000
213.20002,-6.44410,-51.28000
213.30000,-6.45070,-51.28000
213.40002,-6.45740,-51.41000
213.50002,-6.46410,-51.41000
213.60000,-6.47070,-51.55000
213.70002,-6.47740,-51.68000
213.80000,-6.48410,-51.55000
213.90002,-6.49070,-51.68000
214.00002,-6.49740,-51.68000
214.10000,-6.50410,-51.82000
214.20002,-6.51070,-51.82000
214.30000,-6.51740,-51.95000
214.40002,-6.52410,-51.95000
214.50002,-6.53070,-52.09000
214.60000,-6.53740,-52.09000
214.70002,-6.54410,-52.09000
214.80000,-6.55070,-52.22000
214.90002,-6.55740,-52.22000
215.00002,-6.56410,-52.35000
215.10000,-6.57070,-52.22000
215.20002,-6.57740,-52.35000
215.30000,-6.58410,-52.49000
215.40002,-6.59070,-52.62000
215.50002,-6.59740,-52.62000
215.60000,-6.60410,-52.62000
215.70002,-6.61070,-52.62000
215.80000,-6.61740,-52.62000
215.90002,-6.62410,-52.76000
216.00002,-6.63070,-52.89000
216.10000,-6.63740,-52.89000
216.20002,-6.64410,-53.03000
216.30000,-6.65070,-53.16000
216.40002,-6.65740,-53.16000
216.50002,-6.66410,-53.03000
216.60000,-6.67070,-53.16000
216.70002,-6.67740,-53.29000
216.80000,-6.68410,-53.29000
216.90002,-6.69070,-53.43000
217.00002,-6.69740,-53.56000
217.10000,-6.70410,-53.56000
217.20002,-6.71070,-53.56000
217.30000,-6.71740,-53.70000
217.40002,-6.72410,-53.70000
217.50002,-6.73070,-53.70000
217.60000,-6.73740,-53.83000
217.70002,-6.74410,-53.96000
217.80000,-6.75070,-53.83000
217.90002,-6.75740,-53.96000
218.00002,-6.76410,-54.10000
218.10000,-6.77070,-54.10000
218.20002,-6.77740,-54.23000
218.30000,-6.78410,-54.23000
218.40002,-6.79070,-54.23000
218.50002,-6.79740,-54.23000
218.60000,-6.80410,-54.37000
218.70002,-6.81070,-54.50000
218.80000,-6.81740,-54.64000
218.90002,-6.82410,-54.64000
219.00002,-6.83070,-54.64000
219.10000,-6.83740,-54.77000
219.20002,-6.84410,-54.64000
219.30000,-6.85070,-54.77000
219.40002,-6.85740,-54.90000
219.50002,-6.86410,-54.90000
219.60000,-6.87070,-55.04000
219.70002,-6.87740,-55.04000
219.80000,-6.88410,-55.17000
219.90002,-6.89070,-55.17000
220.00002,-6.89740,-55.17000
220.10000,-6.90410,-55.17000
220.20002,-6.91070,-55.31000
220.30000,-6.91740,-55.31000
220.40002,-6.92410,-55.44000
220.50002,-6.93070,-55.44000
220.60000,-6.93740,-55.58000
220.70002,-6.94400,-55.71000
220.80000,-6.95070,-55.71000
220.90002,-6.95740,-55.71000
221.00002,-6.96400,-55.71000
221.10000,-6.97070,-55.84000
221.20002,-6.97740,-55.84000
221.30000,-6.98400,-55.84000
221.40002,-6.99070,-55.98000
221.50002,-6.99740,-56.11000
221.60000,-7.00400,-56.11000
221.70002,-7.01070,-56.25000
221.80000,-7.01740,-56.25000
221.90002,-7.02400,-56.11000
222.00002,-7.03070,-56.25000
222.10000,-7.03740,-56.25000
222.20002,-7.04400,-56.38000
222.30000,-7.05070,-56.52000
222.40002,-7.05740,-56.52000
222.50002,-7.06400,-56.65000
222.60000,-7.07070,-56.65000
222.70002,-7.07740,-56.65000
222.80000,-7.08400,-56.65000
222.90002,-7.09070,-56.78000
223.00002,-7.09740,-56.78000
223.10000,-7.10400,-56.92000
223.20002,-7.11070,-56.92000
223.30000,-7.11740,-57.05000
223.40002,-7.12400,-57.05000
223.50002,-7.13070,-57.19000
223.60000,-7.13740,-57.19000
223.70002,-7.14400,-57.32000
223.80000,-7.15070,-57.32000
223.90002,-7.15740,-57.32000
224.00002,-7.16400,-57.32000
224.10000,-7.17070,-57.45000
224.20002,-7.17740,-57.59000
224.30000,-7.18400,-57.59000
224.40002,-7.19070,-57.72000
224.50002,-7.19740,-57.86000
224.60000,-7.20400,-57.72000
224.70002,-7.21070,-57.86000
224.80000,-7.21740,-57.86000
224.90002,-7.22400,-57.99000
225.00002,-7.23070,-57.99000
225.10000,-7.23740,-57.99000
225.20002,-7.24400,-58.13000
225.30002,-7.25070,-58.13000
225.40002,-7.25740,-58.26000
225.50002,-7.26400,-58.26000
225.60000,-7.27070,-58.26000
225.70002,-7.27740,-58.39000
225.80002,-7.28400,-58.39000
225.90002,-7.29070,-58.39000
226.00002,-7.29740,-58.53000
226.10000,-7.30400,-58.53000
226.20002,-7.31070,-58.66000
226.30002,-7.31740,-58.80000
226.40002,-7.32400,-58.80000
226.50002,-7.33070,-58.80000
226.60000,-7.33740,-58.80000
226.70002,-7.34400,-58.93000
226.80002,-7.35070,-58.93000
226.90002,-7.35740,-59.07000
227.00002,-7.36400,-59.07000
227.10000,-7.37070,-59.20000
227.20002,-7.37740,-59.20000
227.30002,-7.38400,-59.20000
227.40002,-7.39070,-59.20000
227.50002,-7.39740,-59.33000
227.60000,-7.40400,-59.47000
227.70002,-7.41070,-59.47000
227.80002,-7.41740,-59.60000
227.90002,-7.42400,-59.60000
228.00002,-7.43070,-59.60000
228.10000,-7.43740,-59.60000
228.20002,-7.44400,-59.60000
228.30002,-7.45070,-59.74000
228.40002,-7.45740,-59.87000
228.50002,-7.46400,-59.87000
228.60000,-7.47070,-59.87000
228.70002,-7.47730,-59.87000
228.80002,-7.48400,-60.00000
228.90002,-7.49070,-60.00000
229.00002,-7.49730,-60.14000
229.10000,-7.50400,-60.14000
229.20002,-7.51070,-60.14000
229.30002,-7.51730,-60.14000
229.40002,-7.52400,-60.27000
229.50002,-7.53070,-60.27000
229.60000,-7.53730,-60.41000
229.70002,-7.54400,-60.54000
229.80002,-7.55070,-60.54000
229.90002,-7.55730,-60.54000
230.00002,-7.56400,-60.54000
230.10000,-7.57070,-60.68000
230.20002,-7.57730,-60.68000
230.30002,-7.58400,-60.81000
230.40002,-7.59070,-60.94000
230.50002,-7.59730,-60.94000
230.60000,-7.60400,-61.08000
230.70002,-7.61070,-61.08000
230.80002,-7.61730,-61.08000
230.90002,-7.62400,-61.08000
231.00002,-7.63070,-61.21000
231.10000,-7.63730,-61.21000
231.20002,-7.64400,-61.21000
231.30002,-7.65070,-61.21000
231.40002,-7.65730,-61.48000
231.50002,-7.66400,-61.48000
231.60000,-7.67070,-61.48000
231.70002,-7.67730,-61.62000
231.80002,-7.68400,-61.62000
231.90002,-7.69070,-61.62000
232.00002,-7.69730,-61.62000
232.10000,-7.70400,-61.62000
232.20002,-7.71070,-61.75000
232.30002,-7.71730,-61.75000
232.40002,-7.72400,-62.02000
232.50002,-7.73070,-62.02000
232.60000,-7.73730,-62.02000
232.70002,-7.74400,-62.02000
232.80002,-7.75070,-62.02000
232.90002,-7.75730,-62.15000
233.00002,-7.76400,-62.29000
233.10000,-7.77070,-62.15000
233.20002,-7.77730,-62.42000
233.30002,-7.78400,-62.29000
233.40002,-7.79070,-62.42000
233.50002,-7.79750,-62.56000
233.60000,-7.80410,-62.42000
233.70002,-7.81080,-62.69000
233.80002,-7.81750,-62.69000
233.90002,-7.82410,-62.69000
234.00002,-7.83080,-62.69000
234.10000,-7.83750,-62.69000
234.20002,-7.84410,-62.82000
234.30002,-7.85080,-62.82000
234.40002,-7.85750,-62.82000
234.50002,-7.86410,-62.96000
234.60000,-7.87080,-62.96000
234.70002,-7.87750,-63.09000
234.80002,-7.88410,-63.09000
234.90002,-7.89080,-63.09000
235.00002,-7.89750,-63.23000
235.10000,-7.90410,-63.23000
235.20002,-7.91080,-63.36000
235.30002,-7.91750,-63.36000
235.40002,-7.92410,-63.36000
235.50002,-7.93080,-63.49000
235.60000,-7.93750,-63.49000
235.70002,-7.94410,-63.63000
235.80002,-7.95080,-63.63000
235.90002,-7.95750,-63.76000
236.00002,-7.96410,-63.76000
236.10000,-7.97080,-63.76000
236.20002,-7.97750,-63.76000
236.30002,-7.98410,-63.76000
236.40002,-7.99080,-63.90000
236.50002,-7.99750,-64.03000
236.60000,-8.00410,-64.03000
236.70002,-8.01080,-64.03000
236.80002,-8.01750,-64.17000
236.90002,-8.02410,-64.17000
237.00002,-8.03080,-64.17000
237.10000,-8.03750,-64.30000
237.20002,-8.04410,-64.43000
237.30002,-8.05080,-64.30000
237.40002,-8.05750,-64.30000
237.50002,-8.06410,-64.43000
237.60000,-8.07080,-64.43000
237.70002,-8.07740,-64.70000
237.80002,-8.08410,-64.70000
237.90002,-8.09080,-64.70000
238.00002,-8.09740,-64.84000
238.10000,-8.10410,-64.70000
238.20002,-8.11080,-64.84000
238.30002,-8.11740,-64.84000
238.40002,-8.12410,-64.97000
238.50002,-8.13080,-64.97000
238.60000,-8.13740,-65.11000
238.70002,-8.14410,-65.11000
238.80002,-8.15080,-65.11000
238.90002,-8.15740,-65.24000
239.00002,-8.16410,-65.24000
239.10000,-8.17080,-65.24000
239.20002,-8.17740,-65.37000
239.30002,-8.18410,-65.37000
239.40002,-8.19080,-65.37000
239.50002,-8.19740,-65.51000
239.60000,-8.20410,-65.51000
239.70002,-8.21080,-65.51000
239.80002,-8.21740,-65.64000
239.90002,-8.22410,-65.64000
240.00002,-8.23080,-65.78000
240.10000,-8.23740,-65.64000
240.20002,-8.24410,-65.78000
240.30002,-8.25080,-65.78000
240.40002,-8.25740,-65.91000
240.50002,-8.26410,-66.05000
240.60000,-8.27080,-66.05000
240.70002,-8.27740,-66.05000
240.80002,-8.28410,-66.05000
240.90002,-8.29080,-66.18000
241.00002,-8.29740,-66.18000
241.10000,-8.30410,-66.31000
241.20002,-8.31080,-66.18000
241.30002,-8.31740,-66.31000
241.40002,-8.32410,-66.45000
241.50002,-8.33080,-66.45000
241.60000,-8.33740,-66.45000
241.70002,-8.34410,-66.45000
241.80002,-8.35080,-66.58000
241.90002,-8.35740,-66.58000
242.00002,-8.36410,-66.58000
242.10000,-8.37080,-66.58000
242.20002,-8.37740,-66.72000
242.30002,-8.38410,-66.72000
242.40002,-8.39080,-66.85000
242.50002,-8.39740,-66.98000
242.60000,-8.40410,-66.98000
242.70002,-8.41080,-66.98000
242.80002,-8.41740,-66.98000
242.90002,-8.42410,-67.12000
243.00002,-8.43080,-67.12000
243.10000,-8.43740,-67.25000
243.20002,-8.44410,-67.25000
243.30002,-8.45080,-67.39000
243.40002,-8.45740,-67.39000
243.50002,-8.46410,-67.39000
243.60000,-8.47080,-67.52000
243.70002,-8.47740,-67.52000
243.80002,-8.48410,-67.66000
243.90002,-8.49080,-67.66000
244.00002,-8.49740,-67.66000
244.10000,-8.50410,-67.79000
244.20002,-8.51080,-67.66000
244.30002,-8.51740,-67.79000
244.40002,-8.52410,-67.79000
244.50002,-8.53080,-67.92000
244.60000,-8.53740,-67.92000
244.70002,-8.54410,-67.92000
244.80002,-8.55080,-67.92000
244.90002,-8.55740,-68.19000
245.00002,-8.56410,-68.19000
245.10000,-8.57080,-68.19000
245.20002,-8.57740,-68.33000
245.30002,-8.58410,-68.19000
245.40002,-8.59080,-68.33000
245.50002,-8.59740,-68.33000
245.60000,-8.60410,-68.46000
245.70002,-8.61070,-68.46000
245.80002,-8.61740,-68.60000
245.90002,-8.62410,-68.60000
246.00002,-8.63070,-68.60000
246.10000,-8.63740,-68.73000
246.20002,-8.64410,-68.60000
246.30002,-8.65070,-68.73000
246.40002,-8.65740,-68.73000
246.50002,-8.66410,-68.86000
246.60000,-8.67070,-68.86000
246.70002,-8.67740,-69.00000
246.80002,-8.68410,-69.00000
246.90002,-8.69070,-69.00000
247.00002,-8.69740,-69.13000
247.10000,-8.70410,-69.13000
247.20002,-8.71070,-69.13000
247.30002,-8.71740,-69.13000
247.40002,-8.72410,-69.27000
247.50002,-8.73070,-69.27000
247.60000,-8.73740,-69.27000
247.70002,-8.74410,-69.54000
247.80002,-8.75070,-69.40000
247.90002,-8.75740,-69.54000
248.00002,-8.76410,-69.54000
248.10000,-8.77070,-69.67000
248.20002,-8.77740,-69.54000
248.30002,-8.78410,-69.54000
248.40002,-8.79070,-69.67000
248.50002,-8.79740,-69.67000
248.60000,-8.80410,-69.80000
248.70002,-8.81070,-69.94000
248.80002,-8.81740,-69.94000
248.90002,-8.82410,-69.94000
249.00002,-8.83070,-69.94000
249.10000,-8.83740,-69.94000
249.20002,-8.84410,-70.07000
249.30002,-8.85070,-70.07000
249.40002,-8.85740,-70.07000
249.50002,-8.86410,-70.21000
249.60000,-8.87070,-70.21000
249.70002,-8.87740,-70.34000
249.80002,-8.88410,-70.21000
249.90002,-8.89070,-70.34000
250.00002,-8.89740,-70.47000
250.10000,-8.90410,-70.47000
250.20002,-8.91070,-70.47000
250.30002,-8.91740,-70.47000
250.40002,-8.92410,-70.61000
250.50002,-8.93070,-70.61000
250.60000,-8.93740,-70.74000
250.70002,-8.94410,-70.88000
250.80002,-8.95070,-70.74000
250.90002,-8.95740,-70.88000
251.00002,-8.96410,-70.88000
251.10000,-8.97070,-70.88000
251.20002,-8.97740,-71.01000
251.30002,-8.98410,-71.01000
251.40002,-8.99070,-71.15000
251.50002,-8.99740,-71.15000
251.60000,-9.00410,-71.15000
251.70002,-9.01070,-71.15000
251.80002,-9.01740,-71.15000
251.90002,-9.02410,-71.28000
252.00002,-9.03070,-71.41000
252.10000,-9.03740,-71.41000
252.20002,-9.04410,-71.41000
252.30002,-9.05070,-71.41000
252.40002,-9.05740,-71.55000
252.50002,-9.06410,-71.55000
252.60000,-9.07070,-71.68000
252.70002,-9.07740,-71.68000
252.80002,-9.08410,-71.68000
252.90002,-9.09070,-71.68000
253.00002,-9.09740,-71.68000
253.10000,-9.10390,-71.82000
253.20002,-9.11060,-71.82000
253.30002,-9.11720,-71.95000
253.40002,-9.12390,-71.82000
253.50002,-9.13060,-71.95000
253.60000,-9.13720,-71.95000
253.70002,-9.14390,-72.09000
253.80002,-9.15060,-72.09000
253.90002,-9.15720,-72.22000
254.00002,-9.16390,-72.22000
254.10000,-9.17060,-72.22000
254.20002,-9.17720,-72.22000
254.30002,-9.18390,-72.22000
254.40002,-9.19060,-72.22000
254.50002,-9.19720,-72.35000
254.60000,-9.20390,-72.49000
254.70002,-9.21060,-72.49000
254.80002,-9.21720,-72.62000
254.90002,-9.22390,-72.62000
255.00002,-9.23060,-72.62000
255.10000,-9.23720,-72.49000
255.20002,-9.24390,-72.62000
255.30002,-9.25060,-72.76000
255.40002,-9.25720,-72.76000
255.50002,-9.26390,-72.89000
255.60000,-9.27060,-72.89000
255.70002,-9.27720,-72.89000
255.80002,-9.28390,-73.03000
255.90002,-9.29060,-73.03000
256.00000,-9.29720,-73.03000
256.10000,-9.30390,-73.03000
256.20002,-9.31060,-73.16000
256.30002,-9.31720,-73.03000
256.40003,-9.32390,-73.16000
256.50000,-9.33060,-73.29000
256.60000,-9.33720,-73.43000
256.70002,-9.34390,-73.29000
256.80002,-9.35060,-73.43000
256.90003,-9.35720,-73.56000
257.00000,-9.36390,-73.43000
257.10000,-9.37060,-73.43000
257.20002,-9.37720,-73.43000
257.30002,-9.38390,-73.56000
257.40003,-9.39060,-73.70000
257.50000,-9.39720,-73.70000
257.60000,-9.40390,-73.83000
257.70002,-9.41060,-73.83000
257.80002,-9.41720,-73.83000
257.90003,-9.42390,-73.83000
258.00000,-9.43060,-73.96000
258.10000,-9.43720,-73.83000
258.20002,-9.44390,-73.96000
258.30002,-9.45060,-73.96000
258.40003,-9.45720,-74.10000
258.50000,-9.46390,-74.10000
258.60000,-9.47060,-74.23000
258.70002,-9.47720,-74.23000
258.80002,-9.48390,-74.23000
258.90003,-9.49060,-74.37000
259.00000,-9.49720,-74.23000
259.10000,-9.50390,-74.23000
259.20002,-9.51060,-74.37000
259.30002,-9.51720,-74.50000
259.40003,-9.52390,-74.50000
259.50000,-9.53060,-74.50000
259.60000,-9.53720,-74.64000
259.70002,-9.54390,-74.50000
259.80002,-9.55050,-74.64000
259.90003,-9.55720,-74.64000
260.00000,-9.56390,-74.77000
260.10000,-9.57050,-74.77000
260.20002,-9.57720,-74.90000
260.30002,-9.58390,-74.90000
260.40003,-9.59050,-74.90000
260.50000,-9.59720,-74.90000
260.60000,-9.60390,-75.04000
260.70002,-9.61050,-75.04000
260.80002,-9.61720,-75.04000
260.90003,-9.62390,-75.04000
261.00000,-9.63050,-75.17000
261.10000,-9.63720,-75.17000
261.20002,-9.64390,-75.31000
261.30002,-9.65050,-75.17000
261.40003,-9.65720,-75.31000
261.50000,-9.66390,-75.31000
261.60000,-9.67050,-75.31000
261.70002,-9.67720,-75.31000
261.80002,-9.68390,-75.44000
261.90003,-9.69050,-75.58000
262.00000,-9.69720,-75.58000
262.10000,-9.70390,-75.58000
262.20000,-9.71050,-75.58000
262.30003,-9.71720,-75.71000
262.40003,-9.72390,-75.58000
262.50000,-9.73050,-75.71000
262.60000,-9.73720,-75.71000
262.70000,-9.74390,-75.71000
262.80003,-9.75050,-75.84000
262.90003,-9.75720,-75.98000
263.00000,-9.76390,-75.98000
263.10000,-9.77050,-75.84000
263.20000,-9.77720,-75.98000
263.30003,-9.78390,-75.98000
263.40003,-9.79050,-76.11000
263.50000,-9.79720,-76.11000
263.60000,-9.80390,-76.25000
263.70000,-9.81050,-76.25000
263.80003,-9.81720,-76.25000
263.90003,-9.82390,-76.25000
264.00000,-9.83050,-76.38000
264.10000,-9.83720,-76.38000
264.20000,-9.84390,-76.38000
264.30003,-9.85050,-76.38000
264.40003,-9.85720,-76.38000
264.50000,-9.86390,-76.52000
264.60000,-9.87050,-76.52000
264.70000,-9.87720,-76.65000
264.80003,-9.88390,-76.65000
264.90003,-9.89050,-76.78000
265.00000,-9.89720,-76.78000
265.10000,-9.90390,-76.78000
265.20000,-9.91050,-76.65000
265.30003,-9.91720,-76.78000
265.40003,-9.92390,-76.92000
265.50000,-9.93050,-76.92000
265.60000,-9.93720,-77.05000
265.70000,-9.94390,-77.05000
265.80003,-9.95050,-77.05000
265.90003,-9.95720,-77.19000
266.00000,-9.96390,-77.05000
266.10000,-9.97050,-77.19000
266.20000,-9.97720,-77.19000
266.30003,-9.98390,-77.19000
266.40003,-9.99050,-77.19000
266.50000,-9.99720,-77.19000
266.60000,-10.00390,-77.32000
266.65003,-10.00720,-77.32000
