Time,Extension,Load
(sec),(mm),(N)
0.00000,-0.19680,-2.96000
0.10000,-0.20420,-3.76000
0.20000,-0.21090,-4.03000
0.30000,-0.21750,-4.30000
0.40000,-0.22420,-4.57000
0.50000,-0.23090,-4.97000
0.60000,-0.23750,-5.37000
0.70000,-0.24420,-5.78000
0.80000,-0.25090,-6.05000
0.90000,-0.25750,-6.45000
1.00000,-0.26420,-6.85000
1.10000,-0.27090,-7.25000
1.20000,-0.27750,-7.66000
1.30000,-0.28420,-8.06000
1.40000,-0.29090,-8.33000
1.50000,-0.29750,-8.73000
1.60000,-0.30420,-9.00000
1.70000,-0.31090,-9.54000
1.80000,-0.31750,-9.94000
1.90000,-0.32420,-10.21000
2.00000,-0.33090,-10.61000
2.10000,-0.33750,-11.01000
2.20000,-0.34420,-11.41000
2.30000,-0.35090,-11.82000
2.40000,-0.35750,-12.09000
2.50000,-0.36420,-12.49000
2.60000,-0.37090,-12.89000
2.70000,-0.37750,-13.29000
2.80000,-0.38420,-13.70000
2.90000,-0.39090,-14.10000
3.00000,-0.39750,-14.64000
3.10000,-0.40420,-15.04000
3.20000,-0.41090,-15.58000
3.30000,-0.41750,-15.98000
3.40000,-0.42420,-16.52000
3.50000,-0.43090,-16.92000
3.60000,-0.43750,-17.32000
3.70000,-0.44420,-17.86000
3.80000,-0.45090,-18.26000
3.90000,-0.45750,-18.66000
4.00000,-0.46420,-19.20000
4.10000,-0.47090,-19.74000
4.20000,-0.47750,-20.14000
4.30000,-0.48420,-20.54000
4.40000,-0.49090,-20.94000
4.50000,-0.49750,-21.48000
4.60000,-0.50420,-21.88000
4.70000,-0.51090,-22.29000
4.80000,-0.51750,-22.96000
4.90000,-0.52420,-23.23000
5.00000,-0.53080,-23.76000
5.10000,-0.53750,-24.17000
5.20000,-0.54420,-24.70000
5.30000,-0.55080,-25.11000
5.40000,-0.55750,-25.64000
5.50000,-0.56420,-26.05000
5.60000,-0.57080,-26.45000
5.70000,-0.57750,-26.98000
5.80000,-0.58420,-27.39000
5.90000,-0.59080,-27.79000
6.00000,-0.59750,-28.46000
6.10000,-0.60420,-28.86000
6.20000,-0.61080,-29.40000
6.30000,-0.61750,-29.80000
6.40000,-0.62420,-30.34000
6.50000,-0.63080,-30.74000
6.60000,-0.63750,-31.28000
6.70000,-0.64420,-31.68000
6.80000,-0.65080,-32.22000
6.90000,-0.65750,-32.76000
7.00000,-0.66420,-33.16000
7.10000,-0.67080,-33.70000
7.20000,-0.67750,-34.23000
7.30000,-0.68420,-34.64000
7.40000,-0.69080,-35.17000
7.50000,-0.69750,-35.71000
7.60000,-0.70420,-36.11000
7.70000,-0.71080,-36.52000
7.80000,-0.71750,-37.05000
7.90000,-0.72420,-37.59000
8.00000,-0.73080,-38.13000
8.10000,-0.73750,-38.53000
8.20000,-0.74420,-39.07000
8.30000,-0.75080,-39.60000
8.40000,-0.75750,-40.00000
8.50000,-0.76420,-40.41000
8.60000,-0.77080,-41.08000
8.70000,-0.77750,-41.48000
8.80000,-0.78420,-42.02000
8.90000,-0.79080,-42.42000
9.00000,-0.79750,-42.96000
9.10000,-0.80420,-43.49000
9.20000,-0.81080,-43.90000
9.30000,-0.81750,-44.43000
9.40000,-0.82420,-44.97000
9.50000,-0.83080,-45.37000
9.60000,-0.83750,-45.91000
9.70000,-0.84420,-46.31000
9.80000,-0.85080,-46.85000
9.90000,-0.85750,-47.39000
10.00000,-0.86420,-47.92000
10.10000,-0.87080,-48.46000
10.20000,-0.87750,-49.00000
10.30000,-0.88420,-49.40000
10.40000,-0.89080,-49.94000
10.50000,-0.89750,-50.34000
10.60000,-0.90420,-50.88000
10.70000,-0.91080,-51.41000
10.80000,-0.91750,-51.95000
10.90000,-0.92420,-52.49000
11.00000,-0.93080,-53.03000
11.10000,-0.93750,-53.56000
11.20000,-0.94420,-53.96000
11.30000,-0.95080,-54.50000
11.40000,-0.95750,-55.04000
11.50000,-0.96420,-55.44000
11.60000,-0.97080,-56.11000
11.70000,-0.97750,-56.52000
11.80000,-0.98420,-57.05000
11.90000,-0.99080,-57.59000
12.00000,-0.99750,-58.13000
12.10000,-1.00420,-58.53000
12.20000,-1.01080,-59.20000
12.30000,-1.01750,-59.60000
12.40000,-1.02420,-60.27000
12.50000,-1.03080,-60.68000
12.60000,-1.03750,-61.21000
12.70000,-1.04410,-61.62000
12.80000,-1.05080,-62.15000
12.90000,-1.05750,-62.82000
13.00000,-1.06410,-63.23000
13.10000,-1.07080,-63.76000
13.20000,-1.07750,-64.30000
13.30000,-1.08410,-64.84000
13.40000,-1.09080,-65.37000
13.50000,-1.09750,-65.91000
13.60000,-1.10410,-66.45000
13.70000,-1.11080,-66.85000
13.80000,-1.11750,-67.39000
13.90000,-1.12410,-67.92000
14.00000,-1.13080,-68.46000
14.10000,-1.13750,-69.00000
14.20000,-1.14410,-69.40000
14.30000,-1.15080,-70.07000
14.40000,-1.15750,-70.61000
14.50000,-1.16410,-71.15000
14.60000,-1.17080,-71.55000
14.70000,-1.17750,-71.95000
14.80000,-1.18410,-72.62000
14.90000,-1.19080,-73.16000
15.00000,-1.19750,-73.70000
15.10000,-1.20410,-74.23000
15.20000,-1.21080,-74.77000
15.30000,-1.21750,-75.31000
15.40000,-1.22410,-75.71000
15.50000,-1.23080,-76.25000
15.60000,-1.23750,-76.92000
15.70000,-1.24410,-77.32000
15.80000,-1.25080,-77.86000
15.90000,-1.25750,-78.26000
16.00000,-1.26410,-78.80000
16.10000,-1.27080,-79.33000
16.20000,-1.27750,-80.00000
16.30000,-1.28410,-80.41000
16.40000,-1.29080,-80.94000
16.50000,-1.29750,-81.48000
16.60000,-1.30410,-81.88000
16.70000,-1.31080,-82.42000
16.80000,-1.31750,-82.82000
16.90000,-1.32410,-83.49000
17.00000,-1.33080,-83.90000
17.10000,-1.33750,-84.57000
17.20000,-1.34410,-85.11000
17.30000,-1.35080,-85.51000
17.40000,-1.35750,-86.05000
17.50000,-1.36410,-86.58000
17.60000,-1.37080,-87.12000
17.70000,-1.37750,-87.52000
17.80000,-1.38410,-88.06000
17.90000,-1.39080,-88.73000
18.00000,-1.39750,-89.13000
18.10000,-1.40410,-89.67000
18.20000,-1.41080,-90.07000
18.30000,-1.41750,-90.74000
18.40000,-1.42410,-91.28000
18.50000,-1.43080,-91.68000
18.60000,-1.43750,-92.22000
18.70000,-1.44410,-92.62000
18.80000,-1.45080,-93.16000
18.90000,-1.45750,-93.83000
19.00000,-1.46410,-94.23000
19.10000,-1.47080,-94.77000
19.20000,-1.47750,-95.31000
19.30000,-1.48410,-95.71000
19.40000,-1.49080,-96.25000
19.50000,-1.49750,-96.78000
19.60000,-1.50410,-97.32000
19.70000,-1.51080,-97.86000
19.80000,-1.51750,-98.26000
19.90000,-1.52410,-98.80000
20.00000,-1.53080,-99.20000
20.10000,-1.53750,-99.74000
20.20000,-1.54410,-100.27000
20.30000,-1.55080,-100.81000
20.40000,-1.55750,-101.35000
20.50000,-1.56410,-101.75000
20.60000,-1.57080,-102.29000
20.70000,-1.57740,-102.82000
20.80000,-1.58410,-103.23000
20.90000,-1.59080,-103.76000
21.00000,-1.59740,-104.30000
21.10000,-1.60410,-104.70000
21.20000,-1.61080,-105.11000
21.30000,-1.61740,-105.78000
21.40000,-1.62410,-106.18000
21.50000,-1.63080,-106.72000
21.60000,-1.63740,-107.25000
21.70000,-1.64410,-107.79000
21.80000,-1.65080,-108.19000
21.90000,-1.65740,-108.73000
22.00000,-1.66410,-109.13000
22.10000,-1.67080,-109.67000
22.20000,-1.67740,-110.07000
22.30000,-1.68410,-110.61000
22.40000,-1.69080,-111.28000
22.50000,-1.69740,-111.82000
22.60000,-1.70410,-112.22000
22.70000,-1.71080,-112.76000
22.80000,-1.71740,-113.16000
22.90000,-1.72410,-113.70000
23.00000,-1.73080,-114.10000
23.10000,-1.73740,-114.64000
23.20000,-1.74410,-115.17000
23.30000,-1.75080,-115.71000
23.40000,-1.75740,-116.25000
23.50000,-1.76410,-116.65000
23.60000,-1.77080,-117.19000
23.70000,-1.77740,-117.72000
23.80000,-1.78410,-118.13000
23.90000,-1.79080,-118.66000
24.00000,-1.79740,-119.07000
24.10000,-1.80410,-119.60000
24.20000,-1.81080,-119.87000
24.30000,-1.81740,-120.54000
24.40000,-1.82410,-121.08000
24.50000,-1.83080,-121.62000
24.60000,-1.83740,-122.02000
24.70000,-1.84410,-122.42000
24.80000,-1.85080,-122.96000
24.90000,-1.85740,-123.36000
25.00000,-1.86410,-123.90000
25.10000,-1.87080,-124.30000
25.20000,-1.87740,-124.84000
25.30000,-1.88410,-125.37000
25.40000,-1.89080,-125.78000
25.50000,-1.89740,-126.31000
25.60000,-1.90410,-126.85000
25.70000,-1.91080,-127.25000
25.80000,-1.91740,-127.66000
25.90000,-1.92410,-128.19000
26.00000,-1.93080,-128.73000
26.10000,-1.93740,-129.13000
26.20000,-1.94410,-129.67000
26.30000,-1.95080,-130.07000
26.40000,-1.95740,-130.61000
26.50000,-1.96410,-131.15000
26.60000,-1.97080,-131.55000
26.70000,-1.97740,-132.09000
26.80000,-1.98410,-132.35000
26.90000,-1.99080,-132.89000
27.00000,-1.99740,-133.43000
27.10000,-2.00410,-133.96000
27.20000,-2.01080,-134.37000
27.30000,-2.01740,-134.90000
27.40000,-2.02410,-135.31000
27.50000,-2.03080,-135.71000
27.60000,-2.03740,-136.25000
27.70000,-2.04410,-136.78000
27.80000,-2.05080,-137.05000
27.90000,-2.05740,-137.72000
28.00000,-2.06410,-138.13000
28.10000,-2.07080,-138.53000
28.20000,-2.07740,-138.93000
28.30000,-2.08410,-139.47000
28.40000,-2.09070,-139.87000
28.50000,-2.09740,-140.41000
28.60000,-2.10410,-140.81000
28.70000,-2.11070,-141.35000
28.80000,-2.11740,-141.75000
28.90000,-2.12410,-142.29000
29.00000,-2.13070,-142.69000
29.10000,-2.13740,-143.23000
29.20000,-2.14410,-143.76000
29.30000,-2.15070,-144.17000
29.40000,-2.15740,-144.57000
29.50000,-2.16410,-144.97000
29.60000,-2.17070,-145.51000
29.70000,-2.17740,-146.05000
29.80000,-2.18410,-146.45000
29.90000,-2.19070,-146.98000
30.00000,-2.19740,-147.39000
30.10000,-2.20410,-147.79000
30.20000,-2.21070,-148.19000
30.30000,-2.21740,-148.73000
30.40000,-2.22410,-149.27000
30.50000,-2.23070,-149.67000
30.60000,-2.23740,-150.21000
30.70000,-2.24410,-150.61000
30.80000,-2.25070,-151.01000
30.90000,-2.25740,-151.55000
31.00000,-2.26410,-151.95000
31.10000,-2.27070,-152.49000
31.20000,-2.27740,-152.89000
31.30000,-2.28410,-153.29000
31.40000,-2.29070,-153.83000
31.50000,-2.29740,-154.23000
31.60000,-2.30410,-154.64000
31.70000,-2.31070,-155.04000
31.80000,-2.31740,-155.71000
31.90000,-2.32410,-156.11000
32.00000,-2.33070,-156.52001
32.10000,-2.33740,-156.91999
32.20000,-2.34410,-157.32000
32.30000,-2.35070,-157.86000
32.40000,-2.35740,-158.38999
32.50000,-2.36410,-158.80000
32.60000,-2.37070,-159.20000
32.70000,-2.37740,-159.60000
32.80000,-2.38410,-160.14000
32.90000,-2.39070,-160.54001
33.00000,-2.39740,-160.93999
33.10000,-2.40410,-161.47999
33.20000,-2.41070,-161.87999
33.30000,-2.41740,-162.41999
33.40000,-2.42410,-162.82000
33.50000,-2.43070,-163.23000
33.60000,-2.43740,-163.63000
33.70000,-2.44410,-164.17000
33.80000,-2.45070,-164.57001
33.90000,-2.45740,-164.96999
34.00000,-2.46410,-165.36999
34.10000,-2.47070,-165.90999
34.20000,-2.47740,-166.31000
34.30000,-2.48410,-166.72000
34.40000,-2.49070,-167.25000
34.50000,-2.49740,-167.79000
34.60000,-2.50410,-168.19000
34.70000,-2.51070,-168.60001
34.80000,-2.51740,-169.13000
34.90000,-2.52410,-169.40000
35.00000,-2.53070,-169.93999
35.10000,-2.53740,-170.46999
35.20000,-2.54410,-170.88000
35.30000,-2.55070,-171.28000
35.40000,-2.55740,-171.68000
35.50000,-2.56410,-172.09001
35.60000,-2.57070,-172.62001
35.70000,-2.57740,-173.02999
35.80000,-2.58410,-173.43000
35.90000,-2.59070,-173.83000
36.00000,-2.59740,-174.37000
36.10000,-2.60400,-174.77000
36.20000,-2.61070,-175.17000
36.30000,-2.61740,-175.57999
36.40000,-2.62400,-175.97999
36.50000,-2.63070,-176.51999
36.60000,-2.63740,-176.92000
36.70000,-2.64400,-177.32000
36.80000,-2.65070,-177.86000
36.90000,-2.65740,-178.13001
37.00000,-2.66400,-178.66001
37.10000,-2.67070,-179.06999
37.20000,-2.67740,-179.60001
37.30000,-2.68400,-179.99999
37.40000,-2.69070,-180.41000
37.50000,-2.69740,-180.81000
37.60000,-2.70400,-181.21000
37.70000,-2.71070,-181.62001
37.80000,-2.71740,-182.15001
37.90000,-2.72400,-182.55999
38.00000,-2.73070,-182.96000
38.10000,-2.73740,-183.48999
38.20000,-2.74400,-183.76000
38.30000,-2.75070,-184.17001
38.40000,-2.75740,-184.56999
38.50000,-2.76400,-185.10999
38.60000,-2.77070,-185.50999
38.70000,-2.77740,-186.04999
38.80000,-2.78400,-186.45000
38.90000,-2.79070,-186.72001
39.00000,-2.79740,-187.25000
39.10000,-2.80400,-187.66001
39.20000,-2.81070,-188.19001
39.30000,-2.81740,-188.46000
39.40000,-2.82400,-189.00000
39.50000,-2.83070,-189.40000
39.60000,-2.83740,-189.94000
39.70000,-2.84400,-190.34000
39.80000,-2.85070,-190.74000
39.90000,-2.85740,-191.28000
40.00000,-2.86400,-191.68001
40.10000,-2.87070,-192.08999
40.20000,-2.87740,-192.49000
40.30000,-2.88400,-192.89000
40.40000,-2.89070,-193.43000
40.50000,-2.89740,-193.70001
40.60000,-2.90400,-194.23001
40.70000,-2.91070,-194.63999
40.80000,-2.91740,-195.04000
40.90000,-2.92400,-195.44000
41.00000,-2.93070,-195.84000
41.10000,-2.93740,-196.25001
41.20000,-2.94400,-196.78000
41.30000,-2.95070,-197.19001
41.40000,-2.95740,-197.72001
41.50000,-2.96400,-197.99000
41.60000,-2.97070,-198.39000
41.70000,-2.97740,-198.80001
41.80000,-2.98400,-199.20001
41.90000,-2.99070,-199.74001
42.00000,-2.99740,-200.00000
42.10000,-3.00400,-200.53999
42.20000,-3.01070,-200.94000
42.30000,-3.01740,-201.35000
42.40000,-3.02400,-201.88000
42.50000,-3.03070,-202.29001
42.60000,-3.03740,-202.69001
42.70000,-3.04400,-203.08999
42.80000,-3.05070,-203.49000
42.90000,-3.05740,-203.90000
43.00000,-3.06400,-204.30000
43.10000,-3.07070,-204.84000
43.20000,-3.07740,-205.24001
43.30000,-3.08400,-205.63999
43.40000,-3.09070,-206.17999
43.50000,-3.09740,-206.45000
43.60000,-3.10400,-206.85000
43.70000,-3.11070,-207.25001
43.80000,-3.11740,-207.65999
43.90000,-3.12400,-208.06000
44.00000,-3.13070,-208.60000
44.10000,-3.13730,-209.00000
44.20000,-3.14400,-209.40000
44.30000,-3.15070,-209.80000
44.40000,-3.15730,-210.34000
44.50000,-3.16400,-210.60999
44.60000,-3.17070,-211.14999
44.70000,-3.17730,-211.55000
44.80000,-3.18400,-211.95000
44.90000,-3.19070,-212.35000
45.00000,-3.19730,-212.76001
45.10000,-3.20400,-213.15999
45.20000,-3.21070,-213.56000
45.30000,-3.21730,-214.10000
45.40000,-3.22400,-214.64000
45.50000,-3.23070,-214.90000
45.60000,-3.23730,-215.44000
45.70000,-3.24400,-215.84000
45.80000,-3.25070,-216.10999
45.90000,-3.25730,-216.64999
46.00000,-3.26400,-217.05000
46.10000,-3.27070,-217.59000
46.20000,-3.27730,-217.86001
46.30000,-3.28400,-218.26001
46.40000,-3.29070,-218.80001
46.50000,-3.29730,-219.19999
46.60000,-3.30400,-219.60000
46.70000,-3.31070,-220.14000
46.80000,-3.31730,-220.54000
46.90000,-3.32400,-220.94000
47.00000,-3.33070,-221.20999
47.10000,-3.33730,-221.74999
47.20000,-3.34400,-222.14999
47.30000,-3.35070,-222.42000
47.40000,-3.35730,-222.96000
47.50000,-3.36400,-223.36001
47.60000,-3.37070,-223.76001
47.70000,-3.37730,-224.30001
47.80000,-3.38400,-224.69999
47.90000,-3.39070,-225.11000
48.00000,-3.39730,-225.64000
48.10000,-3.40400,-226.05000
48.20000,-3.41070,-226.31001
48.30000,-3.41730,-226.71999
48.40000,-3.42400,-227.24999
48.50000,-3.43070,-227.66000
48.60000,-3.43730,-228.18999
48.70000,-3.44400,-228.60000
48.80000,-3.45070,-229.00000
48.90000,-3.45730,-229.40001
49.00000,-3.46400,-229.67000
49.10000,-3.47070,-230.21000
49.20000,-3.47730,-230.47000
49.30000,-3.48400,-231.01000
49.40000,-3.49070,-231.41000
49.50000,-3.49730,-231.95000
49.60000,-3.50400,-232.35001
49.70000,-3.51070,-232.75999
49.80000,-3.51730,-233.16000
49.90000,-3.52400,-233.56000
50.00000,-3.53070,-233.83001
50.10000,-3.53730,-234.37001
50.20000,-3.54400,-234.64000
50.30000,-3.55070,-235.17000
50.40000,-3.55730,-235.44000
50.50000,-3.56400,-235.98000
50.60000,-3.57070,-236.24999
50.70000,-3.57730,-236.92001
50.80000,-3.58400,-237.19000
50.90000,-3.59070,-237.59000
51.00000,-3.59730,-237.99000
51.10000,-3.60400,-238.39001
51.20000,-3.61070,-238.66000
51.30000,-3.61730,-239.20000
51.40000,-3.62400,-239.60000
51.50000,-3.63070,-240.00000
51.60000,-3.63730,-240.41001
51.70000,-3.64400,-240.68000
51.80000,-3.65060,-241.08000
51.90000,-3.65730,-241.62000
52.00000,-3.66400,-241.88001
52.10000,-3.67060,-242.42001
52.20000,-3.67730,-242.81999
52.30000,-3.68400,-243.23000
52.40000,-3.69060,-243.49000
52.50000,-3.69730,-244.03000
52.60000,-3.70400,-244.43001
52.70000,-3.71060,-244.83999
52.80000,-3.71730,-245.24000
52.90000,-3.72400,-245.77999
53.00000,-3.73060,-246.05000
53.10000,-3.73730,-246.45001
53.20000,-3.74400,-246.84999
53.30000,-3.75060,-247.24999
53.40000,-3.75730,-247.78999
53.50000,-3.76400,-248.19000
53.60000,-3.77060,-248.60000
53.70000,-3.77730,-249.00001
53.80000,-3.78400,-249.27000
53.90000,-3.79060,-249.67000
54.00000,-3.79730,-250.21000
54.10000,-3.80400,-250.61000
54.20000,-3.81060,-250.87999
54.30000,-3.81730,-251.27999
54.40000,-3.82400,-251.68000
54.50000,-3.83060,-252.09000
54.60000,-3.83730,-252.49001
54.70000,-3.84400,-252.88999
54.80000,-3.85060,-253.43001
54.90000,-3.85730,-253.70000
55.00000,-3.86400,-254.10000
55.10000,-3.87060,-254.50001
55.20000,-3.87730,-254.90001
55.30000,-3.88400,-255.31000
55.40000,-3.89060,-255.71000
55.50000,-3.89730,-256.11000
55.60000,-3.90400,-256.52001
55.70000,-3.91060,-256.91999
55.80000,-3.91730,-257.31999
55.90000,-3.92400,-257.72000
56.00000,-3.93060,-257.99001
56.10000,-3.93730,-258.53001
56.20000,-3.94400,-258.93001
56.30000,-3.95060,-259.20000
56.40000,-3.95730,-259.60000
56.50000,-3.96400,-260.00001
56.60000,-3.97060,-260.40999
56.70000,-3.97730,-260.81000
56.80000,-3.98400,-261.34999
56.90000,-3.99060,-261.75000
57.00000,-3.99730,-262.15000
57.10000,-4.00400,-262.41999
57.20000,-4.01060,-262.81999
57.30000,-4.01730,-263.23000
57.40000,-4.02400,-263.63000
57.50000,-4.03060,-264.03001
57.60000,-4.03730,-264.57001
57.70000,-4.04400,-264.84000
57.80000,-4.05060,-265.24000
57.90000,-4.05730,-265.64000
58.00000,-4.06400,-265.90999
58.10000,-4.07060,-266.31000
58.20000,-4.07730,-266.84999
58.30000,-4.08400,-267.12000
58.40000,-4.09060,-267.52001
58.50000,-4.09730,-267.91999
58.60000,-4.10400,-268.33000
58.70000,-4.11060,-268.73000
58.80000,-4.11730,-269.13000
58.90000,-4.12400,-269.54001
59.00000,-4.13060,-269.80000
59.10000,-4.13730,-270.21000
59.20000,-4.14400,-270.61000
59.30000,-4.15060,-270.88000
59.40000,-4.15730,-271.40999
59.50000,-4.16400,-271.82000
59.60000,-4.17060,-272.22000
59.70000,-4.17730,-272.48999
59.80000,-4.18390,-272.76000
59.90000,-4.19060,-273.16000
60.00000,-4.19730,-273.56001
60.10000,-4.20390,-273.96001
60.20000,-4.21060,-274.23000
60.30000,-4.21730,-274.77000
60.40000,-4.22390,-275.17000
60.50000,-4.23060,-275.43999
60.60000,-4.23730,-275.97999
60.70000,-4.24390,-276.25000
60.80000,-4.25060,-276.65000
60.90000,-4.25730,-277.05001
61.00000,-4.26390,-277.32000
61.10000,-4.27060,-277.72000
61.20000,-4.27730,-278.13001
61.30000,-4.28390,-278.53001
61.40000,-4.29060,-278.92999
61.50000,-4.29730,-279.33000
61.60000,-4.30390,-279.74000
61.70000,-4.31060,-280.14001
61.80000,-4.31730,-280.41000
61.90000,-4.32390,-280.81000
62.00000,-4.33060,-281.21000
62.10000,-4.33730,-281.62001
62.20000,-4.34390,-282.01999
62.30000,-4.35060,-282.41999
62.40000,-4.35730,-282.82000
62.50000,-4.36390,-283.09001
62.60000,-4.37060,-283.48999
62.70000,-4.37730,-283.90000
62.80000,-4.38390,-284.30000
62.90000,-4.39060,-284.57001
63.00000,-4.39730,-285.11001
63.10000,-4.40390,-285.50999
63.20000,-4.41060,-285.78000
63.30000,-4.41730,-286.04999
63.40000,-4.42390,-286.44999
63.50000,-4.43060,-286.85000
63.60000,-4.43730,-287.39000
63.70000,-4.44390,-287.66001
63.80000,-4.45060,-288.05999
63.90000,-4.45730,-288.45999
64.00000,-4.46390,-288.86000
64.10001,-4.47060,-289.13001
64.20000,-4.47730,-289.67001
64.30000,-4.48390,-289.94000
64.40000,-4.49060,-290.21000
64.50000,-4.49730,-290.61001
64.60001,-4.50390,-291.00999
64.70000,-4.51060,-291.41000
64.80000,-4.51730,-291.82000
64.90000,-4.52390,-292.35000
65.00000,-4.53060,-292.62001
65.10001,-4.53730,-293.02999
65.20000,-4.54390,-293.29000
65.30000,-4.55060,-293.70001
65.40000,-4.55730,-294.10001
65.50000,-4.56390,-294.49999
65.60001,-4.57060,-294.90000
65.70001,-4.57730,-295.17001
65.80000,-4.58390,-295.57999
65.90000,-4.59060,-295.98000
66.00000,-4.59730,-296.38000
66.10001,-4.60390,-296.65001
66.20001,-4.61060,-297.04999
66.30000,-4.61730,-297.44999
66.40000,-4.62390,-297.86000
66.50000,-4.63060,-298.12999
66.60001,-4.63730,-298.52999
66.70001,-4.64390,-298.93000
66.80000,-4.65060,-299.20001
66.90000,-4.65730,-299.60001
67.00000,-4.66390,-299.99999
67.10001,-4.67060,-300.27000
67.20001,-4.67730,-300.68001
67.30000,-4.68390,-300.94000
67.40000,-4.69060,-301.35000
67.50000,-4.69720,-301.75000
67.60001,-4.70390,-302.29000
67.70001,-4.71060,-302.55999
67.80000,-4.71720,-302.82000
67.90000,-4.72390,-303.23001
68.00000,-4.73060,-303.63001
68.10001,-4.73720,-303.76000
68.20001,-4.74390,-304.30000
68.30000,-4.75060,-304.56999
68.40000,-4.75720,-304.97000
68.50000,-4.76390,-305.37000
68.60001,-4.77060,-305.64001
68.70001,-4.77720,-306.05000
68.80000,-4.78390,-306.31000
68.90000,-4.79060,-306.72001
69.00000,-4.79720,-307.11999
69.10001,-4.80390,-307.39000
69.20001,-4.81060,-307.79000
69.30000,-4.81720,-308.19001
69.40000,-4.82390,-308.59999
69.50000,-4.83060,-308.86000
69.60001,-4.83720,-309.40000
69.70001,-4.84390,-309.67001
69.80000,-4.85060,-309.94000
69.90000,-4.85720,-310.47000
70.00000,-4.86390,-310.74001
70.10001,-4.87060,-311.01000
70.20001,-4.87720,-311.55000
70.30000,-4.88390,-311.95000
70.40000,-4.89060,-312.22001
70.50000,-4.89720,-312.61999
70.60001,-4.90390,-312.89000
70.70001,-4.91060,-313.28999
70.80000,-4.91720,-313.55999
70.90000,-4.92390,-313.96002
71.00000,-4.93060,-314.36998
71.10001,-4.93720,-314.63999
71.20001,-4.94390,-315.04001
71.30000,-4.95060,-315.30999
71.40000,-4.95720,-315.71001
71.50000,-4.96390,-316.10999
71.60001,-4.97060,-316.38000
71.70001,-4.97720,-316.77999
71.80000,-4.98390,-317.05000
71.90000,-4.99060,-317.59001
72.00000,-4.99720,-317.85998
72.05000,-5.00060,-317.99000
72.15000,-5.00720,-318.38998
72.20001,-5.01060,-318.53002
72.30000,-5.01140,-318.93000
72.40000,-5.00470,-318.38998
72.50000,-4.99810,-317.85998
72.60001,-4.99140,-316.91998
72.70001,-4.98470,-315.83998
72.80000,-4.97810,-314.90002
72.90000,-4.97140,-313.83000
73.00000,-4.96470,-313.03000
73.10001,-4.95810,-311.95000
73.20001,-4.95140,-311.14999
73.30000,-4.94470,-310.21001
73.40000,-4.93810,-309.27001
73.50000,-4.93140,-308.33000
73.60001,-4.92470,-307.39000
73.70001,-4.91810,-306.57999
73.80000,-4.91140,-305.78000
73.90000,-4.90470,-304.84000
74.00000,-4.89810,-304.02999
74.10001,-4.89140,-303.23001
74.20001,-4.88470,-302.29000
74.30000,-4.87810,-301.61999
74.40000,-4.87140,-300.81000
74.50000,-4.86470,-299.99999
74.60001,-4.85810,-299.20001
74.70001,-4.85140,-298.52999
74.80000,-4.84470,-297.72000
74.90000,-4.83810,-296.92000
75.00000,-4.83140,-296.38000
75.10001,-4.82470,-295.57999
75.20001,-4.81810,-294.77000
75.30000,-4.81140,-294.10001
75.40000,-4.80470,-293.29000
75.50000,-4.79810,-292.76000
75.60001,-4.79140,-292.08999
75.70001,-4.78470,-291.54999
75.80000,-4.77810,-290.88000
75.90000,-4.77140,-290.21000
76.00000,-4.76470,-289.53999
76.10001,-4.75810,-288.99999
76.20001,-4.75140,-288.33000
76.30000,-4.74470,-287.79000
76.40000,-4.73810,-287.25000
76.50000,-4.73140,-286.58001
76.60001,-4.72470,-285.91000
76.70001,-4.71810,-285.24000
76.80000,-4.71140,-284.70000
76.90000,-4.70470,-284.17001
77.00000,-4.69810,-283.48999
77.10001,-4.69140,-282.82000
77.20001,-4.68480,-282.41999
77.30000,-4.67810,-281.75000
77.40000,-4.67140,-281.08001
77.50000,-4.66480,-280.41000
77.60001,-4.65810,-279.87000
77.70001,-4.65140,-279.33000
77.80000,-4.64480,-278.66000
77.90000,-4.63810,-278.13001
78.00000,-4.63140,-277.59001
78.10001,-4.62480,-276.91999
78.20001,-4.61810,-276.11000
78.30000,-4.61140,-275.71000
78.40000,-4.60480,-275.17000
78.50000,-4.59810,-274.50001
78.60001,-4.59140,-273.96001
78.70001,-4.58480,-273.29000
78.80000,-4.57810,-272.62000
78.90000,-4.57140,-272.09001
79.00000,-4.56480,-271.55001
79.10001,-4.55810,-271.01001
79.20001,-4.55140,-270.34000
79.30000,-4.54480,-269.80000
79.40000,-4.53810,-269.13000
79.50000,-4.53140,-268.60001
79.60001,-4.52480,-268.06001
79.70001,-4.51810,-267.52001
79.80000,-4.51140,-266.84999
79.90000,-4.50480,-266.31000
80.00000,-4.49810,-265.64000
80.10001,-4.49140,-265.11000
80.20001,-4.48480,-264.43001
80.30000,-4.47810,-263.89999
80.40000,-4.47140,-263.35999
80.50001,-4.46480,-262.81999
80.60001,-4.45810,-262.29000
80.70001,-4.45140,-261.62000
80.80000,-4.44480,-261.08000
80.90000,-4.43810,-260.40999
81.00001,-4.43140,-260.00001
81.10001,-4.42480,-259.32999
81.20001,-4.41810,-258.66000
81.30000,-4.41140,-258.26000
81.40000,-4.40480,-257.59000
81.50001,-4.39810,-257.05000
81.60001,-4.39140,-256.52001
81.70001,-4.38480,-255.83999
81.80000,-4.37810,-255.44001
81.90000,-4.37140,-254.77000
82.00001,-4.36480,-254.23000
82.10001,-4.35810,-253.56000
82.20001,-4.35140,-253.03001
82.30000,-4.34480,-252.49001
82.40000,-4.33810,-251.95001
82.50001,-4.33140,-251.41001
82.60001,-4.32480,-250.74000
82.70001,-4.31810,-250.33999
82.80000,-4.31140,-249.79999
82.90000,-4.30480,-249.13000
83.00001,-4.29810,-248.60000
83.10001,-4.29140,-248.06000
83.20001,-4.28480,-247.38999
83.30000,-4.27810,-246.84999
83.40000,-4.27140,-246.30999
83.50001,-4.26480,-245.77999
83.60001,-4.25810,-245.11000
83.70001,-4.25140,-244.83999
83.80000,-4.24480,-244.17000
83.90000,-4.23810,-243.63000
84.00001,-4.23140,-242.96001
84.10001,-4.22480,-242.42001
84.20001,-4.21810,-241.74999
84.30000,-4.21140,-241.34999
84.40000,-4.20480,-240.68000
84.50001,-4.19810,-240.26999
84.60001,-4.19140,-239.74000
84.70001,-4.18480,-239.20000
84.80000,-4.17810,-238.53000
84.90000,-4.17140,-238.13000
85.00001,-4.16480,-237.45000
85.10001,-4.15810,-236.92001
85.20001,-4.15150,-236.24999
85.30000,-4.14480,-235.84001
85.40000,-4.13810,-235.30999
85.50001,-4.13150,-234.64000
85.60001,-4.12480,-234.10000
85.70001,-4.11810,-233.56000
85.80000,-4.11150,-233.16000
85.90000,-4.10480,-232.62000
86.00001,-4.09810,-231.95000
86.10001,-4.09150,-231.41000
86.20001,-4.08480,-230.88001
86.30000,-4.07810,-230.21000
86.40000,-4.07150,-229.67000
86.50001,-4.06480,-229.26999
86.60001,-4.05810,-228.72999
86.70001,-4.05150,-228.06000
86.80000,-4.04480,-227.52000
86.90000,-4.03810,-227.12000
87.00001,-4.03150,-226.45000
87.10001,-4.02480,-225.91000
87.20001,-4.01810,-225.37000
87.30000,-4.01150,-224.97000
87.40000,-4.00480,-224.30001
87.50001,-3.99810,-223.76001
87.60001,-3.99150,-223.22999
87.70001,-3.98480,-222.68999
87.80000,-3.97810,-222.14999
87.90000,-3.97150,-221.74999
88.00001,-3.96480,-221.08000
88.10001,-3.95810,-220.67999
88.20001,-3.95150,-220.00000
88.30000,-3.94480,-219.47000
88.40000,-3.93810,-218.93000
88.50001,-3.93150,-218.53000
88.60001,-3.92480,-217.86001
88.70001,-3.91810,-217.32001
88.80000,-3.91150,-216.78001
88.90000,-3.90480,-216.24999
89.00001,-3.89810,-215.70999
89.10001,-3.89150,-215.31001
89.20001,-3.88480,-214.64000
89.30000,-3.87810,-214.10000
89.40000,-3.87150,-213.56000
89.50001,-3.86480,-212.89000
89.60001,-3.85810,-212.49000
89.70001,-3.85150,-211.95000
89.80000,-3.84480,-211.55000
89.90000,-3.83810,-210.88000
90.00001,-3.83150,-210.47000
90.10001,-3.82480,-209.94000
90.20001,-3.81810,-209.27001
90.30000,-3.81150,-208.73001
90.40000,-3.80480,-208.19001
90.50001,-3.79810,-207.65999
90.60001,-3.79150,-207.11999
90.70001,-3.78480,-206.57999
90.80000,-3.77810,-206.17999
90.90000,-3.77150,-205.63999
91.00001,-3.76480,-204.97000
91.10001,-3.75810,-204.57000
91.20001,-3.75150,-204.16999
91.30000,-3.74480,-203.49000
91.40000,-3.73810,-202.96000
91.50001,-3.73150,-202.42000
91.60001,-3.72480,-201.75001
91.70001,-3.71810,-201.21001
91.80000,-3.71150,-200.81000
91.90000,-3.70480,-200.41000
92.00001,-3.69810,-199.87000
92.10001,-3.69150,-199.33000
92.20001,-3.68480,-198.80001
92.30000,-3.67810,-198.12999
92.40000,-3.67150,-197.58999
92.50001,-3.66480,-197.04999
92.60001,-3.65810,-196.64999
92.70001,-3.65150,-196.25001
92.80000,-3.64480,-195.71001
92.90000,-3.63820,-195.04000
93.00001,-3.63150,-194.50000
93.10001,-3.62480,-194.09999
93.20001,-3.61820,-193.55999
93.30000,-3.61150,-192.89000
93.40000,-3.60480,-192.49000
93.50001,-3.59820,-191.82000
93.60001,-3.59150,-191.41000
93.70001,-3.58480,-190.88000
93.80000,-3.57820,-190.34000
93.90000,-3.57150,-189.94000
94.00001,-3.56480,-189.40000
94.10001,-3.55820,-188.73001
94.20001,-3.55150,-188.33000
94.30000,-3.54480,-187.66001
94.40000,-3.53820,-187.12001
94.50001,-3.53150,-186.72001
94.60001,-3.52480,-186.31000
94.70001,-3.51820,-185.64001
94.80000,-3.51150,-185.24000
94.90000,-3.50480,-184.56999
95.00001,-3.49820,-184.17001
95.10001,-3.49150,-183.63001
95.20001,-3.48480,-183.09001
95.30000,-3.47820,-182.55999
95.40000,-3.47150,-182.15001
95.50001,-3.46480,-181.62001
95.60001,-3.45820,-180.93999
95.70001,-3.45150,-180.53999
95.80000,-3.44480,-179.99999
95.90000,-3.43820,-179.47000
96.00001,-3.43150,-178.93000
96.10001,-3.42480,-178.52999
96.20001,-3.41820,-177.98999
96.30000,-3.41150,-177.44999
96.40000,-3.40480,-177.04999
96.50001,-3.39820,-176.38000
96.60001,-3.39150,-175.97999
96.70001,-3.38480,-175.31000
96.80000,-3.37820,-174.90000
96.90000,-3.37150,-174.37000
97.00001,-3.36480,-173.83000
97.10001,-3.35820,-173.43000
97.20001,-3.35150,-172.89000
97.30000,-3.34480,-172.35000
97.40000,-3.33820,-171.82000
97.50001,-3.33150,-171.28000
97.60001,-3.32480,-170.74000
97.70001,-3.31820,-170.21000
97.80000,-3.31150,-169.80000
97.90000,-3.30480,-169.27000
98.00001,-3.29820,-168.86000
98.10001,-3.29150,-168.33000
98.20001,-3.28480,-167.79000
98.30000,-3.27820,-167.25000
98.40000,-3.27150,-166.72000
98.50001,-3.26480,-166.18000
98.60001,-3.25820,-165.64000
98.70001,-3.25150,-165.24000
98.80000,-3.24480,-164.70000
98.90000,-3.23820,-164.17000
99.00001,-3.23150,-163.76000
99.10001,-3.22480,-163.23000
99.20001,-3.21820,-162.69000
99.30000,-3.21150,-162.29000
99.40000,-3.20480,-161.75000
99.50001,-3.19820,-161.21000
99.60001,-3.19150,-160.68000
99.70001,-3.18480,-160.14000
99.80000,-3.17820,-159.60000
99.90000,-3.17150,-159.20000
100.00001,-3.16480,-158.66000
100.10001,-3.15820,-158.26000
100.20001,-3.15150,-157.72000
100.30000,-3.14480,-157.05001
100.40000,-3.13820,-156.65000
100.50001,-3.13150,-156.25000
100.60001,-3.12480,-155.58000
100.70001,-3.11820,-155.17000
100.80000,-3.11150,-154.77000
100.90000,-3.10490,-154.23000
101.00001,-3.09820,-153.70000
101.10001,-3.09150,-153.29000
101.20001,-3.08490,-152.62000
101.30000,-3.07820,-152.22000
101.40000,-3.07150,-151.68000
101.50001,-3.06490,-151.15000
101.60001,-3.05820,-150.74000
101.70001,-3.05150,-150.21000
101.80000,-3.04490,-149.67000
101.90000,-3.03820,-149.27000
102.00001,-3.03150,-148.73000
102.10001,-3.02490,-148.33000
102.20001,-3.01820,-147.79000
102.30000,-3.01150,-147.25000
102.40000,-3.00490,-146.72000
102.50001,-2.99820,-146.18000
102.60001,-2.99150,-145.64000
102.70001,-2.98490,-145.24000
102.80000,-2.97820,-144.70000
102.90000,-2.97150,-144.30000
103.00001,-2.96490,-143.76000
103.10001,-2.95820,-143.23000
103.20001,-2.95150,-142.82000
103.30000,-2.94490,-142.29000
103.40000,-2.93820,-141.75000
103.50001,-2.93150,-141.35000
103.60001,-2.92490,-140.81000
103.70001,-2.91820,-140.27000
103.80000,-2.91150,-139.74000
103.90000,-2.90490,-139.33000
104.00001,-2.89820,-138.80000
104.10001,-2.89150,-138.39000
104.20001,-2.88490,-137.86000
104.30000,-2.87820,-137.32000
104.40000,-2.87150,-136.92000
104.50001,-2.86490,-136.38000
104.60001,-2.85820,-135.84000
104.70001,-2.85150,-135.44000
104.80000,-2.84490,-135.04000
104.90000,-2.83820,-134.50000
105.00001,-2.83150,-133.96000
105.10001,-2.82490,-133.43000
105.20001,-2.81820,-133.03000
105.30000,-2.81150,-132.49000
105.40000,-2.80490,-132.09000
105.50001,-2.79820,-131.55000
105.60001,-2.79150,-131.15000
105.70001,-2.78490,-130.47000
105.80000,-2.77820,-129.94000
105.90000,-2.77150,-129.54000
106.00001,-2.76490,-129.00000
106.10001,-2.75820,-128.60000
106.20001,-2.75150,-128.19000
106.30000,-2.74490,-127.66000
106.40000,-2.73820,-127.12000
106.50001,-2.73150,-126.72000
106.60001,-2.72490,-126.18000
106.70001,-2.71820,-125.64000
106.80000,-2.71150,-125.11000
106.90000,-2.70490,-124.70000
107.00001,-2.69820,-124.17000
107.10001,-2.69150,-123.76000
107.20001,-2.68490,-123.23000
107.30000,-2.67820,-122.69000
107.40000,-2.67150,-122.29000
107.50001,-2.66490,-121.88000
107.60001,-2.65820,-121.35000
107.70001,-2.65150,-120.81000
107.80000,-2.64490,-120.27000
107.90000,-2.63820,-119.87000
108.00001,-2.63150,-119.47000
108.10001,-2.62490,-118.93000
108.20001,-2.61820,-118.53000
108.30000,-2.61150,-117.99000
108.40000,-2.60490,-117.45000
108.50001,-2.59820,-116.92000
108.60001,-2.59160,-116.52000
108.70001,-2.58490,-115.98000
108.80000,-2.57820,-115.58000
108.90000,-2.57160,-115.31000
109.00001,-2.56490,-114.77000
109.10001,-2.55820,-114.23000
109.20001,-2.55160,-113.70000
109.30000,-2.54490,-113.29000
109.40000,-2.53820,-112.76000
109.50001,-2.53160,-112.35000
109.60001,-2.52490,-111.82000
109.70001,-2.51820,-111.41000
109.80000,-2.51160,-110.88000
109.90000,-2.50490,-110.47000
110.00001,-2.49820,-109.94000
110.10001,-2.49160,-109.54000
110.20001,-2.48490,-109.00000
110.30000,-2.47820,-108.46000
110.40000,-2.47160,-107.92000
110.50001,-2.46490,-107.52000
110.60001,-2.45820,-106.98000
110.70001,-2.45160,-106.58000
110.80000,-2.44490,-106.05000
110.90000,-2.43820,-105.78000
111.00001,-2.43160,-105.24000
111.10001,-2.42490,-104.70000
111.20001,-2.41820,-104.17000
111.30000,-2.41160,-103.76000
111.40000,-2.40490,-103.09000
111.50001,-2.39820,-102.82000
111.60001,-2.39160,-102.29000
111.70001,-2.38490,-101.88000
111.80000,-2.37820,-101.35000
111.90000,-2.37160,-100.94000
112.00001,-2.36490,-100.54000
112.10001,-2.35820,-100.00000
112.20001,-2.35160,-99.47000
112.30000,-2.34490,-99.07000
112.40000,-2.33820,-98.66000
112.50001,-2.33160,-98.13000
112.60001,-2.32490,-97.59000
112.70001,-2.31820,-97.19000
112.80000,-2.31160,-96.78000
112.90001,-2.30490,-96.25000
113.00001,-2.29820,-95.84000
113.10001,-2.29160,-95.44000
113.20001,-2.28490,-94.77000
113.30000,-2.27820,-94.37000
113.40001,-2.27160,-93.96000
113.50001,-2.26490,-93.43000
113.60001,-2.25820,-93.03000
113.70001,-2.25160,-92.49000
113.80000,-2.24490,-91.95000
113.90001,-2.23820,-91.55000
114.00001,-2.23160,-91.15000
114.10001,-2.22490,-90.61000
114.20001,-2.21820,-90.21000
114.30000,-2.21160,-89.67000
114.40001,-2.20490,-89.27000
114.50001,-2.19820,-88.73000
114.60001,-2.19160,-88.33000
114.70001,-2.18490,-87.79000
114.80000,-2.17820,-87.25000
114.90001,-2.17160,-86.85000
115.00001,-2.16490,-86.45000
115.10001,-2.15820,-86.05000
115.20001,-2.15160,-85.64000
115.30000,-2.14490,-84.97000
115.40001,-2.13820,-84.57000
115.50001,-2.13160,-84.17000
115.60001,-2.12490,-83.76000
115.70001,-2.11820,-83.23000
115.80000,-2.11160,-82.82000
115.90001,-2.10490,-82.29000
116.00001,-2.09820,-81.88000
116.10001,-2.09160,-81.48000
116.20001,-2.08490,-81.08000
116.30000,-2.07830,-80.54000
116.40001,-2.07160,-80.14000
116.50001,-2.06490,-79.47000
116.60001,-2.05830,-79.07000
116.70001,-2.05160,-78.80000
116.80000,-2.04490,-78.26000
116.90001,-2.03830,-77.86000
117.00001,-2.03160,-77.45000
117.10001,-2.02490,-76.92000
117.20001,-2.01830,-76.52000
117.30000,-2.01160,-75.98000
117.40001,-2.00490,-75.58000
117.50001,-1.99830,-75.04000
117.60001,-1.99160,-74.64000
117.70001,-1.98490,-74.23000
117.80000,-1.97830,-73.70000
117.90001,-1.97160,-73.29000
118.00001,-1.96490,-72.89000
118.10001,-1.95830,-72.35000
118.20001,-1.95160,-72.09000
118.30000,-1.94490,-71.55000
118.40001,-1.93830,-71.15000
118.50001,-1.93160,-70.61000
118.60001,-1.92490,-70.07000
118.70001,-1.91830,-69.67000
118.80000,-1.91160,-69.27000
118.90001,-1.90490,-68.86000
119.00001,-1.89830,-68.46000
119.10001,-1.89160,-67.92000
119.20001,-1.88490,-67.52000
119.30000,-1.87830,-66.98000
119.40001,-1.87160,-66.58000
119.50001,-1.86490,-66.05000
119.60001,-1.85830,-65.78000
119.70001,-1.85160,-65.24000
119.80000,-1.84490,-64.84000
119.90001,-1.83830,-64.30000
120.00001,-1.83160,-64.03000
120.10001,-1.82490,-63.49000
120.20001,-1.81830,-63.23000
120.30000,-1.81160,-62.69000
120.40001,-1.80490,-62.15000
120.50001,-1.79830,-61.75000
120.60001,-1.79160,-61.35000
120.70001,-1.78490,-60.94000
120.80000,-1.77830,-60.41000
120.90001,-1.77160,-60.14000
121.00001,-1.76490,-59.74000
121.10001,-1.75830,-59.20000
121.20001,-1.75160,-58.80000
121.30000,-1.74490,-58.39000
121.40001,-1.73830,-57.86000
121.50001,-1.73160,-57.45000
121.60001,-1.72490,-57.05000
121.70001,-1.71830,-56.52000
121.80000,-1.71160,-56.11000
121.90001,-1.70490,-55.71000
122.00001,-1.69830,-55.31000
122.10001,-1.69160,-54.90000
122.20001,-1.68490,-54.37000
122.30000,-1.67830,-54.10000
122.40001,-1.67160,-53.56000
122.50001,-1.66490,-53.16000
122.60001,-1.65830,-52.62000
122.70001,-1.65160,-52.22000
122.80000,-1.64490,-51.82000
122.90001,-1.63830,-51.41000
123.00001,-1.63160,-51.01000
123.10001,-1.62490,-50.47000
123.20001,-1.61830,-50.21000
123.30000,-1.61160,-49.80000
123.40001,-1.60490,-49.27000
123.50001,-1.59830,-48.86000
123.60001,-1.59160,-48.46000
123.70001,-1.58490,-48.06000
123.80000,-1.57830,-47.52000
123.90001,-1.57160,-47.12000
124.00001,-1.56490,-46.85000
124.10001,-1.55830,-46.31000
124.20001,-1.55160,-46.05000
124.30000,-1.54500,-45.64000
124.40001,-1.53830,-45.24000
124.50001,-1.53160,-44.70000
124.60001,-1.52500,-44.30000
124.70001,-1.51830,-43.90000
124.80000,-1.51160,-43.49000
124.90001,-1.50500,-43.09000
125.00001,-1.49830,-42.82000
125.10001,-1.49160,-42.29000
125.20001,-1.48500,-41.88000
125.30000,-1.47830,-41.48000
125.40001,-1.47160,-41.08000
125.50001,-1.46500,-40.68000
125.60001,-1.45830,-40.27000
125.70001,-1.45160,-39.87000
125.80000,-1.44500,-39.47000
125.90001,-1.43830,-39.07000
126.00001,-1.43160,-38.66000
126.10001,-1.42500,-38.26000
126.20001,-1.41830,-37.86000
126.30000,-1.41160,-37.45000
126.40001,-1.40500,-37.19000
126.50001,-1.39830,-36.65000
126.60001,-1.39160,-36.25000
126.70001,-1.38500,-35.84000
126.80000,-1.37830,-35.31000
126.90001,-1.37160,-35.04000
127.00001,-1.36500,-34.64000
127.10001,-1.35830,-34.37000
127.20001,-1.35160,-33.96000
127.30000,-1.34500,-33.43000
127.40001,-1.33830,-33.16000
127.50001,-1.33160,-32.62000
127.60001,-1.32500,-32.35000
127.70001,-1.31830,-31.95000
127.80000,-1.31160,-31.55000
127.90001,-1.30500,-31.15000
128.00000,-1.29830,-30.74000
128.10001,-1.29160,-30.47000
128.20002,-1.28500,-29.94000
128.30000,-1.27830,-29.67000
128.40001,-1.27160,-29.27000
128.50000,-1.26500,-29.00000
128.60001,-1.25830,-28.46000
128.70002,-1.25160,-28.06000
128.80000,-1.24500,-27.66000
128.90001,-1.23830,-27.39000
129.00000,-1.23160,-26.98000
129.10001,-1.22500,-26.58000
129.20002,-1.21830,-26.18000
129.30000,-1.21160,-25.91000
129.40001,-1.20500,-25.37000
129.50000,-1.19830,-25.11000
129.60001,-1.19160,-24.70000
129.70002,-1.18500,-24.30000
129.80000,-1.17830,-23.90000
129.90001,-1.17160,-23.63000
130.00000,-1.16500,-23.09000
130.10001,-1.15830,-22.82000
130.20002,-1.15160,-22.42000
130.30000,-1.14500,-22.02000
130.40001,-1.13830,-21.75000
130.50000,-1.13160,-21.35000
130.60001,-1.12500,-20.94000
130.70002,-1.11830,-20.54000
130.80000,-1.11160,-20.14000
130.90001,-1.10500,-19.74000
131.00000,-1.09830,-19.47000
131.10000,-1.09160,-19.07000
131.20002,-1.08500,-18.80000
131.30000,-1.07830,-18.39000
131.40002,-1.07160,-18.13000
131.50000,-1.06500,-17.72000
131.60000,-1.05830,-17.32000
131.70002,-1.05160,-17.19000
131.80000,-1.04500,-16.78000
131.90002,-1.03830,-16.38000
132.00000,-1.03170,-15.98000
132.10000,-1.02500,-15.71000
132.20002,-1.01830,-15.31000
132.30000,-1.01170,-15.04000
132.40002,-1.00500,-14.64000
132.50000,-0.99830,-14.37000
132.60000,-0.99170,-13.83000
132.70002,-0.98500,-13.43000
132.80000,-0.97830,-13.16000
132.90002,-0.97170,-12.76000
133.00000,-0.96500,-12.49000
133.10000,-0.95830,-12.22000
133.20002,-0.95170,-11.82000
133.30000,-0.94500,-11.55000
133.40002,-0.93830,-11.15000
133.50000,-0.93170,-10.88000
133.60000,-0.92500,-10.61000
133.70002,-0.91830,-10.21000
133.80000,-0.91170,-9.94000
133.90002,-0.90500,-9.67000
134.00000,-0.89830,-9.40000
134.10000,-0.89170,-9.00000
134.20002,-0.88500,-8.73000
134.30000,-0.87830,-8.46000
134.40002,-0.87170,-8.19000
134.50000,-0.86500,-7.92000
134.60000,-0.85830,-7.52000
134.70002,-0.85170,-7.25000
134.80000,-0.84500,-6.85000
134.90002,-0.83830,-6.58000
135.00000,-0.83170,-6.31000
135.10000,-0.82500,-6.18000
135.20002,-0.81830,-5.78000
135.30000,-0.81170,-5.51000
135.40002,-0.80500,-5.24000
135.50000,-0.79830,-4.97000
135.60000,-0.79170,-4.70000
135.70002,-0.78500,-4.43000
135.80000,-0.77830,-4.17000
135.90002,-0.77170,-3.90000
136.00000,-0.76500,-3.63000
136.10000,-0.75830,-3.49000
136.20002,-0.75170,-3.09000
136.30000,-0.74500,-2.82000
136.40002,-0.73830,-2.56000
136.50000,-0.73170,-2.29000
136.60000,-0.72500,-2.02000
136.70002,-0.71830,-1.75000
136.80000,-0.71170,-1.48000
136.90002,-0.70500,-1.21000
137.00000,-0.69830,-0.94000
137.10000,-0.69170,-0.94000
137.20002,-0.68500,-0.54000
137.30000,-0.67830,-0.27000
137.40002,-0.67170,0.00000
137.50000,-0.66500,0.00000
137.60000,-0.65830,0.00000
137.70002,-0.65170,0.00000
137.80000,-0.64500,-0.14000
137.90002,-0.63830,0.00000
138.00000,-0.63170,0.00000
138.10000,-0.62500,0.13000
138.20002,-0.61830,0.00000
138.30000,-0.61170,0.13000
138.40002,-0.60500,0.13000
138.50000,-0.59830,0.13000
138.60000,-0.59170,0.00000
138.70002,-0.58500,0.13000
138.80000,-0.57830,0.13000
138.90002,-0.57170,0.13000
139.00000,-0.56500,0.13000
139.10000,-0.55830,0.13000
139.20002,-0.55170,0.00000
139.30000,-0.54500,0.00000
139.40002,-0.53830,0.00000
139.50000,-0.53170,0.00000
139.60000,-0.52500,0.00000
139.70002,-0.51840,0.13000
139.80000,-0.51170,0.00000
139.90002,-0.50500,0.00000
140.00000,-0.49840,0.00000
140.10000,-0.49170,0.00000
140.20002,-0.48500,0.00000
140.30000,-0.47840,0.00000
140.40002,-0.47170,0.00000
140.50000,-0.46500,-0.14000
140.60000,-0.45840,-0.14000
140.70002,-0.45170,0.00000
140.80000,-0.44500,0.00000
140.90002,-0.43840,0.13000
141.00000,-0.43170,0.13000
141.10000,-0.42500,0.13000
141.20002,-0.41840,0.00000
141.30000,-0.41170,-0.14000
141.40002,-0.40500,0.00000
141.50000,-0.39840,0.13000
141.60000,-0.39170,0.00000
141.70002,-0.38500,0.00000
141.80000,-0.37840,0.13000
141.90002,-0.37170,0.13000
142.00000,-0.36500,0.00000
142.10000,-0.35840,0.13000
142.20002,-0.35170,-0.14000
142.30000,-0.34500,0.00000
142.40002,-0.33840,0.00000
142.50000,-0.33170,-0.14000
142.60000,-0.32500,0.00000
142.70002,-0.31840,0.13000
142.80000,-0.31170,0.00000
142.90002,-0.30500,0.00000
143.00000,-0.29840,0.13000
143.10000,-0.29170,0.13000
143.20002,-0.28500,0.00000
143.30000,-0.27840,0.00000
143.40002,-0.27170,0.00000
143.50000,-0.26500,0.13000
143.60000,-0.25840,0.00000
143.70002,-0.25170,0.13000
143.80000,-0.24500,0.13000
143.90002,-0.23840,0.13000
144.00000,-0.23170,0.00000
144.10000,-0.22500,0.00000
144.20002,-0.21840,0.00000
144.30000,-0.21170,0.00000
144.40002,-0.20500,0.00000
144.50000,-0.19840,0.13000
144.60000,-0.19170,0.00000
144.70002,-0.18500,0.00000
144.80000,-0.17840,0.13000
144.90002,-0.17170,0.00000
145.00000,-0.16500,0.13000
145.10000,-0.15840,0.13000
145.20002,-0.15170,-0.14000
145.30000,-0.14500,-0.14000
145.40002,-0.13840,0.13000
145.50000,-0.13170,0.00000
145.60000,-0.12500,0.13000
145.70002,-0.11840,0.26000
145.80000,-0.11170,0.00000
145.90002,-0.10500,0.00000
146.00000,-0.09840,0.13000
146.10000,-0.09170,0.00000
146.20002,-0.08500,0.13000
146.30000,-0.07840,0.13000
146.40002,-0.07170,0.13000
146.50000,-0.06500,0.13000
146.60000,-0.05840,0.00000
146.70002,-0.05170,0.00000
146.80000,-0.04500,0.00000
146.90002,-0.03840,0.13000
147.00000,-0.03170,0.13000
147.10000,-0.02500,0.13000
147.20002,-0.01840,0.13000
147.30000,-0.01170,0.13000
147.40002,-0.00500,0.00000
147.50000,0.00160,0.00000
147.60000,0.00830,-0.14000
147.65002,0.01160,0.00000
147.75000,0.01220,-0.14000
147.85000,0.00550,0.13000
147.95002,-0.00120,0.13000
148.05000,-0.00780,0.00000
148.15002,-0.01450,0.00000
148.25000,-0.02120,0.13000
148.35000,-0.02780,0.13000
148.45002,-0.03450,0.13000
148.55000,-0.04120,-0.14000
148.65002,-0.04780,-0.14000
148.75000,-0.05450,0.00000
148.85000,-0.06120,0.00000
148.95002,-0.06780,0.13000
149.05000,-0.07450,0.13000
149.15002,-0.08120,0.13000
149.25000,-0.08780,0.00000
149.35000,-0.09450,-0.14000
149.45002,-0.10120,0.00000
149.55000,-0.10780,0.00000
149.65002,-0.11450,0.00000
149.75000,-0.12120,0.13000
149.85000,-0.12780,0.13000
149.95002,-0.13450,0.26000
150.05000,-0.14120,0.13000
150.15002,-0.14780,0.00000
150.25000,-0.15450,0.00000
150.35000,-0.16120,0.00000
150.45002,-0.16780,0.13000
150.55000,-0.17450,0.13000
150.65002,-0.18110,0.00000
150.75000,-0.18780,0.13000
150.85000,-0.19450,0.00000
150.95002,-0.20110,0.13000
151.05000,-0.20780,0.13000
151.15002,-0.21450,0.13000
151.25000,-0.22110,0.00000
151.35000,-0.22780,0.00000
151.45002,-0.23450,0.00000
151.55000,-0.24110,0.00000
151.65002,-0.24780,0.00000
151.75000,-0.25450,0.13000
151.85000,-0.26110,0.13000
151.95002,-0.26780,0.00000
152.05000,-0.27450,0.00000
152.15002,-0.28110,0.00000
152.25000,-0.28780,0.00000
152.35000,-0.29450,0.00000
152.45002,-0.30110,0.00000
152.55000,-0.30780,0.13000
152.65002,-0.31450,0.00000
152.75000,-0.32110,0.13000
152.85000,-0.32780,0.00000
152.95002,-0.33450,0.00000
153.05000,-0.34110,0.13000
153.15002,-0.34780,0.00000
153.25000,-0.35450,0.00000
153.35000,-0.36110,0.00000
153.45002,-0.36780,0.13000
153.55000,-0.37450,0.00000
153.65002,-0.38110,0.13000
153.75000,-0.38780,0.13000
153.85000,-0.39450,0.13000
153.95002,-0.40110,0.13000
154.05000,-0.40780,0.00000
154.15002,-0.41450,0.13000
154.25000,-0.42110,0.00000
154.35000,-0.42780,0.13000
154.45002,-0.43450,0.13000
154.55000,-0.44110,0.13000
154.65002,-0.44780,-0.14000
154.75000,-0.45450,0.13000
154.85000,-0.46110,0.00000
154.95002,-0.46780,-0.14000
155.05000,-0.47450,0.13000
155.15002,-0.48110,0.00000
155.25000,-0.48780,0.00000
155.35000,-0.49450,0.00000
155.45002,-0.50110,0.00000
155.55000,-0.50780,0.00000
155.65002,-0.51450,0.13000
155.75000,-0.52110,0.13000
155.85000,-0.52780,0.13000
155.95002,-0.53450,0.13000
156.05000,-0.54110,0.00000
156.15002,-0.54780,0.00000
156.25000,-0.55450,0.00000
156.35000,-0.56110,0.00000
156.45002,-0.56780,0.00000
156.55000,-0.57450,0.13000
156.65002,-0.58110,-0.27000
156.75000,-0.58780,-0.68000
156.85000,-0.59450,-1.08000
156.95002,-0.60110,-1.48000
157.05000,-0.60780,-1.75000
157.15002,-0.61450,-2.15000
157.25000,-0.62110,-2.56000
157.35000,-0.62780,-2.96000
157.45002,-0.63450,-3.36000
157.55000,-0.64110,-3.76000
157.65002,-0.64780,-4.17000
157.75000,-0.65450,-4.43000
157.85000,-0.66110,-4.84000
157.95002,-0.66780,-5.11000
158.05000,-0.67450,-5.51000
158.15002,-0.68110,-5.91000
158.25000,-0.68780,-6.45000
158.35000,-0.69440,-6.72000
158.45002,-0.70110,-7.12000
158.55000,-0.70780,-7.52000
158.65002,-0.71440,-7.92000
158.75000,-0.72110,-8.33000
158.85000,-0.72780,-8.73000
158.95002,-0.73440,-9.13000
159.05000,-0.74110,-9.54000
159.15002,-0.74780,-9.94000
159.25000,-0.75440,-10.34000
159.35000,-0.76110,-10.74000
159.45002,-0.76780,-11.28000
159.55000,-0.77440,-11.68000
159.65002,-0.78110,-11.95000
159.75000,-0.78780,-12.35000
159.85000,-0.79440,-12.89000
159.95002,-0.80110,-13.29000
160.05000,-0.80780,-13.70000
160.15002,-0.81440,-14.23000
160.25000,-0.82110,-14.77000
160.35000,-0.82780,-15.31000
160.45002,-0.83440,-15.71000
160.55000,-0.84110,-16.11000
160.65002,-0.84780,-16.52000
160.75002,-0.85440,-17.05000
160.85000,-0.86110,-17.59000
160.95002,-0.86780,-17.99000
161.05000,-0.87440,-18.39000
161.15002,-0.88110,-19.07000
161.25002,-0.88780,-19.47000
161.35000,-0.89440,-20.00000
161.45002,-0.90110,-20.54000
161.55000,-0.90780,-20.94000
161.65002,-0.91440,-21.35000
161.75002,-0.92110,-21.88000
161.85000,-0.92780,-22.29000
161.95002,-0.93440,-22.82000
162.05000,-0.94110,-23.23000
162.15002,-0.94780,-23.90000
162.25002,-0.95440,-24.30000
162.35000,-0.96110,-24.84000
162.45002,-0.96780,-25.24000
162.55000,-0.97440,-25.78000
162.65002,-0.98110,-26.18000
162.75002,-0.98780,-26.85000
162.85000,-0.99440,-27.25000
162.95002,-1.00110,-27.79000
163.05000,-1.00780,-28.19000
163.15002,-1.01440,-28.60000
163.25002,-1.02110,-29.13000
163.35000,-1.02780,-29.54000
163.45002,-1.03440,-30.07000
163.55000,-1.04110,-30.61000
163.65002,-1.04780,-31.01000
163.75002,-1.05440,-31.55000
163.85000,-1.06110,-31.95000
163.95002,-1.06780,-32.49000
164.05000,-1.07440,-33.03000
164.15002,-1.08110,-33.43000
164.25002,-1.08780,-33.96000
164.35000,-1.09440,-34.50000
164.45002,-1.10110,-35.04000
164.55000,-1.10780,-35.31000
164.65002,-1.11440,-35.98000
164.75002,-1.12110,-36.38000
164.85000,-1.12780,-36.92000
164.95002,-1.13440,-37.32000
165.05000,-1.14110,-37.86000
165.15002,-1.14780,-38.26000
165.25002,-1.15440,-38.80000
165.35000,-1.16110,-39.33000
165.45002,-1.16780,-39.87000
165.55000,-1.17440,-40.27000
165.65002,-1.18110,-40.81000
165.75002,-1.18780,-41.35000
165.85000,-1.19440,-41.75000
165.95002,-1.20110,-42.29000
166.05000,-1.20780,-42.82000
166.15002,-1.21440,-43.23000
166.25002,-1.22110,-43.76000
166.35000,-1.22770,-44.30000
166.45002,-1.23440,-44.70000
166.55000,-1.24110,-45.24000
166.65002,-1.24770,-45.78000
166.75002,-1.25440,-46.31000
166.85000,-1.26110,-46.85000
166.95002,-1.26770,-47.25000
167.05000,-1.27440,-47.79000
167.15002,-1.28110,-48.19000
167.25002,-1.28770,-48.73000
167.35000,-1.29440,-49.27000
167.45002,-1.30110,-49.80000
167.55000,-1.30770,-50.34000
167.65002,-1.31440,-50.74000
167.75002,-1.32110,-51.28000
167.85000,-1.32770,-51.68000
167.95002,-1.33440,-52.22000
168.05000,-1.34110,-52.76000
168.15002,-1.34770,-53.29000
168.25002,-1.35440,-53.83000
168.35000,-1.36110,-54.37000
168.45002,-1.36770,-54.90000
168.55000,-1.37440,-55.31000
168.65002,-1.38110,-55.71000
168.75002,-1.38770,-56.25000
168.85000,-1.39440,-56.78000
168.95002,-1.40110,-57.32000
169.05000,-1.40770,-57.72000
169.15002,-1.41440,-58.26000
169.25002,-1.42110,-58.80000
169.35000,-1.42770,-59.47000
169.45002,-1.43440,-59.87000
169.55000,-1.44110,-60.41000
169.65002,-1.44770,-60.94000
169.75002,-1.45440,-61.48000
169.85000,-1.46110,-61.75000
169.95002,-1.46770,-62.42000
170.05000,-1.47440,-62.82000
170.15002,-1.48110,-63.49000
170.25002,-1.48770,-64.03000
170.35000,-1.49440,-64.57000
170.45002,-1.50110,-65.11000
170.55000,-1.50770,-65.51000
170.65002,-1.51440,-66.05000
170.75002,-1.52110,-66.58000
170.85000,-1.52770,-67.12000
170.95002,-1.53440,-67.52000
171.05000,-1.54110,-68.06000
171.15002,-1.54770,-68.60000
171.25002,-1.55440,-69.13000
171.35000,-1.56110,-69.67000
171.45002,-1.56770,-70.21000
171.55000,-1.57440,-70.61000
171.65002,-1.58110,-71.15000
171.75002,-1.58770,-71.68000
171.85000,-1.59440,-72.09000
171.95002,-1.60110,-72.62000
172.05000,-1.60770,-73.16000
172.15002,-1.61440,-73.70000
172.25002,-1.62110,-74.23000
172.35000,-1.62770,-74.77000
172.45002,-1.63440,-75.17000
172.55000,-1.64110,-75.71000
172.65002,-1.64770,-76.11000
172.75002,-1.65440,-76.78000
172.85000,-1.66110,-77.32000
172.95002,-1.66770,-77.72000
173.05000,-1.67440,-78.39000
173.15002,-1.68110,-78.80000
173.25002,-1.68770,-79.20000
173.35000,-1.69440,-79.74000
173.45002,-1.70110,-80.27000
173.55000,-1.70770,-80.94000
173.65002,-1.71440,-81.35000
173.75002,-1.72110,-81.88000
173.85000,-1.72770,-82.42000
173.95002,-1.73440,-82.82000
174.05000,-1.74100,-83.36000
174.15002,-1.74770,-83.90000
174.25002,-1.75440,-84.43000
174.35000,-1.76100,-84.97000
174.45002,-1.76770,-85.51000
174.55000,-1.77440,-85.91000
174.65002,-1.78100,-86.45000
174.75002,-1.78770,-86.98000
174.85000,-1.79440,-87.52000
174.95002,-1.80100,-88.06000
175.05000,-1.80770,-88.46000
175.15002,-1.81440,-89.00000
175.25002,-1.82100,-89.54000
175.35000,-1.82770,-90.07000
175.45002,-1.83440,-90.47000
175.55000,-1.84100,-91.15000
175.65002,-1.84770,-91.68000
175.75002,-1.85440,-92.09000
175.85000,-1.86100,-92.62000
175.95002,-1.86770,-92.89000
176.05000,-1.87440,-93.56000
176.15002,-1.88100,-93.96000
176.25002,-1.88770,-94.50000
176.35000,-1.89440,-95.04000
176.45002,-1.90100,-95.58000
176.55000,-1.90770,-96.11000
176.65002,-1.91440,-96.65000
176.75002,-1.92100,-97.05000
176.85000,-1.92770,-97.59000
176.95002,-1.93440,-97.99000
177.05000,-1.94100,-98.53000
177.15002,-1.94770,-99.07000
177.25002,-1.95440,-99.47000
177.35000,-1.96100,-100.00000
177.45002,-1.96770,-100.54000
177.55000,-1.97440,-101.08000
177.65002,-1.98100,-101.75000
177.75002,-1.98770,-102.15000
177.85000,-1.99440,-102.69000
177.95002,-2.00100,-103.09000
178.05000,-2.00770,-103.49000
178.15002,-2.01440,-104.03000
178.25002,-2.02100,-104.57000
178.35000,-2.02770,-105.11000
178.45002,-2.03440,-105.64000
178.55000,-2.04100,-106.18000
178.65002,-2.04770,-106.58000
178.75002,-2.05440,-107.12000
178.85000,-2.06100,-107.52000
178.95002,-2.06770,-108.19000
179.05000,-2.07440,-108.60000
179.15002,-2.08100,-109.13000
179.25002,-2.08770,-109.54000
179.35000,-2.09440,-110.07000
179.45002,-2.10100,-110.61000
179.55000,-2.10770,-111.01000
179.65002,-2.11440,-111.55000
179.75002,-2.12100,-112.09000
179.85000,-2.12770,-112.62000
179.95002,-2.13440,-112.89000
180.05000,-2.14100,-113.43000
180.15002,-2.14770,-113.96000
180.25002,-2.15440,-114.50000
180.35000,-2.16100,-114.90000
180.45002,-2.16770,-115.44000
180.55000,-2.17440,-115.84000
180.65002,-2.18100,-116.38000
180.75002,-2.18770,-116.92000
180.85000,-2.19440,-117.32000
180.95002,-2.20100,-117.86000
181.05000,-2.20770,-118.39000
181.15002,-2.21440,-118.93000
181.25002,-2.22100,-119.33000
181.35000,-2.22770,-119.74000
181.45002,-2.23440,-120.27000
181.55000,-2.24100,-120.81000
181.65002,-2.24770,-121.35000
181.75002,-2.25440,-121.88000
181.85000,-2.26100,-122.29000
181.95002,-2.26770,-122.82000
182.05000,-2.27430,-123.23000
182.15002,-2.28100,-123.76000
182.25002,-2.28770,-124.17000
182.35000,-2.29430,-124.70000
182.45002,-2.30100,-125.24000
182.55000,-2.30770,-125.78000
182.65002,-2.31430,-126.05000
182.75002,-2.32100,-126.72000
182.85000,-2.32770,-127.25000
182.95002,-2.33430,-127.66000
183.05000,-2.34100,-128.19000
183.15002,-2.34770,-128.73000
183.25002,-2.35430,-129.13000
183.35000,-2.36100,-129.54000
183.45002,-2.36770,-130.07000
183.55000,-2.37430,-130.47000
183.65002,-2.38100,-131.15000
183.75002,-2.38770,-131.55000
183.85000,-2.39430,-132.09000
183.95002,-2.40100,-132.35000
184.05000,-2.40770,-132.89000
184.15002,-2.41430,-133.43000
184.25002,-2.42100,-133.96000
184.35000,-2.42770,-134.37000
184.45002,-2.43430,-134.90000
184.55000,-2.44100,-135.31000
184.65002,-2.44770,-135.84000
184.75002,-2.45430,-136.25000
184.85000,-2.46100,-136.78000
184.95002,-2.46770,-137.19000
185.05000,-2.47430,-137.72000
185.15002,-2.48100,-138.26000
185.25002,-2.48770,-138.66000
185.35000,-2.49430,-139.20000
185.45002,-2.50100,-139.74000
185.55000,-2.50770,-140.27000
185.65002,-2.51430,-140.68000
185.75002,-2.52100,-141.21000
185.85000,-2.52770,-141.75000
185.95002,-2.53430,-142.15000
186.05000,-2.54100,-142.56000
186.15002,-2.54770,-143.09000
186.25002,-2.55430,-143.49000
186.35000,-2.56100,-144.03000
186.45002,-2.56770,-144.57000
186.55000,-2.57430,-144.97000
186.65002,-2.58100,-145.51000
186.75002,-2.58770,-145.91000
186.85000,-2.59430,-146.45000
186.95002,-2.60100,-146.85000
187.05000,-2.60770,-147.52000
187.15002,-2.61430,-147.92000
187.25002,-2.62100,-148.33000
187.35000,-2.62770,-148.86000
187.45002,-2.63430,-149.27000
187.55000,-2.64100,-149.80000
187.65002,-2.64770,-150.21000
187.75002,-2.65430,-150.61000
187.85000,-2.66100,-151.15000
187.95002,-2.66770,-151.68000
188.05000,-2.67430,-152.09000
188.15002,-2.68100,-152.62000
188.25002,-2.68770,-153.03000
188.35000,-2.69430,-153.56000
188.45002,-2.70100,-154.10000
188.55000,-2.70770,-154.50000
188.65002,-2.71430,-154.90000
188.75002,-2.72100,-155.31000
188.85000,-2.72770,-155.84000
188.95002,-2.73430,-156.25000
189.05000,-2.74100,-156.78000
189.15002,-2.74770,-157.32000
189.25002,-2.75430,-157.86000
189.35000,-2.76100,-158.26000
189.45002,-2.76770,-158.66000
189.55000,-2.77430,-159.20000
189.65002,-2.78100,-159.74000
189.75002,-2.78760,-160.27000
189.85000,-2.79430,-160.68000
189.95002,-2.80100,-161.08001
190.05000,-2.80760,-161.62001
190.15002,-2.81430,-162.02001
190.25002,-2.82100,-162.41999
190.35000,-2.82760,-162.95999
190.45002,-2.83430,-163.49001
190.55000,-2.84100,-163.90000
190.65002,-2.84760,-164.42999
190.75002,-2.85430,-164.84000
190.85000,-2.86100,-165.36999
190.95002,-2.86760,-165.78000
191.05000,-2.87430,-166.18000
191.15002,-2.88100,-166.72000
191.25002,-2.88760,-167.12001
191.35000,-2.89430,-167.66001
191.45002,-2.90100,-168.06001
191.55000,-2.90760,-168.60001
191.65002,-2.91430,-169.13000
191.75002,-2.92100,-169.53999
191.85000,-2.92760,-170.07001
191.95002,-2.93430,-170.46999
192.05000,-2.94100,-171.00999
192.15002,-2.94760,-171.28000
192.25002,-2.95430,-171.82000
192.35000,-2.96100,-172.22000
192.45002,-2.96760,-172.76000
192.55000,-2.97430,-173.29000
192.65002,-2.98100,-173.83000
192.75002,-2.98760,-174.23000
192.85000,-2.99430,-174.64001
192.95002,-3.00100,-175.03999
193.05000,-3.00760,-175.57999
193.15002,-3.01430,-175.97999
193.25002,-3.02100,-176.51999
193.35000,-3.02760,-176.92000
193.45002,-3.03430,-177.32000
193.55000,-3.04100,-177.98999
193.65002,-3.04760,-178.52999
193.75002,-3.05430,-178.93000
193.85000,-3.06100,-179.47000
193.95002,-3.06760,-179.87000
194.05000,-3.07430,-180.27000
194.15002,-3.08100,-180.68001
194.25002,-3.08760,-181.07999
194.35000,-3.09430,-181.62001
194.45002,-3.10100,-182.15001
194.55000,-3.10760,-182.69001
194.65002,-3.11430,-183.23001
194.75002,-3.12100,-183.63001
194.85000,-3.12760,-184.02999
194.95002,-3.13430,-184.56999
195.05000,-3.14100,-184.97000
195.15002,-3.14760,-185.50999
195.25002,-3.15430,-185.91000
195.35000,-3.16100,-186.45000
195.45002,-3.16760,-186.85000
195.55000,-3.17430,-187.39000
195.65002,-3.18100,-187.79000
195.75002,-3.18760,-188.19001
195.85000,-3.19430,-188.73001
195.95002,-3.20100,-189.27000
196.05000,-3.20760,-189.67001
196.15002,-3.21430,-190.06999
196.25002,-3.22100,-190.60999
196.35000,-3.22760,-191.00999
196.45002,-3.23430,-191.41000
196.55000,-3.24100,-192.08999
196.65002,-3.24760,-192.49000
196.75002,-3.25430,-193.03000
196.85000,-3.26100,-193.29000
196.95002,-3.26760,-193.83000
197.05000,-3.27430,-194.37000
197.15002,-3.28100,-194.90000
197.25002,-3.28760,-195.31000
197.35000,-3.29430,-195.84000
197.45002,-3.30090,-196.25001
197.55000,-3.30760,-196.78000
197.65002,-3.31430,-197.19001
197.75002,-3.32090,-197.58999
197.85000,-3.32760,-198.26001
197.95002,-3.33430,-198.66001
198.05000,-3.34090,-199.07000
198.15002,-3.34760,-199.59999
198.25002,-3.35430,-200.00000
198.35000,-3.36090,-200.53999
198.45002,-3.36760,-200.94000
198.55000,-3.37430,-201.48000
198.65002,-3.38090,-202.02000
198.75002,-3.38760,-202.42000
198.85000,-3.39430,-202.82000
198.95002,-3.40090,-203.36000
199.05000,-3.40760,-203.76001
199.15002,-3.41430,-204.30000
199.25002,-3.42090,-204.84000
199.35000,-3.42760,-205.24001
199.45002,-3.43430,-205.78001
199.55000,-3.44090,-206.05000
199.65002,-3.44760,-206.71999
199.75002,-3.45430,-207.11999
199.85000,-3.46090,-207.65999
199.95002,-3.46760,-208.06000
200.05000,-3.47430,-208.46000
200.15002,-3.48090,-208.86000
200.25002,-3.48760,-209.27001
200.35000,-3.49430,-209.80000
200.45002,-3.50090,-210.20999
200.55000,-3.50760,-210.88000
200.65002,-3.51430,-211.28001
200.75002,-3.52090,-211.82001
200.85000,-3.52760,-212.21999
200.95002,-3.53430,-212.61999
201.05000,-3.54090,-213.03000
201.15002,-3.54760,-213.43000
201.25002,-3.55430,-214.10000
201.35000,-3.56090,-214.50000
201.45002,-3.56760,-215.04000
201.55000,-3.57430,-215.58000
201.65002,-3.58090,-215.98000
201.75002,-3.58760,-216.38000
201.85000,-3.59430,-216.92000
201.95002,-3.60090,-217.45000
202.05000,-3.60760,-217.86001
202.15002,-3.61430,-218.39000
202.25002,-3.62090,-218.80001
202.35000,-3.62760,-219.19999
202.45002,-3.63430,-219.60000
202.55000,-3.64090,-220.14000
202.65002,-3.64760,-220.67999
202.75002,-3.65430,-221.20999
202.85000,-3.66090,-221.62000
202.95002,-3.66760,-222.02000
203.05000,-3.67430,-222.42000
203.15002,-3.68090,-222.96000
203.25002,-3.68760,-223.49000
203.35000,-3.69430,-223.90001
203.45002,-3.70090,-224.30001
203.55000,-3.70760,-224.84001
203.65002,-3.71430,-225.37000
203.75002,-3.72090,-225.91000
203.85000,-3.72760,-226.17999
203.95002,-3.73430,-226.71999
204.05000,-3.74090,-227.12000
204.15002,-3.74760,-227.52000
204.25002,-3.75430,-227.92000
204.35000,-3.76090,-228.46000
204.45002,-3.76760,-228.86001
204.55000,-3.77430,-229.40001
204.65002,-3.78090,-229.94000
204.75002,-3.78760,-230.34001
204.85000,-3.79430,-230.88001
204.95002,-3.80090,-231.27999
205.05000,-3.80760,-231.67999
205.15002,-3.81430,-232.09000
205.25002,-3.82090,-232.62000
205.35000,-3.82760,-233.16000
205.45002,-3.83420,-233.56000
205.55000,-3.84090,-234.10000
205.65002,-3.84760,-234.50000
205.75002,-3.85420,-235.04000
205.85000,-3.86090,-235.44000
205.95002,-3.86760,-235.98000
206.05000,-3.87420,-236.38001
206.15002,-3.88090,-236.92001
206.25002,-3.88760,-237.31999
206.35000,-3.89420,-237.71999
206.45002,-3.90090,-238.13000
206.55000,-3.90760,-238.53000
206.65002,-3.91420,-239.20000
206.75002,-3.92090,-239.60000
206.85000,-3.92760,-240.00000
206.95002,-3.93420,-240.41001
207.05000,-3.94090,-240.94000
207.15002,-3.94760,-241.34999
207.25002,-3.95420,-241.88001
207.35000,-3.96090,-242.28999
207.45002,-3.96760,-242.69000
207.55000,-3.97420,-243.23000
207.65002,-3.98090,-243.63000
207.75002,-3.98760,-244.03000
207.85000,-3.99420,-244.57000
207.95002,-4.00090,-245.11000
208.05000,-4.00760,-245.51000
208.15002,-4.01420,-245.91001
208.25002,-4.02090,-246.45001
208.35000,-4.02760,-246.72000
208.45002,-4.03420,-247.12000
208.55000,-4.04090,-247.66000
208.65002,-4.04760,-248.19000
208.75002,-4.05420,-248.73000
208.85000,-4.06090,-249.13000
208.95002,-4.06760,-249.54000
209.05000,-4.07420,-249.94001
209.15002,-4.08090,-250.33999
209.25002,-4.08760,-250.74000
209.35000,-4.09420,-251.27999
209.45002,-4.10090,-251.68000
209.55000,-4.10760,-252.22000
209.65002,-4.11420,-252.76000
209.75002,-4.12090,-253.16000
209.85000,-4.12760,-253.70000
209.95002,-4.13420,-254.23000
210.05000,-4.14090,-254.64000
210.15002,-4.14760,-254.90001
210.25002,-4.15420,-255.44001
210.35000,-4.16090,-255.83999
210.45002,-4.16760,-256.37999
210.55000,-4.17420,-256.77999
210.65002,-4.18090,-257.31999
210.75002,-4.18760,-257.72000
210.85000,-4.19420,-258.26000
210.95002,-4.20090,-258.66000
211.05000,-4.20760,-259.07001
211.15002,-4.21420,-259.47001
211.25002,-4.22090,-260.00001
211.35000,-4.22760,-260.40999
211.45002,-4.23420,-260.94001
211.55000,-4.24090,-261.34999
211.65002,-4.24760,-261.87999
211.75002,-4.25420,-262.29000
211.85000,-4.26090,-262.69000
211.95002,-4.26760,-263.09000
212.05000,-4.27420,-263.63000
212.15002,-4.28090,-264.03001
212.25002,-4.28760,-264.57001
212.35000,-4.29420,-264.97001
212.45002,-4.30090,-265.51001
212.55000,-4.30760,-265.90999
212.65002,-4.31420,-266.31000
212.75002,-4.32090,-266.84999
212.85000,-4.32760,-267.25000
212.95002,-4.33420,-267.79000
213.05000,-4.34090,-268.06001
213.15002,-4.34750,-268.46001
213.25002,-4.35420,-269.00001
213.35000,-4.36090,-269.54001
213.45002,-4.36750,-269.93999
213.55000,-4.37420,-270.34000
213.65002,-4.38090,-270.88000
213.75002,-4.38750,-271.15000
213.85000,-4.39420,-271.68000
213.95002,-4.40090,-272.09001
214.05000,-4.40750,-272.62000
214.15002,-4.41420,-273.03001
214.25002,-4.42090,-273.56001
214.35000,-4.42750,-273.83000
214.45002,-4.43420,-274.23000
214.55000,-4.44090,-274.77000
214.65002,-4.44750,-275.17000
214.75002,-4.45420,-275.71000
214.85000,-4.46090,-276.11000
214.95002,-4.46750,-276.65000
215.05000,-4.47420,-276.91999
215.15002,-4.48090,-277.44999
215.25002,-4.48750,-277.86000
215.35000,-4.49420,-278.26000
215.45002,-4.50090,-278.80000
215.55000,-4.50750,-279.20000
215.65002,-4.51420,-279.60001
215.75002,-4.52090,-279.87000
215.85000,-4.52750,-280.54001
215.95002,-4.53420,-280.93999
216.05000,-4.54090,-281.47999
216.15002,-4.54750,-281.88000
216.25002,-4.55420,-282.29000
216.35000,-4.56090,-282.69000
216.45002,-4.56750,-283.09001
216.55000,-4.57420,-283.48999
216.65002,-4.58090,-284.03001
216.75002,-4.58750,-284.57001
216.85000,-4.59420,-284.84000
216.95002,-4.60090,-285.37000
217.05000,-4.60750,-285.78000
217.15002,-4.61420,-286.18000
217.25002,-4.62090,-286.72000
217.35000,-4.62750,-286.97999
217.45002,-4.63420,-287.39000
217.55000,-4.64090,-287.79000
217.65002,-4.64750,-288.33000
217.75002,-4.65420,-288.73000
217.85000,-4.66090,-289.27000
217.95002,-4.66750,-289.67001
218.05000,-4.67420,-290.21000
218.15002,-4.68090,-290.61001
218.25002,-4.68750,-291.00999
218.35000,-4.69420,-291.41000
218.45002,-4.70090,-291.82000
218.55000,-4.70750,-292.22000
218.65002,-4.71420,-292.62001
218.75002,-4.72090,-293.16001
218.85000,-4.72750,-293.70001
218.95002,-4.73420,-294.10001
219.05000,-4.74090,-294.49999
219.15002,-4.74750,-294.90000
219.25002,-4.75420,-295.31000
219.35000,-4.76090,-295.71000
219.45002,-4.76750,-296.25000
219.55000,-4.77420,-296.65001
219.65002,-4.78090,-297.04999
219.75002,-4.78750,-297.58999
219.85000,-4.79420,-297.86000
219.95002,-4.80090,-298.39000
220.05000,-4.80750,-298.66001
220.15002,-4.81420,-299.20001
220.25002,-4.82090,-299.60001
220.35000,-4.82750,-300.14001
220.45002,-4.83420,-300.41000
220.55000,-4.84090,-300.94000
220.65002,-4.84750,-301.35000
220.75002,-4.85420,-301.88000
220.85000,-4.86080,-302.29000
220.95002,-4.86750,-302.55999
221.05000,-4.87420,-303.08999
221.15002,-4.88080,-303.48999
221.25002,-4.88750,-303.90000
221.35000,-4.89420,-304.30000
221.45002,-4.90080,-304.70001
221.55000,-4.90750,-305.10999
221.65002,-4.91420,-305.51000
221.75002,-4.92080,-306.05000
221.85000,-4.92750,-306.31000
221.95002,-4.93420,-306.72001
222.05000,-4.94080,-307.25000
222.15002,-4.94750,-307.65999
222.25002,-4.95420,-308.05999
222.35000,-4.96080,-308.46000
222.45002,-4.96750,-308.86000
222.55000,-4.97420,-309.27001
222.65002,-4.98080,-309.67001
222.75002,-4.98750,-309.94000
222.85000,-4.99420,-310.47000
222.95002,-5.00080,-310.88000
223.05000,-5.00750,-311.28000
223.15002,-5.01420,-311.68001
223.25002,-5.02080,-311.95000
223.35000,-5.02750,-312.49000
223.45002,-5.03420,-312.89000
223.55000,-5.04080,-313.42998
223.65002,-5.04750,-313.69999
223.75002,-5.05420,-314.22999
223.85000,-5.06080,-314.50000
223.95002,-5.06750,-314.90002
224.05000,-5.07420,-315.30999
224.15002,-5.08080,-315.83998
224.25002,-5.08750,-316.10999
224.35000,-5.09420,-316.65001
224.45002,-5.10080,-316.91998
224.55000,-5.10750,-317.32000
224.65002,-5.11420,-317.71999
224.75002,-5.12080,-318.12999
224.85000,-5.12750,-318.65999
224.95002,-5.13420,-318.93000
225.05002,-5.14080,-319.32998
225.15002,-5.14750,-319.73999
225.25002,-5.15420,-320.00002
225.35000,-5.16080,-320.40998
225.45002,-5.16750,-320.67999
225.55002,-5.17420,-321.20999
225.65002,-5.18080,-321.61999
225.75002,-5.18750,-322.02002
225.85000,-5.19420,-322.28999
225.95002,-5.20080,-322.81999
226.05002,-5.20750,-323.08999
226.15002,-5.21420,-323.49002
226.25002,-5.22080,-323.89998
226.35000,-5.22750,-324.16999
226.45002,-5.23420,-324.57002
226.55002,-5.24080,-324.97000
226.65002,-5.24750,-325.36998
226.75002,-5.25420,-325.77999
226.85000,-5.26080,-326.18001
226.95002,-5.26750,-326.58000
227.05002,-5.27420,-326.98002
227.15002,-5.28080,-327.38999
227.25002,-5.28750,-327.65999
227.35000,-5.29420,-328.06002
227.45002,-5.30080,-328.46000
227.55002,-5.30750,-328.85998
227.65002,-5.31420,-329.26999
227.75002,-5.32080,-329.54000
227.85000,-5.32750,-329.93998
227.95002,-5.33420,-330.34001
228.05002,-5.34080,-330.73999
228.15002,-5.34750,-331.01000
228.25002,-5.35420,-331.40998
228.35000,-5.36080,-331.81999
228.45002,-5.36750,-332.09000
228.55002,-5.37420,-332.48998
228.65002,-5.38080,-332.89000
228.75002,-5.38750,-333.28999
228.85000,-5.39410,-333.56000
228.95002,-5.40080,-334.10002
229.05002,-5.40750,-334.22999
229.15002,-5.41410,-334.64000
229.25002,-5.42080,-334.77001
229.35000,-5.42750,-335.16999
229.45002,-5.43410,-335.58000
229.55002,-5.44080,-335.97998
229.65002,-5.44750,-336.24999
229.75002,-5.45410,-336.65001
229.85000,-5.46080,10.60000
