Time,Extension,Load
(sec),(mm),(N)
0.00000,-0.61400,-2.56000
0.10000,-0.62150,-3.09000
0.20000,-0.62820,-3.49000
0.30000,-0.63490,-3.76000
0.40000,-0.64150,-4.17000
0.50000,-0.64820,-4.43000
0.60000,-0.65490,-4.84000
0.70000,-0.66150,-5.11000
0.80000,-0.66820,-5.51000
0.90000,-0.67490,-5.91000
1.00000,-0.68150,-6.18000
1.10000,-0.68820,-6.45000
1.20000,-0.69490,-6.85000
1.30000,-0.70150,-7.12000
1.40000,-0.70820,-7.39000
1.50000,-0.71490,-7.92000
1.60000,-0.72150,-8.19000
1.70000,-0.72820,-8.60000
1.80000,-0.73490,-8.86000
1.90000,-0.74150,-9.27000
2.00000,-0.74820,-9.54000
2.10000,-0.75490,-10.07000
2.20000,-0.76150,-10.47000
2.30000,-0.76820,-10.88000
2.40000,-0.77490,-11.41000
2.50000,-0.78150,-11.82000
2.60000,-0.78820,-12.35000
2.70000,-0.79490,-12.62000
2.80000,-0.80150,-13.16000
2.90000,-0.80820,-13.70000
3.00000,-0.81490,-14.10000
3.10000,-0.82150,-14.64000
3.20000,-0.82820,-15.04000
3.30000,-0.83490,-15.44000
3.40000,-0.84150,-15.84000
3.50000,-0.84820,-16.38000
3.60000,-0.85490,-16.78000
3.70000,-0.86150,-17.32000
3.80000,-0.86820,-17.72000
3.90000,-0.87490,-17.99000
4.00000,-0.88150,-18.53000
4.10000,-0.88820,-19.07000
4.20000,-0.89490,-19.60000
4.30000,-0.90150,-19.87000
4.40000,-0.90820,-20.41000
4.50000,-0.91490,-20.94000
4.60000,-0.92150,-21.35000
4.70000,-0.92820,-21.62000
4.80000,-0.93490,-22.15000
4.90000,-0.94150,-22.56000
5.00000,-0.94820,-22.96000
5.10000,-0.95480,-23.36000
5.20000,-0.96150,-23.76000
5.30000,-0.96820,-24.30000
5.40000,-0.97480,-24.70000
5.50000,-0.98150,-25.11000
5.60000,-0.98820,-25.64000
5.70000,-0.99480,-26.05000
5.80000,-1.00150,-26.45000
5.90000,-1.00820,-26.85000
6.00000,-1.01480,-27.25000
6.10000,-1.02150,-27.79000
6.20000,-1.02820,-28.19000
6.30000,-1.03480,-28.73000
6.40000,-1.04150,-29.13000
6.50000,-1.04820,-29.54000
6.60000,-1.05480,-29.94000
6.70000,-1.06150,-30.34000
6.80000,-1.06820,-30.74000
6.90000,-1.07480,-31.28000
7.00000,-1.08150,-31.55000
7.10000,-1.08820,-32.09000
7.20000,-1.09480,-32.49000
7.30000,-1.10150,-32.89000
7.40000,-1.10820,-33.29000
7.50000,-1.11480,-33.83000
7.60000,-1.12150,-34.23000
7.70000,-1.12820,-34.64000
7.80000,-1.13480,-34.90000
7.90000,-1.14150,-35.44000
8.00000,-1.14820,-35.98000
8.10000,-1.15480,-36.38000
8.20000,-1.16150,-36.78000
8.30000,-1.16820,-37.32000
8.40000,-1.17480,-37.59000
8.50000,-1.18150,-38.13000
8.60000,-1.18820,-38.53000
8.70000,-1.19480,-38.93000
8.80000,-1.20150,-39.33000
8.90000,-1.20820,-39.87000
9.00000,-1.21480,-40.27000
9.10000,-1.22150,-40.68000
9.20000,-1.22820,-41.08000
9.30000,-1.23480,-41.48000
9.40000,-1.24150,-42.02000
9.50000,-1.24820,-42.42000
9.60000,-1.25480,-42.82000
9.70000,-1.26150,-43.36000
9.80000,-1.26820,-43.63000
9.90000,-1.27480,-44.17000
10.00000,-1.28150,-44.57000
10.10000,-1.28820,-44.97000
10.20000,-1.29480,-45.37000
10.30000,-1.30150,-46.05000
10.40000,-1.30820,-46.31000
10.50000,-1.31480,-46.72000
10.60000,-1.32150,-47.12000
10.70000,-1.32820,-47.52000
10.80000,-1.33480,-47.92000
10.90000,-1.34150,-48.46000
11.00000,-1.34820,-48.86000
11.10000,-1.35480,-49.27000
11.20000,-1.36150,-49.67000
11.30000,-1.36820,-50.07000
11.40000,-1.37480,-50.47000
11.50000,-1.38150,-51.01000
11.60000,-1.38820,-51.41000
11.70000,-1.39480,-51.82000
11.80000,-1.40150,-52.22000
11.90000,-1.40820,-52.76000
12.00000,-1.41480,-53.03000
12.10000,-1.42150,-53.43000
12.20000,-1.42820,-53.83000
12.30000,-1.43480,-54.37000
12.40000,-1.44150,-54.77000
12.50000,-1.44820,-55.17000
12.60000,-1.45480,-55.71000
12.70000,-1.46150,-55.98000
12.80000,-1.46820,-56.38000
12.90000,-1.47480,-56.78000
13.00000,-1.48150,-57.19000
13.10000,-1.48810,-57.86000
13.20000,-1.49480,-58.13000
13.30000,-1.50150,-58.53000
13.40000,-1.50810,-59.07000
13.50000,-1.51480,-59.33000
13.60000,-1.52150,-59.87000
13.70000,-1.52810,-60.27000
13.80000,-1.53480,-60.54000
13.90000,-1.54150,-60.94000
14.00000,-1.54810,-61.35000
14.10000,-1.55480,-61.75000
14.20000,-1.56150,-62.29000
14.30000,-1.56810,-62.82000
14.40000,-1.57480,-63.23000
14.50000,-1.58150,-63.63000
14.60000,-1.58810,-64.03000
14.70000,-1.59480,-64.30000
14.80000,-1.60150,-64.70000
14.90000,-1.60810,-65.11000
15.00000,-1.61480,-65.64000
15.10000,-1.62150,-65.91000
15.20000,-1.62810,-66.45000
15.30000,-1.63480,-66.85000
15.40000,-1.64150,-67.25000
15.50000,-1.64810,-67.52000
15.60000,-1.65480,-68.06000
15.70000,-1.66150,-68.46000
15.80000,-1.66810,-68.73000
15.90000,-1.67480,-69.27000
16.00000,-1.68150,-69.54000
16.10000,-1.68810,-70.07000
16.20000,-1.69480,-70.34000
16.30000,-1.70150,-70.88000
16.40000,-1.70810,-71.28000
16.50000,-1.71480,-71.68000
16.60000,-1.72150,-72.09000
16.70000,-1.72810,-72.35000
16.80000,-1.73480,-72.76000
16.90000,-1.74150,-73.16000
17.00000,-1.74810,-73.56000
17.10000,-1.75480,-73.96000
17.20000,-1.76150,-74.50000
17.30000,-1.76810,-74.90000
17.40000,-1.77480,-75.17000
17.50000,-1.78150,-75.58000
17.60000,-1.78810,-75.98000
17.70000,-1.79480,-76.52000
17.80000,-1.80150,-76.78000
17.90000,-1.80810,-77.19000
18.00000,-1.81480,-77.59000
18.10000,-1.82150,-77.86000
18.20000,-1.82810,-78.39000
18.30000,-1.83480,-78.66000
18.40000,-1.84150,-79.20000
18.50000,-1.84810,-79.60000
18.60000,-1.85480,-79.87000
18.70000,-1.86150,-80.27000
18.80000,-1.86810,-80.68000
18.90000,-1.87480,-81.08000
19.00000,-1.88150,-81.48000
19.10000,-1.88810,-81.88000
19.20000,-1.89480,-82.29000
19.30000,-1.90150,-82.56000
19.40000,-1.90810,-82.96000
19.50000,-1.91480,-83.36000
19.60000,-1.92150,-83.76000
19.70000,-1.92810,-84.30000
19.80000,-1.93480,-84.57000
19.90000,-1.94150,-84.97000
20.00000,-1.94810,-85.24000
20.10000,-1.95480,-85.51000
20.20000,-1.96150,-86.05000
20.30000,-1.96810,-86.31000
20.40000,-1.97480,-86.85000
20.50000,-1.98150,-87.25000
20.60000,-1.98810,-87.66000
20.70000,-1.99480,-88.06000
20.80000,-2.00140,-88.33000
20.90000,-2.00810,-88.73000
21.00000,-2.01480,-89.00000
21.10000,-2.02140,-89.54000
21.20000,-2.02810,-89.80000
21.30000,-2.03480,-90.21000
21.40000,-2.04140,-90.61000
21.50000,-2.04810,-91.01000
21.60000,-2.05480,-91.41000
21.70000,-2.06140,-91.68000
21.80000,-2.06810,-92.09000
21.90000,-2.07480,-92.35000
22.00000,-2.08140,-92.76000
22.10000,-2.08810,-93.03000
22.20000,-2.09480,-93.43000
22.30000,-2.10140,-93.83000
22.40000,-2.10810,-94.23000
22.50000,-2.11480,-94.64000
22.60000,-2.12140,-95.04000
22.70000,-2.12810,-95.44000
22.80000,-2.13480,-95.71000
22.90000,-2.14140,-95.98000
23.00000,-2.14810,-96.38000
23.10000,-2.15480,-96.78000
23.20000,-2.16140,-97.05000
23.30000,-2.16810,-97.45000
23.40000,-2.17480,-97.99000
23.50000,-2.18140,-98.26000
23.60000,-2.18810,-98.66000
23.70000,-2.19480,-98.93000
23.80000,-2.20140,-99.33000
23.90000,-2.20810,-99.60000
24.00000,-2.21480,-100.00000
24.10000,-2.22140,-100.27000
24.20000,-2.22810,-100.68000
24.30000,-2.23480,-101.08000
24.40000,-2.24140,-101.48000
24.50000,-2.24810,-101.88000
24.60000,-2.25480,-102.29000
24.70000,-2.26140,-102.56000
24.80000,-2.26810,-102.82000
24.90000,-2.27480,-103.23000
25.00000,-2.28140,-103.49000
25.10000,-2.28810,-104.03000
25.20000,-2.29480,-104.30000
25.30000,-2.30140,-104.70000
25.40000,-2.30810,-105.11000
25.50000,-2.31480,-105.37000
25.60000,-2.32140,-105.78000
25.70000,-2.32810,-106.05000
25.80000,-2.33480,-106.58000
25.90000,-2.34140,-106.72000
26.00000,-2.34810,-107.25000
26.10000,-2.35480,-107.52000
26.20000,-2.36140,-107.79000
26.30000,-2.36810,-108.19000
26.40000,-2.37480,-108.60000
26.50000,-2.38140,-109.00000
26.60000,-2.38810,-109.27000
26.70000,-2.39480,-109.67000
26.80000,-2.40140,-109.80000
26.90000,-2.40810,-110.21000
27.00000,-2.41480,-110.61000
27.10000,-2.42140,-110.88000
27.20000,-2.42810,-111.41000
27.30000,-2.43480,-111.68000
27.40000,-2.44140,-112.09000
27.50000,-2.44810,-112.22000
27.60000,-2.45480,-112.62000
27.70000,-2.46140,-113.03000
27.80000,-2.46810,-113.43000
27.90000,-2.47480,-113.70000
28.00000,-2.48140,-114.10000
28.10000,-2.48810,-114.50000
28.20000,-2.49480,-114.77000
28.30000,-2.50140,-115.04000
28.40000,-2.50810,-115.44000
28.50000,-2.51480,-115.84000
28.60000,-2.52140,-116.11000
28.70000,-2.52810,-116.65000
28.80000,-2.53470,-116.92000
28.90000,-2.54140,-117.19000
29.00000,-2.54810,-117.59000
29.10000,-2.55470,-117.86000
29.20000,-2.56140,-118.26000
29.30000,-2.56810,-118.53000
29.40000,-2.57470,-118.93000
29.50000,-2.58140,-119.20000
29.60000,-2.58810,-119.60000
29.70000,-2.59470,-119.87000
29.80000,-2.60140,-120.27000
29.90000,-2.60810,-120.68000
30.00000,-2.61470,-120.94000
30.10000,-2.62140,-121.21000
30.20000,-2.62810,-121.48000
30.30000,-2.63470,-121.88000
30.40000,-2.64140,-122.29000
30.50000,-2.64810,-122.69000
30.60000,-2.65470,-122.96000
30.70000,-2.66140,-123.36000
30.80000,-2.66810,-123.63000
30.90000,-2.67470,-123.90000
31.00000,-2.68140,-124.17000
31.10000,-2.68810,-124.57000
31.20000,-2.69470,-124.97000
31.30000,-2.70140,-125.24000
31.40000,-2.70810,-125.64000
31.50000,-2.71470,-125.91000
31.60000,-2.72140,-126.31000
31.70000,-2.72810,-126.58000
31.80000,-2.73470,-126.85000
31.90000,-2.74140,-127.39000
32.00000,-2.74810,-127.66000
32.10000,-2.75470,-127.92000
32.20000,-2.76140,-128.19000
32.30000,-2.76810,-128.60000
32.40000,-2.77470,-129.00000
32.50000,-2.78140,-129.27000
32.60000,-2.78810,-129.67000
32.70000,-2.79470,-129.94000
32.80000,-2.80140,-130.34000
32.90000,-2.80810,-130.61000
33.00000,-2.81470,-130.88000
33.10000,-2.82140,-131.28000
33.20000,-2.82810,-131.55000
33.30000,-2.83470,-131.95000
33.40000,-2.84140,-132.22000
33.50000,-2.84810,-132.62000
33.60000,-2.85470,-132.89000
33.70000,-2.86140,-133.29000
33.80000,-2.86810,-133.56000
33.90000,-2.87470,-133.96000
34.00000,-2.88140,-134.23000
34.10000,-2.88810,-134.64000
34.20000,-2.89470,-134.90000
34.30000,-2.90140,-135.17000
34.40000,-2.90810,-135.58000
34.50000,-2.91470,-135.84000
34.60000,-2.92140,-136.25000
34.70000,-2.92810,-136.52000
34.80000,-2.93470,-136.92000
34.90000,-2.94140,-137.05000
35.00000,-2.94810,-137.45000
35.10000,-2.95470,-137.72000
35.20000,-2.96140,-137.99000
35.30000,-2.96810,-138.53000
35.40000,-2.97470,-138.66000
35.50000,-2.98140,-139.07000
35.60000,-2.98810,-139.33000
35.70000,-2.99470,-139.74000
35.80000,-3.00140,-140.00000
35.90000,-3.00810,-140.41000
36.00000,-3.01470,-140.68000
36.10000,-3.02140,-141.08000
36.20000,-3.02810,-141.35000
36.30000,-3.03470,-141.62000
36.40000,-3.04140,-141.88000
36.50000,-3.04800,-142.29000
36.60000,-3.05470,-142.69000
36.70000,-3.06140,-142.96000
36.80000,-3.06800,-143.36000
36.90000,-3.07470,-143.63000
37.00000,-3.08140,-143.90000
37.10000,-3.08800,-144.30000
37.20000,-3.09470,-144.43000
37.30000,-3.10140,-144.84000
37.40000,-3.10800,-145.11000
37.50000,-3.11470,-145.64000
37.60000,-3.12140,-145.78000
37.70000,-3.12800,-146.18000
37.80000,-3.13470,-146.58000
37.90000,-3.14140,-146.85000
38.00000,-3.14800,-147.12000
38.10000,-3.15470,-147.39000
38.20000,-3.16140,-147.79000
38.30000,-3.16800,-148.06000
38.40000,-3.17470,-148.33000
38.50000,-3.18140,-148.73000
38.60000,-3.18800,-149.00000
38.70000,-3.19470,-149.40000
38.80000,-3.20140,-149.67000
38.90000,-3.20800,-150.07000
39.00000,-3.21470,-150.21000
39.10000,-3.22140,-150.61000
39.20000,-3.22800,-150.88000
39.30000,-3.23470,-151.28000
39.40000,-3.24140,-151.55000
39.50000,-3.24800,-151.95000
39.60000,-3.25470,-152.22000
39.70000,-3.26140,-152.49000
39.80000,-3.26800,-152.76000
39.90000,-3.27470,-153.16000
40.00000,-3.28140,-153.29000
40.10000,-3.28800,-153.83000
40.20000,-3.29470,-154.10000
40.30000,-3.30140,-154.37000
40.40000,-3.30800,-154.77000
40.50000,-3.31470,-155.04000
40.60000,-3.32140,-155.31000
40.70000,-3.32800,-155.71000
40.80000,-3.33470,-155.98000
40.90000,-3.34140,-156.25000
41.00000,-3.34800,-156.52001
41.10000,-3.35470,-156.91999
41.20000,-3.36140,-157.19000
41.30000,-3.36800,-157.59001
41.40000,-3.37470,-157.86000
41.50000,-3.38140,-158.26000
41.60000,-3.38800,-158.53001
41.70000,-3.39470,-158.80000
41.80000,-3.40140,-159.07001
41.90000,-3.40800,-159.46999
42.00000,-3.41470,-159.74000
42.10000,-3.42140,-160.00001
42.20000,-3.42800,-160.40999
42.30000,-3.43470,-160.68000
42.40000,-3.44140,-161.08001
42.50000,-3.44800,-161.35000
42.60000,-3.45470,-161.62001
42.70000,-3.46140,-161.87999
42.80000,-3.46800,-162.29000
42.90000,-3.47470,-162.56001
43.00000,-3.48140,-162.69000
43.10000,-3.48800,-162.95999
43.20000,-3.49470,-163.36000
43.30000,-3.50140,-163.63000
43.40000,-3.50800,-164.03001
43.50000,-3.51470,-164.30000
43.60000,-3.52140,-164.70000
43.70000,-3.52800,-164.84000
43.80000,-3.53470,-165.24000
43.90000,-3.54140,-165.50999
44.00000,-3.54800,-165.90999
44.10000,-3.55470,-166.18000
44.20000,-3.56130,-166.44999
44.30000,-3.56800,-166.72000
44.40000,-3.57470,-167.12001
44.50000,-3.58130,-167.39000
44.60000,-3.58800,-167.79000
44.70000,-3.59470,-168.06001
44.80000,-3.60130,-168.33000
44.90000,-3.60800,-168.73000
45.00000,-3.61470,-168.99999
45.10000,-3.62130,-169.27000
45.20000,-3.62800,-169.67000
45.30000,-3.63470,-169.93999
45.40000,-3.64130,-170.34000
45.50000,-3.64800,-170.61001
45.60000,-3.65470,-170.88000
45.70000,-3.66130,-171.15001
45.80000,-3.66800,-171.54999
45.90000,-3.67470,-171.82000
46.00000,-3.68130,-172.09001
46.10000,-3.68800,-172.48999
46.20000,-3.69470,-172.76000
46.30000,-3.70130,-173.02999
46.40000,-3.70800,-173.29000
46.50000,-3.71470,-173.70000
46.60000,-3.72130,-173.95999
46.70000,-3.72800,-174.37000
46.80000,-3.73470,-174.64001
46.90000,-3.74130,-174.90000
47.00000,-3.74800,-175.31000
47.10000,-3.75470,-175.43999
47.20000,-3.76130,-175.71000
47.30000,-3.76800,-175.97999
47.40000,-3.77470,-176.51999
47.50000,-3.78130,-176.78000
47.60000,-3.78800,-177.19001
47.70000,-3.79470,-177.44999
47.80000,-3.80130,-177.72000
47.90000,-3.80800,-177.98999
48.00000,-3.81470,-178.26000
48.10000,-3.82130,-178.52999
48.20000,-3.82800,-178.93000
48.30000,-3.83470,-179.20000
48.40000,-3.84130,-179.33000
48.50000,-3.84800,-179.74000
48.60000,-3.85470,-180.14001
48.70000,-3.86130,-180.41000
48.80000,-3.86800,-180.68001
48.90000,-3.87470,-180.93999
49.00000,-3.88130,-181.35000
49.10000,-3.88800,-181.47999
49.20000,-3.89470,-181.88000
49.30000,-3.90130,-182.15001
49.40000,-3.90800,-182.42000
49.50000,-3.91470,-182.82000
49.60000,-3.92130,-183.23001
49.70000,-3.92800,-183.36000
49.80000,-3.93470,-183.63001
49.90000,-3.94130,-183.90000
50.00000,-3.94800,-184.30000
50.10000,-3.95470,-184.56999
50.20000,-3.96130,-184.84000
50.30000,-3.96800,-185.10999
50.40000,-3.97470,-185.50999
50.50000,-3.98130,-185.78000
50.60000,-3.98800,-186.18001
50.70000,-3.99470,-186.31000
50.80000,-4.00130,-186.72001
50.90000,-4.00800,-186.97999
51.00000,-4.01470,-187.25000
51.10000,-4.02130,-187.39000
51.20000,-4.02800,-187.92000
51.30000,-4.03470,-188.05999
51.40000,-4.04130,-188.46000
51.50000,-4.04800,-188.73001
51.60000,-4.05470,-189.13001
51.70000,-4.06130,-189.40000
51.80000,-4.06800,-189.54000
51.90000,-4.07470,-189.94000
52.00000,-4.08130,-190.21001
52.10000,-4.08800,-190.47000
52.20000,-4.09460,-190.74000
52.30000,-4.10130,-191.00999
52.40000,-4.10800,-191.41000
52.50000,-4.11460,-191.54999
52.60000,-4.12130,-191.95000
52.70000,-4.12800,-192.22001
52.80000,-4.13460,-192.62001
52.90000,-4.14130,-192.89000
53.00000,-4.14800,-193.16001
53.10000,-4.15460,-193.43000
53.20000,-4.16130,-193.83000
53.30000,-4.16800,-194.09999
53.40000,-4.17460,-194.23001
53.50000,-4.18130,-194.77000
53.60000,-4.18800,-195.04000
53.70000,-4.19460,-195.31000
53.80000,-4.20130,-195.57999
53.90000,-4.20800,-195.84000
54.00000,-4.21460,-196.25001
54.10000,-4.22130,-196.38000
54.20000,-4.22800,-196.78000
54.30000,-4.23460,-197.04999
54.40000,-4.24130,-197.32000
54.50000,-4.24800,-197.58999
54.60000,-4.25460,-197.99000
54.70000,-4.26130,-198.26001
54.80000,-4.26800,-198.53000
54.90000,-4.27460,-198.93000
55.00000,-4.28130,-199.20001
55.10000,-4.28800,-199.47000
55.20000,-4.29460,-199.59999
55.30000,-4.30130,-200.00000
55.40000,-4.30800,-200.27000
55.50000,-4.31460,-200.67999
55.60000,-4.32130,-200.94000
55.70000,-4.32800,-201.21001
55.80000,-4.33460,-201.61999
55.90000,-4.34130,-201.88000
56.00000,-4.34800,-202.14999
56.10000,-4.35460,-202.29001
56.20000,-4.36130,-202.56000
56.30000,-4.36800,-202.82000
56.40000,-4.37460,-203.23001
56.50000,-4.38130,-203.49000
56.60000,-4.38800,-203.76001
56.70000,-4.39460,-204.03000
56.80000,-4.40130,-204.43000
56.90000,-4.40800,-204.70001
57.00000,-4.41460,-204.97000
57.10000,-4.42130,-205.24001
57.20000,-4.42800,-205.51000
57.30000,-4.43460,-205.78001
57.40000,-4.44130,-206.05000
57.50000,-4.44800,-206.31000
57.60000,-4.45460,-206.71999
57.70000,-4.46130,-206.98000
57.80000,-4.46800,-207.25001
57.90000,-4.47460,-207.52000
58.00000,-4.48130,-207.79001
58.10000,-4.48800,-208.06000
58.20000,-4.49460,-208.46000
58.30000,-4.50130,-208.73001
58.40000,-4.50800,-208.86000
58.50000,-4.51460,-209.27001
58.60000,-4.52130,-209.54000
58.70000,-4.52800,-209.94000
58.80000,-4.53460,-210.07000
58.90000,-4.54130,-210.47000
59.00000,-4.54800,-210.74001
59.10000,-4.55460,-211.14999
59.20000,-4.56130,-211.28001
59.30000,-4.56800,-211.55000
59.40000,-4.57460,-211.82001
59.50000,-4.58130,-212.21999
59.60000,-4.58800,-212.49000
59.70000,-4.59460,-212.76001
59.80000,-4.60130,-212.89000
59.90000,-4.60790,-213.15999
60.00000,-4.61460,-213.56000
60.10000,-4.62130,-213.83001
60.20000,-4.62790,-214.10000
60.30000,-4.63460,-214.37000
60.40000,-4.64130,-214.64000
60.50000,-4.64790,-214.90000
60.60000,-4.65460,-215.16999
60.70000,-4.66130,-215.44000
60.80000,-4.66790,-215.70999
60.90000,-4.67460,-216.10999
61.00000,-4.68130,-216.24999
61.10000,-4.68790,-216.64999
61.20000,-4.69460,-216.92000
61.30000,-4.70130,-217.05000
61.40000,-4.70790,-217.45000
61.50000,-4.71460,-217.71999
61.60000,-4.72130,-217.99000
61.70000,-4.72790,-218.39000
61.80000,-4.73460,-218.65999
61.90000,-4.74130,-218.80001
62.00000,-4.74790,-219.19999
62.10000,-4.75460,-219.47000
62.20000,-4.76130,-219.73999
62.30000,-4.76790,-220.14000
62.40000,-4.77460,-220.27001
62.50000,-4.78130,-220.54000
62.60000,-4.78790,-220.81001
62.70000,-4.79460,-221.20999
62.80000,-4.80130,-221.48000
62.90000,-4.80790,-221.74999
63.00000,-4.81460,-222.02000
63.10000,-4.82130,-222.29001
63.20000,-4.82790,-222.56000
63.30000,-4.83460,-222.82001
63.40000,-4.84130,-223.09000
63.50000,-4.84790,-223.22999
63.60000,-4.85460,-223.76001
63.70000,-4.86130,-223.90001
63.80000,-4.86790,-224.30001
63.90000,-4.87460,-224.43000
64.00000,-4.88130,-224.69999
64.10001,-4.88790,-224.97000
64.20000,-4.89460,-225.23999
64.30000,-4.90130,-225.51000
64.40000,-4.90790,-225.77999
64.50000,-4.91460,-226.05000
64.60001,-4.92130,-226.31001
64.70000,-4.92790,-226.71999
64.80000,-4.93460,-226.85001
64.90000,-4.94130,-227.12000
65.00000,-4.94790,-227.52000
65.10001,-4.95460,-227.66000
65.20000,-4.96130,-227.92000
65.30000,-4.96790,-228.06000
65.40000,-4.97460,-228.46000
65.50000,-4.98130,-228.72999
65.60001,-4.98790,-229.00000
65.70001,-4.99460,-229.40001
65.80000,-5.00130,-229.67000
65.90000,-5.00790,-229.94000
65.95001,-5.01130,-229.94000
66.05000,-5.00990,-230.21000
66.15000,-5.00320,-229.80001
66.25000,-4.99650,-229.26999
66.35001,-4.98990,-228.33001
66.45001,-4.98320,-227.52000
66.55000,-4.97650,-226.71999
66.65000,-4.96990,-225.77999
66.75000,-4.96320,-225.11000
66.85001,-4.95650,-224.30001
66.95001,-4.94990,-223.49000
67.05000,-4.94320,-222.68999
67.15000,-4.93650,-222.02000
67.25000,-4.92990,-221.20999
67.35001,-4.92320,-220.41000
67.45001,-4.91650,-219.73999
67.55000,-4.90990,-219.07000
67.65000,-4.90320,-218.39000
67.75000,-4.89650,-217.71999
67.85001,-4.88990,-217.05000
67.95001,-4.88320,-216.24999
68.05000,-4.87650,-215.58000
68.15000,-4.86990,-215.04000
68.25000,-4.86320,-214.37000
68.35001,-4.85650,-213.69999
68.45001,-4.84990,-213.03000
68.55000,-4.84320,-212.49000
68.65000,-4.83650,-211.82001
68.75000,-4.82990,-211.28001
68.85001,-4.82320,-210.74001
68.95001,-4.81650,-210.07000
69.05000,-4.80990,-209.54000
69.15000,-4.80320,-209.12999
69.25000,-4.79650,-208.46000
69.35001,-4.78990,-207.79001
69.45001,-4.78320,-207.39000
69.55000,-4.77650,-206.71999
69.65000,-4.76990,-206.31000
69.75000,-4.76320,-205.78001
69.85001,-4.75660,-205.24001
69.95001,-4.74990,-204.70001
70.05000,-4.74320,-204.03000
70.15000,-4.73660,-203.49000
70.25000,-4.72990,-203.08999
70.35001,-4.72320,-202.56000
70.45001,-4.71660,-201.88000
70.55000,-4.70990,-201.35000
70.65000,-4.70320,-200.81000
70.75000,-4.69660,-200.27000
70.85001,-4.68990,-199.74001
70.95001,-4.68320,-199.20001
71.05000,-4.67660,-198.66001
71.15000,-4.66990,-198.26001
71.25000,-4.66320,-197.72001
71.35001,-4.65660,-197.04999
71.45001,-4.64990,-196.52000
71.55000,-4.64320,-195.98000
71.65000,-4.63660,-195.57999
71.75000,-4.62990,-195.17001
71.85001,-4.62320,-194.63999
71.95001,-4.61660,-193.96000
72.05000,-4.60990,-193.43000
72.15000,-4.60320,-193.03000
72.25000,-4.59660,-192.35000
72.35001,-4.58990,-191.95000
72.45001,-4.58320,-191.41000
72.55000,-4.57660,-190.88000
72.65000,-4.56990,-190.47000
72.75000,-4.56320,-189.94000
72.85001,-4.55660,-189.54000
72.95001,-4.55000,-188.86000
73.05000,-4.54330,-188.59999
73.15000,-4.53660,-188.05999
73.25000,-4.53000,-187.39000
73.35001,-4.52330,-186.85000
73.45001,-4.51660,-186.45000
73.55000,-4.51000,-185.91000
73.65000,-4.50330,-185.50999
73.75000,-4.49660,-184.97000
73.85001,-4.49000,-184.43000
73.95001,-4.48330,-183.90000
74.05000,-4.47660,-183.36000
74.15000,-4.47000,-182.96000
74.25000,-4.46330,-182.42000
74.35001,-4.45660,-182.01999
74.45001,-4.45000,-181.47999
74.55000,-4.44330,-181.07999
74.65000,-4.43660,-180.53999
74.75000,-4.43000,-179.99999
74.85001,-4.42330,-179.47000
74.95001,-4.41660,-179.06999
75.05000,-4.41000,-178.52999
75.15000,-4.40330,-178.13001
75.25000,-4.39660,-177.44999
75.35001,-4.39000,-177.04999
75.45001,-4.38330,-176.51999
75.55000,-4.37660,-176.11001
75.65000,-4.37000,-175.57999
75.75000,-4.36330,-175.17000
75.85001,-4.35660,-174.64001
75.95001,-4.35000,-174.10001
76.05000,-4.34330,-173.70000
76.15000,-4.33660,-173.16001
76.25000,-4.33000,-172.62001
76.35001,-4.32330,-172.22000
76.45001,-4.31660,-171.82000
76.55000,-4.31000,-171.40999
76.65000,-4.30330,-170.74000
76.75000,-4.29660,-170.21000
76.85001,-4.29000,-169.80000
76.95001,-4.28330,-169.40000
77.05000,-4.27670,-168.86000
77.15000,-4.27000,-168.45999
77.25000,-4.26330,-168.06001
77.35001,-4.25670,-167.52001
77.45001,-4.25000,-166.97999
77.55000,-4.24330,-166.58001
77.65000,-4.23670,-166.18000
77.75000,-4.23000,-165.64000
77.85001,-4.22330,-165.11001
77.95001,-4.21670,-164.70000
78.05000,-4.21000,-164.17000
78.15000,-4.20330,-163.76000
78.25000,-4.19670,-163.23000
78.35001,-4.19000,-162.82000
78.45001,-4.18330,-162.41999
78.55000,-4.17670,-161.87999
78.65000,-4.17000,-161.47999
78.75000,-4.16330,-160.93999
78.85001,-4.15670,-160.40999
78.95001,-4.15000,-160.00001
79.05000,-4.14330,-159.60000
79.15000,-4.13670,-159.07001
79.25000,-4.13000,-158.66000
79.35001,-4.12330,-158.13001
79.45001,-4.11670,-157.59001
79.55000,-4.11000,-157.19000
79.65000,-4.10330,-156.65000
79.75000,-4.09670,-156.25000
79.85001,-4.09000,-155.84000
79.95001,-4.08330,-155.44000
80.05000,-4.07670,-154.90000
80.15000,-4.07000,-154.50000
80.25000,-4.06330,-154.10000
80.35001,-4.05670,-153.56000
80.45001,-4.05000,-153.03000
80.55000,-4.04330,-152.62000
80.65000,-4.03670,-152.22000
80.75001,-4.03000,-151.82000
80.85001,-4.02330,-151.41000
80.95001,-4.01670,-150.88000
81.05000,-4.01000,-150.47000
81.15000,-4.00330,-150.07000
81.25001,-3.99670,-149.54000
81.35001,-3.99000,-149.00000
81.45001,-3.98330,-148.60000
81.55000,-3.97670,-148.06000
81.65000,-3.97000,-147.79000
81.75001,-3.96330,-147.25000
81.85001,-3.95670,-146.85000
81.95001,-3.95000,-146.31000
82.05000,-3.94330,-146.05000
82.15000,-3.93670,-145.37000
82.25001,-3.93000,-144.97000
82.35001,-3.92330,-144.43000
82.45001,-3.91670,-144.17000
82.55000,-3.91000,-143.63000
82.65000,-3.90330,-143.23000
82.75001,-3.89670,-142.82000
82.85001,-3.89000,-142.29000
82.95001,-3.88330,-141.88000
83.05000,-3.87670,-141.48000
83.15000,-3.87000,-140.94000
83.25001,-3.86330,-140.54000
83.35001,-3.85670,-140.00000
83.45001,-3.85000,-139.60000
83.55000,-3.84330,-139.20000
83.65000,-3.83670,-138.66000
83.75001,-3.83000,-138.26000
83.85001,-3.82330,-137.99000
83.95001,-3.81670,-137.45000
84.05000,-3.81000,-136.92000
84.15000,-3.80330,-136.52000
84.25001,-3.79670,-136.11000
84.35001,-3.79000,-135.71000
84.45001,-3.78330,-135.31000
84.55000,-3.77670,-134.90000
84.65000,-3.77000,-134.50000
84.75001,-3.76340,-133.96000
84.85001,-3.75670,-133.56000
84.95001,-3.75000,-133.03000
85.05000,-3.74340,-132.62000
85.15000,-3.73670,-132.22000
85.25001,-3.73000,-131.82000
85.35001,-3.72340,-131.41000
85.45001,-3.71670,-131.01000
85.55000,-3.71000,-130.47000
85.65000,-3.70340,-130.07000
85.75001,-3.69670,-129.67000
85.85001,-3.69000,-129.27000
85.95001,-3.68340,-128.86000
86.05000,-3.67670,-128.33000
86.15000,-3.67000,-127.92000
86.25001,-3.66340,-127.52000
86.35001,-3.65670,-126.98000
86.45001,-3.65000,-126.58000
86.55000,-3.64340,-126.31000
86.65000,-3.63670,-125.78000
86.75001,-3.63000,-125.37000
86.85001,-3.62340,-124.97000
86.95001,-3.61670,-124.57000
87.05000,-3.61000,-124.03000
87.15000,-3.60340,-123.63000
87.25001,-3.59670,-123.23000
87.35001,-3.59000,-122.82000
87.45001,-3.58340,-122.42000
87.55000,-3.57670,-121.88000
87.65000,-3.57000,-121.48000
87.75001,-3.56340,-121.08000
87.85001,-3.55670,-120.68000
87.95001,-3.55000,-120.27000
88.05000,-3.54340,-119.87000
88.15000,-3.53670,-119.47000
88.25001,-3.53000,-118.93000
88.35001,-3.52340,-118.53000
88.45001,-3.51670,-118.13000
88.55000,-3.51000,-117.72000
88.65000,-3.50340,-117.32000
88.75001,-3.49670,-116.92000
88.85001,-3.49000,-116.52000
88.95001,-3.48340,-116.11000
89.05000,-3.47670,-115.71000
89.15000,-3.47000,-115.17000
89.25001,-3.46340,-114.90000
89.35001,-3.45670,-114.37000
89.45001,-3.45000,-113.96000
89.55000,-3.44340,-113.56000
89.65000,-3.43670,-113.16000
89.75001,-3.43000,-112.62000
89.85001,-3.42340,-112.35000
89.95001,-3.41670,-111.95000
90.05000,-3.41000,-111.55000
90.15000,-3.40340,-111.15000
90.25001,-3.39670,-110.61000
90.35001,-3.39000,-110.21000
90.45001,-3.38340,-109.67000
90.55000,-3.37670,-109.27000
90.65000,-3.37000,-109.00000
90.75001,-3.36340,-108.60000
90.85001,-3.35670,-108.19000
90.95001,-3.35000,-107.66000
91.05000,-3.34340,-107.39000
91.15000,-3.33670,-106.85000
91.25001,-3.33000,-106.45000
91.35001,-3.32340,-106.05000
91.45001,-3.31670,-105.64000
91.55000,-3.31000,-105.24000
91.65000,-3.30340,-104.84000
91.75001,-3.29670,-104.43000
91.85001,-3.29000,-104.03000
91.95001,-3.28340,-103.76000
92.05000,-3.27670,-103.23000
92.15000,-3.27000,-102.82000
92.25001,-3.26340,-102.42000
92.35001,-3.25670,-101.88000
92.45001,-3.25010,-101.48000
92.55000,-3.24340,-101.21000
92.65000,-3.23670,-100.81000
92.75001,-3.23010,-100.41000
92.85001,-3.22340,-100.00000
92.95001,-3.21670,-99.60000
93.05000,-3.21010,-99.20000
93.15000,-3.20340,-98.80000
93.25001,-3.19670,-98.39000
93.35001,-3.19010,-97.99000
93.45001,-3.18340,-97.59000
93.55000,-3.17670,-97.19000
93.65000,-3.17010,-96.78000
93.75001,-3.16340,-96.38000
93.85001,-3.15670,-95.98000
93.95001,-3.15010,-95.58000
94.05000,-3.14340,-95.17000
94.15000,-3.13670,-94.77000
94.25001,-3.13010,-94.37000
94.35001,-3.12340,-93.96000
94.45001,-3.11670,-93.56000
94.55000,-3.11010,-93.16000
94.65000,-3.10340,-92.76000
94.75001,-3.09670,-92.35000
94.85001,-3.09010,-91.95000
94.95001,-3.08340,-91.55000
95.05000,-3.07670,-91.15000
95.15000,-3.07010,-90.74000
95.25001,-3.06340,-90.34000
95.35001,-3.05670,-90.07000
95.45001,-3.05010,-89.54000
95.55000,-3.04340,-89.27000
95.65000,-3.03670,-88.73000
95.75001,-3.03010,-88.33000
95.85001,-3.02340,-88.06000
95.95001,-3.01670,-87.66000
96.05000,-3.01010,-87.25000
96.15000,-3.00340,-86.85000
96.25001,-2.99670,-86.58000
96.35001,-2.99010,-86.05000
96.45001,-2.98340,-85.78000
96.55000,-2.97670,-85.24000
96.65000,-2.97010,-84.84000
96.75001,-2.96340,-84.43000
96.85001,-2.95670,-84.17000
96.95001,-2.95010,-83.76000
97.05000,-2.94340,-83.36000
97.15000,-2.93670,-82.96000
97.25001,-2.93010,-82.56000
97.35001,-2.92340,-82.29000
97.45001,-2.91670,-81.75000
97.55000,-2.91010,-81.48000
97.65000,-2.90340,-80.94000
97.75001,-2.89670,-80.68000
97.85001,-2.89010,-80.27000
97.95001,-2.88340,-79.87000
98.05000,-2.87670,-79.60000
98.15000,-2.87010,-79.07000
98.25001,-2.86340,-78.80000
98.35001,-2.85670,-78.26000
98.45001,-2.85010,-77.86000
98.55000,-2.84340,-77.59000
98.65000,-2.83670,-77.05000
98.75001,-2.83010,-76.78000
98.85001,-2.82340,-76.38000
98.95001,-2.81670,-75.98000
99.05000,-2.81010,-75.58000
99.15000,-2.80340,-75.31000
99.25001,-2.79670,-74.90000
99.35001,-2.79010,-74.64000
99.45001,-2.78340,-74.10000
99.55000,-2.77670,-73.70000
99.65000,-2.77010,-73.29000
99.75001,-2.76340,-73.03000
99.85001,-2.75670,-72.62000
99.95001,-2.75010,-72.22000
100.05000,-2.74340,-71.95000
100.15000,-2.73670,-71.41000
100.25001,-2.73010,-71.01000
100.35001,-2.72340,-70.61000
100.45001,-2.71680,-70.21000
100.55000,-2.71010,-69.94000
100.65000,-2.70340,-69.54000
100.75001,-2.69680,-69.27000
100.85001,-2.69010,-68.86000
100.95001,-2.68340,-68.46000
101.05000,-2.67680,-68.06000
101.15000,-2.67010,-67.66000
101.25001,-2.66340,-67.25000
101.35001,-2.65680,-66.85000
101.45001,-2.65010,-66.45000
101.55000,-2.64340,-66.18000
101.65000,-2.63680,-65.78000
101.75001,-2.63010,-65.37000
101.85001,-2.62340,-64.97000
101.95001,-2.61680,-64.70000
102.05000,-2.61010,-64.30000
102.15000,-2.60340,-63.90000
102.25001,-2.59680,-63.63000
102.35001,-2.59010,-63.23000
102.45001,-2.58340,-62.82000
102.55000,-2.57680,-62.42000
102.65000,-2.57010,-62.15000
102.75001,-2.56340,-61.75000
102.85001,-2.55680,-61.35000
102.95001,-2.55010,-60.94000
103.05000,-2.54340,-60.68000
103.15000,-2.53680,-60.14000
103.25001,-2.53010,-59.87000
103.35001,-2.52340,-59.47000
103.45001,-2.51680,-59.20000
103.55000,-2.51010,-58.80000
103.65000,-2.50340,-58.39000
103.75001,-2.49680,-57.86000
103.85001,-2.49010,-57.59000
103.95001,-2.48340,-57.19000
104.05000,-2.47680,-56.78000
104.15000,-2.47010,-56.52000
104.25001,-2.46340,-56.25000
104.35001,-2.45680,-55.84000
104.45001,-2.45010,-55.44000
104.55000,-2.44340,-55.04000
104.65000,-2.43680,-54.64000
104.75001,-2.43010,-54.23000
104.85001,-2.42340,-53.96000
104.95001,-2.41680,-53.56000
105.05000,-2.41010,-53.29000
105.15000,-2.40340,-52.89000
105.25001,-2.39680,-52.62000
105.35001,-2.39010,-52.09000
105.45001,-2.38340,-51.95000
105.55000,-2.37680,-51.55000
105.65000,-2.37010,-51.01000
105.75001,-2.36340,-50.74000
105.85001,-2.35680,-50.34000
105.95001,-2.35010,-50.07000
106.05000,-2.34340,-49.67000
106.15000,-2.33680,-49.40000
106.25001,-2.33010,-49.00000
106.35001,-2.32340,-48.73000
106.45001,-2.31680,-48.19000
106.55000,-2.31010,-47.92000
106.65000,-2.30340,-47.52000
106.75001,-2.29680,-47.25000
106.85001,-2.29010,-46.85000
106.95001,-2.28340,-46.58000
107.05000,-2.27680,-46.18000
107.15000,-2.27010,-45.78000
107.25001,-2.26340,-45.51000
107.35001,-2.25680,-45.11000
107.45001,-2.25010,-44.70000
107.55000,-2.24340,-44.43000
107.65000,-2.23680,-44.03000
107.75001,-2.23010,-43.76000
107.85001,-2.22340,-43.36000
107.95001,-2.21680,-42.96000
108.05000,-2.21010,-42.69000
108.15000,-2.20350,-42.42000
108.25001,-2.19680,-42.02000
108.35001,-2.19010,-41.75000
108.45001,-2.18350,-41.21000
108.55000,-2.17680,-40.94000
108.65000,-2.17010,-40.54000
108.75001,-2.16350,-40.27000
108.85001,-2.15680,-39.87000
108.95001,-2.15010,-39.47000
109.05000,-2.14350,-39.20000
109.15000,-2.13680,-38.80000
109.25001,-2.13010,-38.39000
109.35001,-2.12350,-38.13000
109.45001,-2.11680,-37.86000
109.55000,-2.11010,-37.45000
109.65000,-2.10350,-37.19000
109.75001,-2.09680,-36.92000
109.85001,-2.09010,-36.52000
109.95001,-2.08350,-36.11000
110.05000,-2.07680,-35.84000
110.15000,-2.07010,-35.58000
110.25001,-2.06350,-35.17000
110.35001,-2.05680,-34.90000
110.45001,-2.05010,-34.50000
110.55000,-2.04350,-34.23000
110.65000,-2.03680,-33.83000
110.75001,-2.03010,-33.56000
110.85001,-2.02350,-33.29000
110.95001,-2.01680,-32.89000
111.05000,-2.01010,-32.49000
111.15000,-2.00350,-32.22000
111.25001,-1.99680,-31.82000
111.35001,-1.99010,-31.55000
111.45001,-1.98350,-31.15000
111.55000,-1.97680,-30.88000
111.65000,-1.97010,-30.47000
111.75001,-1.96350,-30.07000
111.85001,-1.95680,-29.80000
111.95001,-1.95010,-29.40000
112.05000,-1.94350,-29.13000
112.15000,-1.93680,-28.73000
112.25001,-1.93010,-28.46000
112.35001,-1.92350,-28.19000
112.45001,-1.91680,-27.79000
112.55000,-1.91010,-27.39000
112.65001,-1.90350,-27.12000
112.75001,-1.89680,-26.72000
112.85001,-1.89010,-26.45000
112.95001,-1.88350,-26.18000
113.05000,-1.87680,-25.78000
113.15001,-1.87010,-25.37000
113.25001,-1.86350,-25.11000
113.35001,-1.85680,-24.84000
113.45001,-1.85010,-24.43000
113.55000,-1.84350,-24.17000
113.65001,-1.83680,-23.90000
113.75001,-1.83010,-23.49000
113.85001,-1.82350,-23.23000
113.95001,-1.81680,-22.96000
114.05000,-1.81010,-22.56000
114.15001,-1.80350,-22.29000
114.25001,-1.79680,-22.02000
114.35001,-1.79010,-21.62000
114.45001,-1.78350,-21.35000
114.55000,-1.77680,-20.94000
114.65001,-1.77010,-20.54000
114.75001,-1.76350,-20.41000
114.85001,-1.75680,-20.00000
114.95001,-1.75010,-19.74000
115.05000,-1.74350,-19.47000
115.15001,-1.73680,-19.20000
115.25001,-1.73010,-18.66000
115.35001,-1.72350,-18.39000
115.45001,-1.71680,-18.13000
115.55000,-1.71010,-17.72000
115.65001,-1.70350,-17.45000
115.75001,-1.69680,-17.05000
115.85001,-1.69020,-16.78000
115.95001,-1.68350,-16.52000
116.05000,-1.67680,-16.25000
116.15001,-1.67020,-15.98000
116.25001,-1.66350,-15.71000
116.35001,-1.65680,-15.31000
116.45001,-1.65020,-14.90000
116.55000,-1.64350,-14.64000
116.65001,-1.63680,-14.37000
116.75001,-1.63020,-13.96000
116.85001,-1.62350,-13.70000
116.95001,-1.61680,-13.43000
117.05000,-1.61020,-13.16000
117.15001,-1.60350,-12.76000
117.25001,-1.59680,-12.49000
117.35001,-1.59020,-12.22000
117.45001,-1.58350,-11.95000
117.55000,-1.57680,-11.68000
117.65001,-1.57020,-11.28000
117.75001,-1.56350,-11.15000
117.85001,-1.55680,-10.74000
117.95001,-1.55020,-10.47000
118.05000,-1.54350,-10.07000
118.15001,-1.53680,-9.94000
118.25001,-1.53020,-9.54000
118.35001,-1.52350,-9.27000
118.45001,-1.51680,-9.00000
118.55000,-1.51020,-8.73000
118.65001,-1.50350,-8.33000
118.75001,-1.49680,-8.06000
118.85001,-1.49020,-7.79000
118.95001,-1.48350,-7.52000
119.05000,-1.47680,-7.25000
119.15001,-1.47020,-6.98000
119.25001,-1.46350,-6.72000
119.35001,-1.45680,-6.31000
119.45001,-1.45020,-5.91000
119.55000,-1.44350,-5.78000
119.65001,-1.43680,-5.51000
119.75001,-1.43020,-5.24000
119.85001,-1.42350,-4.97000
119.95001,-1.41680,-4.70000
120.05000,-1.41020,-4.57000
120.15001,-1.40350,-4.30000
120.25001,-1.39680,-4.03000
120.35001,-1.39020,-3.90000
120.45001,-1.38350,-3.76000
120.55000,-1.37680,-3.49000
120.65001,-1.37020,-3.23000
120.75001,-1.36350,-3.09000
120.85001,-1.35680,-2.82000
120.95001,-1.35020,-2.56000
121.05000,-1.34350,-2.42000
121.15001,-1.33680,-2.29000
121.25001,-1.33020,-2.02000
121.35001,-1.32350,-1.88000
121.45001,-1.31680,-1.62000
121.55000,-1.31020,-1.35000
121.65001,-1.30350,-1.21000
121.75001,-1.29680,-0.94000
121.85001,-1.29020,-0.81000
121.95001,-1.28350,-0.54000
122.05000,-1.27680,-0.27000
122.15001,-1.27020,0.00000
122.25001,-1.26350,-0.14000
122.35001,-1.25680,-0.14000
122.45001,-1.25020,-0.14000
122.55000,-1.24350,-0.14000
122.65001,-1.23680,0.00000
122.75001,-1.23020,0.00000
122.85001,-1.22350,0.00000
122.95001,-1.21680,0.00000
123.05000,-1.21020,0.00000
123.15001,-1.20350,-0.14000
123.25001,-1.19680,-0.14000
123.35001,-1.19020,0.00000
123.45001,-1.18350,-0.14000
123.55000,-1.17680,0.00000
123.65001,-1.17020,0.00000
123.75001,-1.16350,0.00000
123.85001,-1.15690,0.00000
123.95001,-1.15020,0.00000
124.05000,-1.14350,0.00000
124.15001,-1.13690,-0.14000
124.25001,-1.13020,-0.14000
124.35001,-1.12350,-0.14000
124.45001,-1.11690,-0.14000
124.55000,-1.11020,0.00000
124.65001,-1.10350,0.00000
124.75001,-1.09690,-0.14000
124.85001,-1.09020,0.00000
124.95001,-1.08350,-0.14000
125.05000,-1.07690,0.00000
125.15001,-1.07010,-0.14000
125.25001,-1.06350,-0.14000
125.35001,-1.05680,-0.14000
125.45001,-1.05010,-0.14000
125.55000,-1.04350,-0.14000
125.65001,-1.03680,0.00000
125.75001,-1.03010,0.00000
125.85001,-1.02350,-0.14000
125.95001,-1.01680,-0.14000
126.05000,-1.01010,0.00000
126.15001,-1.00350,-0.14000
126.25001,-0.99680,0.00000
126.35001,-0.99010,-0.14000
126.45001,-0.98350,-0.14000
126.55000,-0.97680,-0.14000
126.65001,-0.97010,0.00000
126.75001,-0.96350,0.00000
126.85001,-0.95680,0.00000
126.95001,-0.95010,0.00000
127.05000,-0.94350,-0.14000
127.15001,-0.93680,-0.14000
127.25001,-0.93010,0.00000
127.35001,-0.92350,-0.14000
127.45001,-0.91680,0.00000
127.55000,-0.91010,0.00000
127.65001,-0.90350,0.00000
127.75001,-0.89680,-0.14000
127.85001,-0.89010,-0.14000
127.95001,-0.88350,0.00000
128.05000,-0.87680,0.00000
128.15001,-0.87010,0.00000
128.25000,-0.86350,0.00000
128.35001,-0.85680,-0.14000
128.45002,-0.85010,-0.14000
128.55000,-0.84350,-0.14000
128.65001,-0.83680,0.00000
128.75000,-0.83010,0.00000
128.85001,-0.82350,-0.14000
128.95002,-0.81680,-0.14000
129.05000,-0.81010,-0.14000
129.15001,-0.80350,-0.14000
129.25000,-0.79680,-0.14000
129.35001,-0.79010,-0.14000
129.45002,-0.78350,-0.14000
129.55000,-0.77680,-0.14000
129.65001,-0.77010,0.13000
129.75000,-0.76350,-0.14000
129.85001,-0.75680,-0.14000
129.95002,-0.75010,-0.14000
130.05000,-0.74350,0.00000
130.15001,-0.73680,0.00000
130.25000,-0.73010,0.00000
130.35001,-0.72350,-0.14000
130.45002,-0.71680,-0.14000
130.55000,-0.71010,0.00000
130.65001,-0.70350,-0.14000
130.75000,-0.69680,0.13000
130.85001,-0.69010,0.00000
130.95002,-0.68350,0.13000
131.05000,-0.67680,0.00000
131.15002,-0.67010,0.00000
131.25000,-0.66350,-0.14000
131.35000,-0.65680,-0.14000
131.45002,-0.65010,0.00000
131.55000,-0.64350,0.00000
131.65002,-0.63680,0.00000
131.75000,-0.63010,0.00000
131.85000,-0.62350,0.00000
131.95002,-0.61680,0.00000
132.05000,-0.61010,0.00000
132.15002,-0.60350,0.00000
132.25000,-0.59680,0.00000
132.35000,-0.59020,0.00000
132.45002,-0.58350,-0.14000
132.55000,-0.57680,-0.14000
132.65002,-0.57020,0.00000
132.75000,-0.56350,0.00000
132.85000,-0.55680,0.00000
132.95002,-0.55020,0.00000
133.05000,-0.54350,-0.14000
133.15002,-0.53680,0.00000
133.25000,-0.53020,-0.14000
133.35000,-0.52350,-0.14000
133.45002,-0.51680,0.00000
133.55000,-0.51020,0.00000
133.65002,-0.50350,0.00000
133.75000,-0.49680,0.00000
133.85000,-0.49020,0.00000
133.95002,-0.48350,-0.14000
134.05000,-0.47680,0.00000
134.15002,-0.47020,0.00000
134.25000,-0.46350,0.00000
134.35000,-0.45680,0.00000
134.45002,-0.45020,0.00000
134.55000,-0.44350,0.00000
134.65002,-0.43680,0.00000
134.75000,-0.43020,-0.14000
134.85000,-0.42350,0.00000
134.95002,-0.41680,0.00000
135.05000,-0.41020,0.00000
135.15002,-0.40350,-0.14000
135.25000,-0.39680,0.00000
135.35000,-0.39020,0.00000
135.45002,-0.38350,0.00000
135.55000,-0.37680,0.00000
135.65002,-0.37020,0.00000
135.75000,-0.36350,0.00000
135.85000,-0.35680,0.00000
135.95002,-0.35020,-0.14000
136.05000,-0.34350,-0.14000
136.15002,-0.33680,0.00000
136.25000,-0.33020,0.00000
136.35000,-0.32350,-0.14000
136.45002,-0.31680,0.00000
136.55000,-0.31020,0.00000
136.65002,-0.30350,-0.14000
136.75000,-0.29680,-0.14000
136.85000,-0.29020,0.00000
136.95002,-0.28350,0.00000
137.05000,-0.27680,0.00000
137.15002,-0.27020,0.13000
137.25000,-0.26350,0.00000
137.35000,-0.25680,-0.14000
137.45002,-0.25020,0.00000
137.55000,-0.24350,-0.14000
137.65002,-0.23680,-0.14000
137.75000,-0.23020,0.00000
137.85000,-0.22350,-0.14000
137.95002,-0.21680,-0.14000
138.05000,-0.21020,0.00000
138.15002,-0.20350,0.00000
138.25000,-0.19680,0.00000
138.35000,-0.19020,0.13000
138.45002,-0.18350,0.00000
138.55000,-0.17680,-0.14000
138.65002,-0.17020,0.00000
138.75000,-0.16350,0.00000
138.85000,-0.15680,0.00000
138.95002,-0.15020,0.13000
139.05000,-0.14350,0.13000
139.15002,-0.13680,0.13000
139.25000,-0.13020,-0.14000
139.35000,-0.12350,-0.14000
139.45002,-0.11680,0.00000
139.55000,-0.11020,0.00000
139.65002,-0.10350,-0.14000
139.75000,-0.09680,0.00000
139.85000,-0.09020,0.00000
139.95002,-0.08350,0.00000
140.05000,-0.07690,0.00000
140.15002,-0.07020,0.00000
140.25000,-0.06350,-0.14000
140.35000,-0.05690,0.00000
140.45002,-0.05020,0.00000
140.55000,-0.04350,-0.14000
140.65002,-0.03690,-0.14000
140.75000,-0.03020,0.00000
140.85000,-0.02350,0.00000
140.95002,-0.01690,0.00000
141.05000,-0.01020,0.00000
141.15002,-0.00350,0.00000
141.25000,0.00310,-0.14000
141.35000,0.00980,0.00000
141.40002,0.01310,-0.14000
141.50000,0.01390,0.00000
141.60000,0.00720,0.00000
141.70002,0.00060,0.00000
141.80000,-0.00610,0.00000
141.90002,-0.01280,0.00000
142.00000,-0.01940,0.00000
142.10000,-0.02610,0.00000
142.20002,-0.03280,0.00000
142.30000,-0.03940,0.00000
142.40002,-0.04610,0.00000
142.50000,-0.05280,0.13000
142.60000,-0.05940,0.00000
142.70002,-0.06610,-0.14000
142.80000,-0.07280,0.00000
142.90002,-0.07940,0.00000
143.00000,-0.08610,0.00000
143.10000,-0.09280,0.00000
143.20002,-0.09940,0.00000
143.30000,-0.10610,-0.14000
143.40002,-0.11280,-0.14000
143.50000,-0.11940,-0.14000
143.60000,-0.12610,0.13000
143.70002,-0.13270,0.00000
143.80000,-0.13940,0.00000
143.90002,-0.14610,0.00000
144.00000,-0.15270,0.00000
144.10000,-0.15940,0.00000
144.20002,-0.16610,0.00000
144.30000,-0.17270,0.00000
144.40002,-0.17940,0.00000
144.50000,-0.18610,0.00000
144.60000,-0.19270,-0.14000
144.70002,-0.19940,-0.14000
144.80000,-0.20610,0.00000
144.90002,-0.21270,0.13000
145.00000,-0.21940,0.00000
145.10000,-0.22610,0.00000
145.20002,-0.23270,0.13000
145.30000,-0.23940,0.00000
145.40002,-0.24610,0.00000
145.50000,-0.25270,0.00000
145.60000,-0.25940,0.13000
145.70002,-0.26610,0.00000
145.80000,-0.27270,0.00000
145.90002,-0.27940,0.13000
146.00000,-0.28610,0.00000
146.10000,-0.29270,0.00000
146.20002,-0.29940,0.00000
146.30000,-0.30610,0.00000
146.40002,-0.31270,0.00000
146.50000,-0.31940,0.00000
146.60000,-0.32610,0.00000
146.70002,-0.33270,0.00000
146.80000,-0.33940,0.00000
146.90002,-0.34610,0.00000
147.00000,-0.35270,0.13000
147.10000,-0.35940,0.00000
147.20002,-0.36610,0.00000
147.30000,-0.37270,-0.14000
147.40002,-0.37940,0.00000
147.50000,-0.38610,0.00000
147.60000,-0.39270,-0.14000
147.70002,-0.39940,0.00000
147.80000,-0.40610,0.00000
147.90002,-0.41270,0.00000
148.00000,-0.41940,0.00000
148.10000,-0.42610,0.00000
148.20002,-0.43270,0.00000
148.30000,-0.43940,0.00000
148.40002,-0.44610,0.00000
148.50000,-0.45270,-0.14000
148.60000,-0.45940,-0.14000
148.70002,-0.46610,0.00000
148.80000,-0.47270,0.13000
148.90002,-0.47940,0.00000
149.00000,-0.48610,0.13000
149.10000,-0.49270,0.13000
149.20002,-0.49940,0.00000
149.30000,-0.50610,0.00000
149.40002,-0.51270,-0.14000
149.50000,-0.51940,0.00000
149.60000,-0.52610,0.00000
149.70002,-0.53270,0.13000
149.80000,-0.53940,0.13000
149.90002,-0.54610,0.13000
150.00000,-0.55270,0.00000
150.10000,-0.55940,0.13000
150.20002,-0.56610,0.00000
150.30000,-0.57270,-0.14000
150.40002,-0.57940,0.00000
150.50000,-0.58610,-0.14000
150.60000,-0.59270,0.00000
150.70002,-0.59940,0.00000
150.80000,-0.60610,-0.14000
150.90002,-0.61270,0.00000
151.00000,-0.61940,0.13000
151.10000,-0.62610,0.00000
151.20002,-0.63270,0.00000
151.30000,-0.63940,0.00000
151.40002,-0.64610,-0.14000
151.50000,-0.65270,0.13000
151.60000,-0.65940,-0.14000
151.70002,-0.66600,0.00000
151.80000,-0.67270,0.00000
151.90002,-0.67940,0.13000
152.00000,-0.68600,0.00000
152.10000,-0.69270,0.00000
152.20002,-0.69940,-0.14000
152.30000,-0.70600,0.00000
152.40002,-0.71270,0.13000
152.50000,-0.71940,0.00000
152.60000,-0.72600,0.00000
152.70002,-0.73270,0.00000
152.80000,-0.73940,-0.14000
152.90002,-0.74600,0.00000
153.00000,-0.75270,0.00000
153.10000,-0.75940,0.13000
153.20002,-0.76600,0.13000
153.30000,-0.77270,0.13000
153.40002,-0.77940,0.00000
153.50000,-0.78600,0.00000
153.60000,-0.79270,0.00000
153.70002,-0.79940,0.00000
153.80000,-0.80600,0.00000
153.90002,-0.81270,0.00000
154.00000,-0.81940,0.00000
154.10000,-0.82600,0.00000
154.20002,-0.83270,0.13000
154.30000,-0.83940,0.00000
154.40002,-0.84600,0.13000
154.50000,-0.85270,0.13000
154.60000,-0.85940,0.13000
154.70002,-0.86600,0.00000
154.80000,-0.87270,-0.14000
154.90002,-0.87940,0.00000
155.00000,-0.88600,-0.14000
155.10000,-0.89270,0.13000
155.20002,-0.89940,0.13000
155.30000,-0.90600,0.13000
155.40002,-0.91270,0.00000
155.50000,-0.91940,0.00000
155.60000,-0.92600,0.00000
155.70002,-0.93270,0.00000
155.80000,-0.93940,-0.14000
155.90002,-0.94600,0.00000
156.00000,-0.95270,0.13000
156.10000,-0.95940,0.00000
156.20002,-0.96600,0.00000
156.30000,-0.97270,0.00000
156.40002,-0.97940,0.00000
156.50000,-0.98600,0.00000
156.60000,-0.99270,0.00000
156.70002,-0.99940,-0.14000
156.80000,-1.00600,-0.14000
156.90002,-1.01270,0.13000
157.00000,-1.01940,0.00000
157.10000,-1.02600,0.13000
157.20002,-1.03270,0.00000
157.30000,-1.03940,0.00000
157.40002,-1.04600,-0.14000
157.50000,-1.05270,0.00000
157.60000,-1.05940,0.00000
157.70002,-1.06600,0.00000
157.80000,-1.07270,0.13000
157.90002,-1.07940,-0.14000
158.00000,-1.08600,-0.54000
158.10000,-1.09270,-0.94000
158.20002,-1.09940,-1.35000
158.30000,-1.10600,-1.75000
158.40002,-1.11270,-2.02000
158.50000,-1.11940,-2.42000
158.60000,-1.12600,-2.82000
158.70002,-1.13270,-3.09000
158.80000,-1.13940,-3.49000
158.90002,-1.14600,-3.76000
159.00000,-1.15270,-4.03000
159.10000,-1.15940,-4.43000
159.20002,-1.16600,-4.84000
159.30000,-1.17270,-5.11000
159.40002,-1.17930,-5.51000
159.50000,-1.18600,-5.78000
159.60000,-1.19270,-6.05000
159.70002,-1.19930,-6.45000
159.80000,-1.20600,-6.72000
159.90002,-1.21270,-7.12000
160.00000,-1.21930,-7.52000
160.10000,-1.22600,-7.92000
160.20002,-1.23270,-8.33000
160.30000,-1.23930,-8.73000
160.40002,-1.24600,-9.40000
160.50000,-1.25270,-9.67000
160.60000,-1.25930,-10.21000
160.70002,-1.26600,-10.61000
160.80000,-1.27270,-11.15000
160.90002,-1.27930,-11.55000
161.00002,-1.28600,-11.95000
161.10000,-1.29270,-12.35000
161.20002,-1.29930,-12.76000
161.30000,-1.30600,-13.29000
161.40002,-1.31270,-13.83000
161.50002,-1.31930,-14.23000
161.60000,-1.32600,-14.64000
161.70002,-1.33270,-15.17000
161.80000,-1.33930,-15.44000
161.90002,-1.34600,-15.98000
162.00002,-1.35270,-16.52000
162.10000,-1.35930,-16.92000
162.20002,-1.36600,-17.45000
162.30000,-1.37270,-17.86000
162.40002,-1.37930,-18.39000
162.50002,-1.38600,-18.53000
162.60000,-1.39270,-19.07000
162.70002,-1.39930,-19.60000
162.80000,-1.40600,-20.14000
162.90002,-1.41270,-20.54000
163.00002,-1.41930,-20.94000
163.10000,-1.42600,-21.48000
163.20002,-1.43270,-21.75000
163.30000,-1.43930,-22.15000
163.40002,-1.44600,-22.56000
163.50002,-1.45270,-23.23000
163.60000,-1.45930,-23.49000
163.70002,-1.46600,-24.03000
163.80000,-1.47270,-24.43000
163.90002,-1.47930,-24.84000
164.00002,-1.48600,-25.37000
164.10000,-1.49270,-25.64000
164.20002,-1.49930,-26.18000
164.30000,-1.50600,-26.58000
164.40002,-1.51270,-26.98000
164.50002,-1.51930,-27.39000
164.60000,-1.52600,-27.79000
164.70002,-1.53270,-28.33000
164.80000,-1.53930,-28.73000
164.90002,-1.54600,-29.13000
165.00002,-1.55270,-29.54000
165.10000,-1.55930,-30.07000
165.20002,-1.56600,-30.34000
165.30000,-1.57270,-30.74000
165.40002,-1.57930,-31.28000
165.50002,-1.58600,-31.68000
165.60000,-1.59270,-32.09000
165.70002,-1.59930,-32.62000
165.80000,-1.60600,-33.03000
165.90002,-1.61270,-33.43000
166.00002,-1.61930,-33.83000
166.10000,-1.62600,-34.23000
166.20002,-1.63270,-34.64000
166.30000,-1.63930,-35.17000
166.40002,-1.64600,-35.58000
166.50002,-1.65270,-36.11000
166.60000,-1.65930,-36.38000
166.70002,-1.66600,-36.92000
166.80000,-1.67270,-37.19000
166.90002,-1.67930,-37.59000
167.00002,-1.68600,-38.13000
167.10000,-1.69260,-38.39000
167.20002,-1.69930,-38.80000
167.30000,-1.70600,-39.33000
167.40002,-1.71260,-39.74000
167.50002,-1.71930,-40.27000
167.60000,-1.72600,-40.68000
167.70002,-1.73260,-41.08000
167.80000,-1.73930,-41.48000
167.90002,-1.74600,-41.88000
168.00002,-1.75260,-42.29000
168.10000,-1.75930,-42.69000
168.20002,-1.76600,-43.09000
168.30000,-1.77260,-43.63000
168.40002,-1.77930,-44.03000
168.50002,-1.78600,-44.43000
168.60000,-1.79260,-44.84000
168.70002,-1.79930,-45.24000
168.80000,-1.80600,-45.64000
168.90002,-1.81260,-46.18000
169.00002,-1.81930,-46.58000
169.10000,-1.82600,-46.98000
169.20002,-1.83260,-47.39000
169.30000,-1.83930,-47.79000
169.40002,-1.84600,-48.19000
169.50002,-1.85260,-48.60000
169.60000,-1.85930,-49.13000
169.70002,-1.86600,-49.54000
169.80000,-1.87260,-49.94000
169.90002,-1.87930,-50.34000
170.00002,-1.88600,-50.74000
170.10000,-1.89260,-51.15000
170.20002,-1.89930,-51.55000
170.30000,-1.90600,-52.09000
170.40002,-1.91260,-52.35000
170.50002,-1.91930,-52.76000
170.60000,-1.92600,-53.16000
170.70002,-1.93260,-53.70000
170.80000,-1.93930,-53.96000
170.90002,-1.94600,-54.50000
171.00002,-1.95260,-54.90000
171.10000,-1.95930,-55.31000
171.20002,-1.96600,-55.71000
171.30000,-1.97260,-55.98000
171.40002,-1.97930,-56.52000
171.50002,-1.98600,-56.92000
171.60000,-1.99260,-57.32000
171.70002,-1.99930,-57.72000
171.80000,-2.00600,-58.13000
171.90002,-2.01260,-58.66000
172.00002,-2.01930,-58.93000
172.10000,-2.02600,-59.47000
172.20002,-2.03260,-59.74000
172.30000,-2.03930,-60.27000
172.40002,-2.04600,-60.68000
172.50002,-2.05260,-61.08000
172.60000,-2.05930,-61.48000
172.70002,-2.06600,-61.88000
172.80000,-2.07260,-62.29000
172.90002,-2.07930,-62.69000
173.00002,-2.08600,-62.96000
173.10000,-2.09260,-63.49000
173.20002,-2.09930,-63.90000
173.30000,-2.10600,-64.30000
173.40002,-2.11260,-64.57000
173.50002,-2.11930,-65.24000
173.60000,-2.12600,-65.64000
173.70002,-2.13260,-66.05000
173.80000,-2.13930,-66.45000
173.90002,-2.14600,-66.72000
174.00002,-2.15260,-66.98000
174.10000,-2.15930,-67.52000
174.20002,-2.16600,-67.79000
174.30000,-2.17260,-68.33000
174.40002,-2.17930,-68.73000
174.50002,-2.18600,-69.27000
174.60000,-2.19260,-69.54000
174.70002,-2.19930,-69.94000
174.80000,-2.20600,-70.34000
174.90002,-2.21260,-70.74000
175.00002,-2.21930,-71.01000
175.10000,-2.22590,-71.55000
175.20002,-2.23260,-71.82000
175.30000,-2.23930,-72.22000
175.40002,-2.24590,-72.76000
175.50002,-2.25260,-73.16000
175.60000,-2.25930,-73.56000
175.70002,-2.26590,-73.96000
175.80000,-2.27260,-74.37000
175.90002,-2.27930,-74.90000
176.00002,-2.28590,-75.04000
176.10000,-2.29260,-75.58000
176.20002,-2.29930,-75.84000
176.30000,-2.30590,-76.38000
176.40002,-2.31260,-76.78000
176.50002,-2.31930,-77.19000
176.60000,-2.32590,-77.59000
176.70002,-2.33260,-77.99000
176.80000,-2.33930,-78.39000
176.90002,-2.34590,-78.66000
177.00002,-2.35260,-79.20000
177.10000,-2.35930,-79.60000
177.20002,-2.36590,-79.87000
177.30000,-2.37260,-80.27000
177.40002,-2.37930,-80.68000
177.50002,-2.38590,-81.21000
177.60000,-2.39260,-81.48000
177.70002,-2.39930,-82.02000
177.80000,-2.40590,-82.29000
177.90002,-2.41260,-82.69000
178.00002,-2.41930,-82.96000
178.10000,-2.42590,-83.49000
178.20002,-2.43260,-83.76000
178.30000,-2.43930,-84.30000
178.40002,-2.44590,-84.57000
178.50002,-2.45260,-84.97000
178.60000,-2.45930,-85.37000
178.70002,-2.46590,-85.78000
178.80000,-2.47260,-86.18000
178.90002,-2.47930,-86.58000
179.00002,-2.48590,-86.98000
179.10000,-2.49260,-87.39000
179.20002,-2.49930,-87.66000
179.30000,-2.50590,-88.06000
179.40002,-2.51260,-88.46000
179.50002,-2.51930,-88.86000
179.60000,-2.52590,-89.27000
179.70002,-2.53260,-89.80000
179.80000,-2.53930,-90.21000
179.90002,-2.54590,-90.61000
180.00002,-2.55260,-90.88000
180.10000,-2.55930,-91.28000
180.20002,-2.56590,-91.55000
180.30000,-2.57260,-91.95000
180.40002,-2.57930,-92.35000
180.50002,-2.58590,-92.76000
180.60000,-2.59260,-93.29000
180.70002,-2.59930,-93.56000
180.80000,-2.60590,-94.10000
180.90002,-2.61260,-94.37000
181.00002,-2.61930,-94.77000
181.10000,-2.62590,-95.17000
181.20002,-2.63260,-95.44000
181.30000,-2.63930,-95.84000
181.40002,-2.64590,-96.25000
181.50002,-2.65260,-96.65000
181.60000,-2.65930,-97.05000
181.70002,-2.66590,-97.45000
181.80000,-2.67260,-97.86000
181.90002,-2.67930,-98.26000
182.00002,-2.68590,-98.66000
182.10000,-2.69260,-98.80000
182.20002,-2.69930,-99.33000
182.30000,-2.70590,-99.60000
182.40002,-2.71260,-100.00000
182.50002,-2.71930,-100.41000
182.60000,-2.72590,-100.81000
182.70002,-2.73260,-101.21000
182.80000,-2.73920,-101.62000
182.90002,-2.74590,-101.88000
183.00002,-2.75260,-102.29000
183.10000,-2.75920,-102.69000
183.20002,-2.76590,-103.09000
183.30000,-2.77260,-103.49000
183.40002,-2.77920,-103.76000
183.50002,-2.78590,-104.30000
183.60000,-2.79260,-104.70000
183.70002,-2.79920,-104.97000
183.80000,-2.80590,-105.51000
183.90002,-2.81260,-105.78000
184.00002,-2.81920,-106.18000
184.10000,-2.82590,-106.45000
184.20002,-2.83260,-106.85000
184.30000,-2.83920,-107.25000
184.40002,-2.84590,-107.66000
184.50002,-2.85260,-108.06000
184.60000,-2.85920,-108.46000
184.70002,-2.86590,-108.86000
184.80000,-2.87260,-109.13000
184.90002,-2.87920,-109.54000
185.00002,-2.88590,-109.80000
185.10000,-2.89260,-110.21000
185.20002,-2.89920,-110.61000
185.30000,-2.90590,-111.01000
185.40002,-2.91260,-111.41000
185.50002,-2.91920,-111.82000
185.60000,-2.92590,-112.22000
185.70002,-2.93260,-112.35000
185.80000,-2.93920,-112.89000
185.90002,-2.94590,-113.29000
186.00002,-2.95260,-113.70000
186.10000,-2.95920,-113.96000
186.20002,-2.96590,-114.37000
186.30000,-2.97260,-114.64000
186.40002,-2.97920,-115.04000
186.50002,-2.98590,-115.44000
186.60000,-2.99260,-115.84000
186.70002,-2.99920,-116.11000
186.80000,-3.00590,-116.65000
186.90002,-3.01260,-117.05000
187.00002,-3.01920,-117.45000
187.10000,-3.02590,-117.72000
187.20002,-3.03260,-118.13000
187.30000,-3.03920,-118.39000
187.40002,-3.04590,-118.93000
187.50002,-3.05260,-119.20000
187.60000,-3.05920,-119.60000
187.70002,-3.06590,-119.87000
187.80000,-3.07260,-120.41000
187.90002,-3.07920,-120.68000
188.00002,-3.08590,-121.08000
188.10000,-3.09260,-121.48000
188.20002,-3.09920,-121.88000
188.30000,-3.10590,-122.15000
188.40002,-3.11260,-122.56000
188.50002,-3.11920,-122.96000
188.60000,-3.12590,-123.36000
188.70002,-3.13260,-123.63000
188.80000,-3.13920,-123.90000
188.90002,-3.14590,-124.43000
189.00002,-3.15260,-124.84000
189.10000,-3.15920,-125.11000
189.20002,-3.16590,-125.51000
189.30000,-3.17260,-125.78000
189.40002,-3.17920,-126.18000
189.50002,-3.18590,-126.45000
189.60000,-3.19260,-126.98000
189.70002,-3.19920,-127.25000
189.80000,-3.20590,-127.66000
189.90002,-3.21260,-128.06000
190.00002,-3.21920,-128.46000
190.10000,-3.22590,-128.86000
190.20002,-3.23260,-129.13000
190.30000,-3.23920,-129.54000
190.40002,-3.24590,-129.80000
190.50002,-3.25260,-130.21000
190.60000,-3.25920,-130.61000
190.70002,-3.26590,-131.01000
190.80000,-3.27250,-131.41000
190.90002,-3.27920,-131.68000
191.00002,-3.28590,-132.09000
191.10000,-3.29250,-132.35000
191.20002,-3.29920,-132.76000
191.30000,-3.30590,-133.16000
191.40002,-3.31250,-133.56000
191.50002,-3.31920,-133.83000
191.60000,-3.32590,-134.23000
191.70002,-3.33250,-134.64000
191.80000,-3.33920,-134.90000
191.90002,-3.34590,-135.31000
192.00002,-3.35250,-135.71000
192.10000,-3.35920,-135.98000
192.20002,-3.36590,-136.25000
192.30000,-3.37250,-136.65000
192.40002,-3.37920,-137.05000
192.50002,-3.38590,-137.45000
192.60000,-3.39250,-137.86000
192.70002,-3.39920,-138.26000
192.80000,-3.40590,-138.66000
192.90002,-3.41250,-138.93000
193.00002,-3.41920,-139.33000
193.10000,-3.42590,-139.74000
193.20002,-3.43250,-140.00000
193.30000,-3.43920,-140.41000
193.40002,-3.44590,-140.81000
193.50002,-3.45250,-141.21000
193.60000,-3.45920,-141.48000
193.70002,-3.46590,-142.02000
193.80000,-3.47250,-142.15000
193.90002,-3.47920,-142.56000
194.00002,-3.48590,-142.96000
194.10000,-3.49250,-143.36000
194.20002,-3.49920,-143.63000
194.30000,-3.50590,-144.03000
194.40002,-3.51250,-144.43000
194.50002,-3.51920,-144.84000
194.60000,-3.52590,-145.11000
194.70002,-3.53250,-145.51000
194.80000,-3.53920,-145.91000
194.90002,-3.54590,-146.18000
195.00002,-3.55250,-146.45000
195.10000,-3.55920,-146.85000
195.20002,-3.56590,-147.25000
195.30000,-3.57250,-147.66000
195.40002,-3.57920,-148.06000
195.50002,-3.58590,-148.46000
195.60000,-3.59250,-148.60000
195.70002,-3.59920,-149.13000
195.80000,-3.60590,-149.54000
195.90002,-3.61250,-149.94000
196.00002,-3.61920,-150.21000
196.10000,-3.62590,-150.61000
196.20002,-3.63250,-150.88000
196.30000,-3.63920,-151.28000
196.40002,-3.64590,-151.68000
196.50002,-3.65250,-151.95000
196.60000,-3.65920,-152.35000
196.70002,-3.66590,-152.76000
196.80000,-3.67250,-153.16000
196.90002,-3.67920,-153.43000
197.00002,-3.68590,-153.83000
197.10000,-3.69250,-154.23000
197.20002,-3.69920,-154.37000
197.30000,-3.70590,-154.90000
197.40002,-3.71250,-155.31000
197.50002,-3.71920,-155.71000
197.60000,-3.72590,-155.84000
197.70002,-3.73250,-156.37999
197.80000,-3.73920,-156.65000
197.90002,-3.74590,-157.19000
198.00002,-3.75250,-157.45001
198.10000,-3.75920,-157.86000
198.20002,-3.76590,-158.13001
198.30000,-3.77250,-158.53001
198.40002,-3.77920,-158.92999
198.50002,-3.78580,-159.20000
198.60000,-3.79250,-159.60000
198.70002,-3.79920,-160.00001
198.80000,-3.80580,-160.40999
198.90002,-3.81250,-160.68000
199.00002,-3.81920,-161.08001
199.10000,-3.82580,-161.21000
199.20002,-3.83250,-161.62001
199.30000,-3.83920,-162.02001
199.40002,-3.84580,-162.41999
199.50002,-3.85250,-162.69000
199.60000,-3.85920,-162.95999
199.70002,-3.86580,-163.49001
199.80000,-3.87250,-163.76000
199.90002,-3.87920,-164.17000
200.00002,-3.88580,-164.57001
200.10000,-3.89250,-164.84000
200.20002,-3.89920,-165.11001
200.30000,-3.90580,-165.36999
200.40002,-3.91250,-165.78000
200.50002,-3.91920,-166.18000
200.60000,-3.92580,-166.58001
200.70002,-3.93250,-167.12001
200.80000,-3.93920,-167.39000
200.90002,-3.94580,-167.66001
201.00002,-3.95250,-168.06001
201.10000,-3.95920,-168.45999
201.20002,-3.96580,-168.73000
201.30000,-3.97250,-169.13000
201.40002,-3.97920,-169.53999
201.50002,-3.98580,-169.93999
201.60000,-3.99250,-170.21000
201.70002,-3.99920,-170.74000
201.80000,-4.00580,-171.00999
201.90002,-4.01250,-171.28000
202.00002,-4.01920,-171.68000
202.10000,-4.02580,-172.09001
202.20002,-4.03250,-172.35000
202.30000,-4.03920,-172.76000
202.40002,-4.04580,-173.02999
202.50002,-4.05250,-173.43000
202.60000,-4.05920,-173.70000
202.70002,-4.06580,-174.23000
202.80000,-4.07250,-174.49999
202.90002,-4.07920,-174.90000
203.00002,-4.08580,-175.17000
203.10000,-4.09250,-175.57999
203.20002,-4.09920,-175.84000
203.30000,-4.10580,-176.25000
203.40002,-4.11250,-176.65001
203.50002,-4.11920,-176.92000
203.60000,-4.12580,-177.32000
203.70002,-4.13250,-177.59001
203.80000,-4.13920,-177.98999
203.90002,-4.14580,-178.26000
204.00002,-4.15250,-178.80000
204.10000,-4.15920,-179.06999
204.20002,-4.16580,-179.47000
204.30000,-4.17250,-179.74000
204.40002,-4.17920,-179.99999
204.50002,-4.18580,-180.41000
204.60000,-4.19250,-180.81000
204.70002,-4.19920,-181.07999
204.80000,-4.20580,-181.47999
204.90002,-4.21250,-181.88000
205.00002,-4.21920,-182.15001
205.10000,-4.22580,-182.55999
205.20002,-4.23250,-182.96000
205.30000,-4.23920,-183.23001
205.40002,-4.24580,-183.63001
205.50002,-4.25250,-184.02999
205.60000,-4.25920,-184.30000
205.70002,-4.26580,-184.70000
205.80000,-4.27250,-185.10999
205.90002,-4.27920,-185.37000
206.00002,-4.28580,-185.78000
206.10000,-4.29250,-186.04999
206.20002,-4.29910,-186.45000
206.30000,-4.30580,-186.85000
206.40002,-4.31250,-187.12001
206.50002,-4.31910,-187.39000
206.60000,-4.32580,-187.79000
206.70002,-4.33250,-188.19001
206.80000,-4.33910,-188.59999
206.90002,-4.34580,-189.00000
207.00002,-4.35250,-189.27000
207.10000,-4.35910,-189.54000
207.20002,-4.36580,-189.94000
207.30000,-4.37250,-190.21001
207.40002,-4.37910,-190.60999
207.50002,-4.38580,-190.88000
207.60000,-4.39250,-191.28000
207.70002,-4.39910,-191.54999
207.80000,-4.40580,-191.95000
207.90002,-4.41250,-192.35000
208.00002,-4.41910,-192.62001
208.10000,-4.42580,-193.03000
208.20002,-4.43250,-193.29000
208.30000,-4.43910,-193.55999
208.40002,-4.44580,-193.83000
208.50002,-4.45250,-194.37000
208.60000,-4.45910,-194.63999
208.70002,-4.46580,-195.04000
208.80000,-4.47250,-195.44000
208.90002,-4.47910,-195.84000
209.00002,-4.48580,-196.10999
209.10000,-4.49250,-196.38000
209.20002,-4.49910,-196.78000
209.30000,-4.50580,-197.04999
209.40002,-4.51250,-197.58999
209.50002,-4.51910,-197.86000
209.60000,-4.52580,-198.26001
209.70002,-4.53250,-198.66001
209.80000,-4.53910,-199.07000
209.90002,-4.54580,-199.33000
210.00002,-4.55240,-199.59999
210.10000,-4.55910,-200.00000
210.20002,-4.56570,-200.41000
210.30000,-4.57240,-200.67999
210.40002,-4.57910,-200.94000
210.50002,-4.58570,-201.35000
210.60000,-4.59240,-201.61999
210.70002,-4.59910,-202.02000
210.80000,-4.60570,-202.42000
210.90002,-4.61240,-202.69001
211.00002,-4.61910,-203.08999
211.10000,-4.62570,-203.36000
211.20002,-4.63240,-203.62999
211.30000,-4.63910,-203.90000
211.40002,-4.64570,-204.30000
211.50002,-4.65240,-204.70001
211.60000,-4.65910,-204.97000
211.70002,-4.66570,-205.37000
211.80000,-4.67240,-205.63999
211.90002,-4.67910,-206.05000
212.00002,-4.68570,-206.45000
212.10000,-4.69240,-206.71999
212.20002,-4.69910,-207.11999
212.30000,-4.70570,-207.39000
212.40002,-4.71240,-207.79001
212.50002,-4.71910,-208.06000
212.60000,-4.72570,-208.33001
212.70002,-4.73240,-208.73001
212.80000,-4.73910,-209.12999
212.90002,-4.74570,-209.54000
213.00002,-4.75240,-209.94000
213.10000,-4.75910,-210.07000
213.20002,-4.76570,-210.47000
213.30000,-4.77240,-210.74001
213.40002,-4.77900,-211.01000
213.50002,-4.78570,-211.41000
213.60000,-4.79240,-211.82001
213.70002,-4.79900,-212.09000
213.80000,-4.80570,-212.49000
213.90002,-4.81240,-212.76001
214.00002,-4.81900,-213.15999
214.10000,-4.82570,-213.56000
214.20002,-4.83240,-213.83001
214.30000,-4.83900,-214.10000
214.40002,-4.84570,-214.50000
214.50002,-4.85240,-214.77001
214.60000,-4.85900,-215.04000
214.70002,-4.86570,-215.44000
214.80000,-4.87240,-215.84000
214.90002,-4.87900,-216.10999
215.00002,-4.88570,-216.52000
215.10000,-4.89240,-216.78001
215.20002,-4.89900,-217.05000
215.30000,-4.90570,-217.32001
215.40002,-4.91240,-217.59000
215.50002,-4.91900,-217.99000
215.60000,-4.92570,-218.26001
215.70002,-4.93240,-218.65999
215.80000,-4.93900,-219.07000
215.90002,-4.94570,-219.33001
216.00002,-4.95240,-219.60000
216.10000,-4.95900,-219.87000
216.20002,-4.96570,-220.27001
216.30000,-4.97240,-220.54000
216.40002,-4.97900,-220.94000
216.50002,-4.98570,-221.20999
216.60000,-4.99240,-221.48000
216.70002,-4.99900,-221.74999
216.80000,-5.00570,-222.14999
216.90002,-5.01240,-222.42000
217.00002,-5.01900,-222.82001
217.10000,-5.02570,-223.22999
217.20002,-5.03240,-223.36001
217.30000,-5.03900,-223.76001
217.40002,-5.04570,-224.03000
217.50002,-5.05240,-224.43000
217.60000,-5.05900,-224.84001
217.70002,-5.06570,-225.11000
217.80000,-5.07240,-225.37000
217.90002,-5.07900,-225.77999
218.00002,-5.08570,-226.05000
218.10000,-5.09240,-226.31001
218.20002,-5.09900,-226.58000
218.30000,-5.10570,-226.98000
218.40002,-5.11240,-227.24999
218.50002,-5.11900,-227.52000
218.60000,-5.12570,-227.79001
218.70002,-5.13240,-228.18999
218.80000,-5.13900,-228.46000
218.90002,-5.14570,-228.86001
219.00002,-5.15240,-229.13000
219.10000,-5.15900,-229.40001
219.20002,-5.16570,-229.54000
219.30000,-5.17240,-229.94000
219.40002,-5.17900,-230.34001
219.50002,-5.18570,-230.61000
219.60000,-5.19240,-230.88001
219.70002,-5.19900,-231.15000
219.80000,-5.20570,-231.41000
219.90002,-5.21240,-231.67999
220.00002,-5.21900,-232.09000
220.10000,-5.22570,-232.35001
220.20002,-5.23240,-232.75999
220.30000,-5.23900,-233.03000
220.40002,-5.24570,-233.29001
220.50002,-5.25240,-233.70000
220.60000,-5.25900,-233.96000
220.70002,-5.26570,-234.10000
220.80000,-5.27240,-234.37001
220.90002,-5.27900,-234.90001
221.00002,-5.28570,-235.04000
221.10000,-5.29240,-235.44000
221.20002,-5.29900,-235.58000
221.30000,-5.30570,-235.98000
221.40002,-5.31230,-236.24999
221.50002,-5.31900,-236.52000
221.60000,-5.32570,-236.77999
221.70002,-5.33230,-237.05000
221.80000,-5.33900,-237.45000
221.90002,-5.34570,-237.71999
222.00002,-5.35230,-237.99000
222.10000,-5.35900,-238.25999
222.20002,-5.36570,-238.66000
222.30000,-5.37230,-238.93001
222.40002,-5.37900,-239.20000
222.50002,-5.38570,-239.47001
222.60000,-5.39230,-239.60000
222.70002,-5.39900,-239.87001
222.80000,-5.40570,-240.26999
222.90002,-5.41230,-240.68000
223.00002,-5.41900,-240.80999
223.10000,-5.42570,-241.08000
223.20002,-5.43230,-241.34999
223.30000,-5.43900,-241.62000
223.40002,-5.44570,-241.88001
223.50002,-5.45230,-242.15000
223.60000,-5.45900,-242.56000
223.70002,-5.46570,-242.81999
223.80000,-5.47230,-242.96001
223.90002,-5.47900,-243.23000
224.00002,-5.48570,-243.63000
224.10000,-5.49230,-243.90001
224.20002,-5.49900,-244.17000
224.30000,-5.50570,-244.43001
224.40002,-5.51230,-244.57000
224.50002,-5.51900,-244.83999
224.60000,-5.52570,-245.11000
224.70002,-5.53230,-245.37001
224.80000,-5.53900,-245.64000
224.90002,-5.54570,-246.18000
225.00002,-5.55230,-246.30999
225.10000,-5.55900,-246.58000
225.20002,-5.56570,-246.98000
225.30002,-5.57230,-247.12000
225.40002,-5.57900,-247.24999
225.50002,-5.58570,-247.66000
225.60000,-5.59230,-247.92001
225.70002,-5.59900,-248.19000
225.80002,-5.60570,-248.46001
225.90002,-5.61230,-248.86001
226.00002,-5.61900,-249.00001
226.10000,-5.62570,-249.27000
226.20002,-5.63230,-249.54000
226.30002,-5.63900,-249.94001
226.40002,-5.64570,-249.94001
226.50002,-5.65230,-250.33999
226.60000,-5.65900,-250.47000
226.70002,-5.66570,-250.87999
226.80002,-5.67230,-251.15000
226.90002,-5.67900,-251.55000
227.00002,-5.68570,-251.81999
227.10000,-5.69230,-251.95001
227.20002,-5.69900,-252.22000
227.30002,-5.70570,-252.34999
227.40002,-5.71230,-252.62000
227.50002,-5.71900,-253.03001
227.60000,-5.72570,-253.28999
227.70002,-5.73230,-253.56000
227.80002,-5.73900,-253.82999
227.90002,-5.74570,-254.23000
228.00002,-5.75230,-254.36999
228.10000,-5.75900,-254.64000
228.20002,-5.76570,-254.90001
228.30002,-5.77230,-255.17000
228.40002,-5.77900,-255.31000
228.50002,-5.78570,-255.71000
228.60000,-5.79230,-255.83999
228.70002,-5.79900,-256.11000
228.80002,-5.80570,-256.37999
228.90002,-5.81230,-256.65000
229.00002,-5.81900,-256.91999
229.10000,-5.82560,-257.19000
229.20002,-5.83230,-257.45001
229.30002,-5.83900,-257.59000
229.40002,-5.84560,-257.85999
229.50002,-5.85230,-258.13000
229.60000,-5.85900,-258.38999
229.70002,-5.86560,-258.66000
229.80002,-5.87230,-258.93001
229.90002,-5.87900,-259.32999
230.00002,-5.88560,-259.47001
230.10000,-5.89230,-259.74000
230.20002,-5.89900,-260.00001
230.30002,-5.90560,-260.27000
230.40002,-5.91230,-260.54000
230.50002,-5.91900,-260.81000
230.60000,-5.92560,-261.08000
230.70002,-5.93230,-261.21000
230.80002,-5.93900,-261.62000
230.90002,-5.94560,-261.75000
231.00002,-5.95230,-262.15000
231.10000,-5.95900,-262.41999
231.20002,-5.96560,-262.69000
231.30002,-5.97230,-262.96001
231.40002,-5.97900,-263.09000
231.50002,-5.98560,-263.35999
231.60000,-5.99230,-263.49001
231.70002,-5.99900,-263.89999
231.80002,-6.00560,-264.17000
231.90002,-6.01230,-264.30000
232.00002,-6.01900,-264.57001
232.10000,-6.02560,-264.97001
232.20002,-6.03230,-265.11000
232.30002,-6.03900,-265.36999
232.40002,-6.04560,-265.64000
232.50002,-6.05230,-265.78000
232.60000,-6.05900,-266.05001
232.70002,-6.06560,-266.31000
232.80002,-6.07230,-266.58000
232.90002,-6.07900,-266.84999
233.00002,-6.08560,-267.12000
233.10000,-6.09230,-267.25000
233.20002,-6.09900,-267.66000
233.30002,-6.10560,-267.79000
233.40002,-6.11230,-267.91999
233.50002,-6.11900,-268.19000
233.60000,-6.12560,-268.46001
233.70002,-6.13230,-268.85999
233.80002,-6.13900,-269.00001
233.90002,-6.14560,-269.27000
234.00002,-6.15230,-269.54001
234.10000,-6.15900,-269.80000
234.20002,-6.16560,-270.07001
234.30002,-6.17230,-270.21000
234.40002,-6.17900,-270.61000
234.50002,-6.18560,-270.74000
234.60000,-6.19230,-271.01001
234.70002,-6.19900,-271.15000
234.80002,-6.20560,-271.55001
234.90002,-6.21230,-271.82000
235.00002,-6.21900,-272.09001
235.10000,-6.22560,-272.22000
235.20002,-6.23230,-272.48999
235.30002,-6.23910,-272.76000
235.40002,-6.24580,-273.03001
235.50002,-6.25240,-273.16000
235.60000,-6.25910,-273.42999
235.70002,-6.26580,-273.70000
235.80002,-6.27240,-273.96001
235.90002,-6.27910,-274.23000
236.00002,-6.28580,-274.50001
236.10000,-6.29240,-274.64001
236.20002,-6.29910,-274.89999
236.30002,-6.30580,-275.04001
236.40002,-6.31240,-275.43999
236.50002,-6.31910,-275.58001
236.60000,-6.32580,-275.84000
236.70002,-6.33240,-276.11000
236.80002,-6.33910,-276.25000
236.90002,-6.34580,-276.51999
237.00002,-6.35240,-276.65000
237.10000,-6.35910,-277.05001
237.20002,-6.36580,-277.19000
237.30002,-6.37240,-277.44999
237.40002,-6.37910,-277.59001
237.50002,-6.38580,-277.86000
237.60000,-6.39240,-278.13001
237.70002,-6.39910,-278.38999
237.80002,-6.40580,-278.66000
237.90002,-6.41240,-278.80000
238.00002,-6.41910,-279.20000
238.10000,-6.42570,-279.20000
238.20002,-6.43240,-279.46999
238.30002,-6.43910,-279.74000
238.40002,-6.44570,-280.14001
238.50002,-6.45240,-280.27000
238.60000,-6.45910,-280.54001
238.70002,-6.46570,-280.81000
238.80002,-6.47240,-280.93999
238.90002,-6.47910,-281.21000
239.00002,-6.48570,-281.47999
239.10000,-6.49240,-281.75000
239.20002,-6.49910,-281.88000
239.30002,-6.50570,-282.15000
239.40002,-6.51240,-282.41999
239.50002,-6.51910,-282.55999
239.60000,-6.52570,-282.82000
239.70002,-6.53240,-282.95999
239.80002,-6.53910,-283.23000
239.90002,-6.54570,-283.36000
240.00002,-6.55240,-283.76000
240.10000,-6.55910,-283.90000
240.20002,-6.56570,-284.17001
240.30002,-6.57240,-284.30000
240.40002,-6.57910,-284.57001
240.50002,-6.58570,-284.70000
240.60000,-6.59240,-284.96999
240.70002,-6.59910,-285.24000
240.80002,-6.60570,-285.24000
240.90002,-6.61240,-285.50999
241.00002,-6.61910,-285.78000
241.10000,-6.62570,-286.04999
241.20002,-6.63240,-286.31000
241.30002,-6.63910,-286.44999
241.40002,-6.64570,-286.72000
241.50002,-6.65240,-286.72000
241.60000,-6.65910,-286.97999
241.70002,-6.66570,-229.94000
241.75002,-6.66910,12.21000
