Time,Extension,Load
(sec),(mm),(N)
0.00000,-0.39450,-2.29000
0.10000,-0.40110,-2.96000
0.20000,-0.40780,-3.36000
0.30000,-0.41450,-3.76000
0.40000,-0.42110,-4.03000
0.50000,-0.42780,-4.57000
0.60000,-0.43450,-4.84000
0.70000,-0.44110,-5.37000
0.80000,-0.44780,-5.78000
0.90000,-0.45450,-6.31000
1.00000,-0.46110,-6.85000
1.10000,-0.46780,-7.39000
1.20000,-0.47450,-7.79000
1.30000,-0.48110,-8.33000
1.40000,-0.48780,-8.73000
1.50000,-0.49450,-9.13000
1.60000,-0.50110,-9.54000
1.70000,-0.50780,-10.07000
1.80000,-0.51450,-10.47000
1.90000,-0.52110,-11.15000
2.00000,-0.52780,-11.55000
2.10000,-0.53450,-12.09000
2.20000,-0.54110,-12.62000
2.30000,-0.54780,-13.03000
2.40000,-0.55450,-13.56000
2.50000,-0.56110,-13.96000
2.60000,-0.56780,-14.50000
2.70000,-0.57450,-14.90000
2.80000,-0.58110,-15.44000
2.90000,-0.58780,-15.98000
3.00000,-0.59450,-16.52000
3.10000,-0.60110,-17.05000
3.20000,-0.60780,-17.45000
3.30000,-0.61450,-18.13000
3.40000,-0.62110,-18.39000
3.50000,-0.62780,-18.93000
3.60000,-0.63450,-19.33000
3.70000,-0.64110,-19.87000
3.80000,-0.64780,-20.27000
3.90000,-0.65450,-20.81000
4.00000,-0.66110,-21.35000
4.10000,-0.66780,-21.88000
4.20000,-0.67450,-22.29000
4.30000,-0.68110,-22.69000
4.40000,-0.68780,-23.23000
4.50000,-0.69440,-23.76000
4.60000,-0.70110,-24.03000
4.70000,-0.70780,-24.57000
4.80000,-0.71440,-25.11000
4.90000,-0.72110,-25.64000
5.00000,-0.72780,-26.05000
5.10000,-0.73440,-26.58000
5.20000,-0.74110,-27.12000
5.30000,-0.74780,-27.52000
5.40000,-0.75440,-27.92000
5.50000,-0.76110,-28.46000
5.60000,-0.76780,-28.86000
5.70000,-0.77440,-29.40000
5.80000,-0.78110,-29.94000
5.90000,-0.78780,-30.34000
6.00000,-0.79440,-30.88000
6.10000,-0.80110,-31.28000
6.20000,-0.80780,-31.82000
6.30000,-0.81440,-32.35000
6.40000,-0.82110,-32.89000
6.50000,-0.82780,-33.29000
6.60000,-0.83440,-33.83000
6.70000,-0.84110,-34.37000
6.80000,-0.84780,-34.77000
6.90000,-0.85440,-35.31000
7.00000,-0.86110,-35.71000
7.10000,-0.86780,-36.25000
7.20000,-0.87440,-36.78000
7.30000,-0.88110,-37.19000
7.40000,-0.88780,-37.72000
7.50000,-0.89440,-38.26000
7.60000,-0.90110,-38.80000
7.70000,-0.90780,-39.20000
7.80000,-0.91440,-39.74000
7.90000,-0.92110,-40.14000
8.00000,-0.92780,-40.68000
8.10000,-0.93440,-41.08000
8.20000,-0.94110,-41.62000
8.30000,-0.94780,-42.15000
8.40000,-0.95440,-42.69000
8.50000,-0.96110,-43.23000
8.60000,-0.96780,-43.63000
8.70000,-0.97440,-44.03000
8.80000,-0.98110,-44.43000
8.90000,-0.98780,-44.97000
9.00000,-0.99440,-45.51000
9.10000,-1.00110,-46.05000
9.20000,-1.00780,-46.58000
9.30000,-1.01440,-47.12000
9.40000,-1.02110,-47.66000
9.50000,-1.02780,-47.92000
9.60000,-1.03440,-48.46000
9.70000,-1.04110,-48.86000
9.80000,-1.04780,-49.54000
9.90000,-1.05440,-49.94000
10.00000,-1.06110,-50.47000
10.10000,-1.06780,-50.88000
10.20000,-1.07440,-51.41000
10.30000,-1.08110,-51.95000
10.40000,-1.08780,-52.49000
10.50000,-1.09440,-53.03000
10.60000,-1.10110,-53.43000
10.70000,-1.10780,-53.96000
10.80000,-1.11440,-54.37000
10.90000,-1.12110,-54.90000
11.00000,-1.12780,-55.44000
11.10000,-1.13440,-55.98000
11.20000,-1.14110,-56.52000
11.30000,-1.14780,-57.05000
11.40000,-1.15440,-57.45000
11.50000,-1.16110,-57.99000
11.60000,-1.16780,-58.39000
11.70000,-1.17440,-58.93000
11.80000,-1.18110,-59.47000
11.90000,-1.18780,-59.87000
12.00000,-1.19440,-60.41000
12.10000,-1.20110,-60.94000
12.20000,-1.20780,-61.48000
12.30000,-1.21440,-62.02000
12.40000,-1.22110,-62.42000
12.50000,-1.22770,-62.96000
12.60000,-1.23440,-63.36000
12.70000,-1.24110,-63.90000
12.80000,-1.24770,-64.43000
12.90000,-1.25440,-64.84000
13.00000,-1.26110,-65.37000
13.10000,-1.26770,-65.78000
13.20000,-1.27440,-66.45000
13.30000,-1.28110,-66.85000
13.40000,-1.28770,-67.39000
13.50000,-1.29440,-67.79000
13.60000,-1.30110,-68.33000
13.70000,-1.30770,-68.73000
13.80000,-1.31440,-69.27000
13.90000,-1.32110,-69.80000
14.00000,-1.32770,-70.34000
14.10000,-1.33440,-70.74000
14.20000,-1.34110,-71.28000
14.30000,-1.34770,-71.82000
14.40000,-1.35440,-72.35000
14.50000,-1.36110,-72.89000
14.60000,-1.36770,-73.29000
14.70000,-1.37440,-73.83000
14.80000,-1.38110,-74.23000
14.90000,-1.38770,-74.64000
15.00000,-1.39440,-75.17000
15.10000,-1.40110,-75.58000
15.20000,-1.40770,-76.25000
15.30000,-1.41440,-76.65000
15.40000,-1.42110,-77.19000
15.50000,-1.42770,-77.59000
15.60000,-1.43440,-78.13000
15.70000,-1.44110,-78.66000
15.80000,-1.44770,-79.07000
15.90000,-1.45440,-79.60000
16.00000,-1.46110,-80.00000
16.10000,-1.46770,-80.54000
16.20000,-1.47440,-81.08000
16.30000,-1.48110,-81.62000
16.40000,-1.48770,-82.02000
16.50000,-1.49440,-82.56000
16.60000,-1.50110,-83.09000
16.70000,-1.50770,-83.49000
16.80000,-1.51440,-84.03000
16.90000,-1.52110,-84.43000
17.00000,-1.52770,-84.84000
17.10000,-1.53440,-85.37000
17.20000,-1.54110,-86.05000
17.30000,-1.54770,-86.31000
17.40000,-1.55440,-86.98000
17.50000,-1.56110,-87.39000
17.60000,-1.56770,-87.92000
17.70000,-1.57440,-88.33000
17.80000,-1.58110,-88.73000
17.90000,-1.58770,-89.27000
18.00000,-1.59440,-89.80000
18.10000,-1.60110,-90.34000
18.20000,-1.60770,-90.74000
18.30000,-1.61440,-91.15000
18.40000,-1.62110,-91.68000
18.50000,-1.62770,-92.09000
18.60000,-1.63440,-92.62000
18.70000,-1.64110,-93.03000
18.80000,-1.64770,-93.56000
18.90000,-1.65440,-93.96000
19.00000,-1.66110,-94.50000
19.10000,-1.66770,-95.04000
19.20000,-1.67440,-95.58000
19.30000,-1.68110,-95.98000
19.40000,-1.68770,-96.52000
19.50000,-1.69440,-96.92000
19.60000,-1.70110,-97.32000
19.70000,-1.70770,-97.72000
19.80000,-1.71440,-98.26000
19.90000,-1.72110,-98.80000
20.00000,-1.72770,-99.20000
20.10000,-1.73440,-99.74000
20.20000,-1.74100,-100.27000
20.30000,-1.74770,-100.68000
20.40000,-1.75440,-101.21000
20.50000,-1.76100,-101.62000
20.60000,-1.76770,-102.15000
20.70000,-1.77440,-102.56000
20.80000,-1.78100,-103.09000
20.90000,-1.78770,-103.49000
21.00000,-1.79440,-104.03000
21.10000,-1.80100,-104.43000
21.20000,-1.80770,-104.97000
21.30000,-1.81440,-105.37000
21.40000,-1.82100,-105.91000
21.50000,-1.82770,-106.31000
21.60000,-1.83440,-106.72000
21.70000,-1.84100,-107.25000
21.80000,-1.84770,-107.66000
21.90000,-1.85440,-108.19000
22.00000,-1.86100,-108.60000
22.10000,-1.86770,-109.13000
22.20000,-1.87440,-109.54000
22.30000,-1.88100,-109.94000
22.40000,-1.88770,-110.34000
22.50000,-1.89440,-110.88000
22.60000,-1.90100,-111.55000
22.70000,-1.90770,-111.82000
22.80000,-1.91440,-112.35000
22.90000,-1.92100,-112.89000
23.00000,-1.92770,-113.16000
23.10000,-1.93440,-113.70000
23.20000,-1.94100,-114.10000
23.30000,-1.94770,-114.64000
23.40000,-1.95440,-115.17000
23.50000,-1.96100,-115.58000
23.60000,-1.96770,-115.98000
23.70000,-1.97440,-116.52000
23.80000,-1.98100,-116.92000
23.90000,-1.98770,-117.32000
24.00000,-1.99440,-117.86000
24.10000,-2.00100,-118.26000
24.20000,-2.00770,-118.80000
24.30000,-2.01440,-119.20000
24.40000,-2.02100,-119.74000
24.50000,-2.02770,-120.14000
24.60000,-2.03440,-120.68000
24.70000,-2.04100,-121.08000
24.80000,-2.04770,-121.48000
24.90000,-2.05440,-122.02000
25.00000,-2.06100,-122.29000
25.10000,-2.06770,-122.82000
25.20000,-2.07440,-123.23000
25.30000,-2.08100,-123.90000
25.40000,-2.08770,-124.17000
25.50000,-2.09440,-124.70000
25.60000,-2.10100,-125.11000
25.70000,-2.10770,-125.64000
25.80000,-2.11440,-126.05000
25.90000,-2.12100,-126.45000
26.00000,-2.12770,-126.85000
26.10000,-2.13440,-127.39000
26.20000,-2.14100,-127.79000
26.30000,-2.14770,-128.19000
26.40000,-2.15440,-128.73000
26.50000,-2.16100,-129.13000
26.60000,-2.16770,-129.67000
26.70000,-2.17440,-130.07000
26.80000,-2.18100,-130.47000
26.90000,-2.18770,-130.88000
27.00000,-2.19440,-131.28000
27.10000,-2.20100,-131.68000
27.20000,-2.20770,-132.09000
27.30000,-2.21440,-132.76000
27.40000,-2.22100,-133.16000
27.50000,-2.22770,-133.56000
27.60000,-2.23440,-133.96000
27.70000,-2.24100,-134.37000
27.80000,-2.24770,-134.77000
27.90000,-2.25440,-135.17000
28.00000,-2.26100,-135.71000
28.10000,-2.26770,-136.25000
28.20000,-2.27430,-136.78000
28.30000,-2.28100,-137.19000
28.40000,-2.28770,-137.59000
28.50000,-2.29430,-137.99000
28.60000,-2.30100,-138.53000
28.70000,-2.30770,-138.93000
28.80000,-2.31430,-139.33000
28.90000,-2.32100,-139.74000
29.00000,-2.32770,-140.14000
29.10000,-2.33430,-140.68000
29.20000,-2.34100,-141.08000
29.30000,-2.34770,-141.62000
29.40000,-2.35430,-142.15000
29.50000,-2.36100,-142.42000
29.60000,-2.36770,-142.96000
29.70000,-2.37430,-143.23000
29.80000,-2.38100,-143.63000
29.90000,-2.38770,-144.17000
30.00000,-2.39430,-144.70000
30.10000,-2.40100,-145.11000
30.20000,-2.40770,-145.51000
30.30000,-2.41430,-146.05000
30.40000,-2.42100,-146.31000
30.50000,-2.42770,-146.72000
30.60000,-2.43430,-147.25000
30.70000,-2.44100,-147.66000
30.80000,-2.44770,-148.06000
30.90000,-2.45430,-148.60000
31.00000,-2.46100,-149.00000
31.10000,-2.46770,-149.40000
31.20000,-2.47430,-149.80000
31.30000,-2.48100,-150.21000
31.40000,-2.48770,-150.61000
31.50000,-2.49430,-151.01000
31.60000,-2.50100,-151.55000
31.70000,-2.50770,-151.82000
31.80000,-2.51430,-152.22000
31.90000,-2.52100,-152.89000
32.00000,-2.52770,-153.29000
32.10000,-2.53430,-153.70000
32.20000,-2.54100,-154.10000
32.30000,-2.54770,-154.50000
32.40000,-2.55430,-154.90000
32.50000,-2.56100,-155.31000
32.60000,-2.56770,-155.84000
32.70000,-2.57430,-156.25000
32.80000,-2.58100,-156.65000
32.90000,-2.58770,-157.19000
33.00000,-2.59430,-157.59001
33.10000,-2.60100,-157.86000
33.20000,-2.60770,-158.38999
33.30000,-2.61430,-158.80000
33.40000,-2.62100,-159.33000
33.50000,-2.62770,-159.74000
33.60000,-2.63430,-160.14000
33.70000,-2.64100,-160.54001
33.80000,-2.64770,-160.93999
33.90000,-2.65430,-161.35000
34.00000,-2.66100,-161.75000
34.10000,-2.66770,-162.15000
34.20000,-2.67430,-162.56001
34.30000,-2.68100,-162.95999
34.40000,-2.68770,-163.36000
34.50000,-2.69430,-163.90000
34.60000,-2.70100,-164.30000
34.70000,-2.70770,-164.70000
34.80000,-2.71430,-165.24000
34.90000,-2.72100,-165.50999
35.00000,-2.72770,-166.04999
35.10000,-2.73430,-166.31000
35.20000,-2.74100,-166.85000
35.30000,-2.74770,-167.25000
35.40000,-2.75430,-167.66001
35.50000,-2.76100,-168.06001
35.60000,-2.76770,-168.60001
35.70000,-2.77430,-168.86000
35.80000,-2.78100,-169.27000
35.90000,-2.78760,-169.67000
36.00000,-2.79430,-170.07001
36.10000,-2.80100,-170.61001
36.20000,-2.80760,-170.88000
36.30000,-2.81430,-171.40999
36.40000,-2.82100,-171.82000
36.50000,-2.82760,-172.22000
36.60000,-2.83430,-172.62001
36.70000,-2.84100,-173.02999
36.80000,-2.84760,-173.56001
36.90000,-2.85430,-173.83000
37.00000,-2.86100,-174.37000
37.10000,-2.86760,-174.64001
37.20000,-2.87430,-175.17000
37.30000,-2.88100,-175.57999
37.40000,-2.88760,-176.11001
37.50000,-2.89430,-176.38000
37.60000,-2.90100,-176.78000
37.70000,-2.90760,-177.32000
37.80000,-2.91430,-177.59001
37.90000,-2.92100,-177.98999
38.00000,-2.92760,-178.52999
38.10000,-2.93430,-178.93000
38.20000,-2.94100,-179.33000
38.30000,-2.94760,-179.74000
38.40000,-2.95430,-180.27000
38.50000,-2.96100,-180.53999
38.60000,-2.96760,-180.93999
38.70000,-2.97430,-181.35000
38.80000,-2.98100,-181.88000
38.90000,-2.98760,-182.29000
39.00000,-2.99430,-182.69001
39.10000,-3.00100,-183.09001
39.20000,-3.00760,-183.48999
39.30000,-3.01430,-183.90000
39.40000,-3.02100,-184.30000
39.50000,-3.02760,-184.70000
39.60000,-3.03430,-185.24000
39.70000,-3.04100,-185.50999
39.80000,-3.04760,-185.91000
39.90000,-3.05430,-186.31000
40.00000,-3.06100,-186.85000
40.10000,-3.06760,-187.12001
40.20000,-3.07430,-187.66001
40.30000,-3.08100,-188.05999
40.40000,-3.08760,-188.46000
40.50000,-3.09430,-188.86000
40.60000,-3.10100,-189.27000
40.70000,-3.10760,-189.67001
40.80000,-3.11430,-190.21001
40.90000,-3.12100,-190.47000
41.00000,-3.12760,-191.00999
41.10000,-3.13430,-191.41000
41.20000,-3.14100,-191.68001
41.30000,-3.14760,-192.08999
41.40000,-3.15430,-192.62001
41.50000,-3.16100,-193.03000
41.60000,-3.16760,-193.43000
41.70000,-3.17430,-193.96000
41.80000,-3.18100,-194.37000
41.90000,-3.18760,-194.63999
42.00000,-3.19430,-195.17001
42.10000,-3.20100,-195.44000
42.20000,-3.20760,-195.98000
42.30000,-3.21430,-196.25001
42.40000,-3.22100,-196.78000
42.50000,-3.22760,-197.19001
42.60000,-3.23430,-197.58999
42.70000,-3.24100,-197.99000
42.80000,-3.24760,-198.39000
42.90000,-3.25430,-198.80001
43.00000,-3.26100,-199.20001
43.10000,-3.26760,-199.59999
43.20000,-3.27430,-200.00000
43.30000,-3.28100,-200.41000
43.40000,-3.28760,-200.81000
43.50000,-3.29430,-201.35000
43.60000,-3.30090,-201.61999
43.70000,-3.30760,-202.14999
43.80000,-3.31430,-202.56000
43.90000,-3.32090,-202.69001
44.00000,-3.32760,-203.23001
44.10000,-3.33430,-203.62999
44.20000,-3.34090,-204.16999
44.30000,-3.34760,-204.43000
44.40000,-3.35430,-204.97000
44.50000,-3.36090,-205.37000
44.60000,-3.36760,-205.78001
44.70000,-3.37430,-206.17999
44.80000,-3.38090,-206.57999
44.90000,-3.38760,-206.98000
45.00000,-3.39430,-207.39000
45.10000,-3.40090,-207.79001
45.20000,-3.40760,-208.19001
45.30000,-3.41430,-208.60000
45.40000,-3.42090,-209.12999
45.50000,-3.42760,-209.54000
45.60000,-3.43430,-209.94000
45.70000,-3.44090,-210.34000
45.80000,-3.44760,-210.74001
45.90000,-3.45430,-211.14999
46.00000,-3.46090,-211.55000
46.10000,-3.46760,-211.95000
46.20000,-3.47430,-212.35000
46.30000,-3.48090,-212.89000
46.40000,-3.48760,-213.29001
46.50000,-3.49430,-213.69999
46.60000,-3.50090,-213.96000
46.70000,-3.50760,-214.50000
46.80000,-3.51430,-214.77001
46.90000,-3.52090,-215.31001
47.00000,-3.52760,-215.58000
47.10000,-3.53430,-216.10999
47.20000,-3.54090,-216.52000
47.30000,-3.54760,-216.92000
47.40000,-3.55430,-217.18999
47.50000,-3.56090,-217.71999
47.60000,-3.56760,-218.13000
47.70000,-3.57430,-218.53000
47.80000,-3.58090,-218.93000
47.90000,-3.58760,-219.19999
48.00000,-3.59430,-219.60000
48.10000,-3.60090,-220.00000
48.20000,-3.60760,-220.41000
48.30000,-3.61430,-220.94000
48.40000,-3.62090,-221.20999
48.50000,-3.62760,-221.74999
48.60000,-3.63430,-222.02000
48.70000,-3.64090,-222.56000
48.80000,-3.64760,-222.82001
48.90000,-3.65430,-223.36001
49.00000,-3.66090,-223.63000
49.10000,-3.66760,-224.03000
49.20000,-3.67430,-224.43000
49.30000,-3.68090,-224.69999
49.40000,-3.68760,-225.23999
49.50000,-3.69430,-225.64000
49.60000,-3.70090,-226.05000
49.70000,-3.70760,-226.45000
49.80000,-3.71430,-226.98000
49.90000,-3.72090,-227.24999
50.00000,-3.72760,-227.52000
50.10000,-3.73430,-228.06000
50.20000,-3.74090,-228.33001
50.30000,-3.74760,-228.86001
50.40000,-3.75430,-229.13000
50.50000,-3.76090,-229.67000
50.60000,-3.76760,-229.94000
50.70000,-3.77430,-230.47000
50.80000,-3.78090,-230.73999
50.90000,-3.78760,-231.15000
51.00000,-3.79430,-231.55000
51.10000,-3.80090,-231.81999
51.20000,-3.80760,-232.21999
51.30000,-3.81430,-232.62000
51.40000,-3.82090,-233.03000
51.50000,-3.82760,-233.43001
51.60000,-3.83420,-233.83001
51.70000,-3.84090,-234.22999
51.80000,-3.84760,-234.64000
51.90000,-3.85420,-235.04000
52.00000,-3.86090,-235.17000
52.10000,-3.86760,-235.71000
52.20000,-3.87420,-236.11000
52.30000,-3.88090,-236.52000
52.40000,-3.88760,-236.92001
52.50000,-3.89420,-237.31999
52.60000,-3.90090,-237.71999
52.70000,-3.90760,-238.13000
52.80000,-3.91420,-238.39001
52.90000,-3.92090,-238.79999
53.00000,-3.92760,-239.33001
53.10000,-3.93420,-239.74000
53.20000,-3.94090,-240.00000
53.30000,-3.94760,-240.41001
53.40000,-3.95420,-240.80999
53.50000,-3.96090,-241.21000
53.60000,-3.96760,-241.62000
53.70000,-3.97420,-242.15000
53.80000,-3.98090,-242.42001
53.90000,-3.98760,-242.81999
54.00000,-3.99420,-243.09000
54.10000,-4.00090,-243.63000
54.20000,-4.00760,-243.90001
54.30000,-4.01420,-244.29999
54.40000,-4.02090,-244.83999
54.50000,-4.02760,-245.24000
54.60000,-4.03420,-245.64000
54.70000,-4.04090,-245.91001
54.80000,-4.04760,-246.30999
54.90000,-4.05420,-246.72000
55.00000,-4.06090,-247.12000
55.10000,-4.06760,-247.52000
55.20000,-4.07420,-247.92001
55.30000,-4.08090,-248.32999
55.40000,-4.08760,-248.60000
55.50000,-4.09420,-249.13000
55.60000,-4.10090,-249.40001
55.70000,-4.10760,-249.79999
55.80000,-4.11420,-250.21000
55.90000,-4.12090,-250.61000
56.00000,-4.12760,-250.87999
56.10000,-4.13420,-251.27999
56.20000,-4.14090,-251.68000
56.30000,-4.14760,-252.09000
56.40000,-4.15420,-252.49001
56.50000,-4.16090,-252.88999
56.60000,-4.16760,-253.16000
56.70000,-4.17420,-253.56000
56.80000,-4.18090,-253.96001
56.90000,-4.18760,-254.36999
57.00000,-4.19420,-254.77000
57.10000,-4.20090,-255.17000
57.20000,-4.20760,-255.58000
57.30000,-4.21420,-255.83999
57.40000,-4.22090,-256.25000
57.50000,-4.22760,-256.65000
57.60000,-4.23420,-256.91999
57.70000,-4.24090,-257.45001
57.80000,-4.24760,-257.72000
57.90000,-4.25420,-258.13000
58.00000,-4.26090,-258.53001
58.10000,-4.26760,-258.93001
58.20000,-4.27420,-259.20000
58.30000,-4.28090,-259.60000
58.40000,-4.28760,-260.00001
58.50000,-4.29420,-260.40999
58.60000,-4.30090,-260.81000
58.70000,-4.30760,-261.08000
58.80000,-4.31420,-261.48001
58.90000,-4.32090,-261.87999
59.00000,-4.32760,-262.29000
59.10000,-4.33420,-262.69000
59.20000,-4.34090,-262.96001
59.30000,-4.34750,-263.35999
59.40000,-4.35420,-263.63000
59.50000,-4.36090,-264.17000
59.60000,-4.36750,-264.43001
59.70000,-4.37420,-264.84000
59.80000,-4.38090,-265.24000
59.90000,-4.38750,-265.64000
60.00000,-4.39420,-265.90999
60.10000,-4.40090,-266.18000
60.20000,-4.40750,-266.58000
60.30000,-4.41420,-266.98001
60.40000,-4.42090,-267.52001
60.50000,-4.42750,-267.79000
60.60000,-4.43420,-268.19000
60.70000,-4.44090,-268.60001
60.80000,-4.44750,-268.85999
60.90000,-4.45420,-269.27000
61.00000,-4.46090,-269.67000
61.10000,-4.46750,-270.07001
61.20000,-4.47420,-270.34000
61.30000,-4.48090,-270.74000
61.40000,-4.48750,-271.01001
61.50000,-4.49420,-271.55001
61.60000,-4.50090,-271.94999
61.70000,-4.50750,-272.22000
61.80000,-4.51420,-272.76000
61.90000,-4.52090,-273.03001
62.00000,-4.52750,-273.29000
62.10000,-4.53420,-273.70000
62.20000,-4.54090,-274.10001
62.30000,-4.54750,-274.50001
62.40000,-4.55420,-274.89999
62.50000,-4.56090,-275.31000
62.60000,-4.56750,-275.71000
62.70000,-4.57420,-276.11000
62.80000,-4.58090,-276.38000
62.90000,-4.58750,-276.78000
63.00000,-4.59420,-277.05001
63.10000,-4.60090,-277.44999
63.20000,-4.60750,-277.86000
63.30000,-4.61420,-278.26000
63.40000,-4.62090,-278.66000
63.50000,-4.62750,-278.92999
63.60000,-4.63420,-279.33000
63.70000,-4.64090,-279.60001
63.80000,-4.64750,-280.14001
63.90000,-4.65420,-280.41000
64.00000,-4.66090,-280.81000
64.10001,-4.66750,-281.08001
64.20000,-4.67420,-281.47999
64.30000,-4.68090,-281.88000
64.40000,-4.68750,-282.29000
64.50000,-4.69420,-282.55999
64.60001,-4.70090,-282.95999
64.70000,-4.70750,-283.36000
64.80000,-4.71420,-283.63001
64.90000,-4.72090,-284.03001
65.00000,-4.72750,-284.30000
65.10001,-4.73420,-284.70000
65.20000,-4.74090,-285.11001
65.30000,-4.74750,-285.50999
65.40000,-4.75420,-285.91000
65.50000,-4.76090,-286.04999
65.60001,-4.76750,-286.44999
65.70001,-4.77420,-286.85000
65.80000,-4.78090,-287.25000
65.90000,-4.78750,-287.51999
66.00000,-4.79420,-287.91999
66.10001,-4.80090,-288.33000
66.20001,-4.80750,-288.60001
66.30000,-4.81420,-288.99999
66.40000,-4.82090,-289.27000
66.50000,-4.82750,-289.80000
66.60001,-4.83420,-290.21000
66.70001,-4.84090,-290.46999
66.80000,-4.84750,-290.74000
66.90000,-4.85420,-291.28000
67.00000,-4.86080,-291.54999
67.10001,-4.86750,-291.82000
67.20001,-4.87420,-292.22000
67.30000,-4.88080,-292.62001
67.40000,-4.88750,-292.89000
67.50000,-4.89420,-293.16001
67.60001,-4.90080,-293.55999
67.70001,-4.90750,-293.83000
67.80000,-4.91420,-294.23000
67.90000,-4.92080,-294.64001
68.00000,-4.92750,-295.03999
68.10001,-4.93420,-295.31000
68.20001,-4.94080,-295.57999
68.30000,-4.94750,-295.98000
68.40000,-4.95420,-296.38000
68.50000,-4.96080,-296.78000
68.60001,-4.96750,-297.19001
68.70001,-4.97420,-297.58999
68.80000,-4.98080,-297.86000
68.90000,-4.98750,-298.12999
69.00000,-4.99420,-298.52999
69.10001,-5.00080,-298.80000
69.20001,-5.00750,-299.20001
69.25000,-5.01080,-299.47000
69.35001,-5.00880,-299.47000
69.45001,-5.00210,-299.20001
69.55000,-4.99540,-298.66001
69.65000,-4.98880,-297.72000
69.75000,-4.98210,-296.65001
69.85001,-4.97540,-295.84000
69.95001,-4.96880,-294.90000
70.05000,-4.96210,-293.95999
70.15000,-4.95540,-293.02999
70.25000,-4.94880,-292.08999
70.35001,-4.94210,-291.28000
70.45001,-4.93540,-290.34000
70.55000,-4.92880,-289.53999
70.65000,-4.92210,-288.60001
70.75000,-4.91540,-287.91999
70.85001,-4.90880,-286.97999
70.95001,-4.90210,-286.18000
71.05000,-4.89540,-285.50999
71.15000,-4.88880,-284.57001
71.25000,-4.88210,-283.76000
71.35001,-4.87540,-283.09001
71.45001,-4.86880,-282.41999
71.55000,-4.86210,-281.62001
71.65000,-4.85540,-280.93999
71.75000,-4.84880,-280.14001
71.85001,-4.84210,-279.46999
71.95001,-4.83540,-278.80000
72.05000,-4.82880,-277.98999
72.15000,-4.82210,-277.32000
72.25000,-4.81540,-276.65000
72.35001,-4.80880,-276.11000
72.45001,-4.80210,-275.43999
72.55000,-4.79540,-274.77000
72.65000,-4.78880,-274.23000
72.75000,-4.78210,-273.56001
72.85001,-4.77540,-272.88999
72.95001,-4.76880,-272.34999
73.05000,-4.76210,-271.68000
73.15000,-4.75540,-271.15000
73.25000,-4.74880,-270.61000
73.35001,-4.74210,-270.07001
73.45001,-4.73540,-269.39999
73.55000,-4.72880,-268.73000
73.65000,-4.72210,-268.19000
73.75000,-4.71540,-267.52001
73.85001,-4.70880,-266.98001
73.95001,-4.70210,-266.44999
74.05000,-4.69540,-265.90999
74.15000,-4.68880,-265.24000
74.25000,-4.68210,-264.70000
74.35001,-4.67540,-264.17000
74.45001,-4.66880,-263.63000
74.55000,-4.66210,-263.09000
74.65000,-4.65540,-262.41999
74.75000,-4.64880,-261.87999
74.85001,-4.64210,-261.34999
74.95001,-4.63540,-260.68000
75.05000,-4.62880,-260.14000
75.15000,-4.62210,-259.60000
75.25000,-4.61540,-259.20000
75.35001,-4.60880,-258.66000
75.45001,-4.60210,-258.13000
75.55000,-4.59550,-257.45001
75.65000,-4.58880,-256.91999
75.75000,-4.58210,-256.37999
75.85001,-4.57550,-255.83999
75.95001,-4.56880,-255.31000
76.05000,-4.56210,-254.77000
76.15000,-4.55550,-254.23000
76.25000,-4.54880,-253.56000
76.35001,-4.54210,-253.03001
76.45001,-4.53550,-252.49001
76.55000,-4.52880,-251.95001
76.65000,-4.52210,-251.41001
76.75000,-4.51550,-251.01000
76.85001,-4.50880,-250.33999
76.95001,-4.50210,-249.79999
77.05000,-4.49550,-249.13000
77.15000,-4.48880,-248.60000
77.25000,-4.48210,-248.06000
77.35001,-4.47550,-247.66000
77.45001,-4.46880,-246.98000
77.55000,-4.46210,-246.45001
77.65000,-4.45550,-246.05000
77.75000,-4.44880,-245.37001
77.85001,-4.44210,-244.83999
77.95001,-4.43550,-244.43001
78.05000,-4.42880,-243.75999
78.15000,-4.42210,-243.23000
78.25000,-4.41550,-242.69000
78.35001,-4.40880,-242.15000
78.45001,-4.40210,-241.62000
78.55000,-4.39550,-241.08000
78.65000,-4.38880,-240.68000
78.75000,-4.38210,-240.00000
78.85001,-4.37550,-239.60000
78.95001,-4.36880,-238.93001
79.05000,-4.36210,-238.39001
79.15000,-4.35550,-237.71999
79.25000,-4.34880,-237.31999
79.35001,-4.34210,-236.77999
79.45001,-4.33550,-236.38001
79.55000,-4.32880,-235.84001
79.65000,-4.32210,-235.30999
79.75000,-4.31550,-234.76999
79.85001,-4.30880,-234.22999
79.95001,-4.30210,-233.70000
80.05000,-4.29550,-233.16000
80.15000,-4.28880,-232.75999
80.25000,-4.28210,-232.09000
80.35001,-4.27550,-231.67999
80.45001,-4.26880,-231.15000
80.55000,-4.26210,-230.61000
80.65000,-4.25550,-230.21000
80.75001,-4.24880,-229.54000
80.85001,-4.24210,-229.00000
80.95001,-4.23550,-228.46000
81.05000,-4.22880,-227.92000
81.15000,-4.22210,-227.39001
81.25001,-4.21550,-226.85001
81.35001,-4.20880,-226.45000
81.45001,-4.20210,-225.77999
81.55000,-4.19550,-225.37000
81.65000,-4.18880,-224.69999
81.75001,-4.18210,-224.17000
81.85001,-4.17550,-223.63000
81.95001,-4.16880,-223.22999
82.05000,-4.16210,-222.68999
82.15000,-4.15550,-222.14999
82.25001,-4.14880,-221.62000
82.35001,-4.14210,-220.94000
82.45001,-4.13550,-220.54000
82.55000,-4.12880,-220.00000
82.65000,-4.12210,-219.60000
82.75001,-4.11550,-219.07000
82.85001,-4.10880,-218.53000
82.95001,-4.10210,-217.86001
83.05000,-4.09550,-217.59000
83.15000,-4.08880,-216.92000
83.25001,-4.08210,-216.38000
83.35001,-4.07550,-215.84000
83.45001,-4.06880,-215.44000
83.55000,-4.06220,-214.90000
83.65000,-4.05550,-214.37000
83.75001,-4.04880,-213.96000
83.85001,-4.04220,-213.29001
83.95001,-4.03550,-212.89000
84.05000,-4.02880,-212.35000
84.15000,-4.02220,-211.95000
84.25001,-4.01550,-211.28001
84.35001,-4.00880,-210.74001
84.45001,-4.00220,-210.20999
84.55000,-3.99550,-209.66999
84.65000,-3.98880,-209.27001
84.75001,-3.98220,-208.86000
84.85001,-3.97550,-208.33001
84.95001,-3.96880,-207.79001
85.05000,-3.96220,-207.25001
85.15000,-3.95550,-206.71999
85.25001,-3.94880,-206.17999
85.35001,-3.94220,-205.63999
85.45001,-3.93550,-205.10999
85.55000,-3.92880,-204.57000
85.65000,-3.92220,-204.16999
85.75001,-3.91550,-203.62999
85.85001,-3.90880,-203.08999
85.95001,-3.90220,-202.56000
86.05000,-3.89550,-202.14999
86.15000,-3.88880,-201.61999
86.25001,-3.88220,-201.07999
86.35001,-3.87550,-200.53999
86.45001,-3.86880,-200.00000
86.55000,-3.86220,-199.47000
86.65000,-3.85550,-199.07000
86.75001,-3.84880,-198.53000
86.85001,-3.84220,-198.12999
86.95001,-3.83550,-197.58999
87.05000,-3.82880,-197.04999
87.15000,-3.82220,-196.52000
87.25001,-3.81550,-195.84000
87.35001,-3.80880,-195.44000
87.45001,-3.80220,-194.90000
87.55000,-3.79550,-194.50000
87.65000,-3.78880,-193.96000
87.75001,-3.78220,-193.43000
87.85001,-3.77550,-192.89000
87.95001,-3.76880,-192.49000
88.05000,-3.76220,-191.95000
88.15000,-3.75550,-191.54999
88.25001,-3.74880,-190.88000
88.35001,-3.74210,-190.47000
88.45001,-3.73540,-189.94000
88.55000,-3.72880,-189.40000
88.65000,-3.72210,-189.00000
88.75001,-3.71540,-188.59999
88.85001,-3.70880,-188.05999
88.95001,-3.70210,-187.51999
89.05000,-3.69540,-186.97999
89.15000,-3.68880,-186.45000
89.25001,-3.68210,-185.91000
89.35001,-3.67540,-185.37000
89.45001,-3.66880,-184.97000
89.55000,-3.66210,-184.43000
89.65000,-3.65540,-184.02999
89.75001,-3.64880,-183.48999
89.85001,-3.64210,-182.96000
89.95001,-3.63540,-182.42000
90.05000,-3.62880,-182.01999
90.15000,-3.62210,-181.47999
90.25001,-3.61540,-180.93999
90.35001,-3.60880,-180.41000
90.45001,-3.60210,-179.87000
90.55000,-3.59540,-179.47000
90.65000,-3.58880,-178.93000
90.75001,-3.58210,-178.52999
90.85001,-3.57540,-177.98999
90.95001,-3.56880,-177.44999
91.05000,-3.56210,-177.04999
91.15000,-3.55540,-176.51999
91.25001,-3.54880,-175.84000
91.35001,-3.54210,-175.43999
91.45001,-3.53540,-175.03999
91.55000,-3.52880,-174.49999
91.65000,-3.52210,-173.95999
91.75001,-3.51540,-173.56001
91.85001,-3.50880,-173.02999
91.95001,-3.50210,-172.48999
92.05000,-3.49550,-172.09001
92.15000,-3.48880,-171.54999
92.25001,-3.48210,-171.00999
92.35001,-3.47550,-170.61001
92.45001,-3.46880,-169.93999
92.55000,-3.46210,-169.53999
92.65000,-3.45550,-168.99999
92.75001,-3.44880,-168.73000
92.85001,-3.44210,-168.06001
92.95001,-3.43550,-167.66001
93.05000,-3.42880,-167.25000
93.15000,-3.42210,-166.72000
93.25001,-3.41550,-166.18000
93.35001,-3.40880,-165.64000
93.45001,-3.40210,-165.11001
93.55000,-3.39550,-164.57001
93.65000,-3.38880,-164.17000
93.75001,-3.38210,-163.63000
93.85001,-3.37550,-163.23000
93.95001,-3.36880,-162.82000
94.05000,-3.36210,-162.29000
94.15000,-3.35550,-161.87999
94.25001,-3.34880,-161.35000
94.35001,-3.34210,-160.68000
94.45001,-3.33550,-160.27000
94.55000,-3.32880,-159.74000
94.65000,-3.32210,-159.20000
94.75001,-3.31550,-158.80000
94.85001,-3.30880,-158.26000
94.95001,-3.30210,-157.86000
95.05000,-3.29550,-157.45001
95.15000,-3.28880,-156.91999
95.25001,-3.28210,-156.37999
95.35001,-3.27550,-155.84000
95.45001,-3.26880,-155.31000
95.55000,-3.26210,-154.90000
95.65000,-3.25550,-154.50000
95.75001,-3.24880,-153.96000
95.85001,-3.24210,-153.43000
95.95001,-3.23550,-153.03000
96.05000,-3.22880,-152.49000
96.15000,-3.22210,-152.09000
96.25001,-3.21550,-151.55000
96.35001,-3.20880,-151.15000
96.45001,-3.20210,-150.61000
96.55000,-3.19550,-150.21000
96.65000,-3.18880,-149.67000
96.75001,-3.18210,-149.13000
96.85001,-3.17550,-148.73000
96.95001,-3.16880,-148.33000
97.05000,-3.16210,-147.79000
97.15000,-3.15550,-147.25000
97.25001,-3.14880,-146.72000
97.35001,-3.14210,-146.31000
97.45001,-3.13550,-145.91000
97.55000,-3.12880,-145.37000
97.65000,-3.12210,-144.84000
97.75001,-3.11550,-144.30000
97.85001,-3.10880,-143.90000
97.95001,-3.10210,-143.36000
98.05000,-3.09550,-142.82000
98.15000,-3.08880,-142.56000
98.25001,-3.08210,-142.02000
98.35001,-3.07550,-141.48000
98.45001,-3.06880,-141.08000
98.55000,-3.06210,-140.41000
98.65000,-3.05550,-140.14000
98.75001,-3.04880,-139.47000
98.85001,-3.04210,-139.07000
98.95001,-3.03550,-138.66000
99.05000,-3.02880,-138.13000
99.15000,-3.02210,-137.59000
99.25001,-3.01550,-137.32000
99.35001,-3.00880,-136.65000
99.45001,-3.00210,-136.11000
99.55000,-2.99550,-135.84000
99.65000,-2.98880,-135.31000
99.75001,-2.98220,-134.77000
99.85001,-2.97550,-134.23000
99.95001,-2.96880,-133.83000
100.05000,-2.96220,-133.29000
100.15000,-2.95550,-132.89000
100.25001,-2.94880,-132.49000
100.35001,-2.94220,-131.95000
100.45001,-2.93550,-131.55000
100.55000,-2.92880,-131.01000
100.65000,-2.92220,-130.47000
100.75001,-2.91550,-130.07000
100.85001,-2.90880,-129.67000
100.95001,-2.90220,-129.27000
101.05000,-2.89550,-128.73000
101.15000,-2.88880,-128.33000
101.25001,-2.88220,-127.79000
101.35001,-2.87550,-127.25000
101.45001,-2.86880,-126.85000
101.55000,-2.86220,-126.31000
101.65000,-2.85550,-125.91000
101.75001,-2.84880,-125.51000
101.85001,-2.84220,-124.97000
101.95001,-2.83550,-124.57000
102.05000,-2.82880,-124.03000
102.15000,-2.82220,-123.49000
102.25001,-2.81550,-123.09000
102.35001,-2.80880,-122.56000
102.45001,-2.80220,-122.15000
102.55000,-2.79550,-121.62000
102.65000,-2.78880,-121.08000
102.75001,-2.78220,-120.68000
102.85001,-2.77550,-120.27000
102.95001,-2.76880,-119.87000
103.05000,-2.76220,-119.20000
103.15000,-2.75550,-118.93000
103.25001,-2.74880,-118.39000
103.35001,-2.74220,-117.72000
103.45001,-2.73550,-117.32000
103.55000,-2.72880,-116.92000
103.65000,-2.72220,-116.52000
103.75001,-2.71550,-116.11000
103.85001,-2.70880,-115.71000
103.95001,-2.70220,-115.04000
104.05000,-2.69550,-114.64000
104.15000,-2.68880,-114.23000
104.25001,-2.68220,-113.70000
104.35001,-2.67550,-113.16000
104.45001,-2.66880,-112.76000
104.55000,-2.66220,-112.35000
104.65000,-2.65550,-111.95000
104.75001,-2.64880,-111.41000
104.85001,-2.64220,-111.01000
104.95001,-2.63550,-110.61000
105.05000,-2.62880,-110.07000
105.15000,-2.62220,-109.67000
105.25001,-2.61550,-109.13000
105.35001,-2.60880,-108.60000
105.45001,-2.60220,-108.19000
105.55000,-2.59550,-107.79000
105.65000,-2.58880,-107.25000
105.75001,-2.58220,-106.85000
105.85001,-2.57550,-106.58000
105.95001,-2.56880,-105.91000
106.05000,-2.56220,-105.51000
106.15000,-2.55550,-105.11000
106.25001,-2.54880,-104.57000
106.35001,-2.54220,-104.03000
106.45001,-2.53550,-103.63000
106.55000,-2.52880,-103.23000
106.65000,-2.52220,-102.69000
106.75001,-2.51550,-102.15000
106.85001,-2.50880,-101.75000
106.95001,-2.50220,-101.21000
107.05000,-2.49550,-100.81000
107.15000,-2.48880,-100.41000
107.25001,-2.48220,-100.00000
107.35001,-2.47550,-99.47000
107.45001,-2.46890,-99.07000
107.55000,-2.46220,-98.53000
107.65000,-2.45550,-98.13000
107.75001,-2.44890,-97.59000
107.85001,-2.44220,-97.19000
107.95001,-2.43550,-96.78000
108.05000,-2.42890,-96.25000
108.15000,-2.42220,-95.84000
108.25001,-2.41550,-95.44000
108.35001,-2.40890,-95.04000
108.45001,-2.40220,-94.50000
108.55000,-2.39550,-94.10000
108.65000,-2.38890,-93.56000
108.75001,-2.38220,-93.16000
108.85001,-2.37550,-92.62000
108.95001,-2.36890,-92.22000
109.05000,-2.36220,-91.82000
109.15000,-2.35550,-91.41000
109.25001,-2.34890,-90.88000
109.35001,-2.34220,-90.34000
109.45001,-2.33550,-89.94000
109.55000,-2.32890,-89.54000
109.65000,-2.32220,-89.00000
109.75001,-2.31550,-88.60000
109.85001,-2.30890,-88.19000
109.95001,-2.30220,-87.79000
110.05000,-2.29550,-87.25000
110.15000,-2.28890,-86.72000
110.25001,-2.28220,-86.31000
110.35001,-2.27550,-85.91000
110.45001,-2.26890,-85.51000
110.55000,-2.26220,-84.97000
110.65000,-2.25550,-84.57000
110.75001,-2.24890,-84.03000
110.85001,-2.24220,-83.49000
110.95001,-2.23550,-83.23000
111.05000,-2.22890,-82.69000
111.15000,-2.22220,-82.29000
111.25001,-2.21550,-81.88000
111.35001,-2.20890,-81.35000
111.45001,-2.20220,-80.94000
111.55000,-2.19550,-80.41000
111.65000,-2.18890,-80.14000
111.75001,-2.18220,-79.60000
111.85001,-2.17550,-79.20000
111.95001,-2.16890,-78.80000
112.05000,-2.16220,-78.26000
112.15000,-2.15550,-77.86000
112.25001,-2.14890,-77.45000
112.35001,-2.14220,-76.92000
112.45001,-2.13550,-76.52000
112.55000,-2.12890,-76.11000
112.65001,-2.12220,-75.58000
112.75001,-2.11550,-75.31000
112.85001,-2.10890,-74.77000
112.95001,-2.10220,-74.37000
113.05000,-2.09550,-73.96000
113.15001,-2.08890,-73.56000
113.25001,-2.08220,-73.16000
113.35001,-2.07550,-72.62000
113.45001,-2.06890,-72.09000
113.55000,-2.06220,-71.68000
113.65001,-2.05550,-71.28000
113.75001,-2.04890,-70.88000
113.85001,-2.04220,-70.47000
113.95001,-2.03550,-70.07000
114.05000,-2.02890,-69.54000
114.15001,-2.02220,-69.13000
114.25001,-2.01550,-68.73000
114.35001,-2.00890,-68.19000
114.45001,-2.00220,-67.79000
114.55000,-1.99550,-67.39000
114.65001,-1.98890,-66.98000
114.75001,-1.98220,-66.45000
114.85001,-1.97550,-66.05000
114.95001,-1.96890,-65.64000
115.05000,-1.96220,-65.24000
115.15001,-1.95550,-64.84000
115.25001,-1.94890,-64.43000
115.35001,-1.94220,-63.90000
115.45001,-1.93560,-63.49000
115.55000,-1.92890,-62.96000
115.65001,-1.92220,-62.56000
115.75001,-1.91560,-62.15000
115.85001,-1.90890,-61.75000
115.95001,-1.90220,-61.35000
116.05000,-1.89560,-60.94000
116.15001,-1.88890,-60.41000
116.25001,-1.88220,-60.00000
116.35001,-1.87560,-59.60000
116.45001,-1.86890,-59.20000
116.55000,-1.86220,-58.80000
116.65001,-1.85560,-58.26000
116.75001,-1.84890,-57.86000
116.85001,-1.84220,-57.45000
116.95001,-1.83560,-57.05000
117.05000,-1.82890,-56.65000
117.15001,-1.82220,-56.25000
117.25001,-1.81560,-55.84000
117.35001,-1.80890,-55.44000
117.45001,-1.80220,-54.90000
117.55000,-1.79560,-54.50000
117.65001,-1.78890,-54.10000
117.75001,-1.78220,-53.70000
117.85001,-1.77560,-53.16000
117.95001,-1.76890,-52.89000
118.05000,-1.76220,-52.49000
118.15001,-1.75560,-51.95000
118.25001,-1.74890,-51.55000
118.35001,-1.74220,-51.15000
118.45001,-1.73560,-50.74000
118.55000,-1.72890,-50.21000
118.65001,-1.72220,-49.80000
118.75001,-1.71560,-49.40000
118.85001,-1.70890,-48.86000
118.95001,-1.70220,-48.60000
119.05000,-1.69560,-48.19000
119.15001,-1.68890,-47.79000
119.25001,-1.68220,-47.25000
119.35001,-1.67560,-46.85000
119.45001,-1.66890,-46.31000
119.55000,-1.66220,-45.91000
119.65001,-1.65560,-45.51000
119.75001,-1.64890,-45.11000
119.85001,-1.64220,-44.70000
119.95001,-1.63560,-44.43000
120.05000,-1.62890,-44.03000
120.15001,-1.62220,-43.49000
120.25001,-1.61560,-43.09000
120.35001,-1.60890,-42.69000
120.45001,-1.60220,-42.29000
120.55000,-1.59560,-41.75000
120.65001,-1.58890,-41.48000
120.75001,-1.58220,-40.94000
120.85001,-1.57560,-40.54000
120.95001,-1.56890,-40.14000
121.05000,-1.56220,-39.74000
121.15001,-1.55560,-39.47000
121.25001,-1.54890,-39.07000
121.35001,-1.54220,-38.66000
121.45001,-1.53560,-38.13000
121.55000,-1.52890,-37.72000
121.65001,-1.52220,-37.32000
121.75001,-1.51560,-36.92000
121.85001,-1.50890,-36.52000
121.95001,-1.50220,-36.25000
122.05000,-1.49560,-35.71000
122.15001,-1.48890,-35.31000
122.25001,-1.48220,-34.90000
122.35001,-1.47560,-34.50000
122.45001,-1.46890,-34.10000
122.55000,-1.46220,-33.70000
122.65001,-1.45560,-33.29000
122.75001,-1.44890,-32.76000
122.85001,-1.44220,-32.35000
122.95001,-1.43560,-31.95000
123.05000,-1.42890,-31.55000
123.15001,-1.42230,-31.15000
123.25001,-1.41560,-30.74000
123.35001,-1.40890,-30.34000
123.45001,-1.40230,-29.94000
123.55000,-1.39560,-29.54000
123.65001,-1.38890,-29.00000
123.75001,-1.38230,-28.73000
123.85001,-1.37560,-28.33000
123.95001,-1.36890,-27.92000
124.05000,-1.36230,-27.52000
124.15001,-1.35560,-26.98000
124.25001,-1.34890,-26.72000
124.35001,-1.34230,-26.18000
124.45001,-1.33560,-25.91000
124.55000,-1.32890,-25.51000
124.65001,-1.32230,-25.11000
124.75001,-1.31560,-24.70000
124.85001,-1.30890,-24.17000
124.95001,-1.30230,-23.90000
125.05000,-1.29560,-23.36000
125.15001,-1.28890,-23.09000
125.25001,-1.28230,-22.69000
125.35001,-1.27560,-22.29000
125.45001,-1.26890,-21.88000
125.55000,-1.26230,-21.48000
125.65001,-1.25560,-21.08000
125.75001,-1.24890,-20.68000
125.85001,-1.24230,-20.27000
125.95001,-1.23560,-19.87000
126.05000,-1.22890,-19.47000
126.15001,-1.22230,-19.07000
126.25001,-1.21560,-18.80000
126.35001,-1.20890,-18.26000
126.45001,-1.20230,-17.99000
126.55000,-1.19560,-17.59000
126.65001,-1.18890,-17.19000
126.75001,-1.18230,-16.78000
126.85001,-1.17560,-16.38000
126.95001,-1.16890,-15.84000
127.05000,-1.16230,-15.58000
127.15001,-1.15560,-15.17000
127.25001,-1.14890,-14.90000
127.35001,-1.14230,-14.50000
127.45001,-1.13560,-13.96000
127.55000,-1.12890,-13.56000
127.65001,-1.12230,-13.29000
127.75001,-1.11560,-12.89000
127.85001,-1.10890,-12.49000
127.95001,-1.10230,-12.22000
128.05000,-1.09560,-11.68000
128.15001,-1.08890,-11.41000
128.25000,-1.08230,-11.01000
128.35001,-1.07560,-10.61000
128.45002,-1.06890,-10.21000
128.55000,-1.06230,-9.67000
128.65001,-1.05560,-9.54000
128.75000,-1.04890,-9.13000
128.85001,-1.04230,-8.73000
128.95002,-1.03560,-8.33000
129.05000,-1.02890,-8.06000
129.15001,-1.02230,-7.52000
129.25000,-1.01560,-7.39000
129.35001,-1.00890,-6.98000
129.45002,-1.00230,-6.58000
129.55000,-0.99560,-6.05000
129.65001,-0.98890,-5.78000
129.75000,-0.98230,-5.37000
129.85001,-0.97560,-5.11000
129.95002,-0.96890,-4.70000
130.05000,-0.96230,-4.43000
130.15001,-0.95560,-4.03000
130.25000,-0.94890,-3.63000
130.35001,-0.94230,-3.23000
130.45002,-0.93560,-2.96000
130.55000,-0.92890,-2.56000
130.65001,-0.92230,-2.15000
130.75000,-0.91560,-2.02000
130.85001,-0.90900,-1.62000
130.95002,-0.90230,-1.21000
131.05000,-0.89560,-0.94000
131.15002,-0.88900,-0.54000
131.25000,-0.88230,0.00000
131.35000,-0.87560,0.13000
131.45002,-0.86900,0.13000
131.55000,-0.86230,0.26000
131.65002,-0.85560,0.26000
131.75000,-0.84900,0.26000
131.85000,-0.84230,0.26000
131.95002,-0.83560,0.13000
132.05000,-0.82900,0.13000
132.15002,-0.82230,0.13000
132.25000,-0.81560,0.26000
132.35000,-0.80900,0.26000
132.45002,-0.80230,0.26000
132.55000,-0.79560,0.40000
132.65002,-0.78900,0.13000
132.75000,-0.78230,0.26000
132.85000,-0.77560,0.13000
132.95002,-0.76900,0.40000
133.05000,-0.76230,0.26000
133.15002,-0.75560,0.26000
133.25000,-0.74900,0.13000
133.35000,-0.74230,0.13000
133.45002,-0.73560,0.00000
133.55000,-0.72900,0.26000
133.65002,-0.72230,0.26000
133.75000,-0.71560,0.26000
133.85000,-0.70900,0.13000
133.95002,-0.70230,0.26000
134.05000,-0.69560,0.26000
134.15002,-0.68900,0.26000
134.25000,-0.68230,0.13000
134.35000,-0.67560,0.13000
134.45002,-0.66900,0.13000
134.55000,-0.66230,0.26000
134.65002,-0.65560,0.13000
134.75000,-0.64900,0.26000
134.85000,-0.64230,0.26000
134.95002,-0.63560,0.26000
135.05000,-0.62900,0.26000
135.15002,-0.62230,0.26000
135.25000,-0.61560,0.13000
135.35000,-0.60900,0.13000
135.45002,-0.60230,0.13000
135.55000,-0.59560,0.13000
135.65002,-0.58900,0.26000
135.75000,-0.58230,0.26000
135.85000,-0.57560,0.26000
135.95002,-0.56900,0.26000
136.05000,-0.56230,0.26000
136.15002,-0.55560,0.13000
136.25000,-0.54900,0.13000
136.35000,-0.54230,0.26000
136.45002,-0.53560,0.13000
136.55000,-0.52900,0.13000
136.65002,-0.52230,0.26000
136.75000,-0.51560,0.26000
136.85000,-0.50900,0.26000
136.95002,-0.50230,0.26000
137.05000,-0.49560,0.26000
137.15002,-0.48900,0.26000
137.25000,-0.48230,0.26000
137.35000,-0.47560,0.13000
137.45002,-0.46900,0.26000
137.55000,-0.46230,0.26000
137.65002,-0.45560,0.13000
137.75000,-0.44900,0.26000
137.85000,-0.44230,0.26000
137.95002,-0.43560,0.26000
138.05000,-0.42900,0.26000
138.15002,-0.42230,0.13000
138.25000,-0.41560,0.13000
138.35000,-0.40900,0.26000
138.45002,-0.40230,0.26000
138.55000,-0.39560,0.26000
138.65002,-0.38900,0.26000
138.75000,-0.38230,0.26000
138.85000,-0.37570,0.13000
138.95002,-0.36900,0.26000
139.05000,-0.36230,0.26000
139.15002,-0.35570,0.26000
139.25000,-0.34900,0.26000
139.35000,-0.34230,0.26000
139.45002,-0.33570,0.26000
139.55000,-0.32900,0.26000
139.65002,-0.32230,0.26000
139.75000,-0.31570,0.26000
139.85000,-0.30900,0.26000
139.95002,-0.30230,0.26000
140.05000,-0.29570,0.13000
140.15002,-0.28900,0.13000
140.25000,-0.28230,0.26000
140.35000,-0.27570,0.26000
140.45002,-0.26900,0.26000
140.55000,-0.26230,0.26000
140.65002,-0.25570,0.26000
140.75000,-0.24900,0.13000
140.85000,-0.24230,0.40000
140.95002,-0.23570,0.26000
141.05000,-0.22900,0.26000
141.15002,-0.22230,0.13000
141.25000,-0.21570,0.40000
141.35000,-0.20900,0.26000
141.45002,-0.20230,0.13000
141.55000,-0.19570,0.13000
141.65002,-0.18900,0.26000
141.75000,-0.18230,0.26000
141.85000,-0.17570,0.26000
141.95002,-0.16900,0.26000
142.05000,-0.16230,0.13000
142.15002,-0.15570,0.13000
142.25000,-0.14900,0.26000
142.35000,-0.14230,0.13000
142.45002,-0.13570,0.13000
142.55000,-0.12900,0.26000
142.65002,-0.12230,0.26000
142.75000,-0.11570,0.26000
142.85000,-0.10900,0.26000
142.95002,-0.10230,0.26000
143.05000,-0.09570,0.13000
143.15002,-0.08900,0.13000
143.25000,-0.08230,0.26000
143.35000,-0.07570,0.13000
143.45002,-0.06900,0.13000
143.55000,-0.06230,0.13000
143.65002,-0.05570,0.26000
143.75000,-0.04900,0.40000
143.85000,-0.04230,0.26000
143.95002,-0.03570,0.40000
144.05000,-0.02900,0.26000
144.15002,-0.02230,0.13000
144.25000,-0.01570,0.13000
144.35000,-0.00900,0.13000
144.45002,-0.00230,0.26000
144.50000,0.00100,0.26000
144.60000,0.00770,0.13000
144.65002,0.01100,0.26000
144.75000,0.00970,0.26000
144.85000,0.00300,0.40000
144.95002,-0.00370,0.26000
145.05000,-0.01030,0.26000
145.15002,-0.01700,0.13000
145.25000,-0.02370,0.26000
145.35000,-0.03030,0.26000
145.45002,-0.03700,0.13000
145.55000,-0.04370,0.26000
145.65002,-0.05030,0.26000
145.75000,-0.05700,0.26000
145.85000,-0.06370,0.26000
145.95002,-0.07030,0.26000
146.05000,-0.07700,0.26000
146.15002,-0.08370,0.13000
146.25000,-0.09030,0.13000
146.35000,-0.09700,0.13000
146.45002,-0.10370,0.26000
146.55000,-0.11030,0.26000
146.65002,-0.11700,0.26000
146.75000,-0.12370,0.26000
146.85000,-0.13030,0.26000
146.95002,-0.13700,0.13000
147.05000,-0.14370,0.26000
147.15002,-0.15030,0.26000
147.25000,-0.15700,0.26000
147.35000,-0.16370,0.26000
147.45002,-0.17030,0.13000
147.55000,-0.17700,0.26000
147.65002,-0.18360,0.26000
147.75000,-0.19030,0.26000
147.85000,-0.19700,0.26000
147.95002,-0.20360,0.13000
148.05000,-0.21030,0.40000
148.15002,-0.21700,0.13000
148.25000,-0.22360,0.13000
148.35000,-0.23030,0.26000
148.45002,-0.23700,0.26000
148.55000,-0.24360,0.40000
148.65002,-0.25030,0.40000
148.75000,-0.25700,0.26000
148.85000,-0.26360,0.26000
148.95002,-0.27030,0.26000
149.05000,-0.27700,0.26000
149.15002,-0.28360,0.26000
149.25000,-0.29030,0.26000
149.35000,-0.29700,0.26000
149.45002,-0.30360,0.26000
149.55000,-0.31030,0.13000
149.65002,-0.31700,0.26000
149.75000,-0.32360,0.26000
149.85000,-0.33030,0.26000
149.95002,-0.33700,0.26000
150.05000,-0.34360,0.26000
150.15002,-0.35030,0.26000
150.25000,-0.35700,0.26000
150.35000,-0.36360,0.26000
150.45002,-0.37030,0.26000
150.55000,-0.37700,0.13000
150.65002,-0.38360,0.26000
150.75000,-0.39030,0.26000
150.85000,-0.39700,0.13000
150.95002,-0.40360,0.26000
151.05000,-0.41030,0.26000
151.15002,-0.41700,0.40000
151.25000,-0.42360,0.26000
151.35000,-0.43030,0.13000
151.45002,-0.43700,0.13000
151.55000,-0.44360,0.26000
151.65002,-0.45030,0.26000
151.75000,-0.45700,0.26000
151.85000,-0.46360,0.26000
151.95002,-0.47030,0.40000
152.05000,-0.47700,0.26000
152.15002,-0.48360,0.26000
152.25000,-0.49030,0.26000
152.35000,-0.49700,0.26000
152.45002,-0.50360,0.26000
152.55000,-0.51030,0.26000
152.65002,-0.51700,0.26000
152.75000,-0.52360,0.26000
152.85000,-0.53030,0.26000
152.95002,-0.53700,0.26000
153.05000,-0.54360,0.26000
153.15002,-0.55030,0.26000
153.25000,-0.55700,0.26000
153.35000,-0.56360,0.26000
153.45002,-0.57030,0.26000
153.55000,-0.57700,0.13000
153.65002,-0.58360,0.26000
153.75000,-0.59030,0.26000
153.85000,-0.59700,0.26000
153.95002,-0.60360,0.26000
154.05000,-0.61030,0.26000
154.15002,-0.61700,0.26000
154.25000,-0.62360,0.13000
154.35000,-0.63030,0.13000
154.45002,-0.63700,0.13000
154.55000,-0.64360,0.26000
154.65002,-0.65030,0.26000
154.75000,-0.65700,0.40000
154.85000,-0.66360,0.26000
154.95002,-0.67030,0.26000
155.05000,-0.67700,0.13000
155.15002,-0.68360,0.13000
155.25000,-0.69030,0.13000
155.35000,-0.69690,0.13000
155.45002,-0.70360,0.13000
155.55000,-0.71030,0.26000
155.65002,-0.71690,0.26000
155.75000,-0.72360,0.26000
155.85000,-0.73030,0.26000
155.95002,-0.73690,0.26000
156.05000,-0.74360,0.26000
156.15002,-0.75030,0.26000
156.25000,-0.75690,0.00000
156.35000,-0.76360,0.13000
156.45002,-0.77030,0.26000
156.55000,-0.77690,-0.27000
156.65002,-0.78360,-0.81000
156.75000,-0.79030,-1.21000
156.85000,-0.79690,-1.88000
156.95002,-0.80360,-2.42000
157.05000,-0.81030,-2.96000
157.15002,-0.81690,-3.49000
157.25000,-0.82360,-3.90000
157.35000,-0.83030,-4.30000
157.45002,-0.83690,-4.84000
157.55000,-0.84360,-5.37000
157.65002,-0.85030,-6.05000
157.75000,-0.85690,-6.45000
157.85000,-0.86360,-6.98000
157.95002,-0.87030,-7.52000
158.05000,-0.87690,-8.06000
158.15002,-0.88360,-8.60000
158.25000,-0.89030,-9.13000
158.35000,-0.89690,-9.67000
158.45002,-0.90360,-10.21000
158.55000,-0.91030,-10.74000
158.65002,-0.91690,-11.28000
158.75000,-0.92360,-11.68000
158.85000,-0.93030,-12.22000
158.95002,-0.93690,-12.76000
159.05000,-0.94360,-13.29000
159.15002,-0.95030,-13.83000
159.25000,-0.95690,-14.37000
159.35000,-0.96360,-14.77000
159.45002,-0.97030,-15.31000
159.55000,-0.97690,-15.84000
159.65002,-0.98360,-16.38000
159.75000,-0.99030,-16.92000
159.85000,-0.99690,-17.45000
159.95002,-1.00360,-17.86000
160.05000,-1.01030,-18.39000
160.15002,-1.01690,-18.93000
160.25000,-1.02360,-19.33000
160.35000,-1.03030,-19.87000
160.45002,-1.03690,-20.41000
160.55000,-1.04360,-20.94000
160.65002,-1.05030,-21.35000
160.75002,-1.05690,-21.88000
160.85000,-1.06360,-22.42000
160.95002,-1.07030,-22.96000
161.05000,-1.07690,-23.49000
161.15002,-1.08360,-24.03000
161.25002,-1.09030,-24.43000
161.35000,-1.09690,-24.97000
161.45002,-1.10360,-25.51000
161.55000,-1.11030,-26.05000
161.65002,-1.11690,-26.58000
161.75002,-1.12360,-26.98000
161.85000,-1.13030,-27.52000
161.95002,-1.13690,-27.92000
162.05000,-1.14360,-28.60000
162.15002,-1.15030,-29.00000
162.25002,-1.15690,-29.54000
162.35000,-1.16360,-30.07000
162.45002,-1.17030,-30.61000
162.55000,-1.17690,-31.15000
162.65002,-1.18360,-31.55000
162.75002,-1.19030,-32.09000
162.85000,-1.19690,-32.49000
162.95002,-1.20360,-33.03000
163.05000,-1.21030,-33.56000
163.15002,-1.21690,-34.23000
163.25002,-1.22360,-34.64000
163.35000,-1.23020,-35.17000
163.45002,-1.23690,-35.58000
163.55000,-1.24360,-36.11000
163.65002,-1.25020,-36.65000
163.75002,-1.25690,-37.19000
163.85000,-1.26360,-37.59000
163.95002,-1.27020,-38.13000
164.05000,-1.27690,-38.66000
164.15002,-1.28360,-39.07000
164.25002,-1.29020,-39.60000
164.35000,-1.29690,-40.14000
164.45002,-1.30360,-40.68000
164.55000,-1.31020,-41.08000
164.65002,-1.31690,-41.62000
164.75002,-1.32360,-42.02000
164.85000,-1.33020,-42.56000
164.95002,-1.33690,-43.09000
165.05000,-1.34360,-43.63000
165.15002,-1.35020,-44.17000
165.25002,-1.35690,-44.57000
165.35000,-1.36360,-45.11000
165.45002,-1.37020,-45.51000
165.55000,-1.37690,-46.05000
165.65002,-1.38360,-46.45000
165.75002,-1.39020,-47.12000
165.85000,-1.39690,-47.66000
165.95002,-1.40360,-48.06000
166.05000,-1.41020,-48.60000
166.15002,-1.41690,-49.13000
166.25002,-1.42360,-49.67000
166.35000,-1.43020,-50.07000
166.45002,-1.43690,-50.61000
166.55000,-1.44360,-51.15000
166.65002,-1.45020,-51.55000
166.75002,-1.45690,-52.09000
166.85000,-1.46360,-52.62000
166.95002,-1.47020,-53.16000
167.05000,-1.47690,-53.70000
167.15002,-1.48360,-54.23000
167.25002,-1.49020,-54.64000
167.35000,-1.49690,-55.17000
167.45002,-1.50360,-55.58000
167.55000,-1.51020,-56.11000
167.65002,-1.51690,-56.65000
167.75002,-1.52360,-57.05000
167.85000,-1.53020,-57.59000
167.95002,-1.53690,-57.99000
168.05000,-1.54360,-58.39000
168.15002,-1.55020,-59.07000
168.25002,-1.55690,-59.47000
168.35000,-1.56360,-60.00000
168.45002,-1.57020,-60.54000
168.55000,-1.57690,-60.94000
168.65002,-1.58360,-61.48000
168.75002,-1.59020,-62.02000
168.85000,-1.59690,-62.42000
168.95002,-1.60360,-62.96000
169.05000,-1.61020,-63.49000
169.15002,-1.61690,-63.90000
169.25002,-1.62360,-64.43000
169.35000,-1.63020,-64.97000
169.45002,-1.63690,-65.37000
169.55000,-1.64360,-65.91000
169.65002,-1.65020,-66.45000
169.75002,-1.65690,-66.98000
169.85000,-1.66360,-67.39000
169.95002,-1.67020,-67.92000
170.05000,-1.67690,-68.33000
170.15002,-1.68360,-68.73000
170.25002,-1.69020,-69.27000
170.35000,-1.69690,-69.94000
170.45002,-1.70360,-70.47000
170.55000,-1.71020,-70.88000
170.65002,-1.71690,-71.41000
170.75002,-1.72360,-71.82000
170.85000,-1.73020,-72.22000
170.95002,-1.73690,-72.89000
171.05000,-1.74350,-73.29000
171.15002,-1.75020,-73.83000
171.25002,-1.75690,-74.37000
171.35000,-1.76350,-74.90000
171.45002,-1.77030,-75.31000
171.55000,-1.77700,-75.84000
171.65002,-1.78360,-76.25000
171.75002,-1.79030,-76.78000
171.85000,-1.79690,-77.19000
171.95002,-1.80360,-77.72000
172.05000,-1.81030,-78.26000
172.15002,-1.81690,-78.80000
172.25002,-1.82360,-79.20000
172.35000,-1.83030,-79.74000
172.45002,-1.83690,-80.27000
172.55000,-1.84360,-80.68000
172.65002,-1.85030,-81.21000
172.75002,-1.85690,-81.62000
172.85000,-1.86360,-82.15000
172.95002,-1.87030,-82.56000
173.05000,-1.87690,-83.09000
173.15002,-1.88360,-83.63000
173.25002,-1.89030,-84.03000
173.35000,-1.89690,-84.57000
173.45002,-1.90360,-84.97000
173.55000,-1.91030,-85.51000
173.65002,-1.91690,-85.91000
173.75002,-1.92360,-86.45000
173.85000,-1.93030,-86.85000
173.95002,-1.93690,-87.39000
174.05000,-1.94360,-87.92000
174.15002,-1.95030,-88.33000
174.25002,-1.95690,-88.86000
174.35000,-1.96360,-89.40000
174.45002,-1.97030,-89.80000
174.55000,-1.97690,-90.47000
174.65002,-1.98360,-90.74000
174.75002,-1.99030,-91.28000
174.85000,-1.99690,-91.82000
174.95002,-2.00360,-92.22000
175.05000,-2.01030,-92.76000
175.15002,-2.01690,-93.29000
175.25002,-2.02360,-93.70000
175.35000,-2.03030,-94.23000
175.45002,-2.03690,-94.64000
175.55000,-2.04360,-95.17000
175.65002,-2.05030,-95.58000
175.75002,-2.05690,-96.11000
175.85000,-2.06360,-96.65000
175.95002,-2.07030,-97.05000
176.05000,-2.07690,-97.59000
176.15002,-2.08360,-97.99000
176.25002,-2.09030,-98.39000
176.35000,-2.09690,-98.93000
176.45002,-2.10360,-99.33000
176.55000,-2.11030,-100.00000
176.65002,-2.11690,-100.54000
176.75002,-2.12360,-100.94000
176.85000,-2.13030,-101.35000
176.95002,-2.13690,-101.75000
177.05000,-2.14360,-102.29000
177.15002,-2.15030,-102.69000
177.25002,-2.15690,-103.23000
177.35000,-2.16360,-103.63000
177.45002,-2.17030,-104.17000
177.55000,-2.17690,-104.70000
177.65002,-2.18360,-105.24000
177.75002,-2.19030,-105.64000
177.85000,-2.19690,-106.18000
177.95002,-2.20360,-106.58000
178.05000,-2.21030,-106.98000
178.15002,-2.21690,-107.52000
178.25002,-2.22360,-107.92000
178.35000,-2.23030,-108.33000
178.45002,-2.23690,-108.86000
178.55000,-2.24360,-109.40000
178.65002,-2.25030,-109.94000
178.75002,-2.25690,-110.34000
178.85000,-2.26360,-110.74000
178.95002,-2.27030,-111.28000
179.05000,-2.27690,-111.68000
179.15002,-2.28360,-112.22000
179.25002,-2.29030,-112.76000
179.35000,-2.29690,-113.16000
179.45002,-2.30360,-113.70000
179.55000,-2.31020,-114.10000
179.65002,-2.31690,-114.64000
179.75002,-2.32360,-115.17000
179.85000,-2.33020,-115.58000
179.95002,-2.33690,-115.98000
180.05000,-2.34360,-116.52000
180.15002,-2.35020,-117.05000
180.25002,-2.35690,-117.45000
180.35000,-2.36360,-117.86000
180.45002,-2.37020,-118.39000
180.55000,-2.37690,-118.93000
180.65002,-2.38360,-119.33000
180.75002,-2.39020,-119.74000
180.85000,-2.39690,-120.14000
180.95002,-2.40360,-120.54000
181.05000,-2.41020,-121.08000
181.15002,-2.41690,-121.62000
181.25002,-2.42360,-122.02000
181.35000,-2.43020,-122.56000
181.45002,-2.43690,-123.09000
181.55000,-2.44360,-123.36000
181.65002,-2.45020,-123.90000
181.75002,-2.45690,-124.30000
181.85000,-2.46360,-124.84000
181.95002,-2.47020,-125.24000
182.05000,-2.47690,-125.78000
182.15002,-2.48360,-126.18000
182.25002,-2.49020,-126.58000
182.35000,-2.49690,-127.12000
182.45002,-2.50360,-127.66000
182.55000,-2.51020,-128.06000
182.65002,-2.51690,-128.46000
182.75002,-2.52360,-129.00000
182.85000,-2.53020,-129.54000
182.95002,-2.53690,-129.80000
183.05000,-2.54360,-130.47000
183.15002,-2.55020,-130.88000
183.25002,-2.55690,-131.41000
183.35000,-2.56360,-131.82000
183.45002,-2.57020,-132.35000
183.55000,-2.57690,-132.76000
183.65002,-2.58360,-133.16000
183.75002,-2.59020,-133.56000
183.85000,-2.59690,-134.10000
183.95002,-2.60360,-134.50000
184.05000,-2.61020,-135.04000
184.15002,-2.61690,-135.44000
184.25002,-2.62360,-135.84000
184.35000,-2.63020,-136.25000
184.45002,-2.63690,-136.78000
184.55000,-2.64360,-137.32000
184.65002,-2.65020,-137.86000
184.75002,-2.65690,-138.26000
184.85000,-2.66360,-138.66000
184.95002,-2.67020,-139.07000
185.05000,-2.67690,-139.60000
185.15002,-2.68360,-140.00000
185.25002,-2.69020,-140.41000
185.35000,-2.69690,-140.94000
185.45002,-2.70360,-141.48000
185.55000,-2.71020,-141.88000
185.65002,-2.71690,-142.42000
185.75002,-2.72360,-142.82000
185.85000,-2.73020,-143.23000
185.95002,-2.73690,-143.76000
186.05000,-2.74360,-144.17000
186.15002,-2.75020,-144.57000
186.25002,-2.75690,-144.97000
186.35000,-2.76360,-145.51000
186.45002,-2.77020,-145.91000
186.55000,-2.77690,-146.45000
186.65002,-2.78360,-146.98000
186.75002,-2.79020,-147.25000
186.85000,-2.79690,-147.79000
186.95002,-2.80360,-148.19000
187.05000,-2.81020,-148.73000
187.15002,-2.81690,-149.00000
187.25002,-2.82350,-149.54000
187.35000,-2.83020,-150.07000
187.45002,-2.83690,-150.61000
187.55000,-2.84350,-151.01000
187.65002,-2.85020,-151.41000
187.75002,-2.85690,-151.95000
187.85000,-2.86350,-152.35000
187.95002,-2.87020,-152.76000
188.05000,-2.87690,-153.29000
188.15002,-2.88350,-153.70000
188.25002,-2.89020,-154.10000
188.35000,-2.89690,-154.64000
188.45002,-2.90350,-155.04000
188.55000,-2.91020,-155.44000
188.65002,-2.91690,-156.11000
188.75002,-2.92350,-156.52001
188.85000,-2.93020,-156.91999
188.95002,-2.93690,-157.32000
189.05000,-2.94350,-157.72000
189.15002,-2.95020,-158.13001
189.25002,-2.95690,-158.66000
189.35000,-2.96350,-159.20000
189.45002,-2.97020,-159.60000
189.55000,-2.97690,-160.14000
189.65002,-2.98350,-160.40999
189.75002,-2.99020,-160.93999
189.85000,-2.99690,-161.35000
189.95002,-3.00350,-161.87999
190.05000,-3.01020,-162.29000
190.15002,-3.01690,-162.82000
190.25002,-3.02350,-163.23000
190.35000,-3.03020,-163.76000
190.45002,-3.03690,-164.17000
190.55000,-3.04350,-164.70000
190.65002,-3.05020,-165.11001
190.75002,-3.05690,-165.50999
190.85000,-3.06350,-165.90999
190.95002,-3.07020,-166.44999
191.05000,-3.07690,-166.85000
191.15002,-3.08350,-167.39000
191.25002,-3.09020,-167.79000
191.35000,-3.09690,-168.33000
191.45002,-3.10350,-168.73000
191.55000,-3.11020,-169.13000
191.65002,-3.11690,-169.53999
191.75002,-3.12350,-169.93999
191.85000,-3.13020,-170.34000
191.95002,-3.13690,-170.88000
192.05000,-3.14350,-171.40999
192.15002,-3.15020,-171.82000
192.25002,-3.15690,-172.35000
192.35000,-3.16350,-172.62001
192.45002,-3.17020,-173.16001
192.55000,-3.17690,-173.70000
192.65002,-3.18350,-174.10001
192.75002,-3.19020,-174.64001
192.85000,-3.19690,-175.17000
192.95002,-3.20350,-175.57999
193.05000,-3.21020,-175.97999
193.15002,-3.21690,-176.51999
193.25002,-3.22350,-176.92000
193.35000,-3.23020,-177.32000
193.45002,-3.23690,-177.86000
193.55000,-3.24350,-178.26000
193.65002,-3.25020,-178.80000
193.75002,-3.25690,-179.20000
193.85000,-3.26350,-179.60001
193.95002,-3.27020,-179.99999
194.05000,-3.27690,-180.53999
194.15002,-3.28350,-180.93999
194.25002,-3.29020,-181.47999
194.35000,-3.29690,-181.88000
194.45002,-3.30350,-182.29000
194.55000,-3.31020,-182.82000
194.65002,-3.31690,-183.23001
194.75002,-3.32350,-183.76000
194.85000,-3.33020,-184.17001
194.95002,-3.33690,-184.70000
195.05000,-3.34350,-184.97000
195.15002,-3.35020,-185.50999
195.25002,-3.35680,-185.91000
195.35000,-3.36350,-186.45000
195.45002,-3.37020,-186.85000
195.55000,-3.37680,-187.39000
195.65002,-3.38350,-187.92000
195.75002,-3.39020,-188.33000
195.85000,-3.39680,-188.73001
195.95002,-3.40350,-189.27000
196.05000,-3.41020,-189.67001
196.15002,-3.41680,-190.06999
196.25002,-3.42350,-190.60999
196.35000,-3.43020,-191.00999
196.45002,-3.43680,-191.41000
196.55000,-3.44350,-192.08999
196.65002,-3.45020,-192.35000
196.75002,-3.45680,-193.03000
196.85000,-3.46350,-193.29000
196.95002,-3.47020,-193.83000
197.05000,-3.47680,-194.09999
197.15002,-3.48350,-194.63999
197.25002,-3.49020,-195.04000
197.35000,-3.49680,-195.57999
197.45002,-3.50350,-195.98000
197.55000,-3.51020,-196.52000
197.65002,-3.51680,-196.92000
197.75002,-3.52350,-197.32000
197.85000,-3.53020,-197.86000
197.95002,-3.53680,-198.26001
198.05000,-3.54350,-198.53000
198.15002,-3.55020,-199.20001
198.25002,-3.55680,-199.59999
198.35000,-3.56350,-200.00000
198.45002,-3.57020,-200.41000
198.55000,-3.57680,-200.94000
198.65002,-3.58350,-201.35000
198.75002,-3.59020,-201.88000
198.85000,-3.59680,-202.29001
198.95002,-3.60350,-202.69001
199.05000,-3.61020,-202.96000
199.15002,-3.61680,-203.49000
199.25002,-3.62350,-203.90000
199.35000,-3.63020,-204.43000
199.45002,-3.63680,-204.84000
199.55000,-3.64350,-205.24001
199.65002,-3.65020,-205.63999
199.75002,-3.65680,-206.17999
199.85000,-3.66350,-206.57999
199.95002,-3.67020,-206.98000
200.05000,-3.67680,-207.52000
200.15002,-3.68350,-207.92000
200.25002,-3.69020,-208.33001
200.35000,-3.69680,-208.86000
200.45002,-3.70350,-209.27001
200.55000,-3.71020,-209.66999
200.65002,-3.71680,-210.20999
200.75002,-3.72350,-210.60999
200.85000,-3.73020,-211.14999
200.95002,-3.73680,-211.67999
201.05000,-3.74350,-212.21999
201.15002,-3.75020,-212.49000
201.25002,-3.75680,-212.89000
201.35000,-3.76350,-213.29001
201.45002,-3.77020,-213.83001
201.55000,-3.77680,-214.37000
201.65002,-3.78350,-214.90000
201.75002,-3.79020,-215.16999
201.85000,-3.79680,-215.70999
201.95002,-3.80350,-216.10999
202.05000,-3.81020,-216.52000
202.15002,-3.81680,-217.05000
202.25002,-3.82350,-217.45000
202.35000,-3.83020,-217.71999
202.45002,-3.83680,-218.26001
202.55000,-3.84350,-218.65999
202.65002,-3.85020,-219.19999
202.75002,-3.85680,-219.60000
202.85000,-3.86350,-220.14000
202.95002,-3.87010,-220.54000
203.05000,-3.87680,-220.94000
203.15002,-3.88350,-221.35001
203.25002,-3.89010,-221.74999
203.35000,-3.89680,-222.14999
203.45002,-3.90350,-222.68999
203.55000,-3.91010,-223.09000
203.65002,-3.91680,-223.63000
203.75002,-3.92350,-224.03000
203.85000,-3.93010,-224.57000
203.95002,-3.93680,-224.97000
204.05000,-3.94350,-225.51000
204.15002,-3.95010,-225.77999
204.25002,-3.95680,-226.17999
204.35000,-3.96350,-226.58000
204.45002,-3.97010,-227.12000
204.55000,-3.97680,-227.52000
204.65002,-3.98350,-228.06000
204.75002,-3.99010,-228.46000
204.85000,-3.99680,-229.00000
204.95002,-4.00350,-229.40001
205.05000,-4.01010,-229.80001
205.15002,-4.01680,-230.21000
205.25002,-4.02350,-230.73999
205.35000,-4.03010,-231.15000
205.45002,-4.03680,-231.67999
205.55000,-4.04350,-232.09000
205.65002,-4.05010,-232.49000
205.75002,-4.05680,-233.03000
205.85000,-4.06350,-233.29001
205.95002,-4.07010,-233.83001
206.05000,-4.07680,-234.10000
206.15002,-4.08350,-234.64000
206.25002,-4.09010,-235.04000
206.35000,-4.09680,-235.58000
206.45002,-4.10350,-235.98000
206.55000,-4.11010,-236.38001
206.65002,-4.11680,-236.92001
206.75002,-4.12350,-237.31999
206.85000,-4.13010,-237.71999
206.95002,-4.13680,-238.13000
207.05000,-4.14350,-238.66000
207.15002,-4.15010,-239.07000
207.25002,-4.15680,-239.47001
207.35000,-4.16350,-239.87001
207.45002,-4.17010,-240.26999
207.55000,-4.17680,-240.68000
207.65002,-4.18350,-241.21000
207.75002,-4.19010,-241.62000
207.85000,-4.19680,-242.02000
207.95002,-4.20350,-242.42001
208.05000,-4.21010,-242.81999
208.15002,-4.21680,-243.23000
208.25002,-4.22350,-243.75999
208.35000,-4.23010,-244.17000
208.45002,-4.23680,-244.57000
208.55000,-4.24350,-244.97001
208.65002,-4.25010,-245.51000
208.75002,-4.25680,-245.91001
208.85000,-4.26350,-246.30999
208.95002,-4.27010,-246.84999
209.05000,-4.27680,-247.24999
209.15002,-4.28350,-247.66000
209.25002,-4.29010,-248.06000
209.35000,-4.29680,-248.60000
209.45002,-4.30350,-249.00001
209.55000,-4.31010,-249.40001
209.65002,-4.31680,-249.94001
209.75002,-4.32350,-250.33999
209.85000,-4.33010,-250.87999
209.95002,-4.33680,-251.27999
210.05000,-4.34350,-251.68000
210.15002,-4.35010,-251.95001
210.25002,-4.35680,-252.62000
210.35000,-4.36350,-252.88999
210.45002,-4.37010,-253.43001
210.55000,-4.37680,-253.82999
210.65002,-4.38340,-254.23000
210.75002,-4.39010,-254.64000
210.85000,-4.39680,-255.17000
210.95002,-4.40340,-255.58000
211.05000,-4.41010,-255.98001
211.15002,-4.41680,-256.37999
211.25002,-4.42340,-256.77999
211.35000,-4.43010,-257.19000
211.45002,-4.43680,-257.59000
211.55000,-4.44340,-258.13000
211.65002,-4.45010,-258.66000
211.75002,-4.45680,-259.07001
211.85000,-4.46340,-259.47001
211.95002,-4.47010,-259.86999
212.05000,-4.47680,-260.27000
212.15002,-4.48340,-260.68000
212.25002,-4.49010,-261.08000
212.35000,-4.49680,-261.62000
212.45002,-4.50340,-262.02001
212.55000,-4.51010,-262.41999
212.65002,-4.51680,-262.96001
212.75002,-4.52340,-263.23000
212.85000,-4.53010,-263.76000
212.95002,-4.53680,-264.30000
213.05000,-4.54340,-264.70000
213.15002,-4.55010,-264.97001
213.25002,-4.55670,-265.51001
213.35000,-4.56340,-265.78000
213.45002,-4.57000,-266.31000
213.55000,-4.57670,-266.72000
213.65002,-4.58340,-267.25000
213.75002,-4.59000,-267.66000
213.85000,-4.59670,-268.06001
213.95002,-4.60340,-268.46001
214.05000,-4.61000,-268.85999
214.15002,-4.61670,-269.27000
214.25002,-4.62340,-269.80000
214.35000,-4.63000,-270.21000
214.45002,-4.63670,-270.61000
214.55000,-4.64340,-271.01001
214.65002,-4.65000,-271.28000
214.75002,-4.65670,-271.82000
214.85000,-4.66340,-272.22000
214.95002,-4.67000,-272.62000
215.05000,-4.67670,-273.03001
215.15002,-4.68340,-273.42999
215.25002,-4.69000,-273.83000
215.35000,-4.69670,-274.37000
215.45002,-4.70340,-274.64001
215.55000,-4.71000,-275.17000
215.65002,-4.71670,-275.58001
215.75002,-4.72340,-275.97999
215.85000,-4.73000,-276.38000
215.95002,-4.73670,-276.78000
216.05000,-4.74340,-277.19000
216.15002,-4.75000,-277.59001
216.25002,-4.75670,-278.13001
216.35000,-4.76340,-278.53001
216.45002,-4.77000,-278.92999
216.55000,-4.77670,-279.33000
216.65002,-4.78340,-279.74000
216.75002,-4.79000,-280.14001
216.85000,-4.79670,-280.54001
216.95002,-4.80340,-280.93999
217.05000,-4.81000,-281.35000
217.15002,-4.81670,-281.88000
217.25002,-4.82340,-282.29000
217.35000,-4.83000,-282.55999
217.45002,-4.83670,-283.09001
217.55000,-4.84340,-283.48999
217.65002,-4.85000,-283.90000
217.75002,-4.85670,-284.30000
217.85000,-4.86330,-284.70000
217.95002,-4.87000,-285.24000
218.05000,-4.87670,-285.64001
218.15002,-4.88330,-286.04999
218.25002,-4.89000,-286.44999
218.35000,-4.89670,-286.97999
218.45002,-4.90330,-287.25000
218.55000,-4.91000,-287.79000
218.65002,-4.91670,-288.05999
218.75002,-4.92330,-288.45999
218.85000,-4.93000,-288.86000
218.95002,-4.93670,-289.27000
219.05000,-4.94330,-289.80000
219.15002,-4.95000,-290.21000
219.25002,-4.95670,-290.46999
219.35000,-4.96330,-290.88000
219.45002,-4.97000,-291.28000
219.55000,-4.97670,-291.68000
219.65002,-4.98330,-292.08999
219.75002,-4.99000,-292.62001
219.85000,-4.99670,-292.89000
219.95002,-5.00330,-293.43000
220.05000,-5.01000,-293.70001
220.15002,-5.01670,-294.10001
220.25002,-5.02330,-294.49999
220.35000,-5.03000,-294.90000
220.45002,-5.03670,-295.31000
220.55000,-5.04330,-295.71000
220.65002,-5.05000,-296.11001
220.75002,-5.05670,-296.65001
220.85000,-5.06330,-296.92000
220.95002,-5.07000,-297.32000
221.05000,-5.07670,-297.72000
221.15002,-5.08330,-298.12999
221.25002,-5.09000,-298.52999
221.35000,-5.09670,-298.93000
221.45002,-5.10330,-299.33000
221.55000,-5.11000,-299.60001
221.65002,-5.11670,-299.99999
221.75002,-5.12330,-300.53999
221.85000,-5.13000,-300.94000
221.95002,-5.13670,-301.35000
222.05000,-5.14330,-301.61999
222.15002,-5.15000,-302.01999
222.25002,-5.15670,-302.29000
222.35000,-5.16330,-302.82000
222.45002,-5.17000,-303.23001
222.55000,-5.17670,-303.63001
222.65002,-5.18330,-304.02999
222.75002,-5.19000,-304.30000
222.85000,-5.19670,-304.70001
222.95002,-5.20330,-305.10999
223.05000,-5.21000,-305.51000
223.15002,-5.21670,-305.91000
223.25002,-5.22330,-306.18001
223.35000,-5.23000,-306.57999
223.45002,-5.23670,-306.98000
223.55000,-5.24330,-307.25000
223.65002,-5.25000,-307.65999
223.75002,-5.25670,-308.19001
223.85000,-5.26330,-308.46000
223.95002,-5.27000,-308.86000
224.05000,-5.27670,-309.13001
224.15002,-5.28330,-309.54000
224.25002,-5.29000,-309.80000
224.35000,-5.29670,-310.34000
224.45002,-5.30330,-310.60999
224.55000,-5.31000,-311.14999
224.65002,-5.31670,-311.41000
224.75002,-5.32330,-311.82000
224.85000,-5.33000,-312.08999
224.95002,-5.33670,-312.49000
225.05002,-5.34330,-312.89000
225.15002,-5.35000,-313.28999
225.25002,-5.35670,-313.55999
225.35000,-5.36330,-313.96002
225.45002,-5.37000,-314.36998
225.55002,-5.37670,-314.77001
225.65002,-5.38330,-315.16999
225.75002,-5.39000,-315.58000
225.85000,-5.39660,-315.83998
225.95002,-5.40330,-316.24999
226.05002,-5.41000,-316.65001
226.15002,-5.41660,-316.91998
226.25002,-5.42330,-317.32000
226.35000,-5.43000,-317.71999
226.45002,-5.43660,-318.12999
226.55002,-5.44330,-318.38998
226.65002,-5.45000,-318.79999
226.75002,-5.45660,-319.07000
226.85000,-5.46330,-319.47002
226.95002,-5.47000,-319.87000
227.05002,-5.47660,-320.26999
227.15002,-5.48330,-320.54000
227.25002,-5.49000,-320.94002
227.35000,-5.49660,-321.20999
227.45002,-5.50330,-321.48000
227.55002,-5.51000,-321.87998
227.65002,-5.51660,-322.28999
227.75002,-5.52330,-322.56000
227.85000,-5.53000,-323.08999
227.95002,-5.53660,-323.36000
228.05002,-5.54330,-323.75999
228.15002,-5.55000,-324.03000
228.25002,-5.55660,-324.42998
228.35000,-5.56330,-324.69999
228.45002,-5.57000,-325.11000
228.55002,-5.57660,-325.36998
228.65002,-5.58330,-325.77999
228.75002,-5.59000,-326.05000
228.85000,-5.59660,-326.44998
228.95002,-5.60330,-326.85000
229.05002,-5.61000,-327.12001
229.15002,-5.61660,-327.52000
229.25002,-5.62330,-327.79001
229.35000,-5.63000,-328.18999
229.45002,-5.63660,-328.46000
229.55002,-5.64330,-328.73001
229.65002,-5.65000,-329.12999
229.75002,-5.65660,-329.54000
229.85000,-5.66330,-329.93998
229.95002,-5.67000,-330.20999
230.05002,-5.67660,-330.61001
230.15002,-5.68330,-330.87999
230.25002,-5.69000,-331.28001
230.35000,-5.69660,-331.55002
230.45002,-5.70330,-331.81999
230.55002,-5.71000,-332.22001
230.65002,-5.71660,-332.61999
230.75002,-5.72330,-332.89000
230.85000,-5.73000,-333.28999
230.95002,-5.73660,-333.56000
231.05002,-5.74330,-333.95998
231.15002,-5.75000,-334.22999
231.25002,-5.75660,-334.50000
231.35000,-5.76330,-334.77001
231.45002,-5.77000,-335.16999
231.55002,-5.77660,-335.44000
231.60000,-5.78000,-102.29000
