Time,Extension,Load
(sec),(mm),(N)
0.00000,-1.34670,-2.15000
0.10000,-1.35410,-2.69000
0.20000,-1.36080,-2.96000
0.30000,-1.36750,-3.09000
0.40000,-1.37410,-3.36000
0.50000,-1.38080,-3.49000
0.60000,-1.38750,-3.76000
0.70000,-1.39410,-4.03000
0.80000,-1.40080,-4.30000
0.90000,-1.40750,-4.57000
1.00000,-1.41410,-4.70000
1.10000,-1.42080,-4.97000
1.20000,-1.42750,-5.24000
1.30000,-1.43410,-5.51000
1.40000,-1.44080,-5.78000
1.50000,-1.44750,-6.05000
1.60000,-1.45410,-6.18000
1.70000,-1.46080,-6.45000
1.80000,-1.46750,-6.72000
1.90000,-1.47410,-6.98000
2.00000,-1.48080,-7.25000
2.10000,-1.48750,-7.39000
2.20000,-1.49410,-7.79000
2.30000,-1.50080,-8.06000
2.40000,-1.50750,-8.19000
2.50000,-1.51410,-8.46000
2.60000,-1.52080,-8.73000
2.70000,-1.52750,-8.86000
2.80000,-1.53410,-9.13000
2.90000,-1.54080,-9.40000
3.00000,-1.54750,-9.54000
3.10000,-1.55410,-9.94000
3.20000,-1.56080,-10.21000
3.30000,-1.56740,-10.47000
3.40000,-1.57410,-10.74000
3.50000,-1.58080,-10.88000
3.60000,-1.58740,-11.15000
3.70000,-1.59410,-11.28000
3.80000,-1.60080,-11.55000
3.90000,-1.60740,-11.68000
4.00000,-1.61410,-11.95000
4.10000,-1.62080,-12.35000
4.20000,-1.62740,-12.62000
4.30000,-1.63410,-12.89000
4.40000,-1.64080,-13.16000
4.50000,-1.64740,-13.29000
4.60000,-1.65410,-13.43000
4.70000,-1.66080,-13.70000
4.80000,-1.66740,-13.96000
4.90000,-1.67410,-14.23000
5.00000,-1.68080,-14.50000
5.10000,-1.68740,-14.77000
5.20000,-1.69410,-14.90000
5.30000,-1.70080,-15.17000
5.40000,-1.70740,-15.44000
5.50000,-1.71410,-15.71000
5.60000,-1.72080,-15.98000
5.70000,-1.72740,-16.25000
5.80000,-1.73410,-16.38000
5.90000,-1.74080,-16.65000
6.00000,-1.74740,-16.92000
6.10000,-1.75410,-17.19000
6.20000,-1.76080,-17.45000
6.30000,-1.76740,-17.72000
6.40000,-1.77410,-17.86000
6.50000,-1.78080,-17.99000
6.60000,-1.78740,-18.26000
6.70000,-1.79410,-18.53000
6.80000,-1.80080,-18.93000
6.90000,-1.80740,-19.07000
7.00000,-1.81410,-19.47000
7.10000,-1.82080,-19.60000
7.20000,-1.82740,-19.87000
7.30000,-1.83410,-20.00000
7.40000,-1.84080,-20.27000
7.50000,-1.84740,-20.54000
7.60000,-1.85410,-20.81000
7.70000,-1.86080,-21.08000
7.80000,-1.86740,-21.21000
7.90000,-1.87410,-21.48000
8.00000,-1.88080,-21.62000
8.10000,-1.88740,-22.02000
8.20000,-1.89410,-22.29000
8.30000,-1.90080,-22.42000
8.40000,-1.90740,-22.82000
8.50000,-1.91410,-22.96000
8.60000,-1.92080,-23.09000
8.70000,-1.92740,-23.36000
8.80000,-1.93410,-23.76000
8.90000,-1.94080,-23.90000
9.00000,-1.94740,-24.17000
9.10000,-1.95410,-24.43000
9.20000,-1.96080,-24.57000
9.30000,-1.96740,-24.84000
9.40000,-1.97410,-25.11000
9.50000,-1.98080,-25.37000
9.60000,-1.98740,-25.64000
9.70000,-1.99410,-25.91000
9.80000,-2.00080,-26.05000
9.90000,-2.00740,-26.31000
10.00000,-2.01410,-26.58000
10.10000,-2.02080,-26.72000
10.20000,-2.02740,-26.98000
10.30000,-2.03410,-27.25000
10.40000,-2.04080,-27.66000
10.50000,-2.04740,-27.79000
10.60000,-2.05410,-28.06000
10.70000,-2.06080,-28.19000
10.80000,-2.06740,-28.46000
10.90000,-2.07410,-28.60000
11.00000,-2.08080,-28.86000
11.10000,-2.08740,-29.27000
11.20000,-2.09410,-29.54000
11.30000,-2.10070,-29.67000
11.40000,-2.10740,-29.94000
11.50000,-2.11410,-30.21000
11.60000,-2.12070,-30.47000
11.70000,-2.12740,-30.74000
11.80000,-2.13410,-30.88000
11.90000,-2.14070,-31.15000
12.00000,-2.14740,-31.28000
12.10000,-2.15410,-31.55000
12.20000,-2.16070,-31.82000
12.30000,-2.16740,-32.09000
12.40000,-2.17410,-32.35000
12.50000,-2.18070,-32.49000
12.60000,-2.18740,-32.76000
12.70000,-2.19410,-32.89000
12.80000,-2.20070,-33.16000
12.90000,-2.20740,-33.43000
13.00000,-2.21410,-33.70000
13.10000,-2.22070,-33.96000
13.20000,-2.22740,-34.23000
13.30000,-2.23410,-34.50000
13.40000,-2.24070,-34.77000
13.50000,-2.24740,-34.90000
13.60000,-2.25410,-35.17000
13.70000,-2.26070,-35.44000
13.80000,-2.26740,-35.58000
13.90000,-2.27410,-35.84000
14.00000,-2.28070,-36.11000
14.10000,-2.28740,-36.38000
14.20000,-2.29410,-36.65000
14.30000,-2.30070,-36.78000
14.40000,-2.30740,-37.05000
14.50000,-2.31410,-37.32000
14.60000,-2.32070,-37.45000
14.70000,-2.32740,-37.72000
14.80000,-2.33410,-37.99000
14.90000,-2.34070,-38.26000
15.00000,-2.34740,-38.53000
15.10000,-2.35410,-38.80000
15.20000,-2.36070,-38.93000
15.30000,-2.36740,-39.20000
15.40000,-2.37410,-39.47000
15.50000,-2.38070,-39.74000
15.60000,-2.38740,-40.00000
15.70000,-2.39410,-40.27000
15.80000,-2.40070,-40.41000
15.90000,-2.40740,-40.54000
16.00000,-2.41410,-40.81000
16.10000,-2.42070,-41.08000
16.20000,-2.42740,-41.35000
16.30000,-2.43410,-41.62000
16.40000,-2.44070,-41.88000
16.50000,-2.44740,-42.02000
16.60000,-2.45410,-42.29000
16.70000,-2.46070,-42.42000
16.80000,-2.46740,-42.82000
16.90000,-2.47410,-43.09000
17.00000,-2.48070,-43.23000
17.10000,-2.48740,-43.49000
17.20000,-2.49410,-43.63000
17.30000,-2.50070,-43.90000
17.40000,-2.50740,-44.17000
17.50000,-2.51410,-44.43000
17.60000,-2.52070,-44.70000
17.70000,-2.52740,-44.84000
17.80000,-2.53410,-45.11000
17.90000,-2.54070,-45.24000
18.00000,-2.54740,-45.51000
18.10000,-2.55410,-45.78000
18.20000,-2.56070,-46.05000
18.30000,-2.56740,-46.31000
18.40000,-2.57410,-46.58000
18.50000,-2.58070,-46.72000
18.60000,-2.58740,-46.98000
18.70000,-2.59410,-47.12000
18.80000,-2.60070,-47.39000
18.90000,-2.60740,-47.66000
19.00000,-2.61400,-47.79000
19.10000,-2.62070,-48.06000
19.20000,-2.62740,-48.33000
19.30000,-2.63400,-48.60000
19.40000,-2.64070,-48.73000
19.50000,-2.64740,-49.00000
19.60000,-2.65400,-49.27000
19.70000,-2.66070,-49.40000
19.80000,-2.66740,-49.67000
19.90000,-2.67400,-49.80000
20.00000,-2.68070,-50.07000
20.10000,-2.68740,-50.34000
20.20000,-2.69400,-50.61000
20.30000,-2.70070,-50.88000
20.40000,-2.70740,-51.15000
20.50000,-2.71400,-51.28000
20.60000,-2.72070,-51.41000
20.70000,-2.72740,-51.68000
20.80000,-2.73400,-51.95000
20.90000,-2.74070,-52.22000
21.00000,-2.74740,-52.49000
21.10000,-2.75400,-52.62000
21.20000,-2.76070,-52.89000
21.30000,-2.76740,-53.03000
21.40000,-2.77400,-53.29000
21.50000,-2.78070,-53.56000
21.60000,-2.78740,-53.83000
21.70000,-2.79400,-53.96000
21.80000,-2.80070,-54.23000
21.90000,-2.80740,-54.37000
22.00000,-2.81400,-54.77000
22.10000,-2.82070,-54.90000
22.20000,-2.82740,-55.17000
22.30000,-2.83400,-55.44000
22.40000,-2.84070,-55.58000
22.50000,-2.84740,-55.84000
22.60000,-2.85400,-56.11000
22.70000,-2.86070,-56.25000
22.80000,-2.86740,-56.38000
22.90000,-2.87400,-56.65000
23.00000,-2.88070,-56.92000
23.10000,-2.88740,-57.19000
23.20000,-2.89400,-57.45000
23.30000,-2.90070,-57.45000
23.40000,-2.90740,-57.72000
23.50000,-2.91400,-57.99000
23.60000,-2.92070,-58.26000
23.70000,-2.92740,-58.39000
23.80000,-2.93400,-58.66000
23.90000,-2.94070,-58.93000
24.00000,-2.94740,-59.07000
24.10000,-2.95400,-59.33000
24.20000,-2.96070,-59.60000
24.30000,-2.96740,-59.74000
24.40000,-2.97400,-60.00000
24.50000,-2.98070,-60.14000
24.60000,-2.98740,-60.41000
24.70000,-2.99400,-60.54000
24.80000,-3.00070,-60.81000
24.90000,-3.00740,-60.94000
25.00000,-3.01400,-61.35000
25.10000,-3.02070,-61.48000
25.20000,-3.02740,-61.75000
25.30000,-3.03400,-61.88000
25.40000,-3.04070,-62.02000
25.50000,-3.04740,-62.29000
25.60000,-3.05400,-62.56000
25.70000,-3.06070,-62.82000
25.80000,-3.06740,-62.96000
25.90000,-3.07400,-63.23000
26.00000,-3.08070,-63.36000
26.10000,-3.08740,-63.49000
26.20000,-3.09400,-63.90000
26.30000,-3.10070,-64.03000
26.40000,-3.10740,-64.30000
26.50000,-3.11400,-64.57000
26.60000,-3.12070,-64.84000
26.70000,-3.12730,-64.97000
26.80000,-3.13400,-65.11000
26.90000,-3.14070,-65.37000
27.00000,-3.14730,-65.64000
27.10000,-3.15400,-65.78000
27.20000,-3.16070,-66.05000
27.30000,-3.16730,-66.31000
27.40000,-3.17400,-66.45000
27.50000,-3.18070,-66.72000
27.60000,-3.18730,-66.98000
27.70000,-3.19400,-67.25000
27.80000,-3.20070,-67.25000
27.90000,-3.20730,-67.52000
28.00000,-3.21400,-67.66000
28.10000,-3.22070,-67.92000
28.20000,-3.22730,-68.19000
28.30000,-3.23400,-68.33000
28.40000,-3.24070,-68.73000
28.50000,-3.24730,-68.86000
28.60000,-3.25400,-69.13000
28.70000,-3.26070,-69.13000
28.80000,-3.26730,-69.40000
28.90000,-3.27400,-69.54000
29.00000,-3.28070,-69.80000
29.10000,-3.28730,-70.07000
29.20000,-3.29400,-70.34000
29.30000,-3.30070,-70.47000
29.40000,-3.30730,-70.61000
29.50000,-3.31400,-70.88000
29.60000,-3.32070,-71.01000
29.70000,-3.32730,-71.28000
29.80000,-3.33400,-71.41000
29.90000,-3.34070,-71.68000
30.00000,-3.34730,-71.82000
30.10000,-3.35400,-72.09000
30.20000,-3.36070,-72.35000
30.30000,-3.36730,-72.49000
30.40000,-3.37400,-72.76000
30.50000,-3.38070,-73.03000
30.60000,-3.38730,-73.16000
30.70000,-3.39400,-73.29000
30.80000,-3.40070,-73.56000
30.90000,-3.40730,-73.70000
31.00000,-3.41400,-73.83000
31.10000,-3.42070,-74.10000
31.20000,-3.42730,-74.37000
31.30000,-3.43400,-74.64000
31.40000,-3.44070,-74.77000
31.50000,-3.44730,-74.90000
31.60000,-3.45400,-75.17000
31.70000,-3.46070,-75.44000
31.80000,-3.46730,-75.58000
31.90000,-3.47400,-75.84000
32.00000,-3.48070,-75.98000
32.10000,-3.48730,-76.11000
32.20000,-3.49400,-76.25000
32.30000,-3.50070,-76.65000
32.40000,-3.50730,-76.78000
32.50000,-3.51400,-77.05000
32.60000,-3.52070,-77.19000
32.70000,-3.52730,-77.45000
32.80000,-3.53400,-77.59000
32.90000,-3.54070,-77.72000
33.00000,-3.54730,-77.86000
33.10000,-3.55400,-78.26000
33.20000,-3.56070,-78.39000
33.30000,-3.56730,-78.66000
33.40000,-3.57400,-78.80000
33.50000,-3.58070,-78.93000
33.60000,-3.58730,-79.20000
33.70000,-3.59400,-79.33000
33.80000,-3.60070,-79.60000
33.90000,-3.60730,-79.74000
34.00000,-3.61400,-80.00000
34.10000,-3.62070,-80.14000
34.20000,-3.62730,-80.41000
34.30000,-3.63400,-80.54000
34.40000,-3.64070,-80.68000
34.50000,-3.64730,-81.08000
34.60000,-3.65400,-81.21000
34.70000,-3.66060,-81.35000
34.80000,-3.66730,-81.48000
34.90000,-3.67400,-81.75000
35.00000,-3.68060,-81.88000
35.10000,-3.68730,-82.15000
35.20000,-3.69400,-82.42000
35.30000,-3.70060,-82.56000
35.40000,-3.70730,-82.69000
35.50000,-3.71400,-82.96000
35.60000,-3.72060,-83.23000
35.70000,-3.72730,-83.36000
35.80000,-3.73400,-83.63000
35.90000,-3.74060,-83.76000
36.00000,-3.74730,-83.90000
36.10000,-3.75400,-84.17000
36.20000,-3.76060,-84.17000
36.30000,-3.76730,-84.43000
36.40000,-3.77400,-84.70000
36.50000,-3.78060,-84.97000
36.60000,-3.78730,-85.11000
36.70000,-3.79400,-85.24000
36.80000,-3.80060,-85.37000
36.90000,-3.80730,-85.64000
37.00000,-3.81400,-85.78000
37.10000,-3.82060,-86.05000
37.20000,-3.82730,-86.18000
37.30000,-3.83400,-86.45000
37.40000,-3.84060,-86.72000
37.50000,-3.84730,-86.85000
37.60000,-3.85400,-86.98000
37.70000,-3.86060,-87.12000
37.80000,-3.86730,-87.39000
37.90000,-3.87400,-87.66000
38.00000,-3.88060,-87.79000
38.10000,-3.88730,-87.92000
38.20000,-3.89400,-88.06000
38.30000,-3.90060,-88.33000
38.40000,-3.90730,-88.60000
38.50000,-3.91400,-88.86000
38.60000,-3.92060,-89.00000
38.70000,-3.92730,-89.13000
38.80000,-3.93400,-89.27000
38.90000,-3.94060,-89.54000
39.00000,-3.94730,-89.67000
39.10000,-3.95400,-89.94000
39.20000,-3.96060,-90.07000
39.30000,-3.96730,-90.34000
39.40000,-3.97400,-90.47000
39.50000,-3.98060,-90.61000
39.60000,-3.98730,-90.88000
39.70000,-3.99400,-91.01000
39.80000,-4.00060,-91.28000
39.90000,-4.00730,-91.41000
40.00000,-4.01400,-91.68000
40.10000,-4.02060,-91.82000
40.20000,-4.02730,-91.95000
40.30000,-4.03400,-92.22000
40.40000,-4.04060,-92.35000
40.50000,-4.04730,-92.49000
40.60000,-4.05400,-92.76000
40.70000,-4.06060,-93.03000
40.80000,-4.06730,-93.16000
40.90000,-4.07400,-93.29000
41.00000,-4.08060,-93.43000
41.10000,-4.08730,-93.56000
41.20000,-4.09400,-93.83000
41.30000,-4.10060,-94.10000
41.40000,-4.10730,-94.23000
41.50000,-4.11400,-94.37000
41.60000,-4.12060,-94.64000
41.70000,-4.12730,-94.64000
41.80000,-4.13400,-94.90000
41.90000,-4.14060,-95.04000
42.00000,-4.14730,-95.31000
42.10000,-4.15400,-95.44000
42.20000,-4.16060,-95.71000
42.30000,-4.16730,-95.84000
42.40000,-4.17390,-96.11000
42.50000,-4.18060,-96.25000
42.60000,-4.18730,-96.38000
42.70000,-4.19390,-96.65000
42.80000,-4.20060,-96.92000
42.90000,-4.20730,-96.92000
43.00000,-4.21390,-97.19000
43.10000,-4.22060,-97.32000
43.20000,-4.22730,-97.59000
43.30000,-4.23390,-97.72000
43.40000,-4.24060,-97.99000
43.50000,-4.24730,-98.13000
43.60000,-4.25390,-98.39000
43.70000,-4.26060,-98.53000
43.80000,-4.26730,-98.66000
43.90000,-4.27390,-98.93000
44.00000,-4.28060,-99.20000
44.10000,-4.28730,-99.33000
44.20000,-4.29390,-99.47000
44.30000,-4.30060,-99.60000
44.40000,-4.30730,-99.87000
44.50000,-4.31390,-100.00000
44.60000,-4.32060,-100.27000
44.70000,-4.32730,-100.41000
44.80000,-4.33390,-100.68000
44.90000,-4.34060,-100.68000
45.00000,-4.34730,-100.94000
45.10000,-4.35390,-101.08000
45.20000,-4.36060,-101.35000
45.30000,-4.36730,-101.48000
45.40000,-4.37390,-101.88000
45.50000,-4.38060,-101.88000
45.60000,-4.38730,-102.02000
45.70000,-4.39390,-102.15000
45.80000,-4.40060,-102.42000
45.90000,-4.40730,-102.56000
46.00000,-4.41390,-102.82000
46.10000,-4.42060,-102.96000
46.20000,-4.42730,-103.09000
46.30000,-4.43390,-103.36000
46.40000,-4.44060,-103.63000
46.50000,-4.44730,-103.76000
46.60000,-4.45390,-103.90000
46.70000,-4.46060,-104.03000
46.80000,-4.46730,-104.30000
46.90000,-4.47390,-104.43000
47.00000,-4.48060,-104.57000
47.10000,-4.48730,-104.70000
47.20000,-4.49390,-104.97000
47.30000,-4.50060,-105.24000
47.40000,-4.50730,-105.51000
47.50000,-4.51390,-105.64000
47.60000,-4.52060,-105.64000
47.70000,-4.52730,-105.91000
47.80000,-4.53390,-106.05000
47.90000,-4.54060,-106.18000
48.00000,-4.54730,-106.45000
48.10000,-4.55390,-106.58000
48.20000,-4.56060,-106.85000
48.30000,-4.56730,-106.98000
48.40000,-4.57390,-107.25000
48.50000,-4.58060,-107.39000
48.60000,-4.58730,-107.52000
48.70000,-4.59390,-107.79000
48.80000,-4.60060,-107.92000
48.90000,-4.60730,-108.06000
49.00000,-4.61390,-108.33000
49.10000,-4.62060,-108.46000
49.20000,-4.62730,-108.60000
49.30000,-4.63390,-108.86000
49.40000,-4.64060,-109.00000
49.50000,-4.64730,-109.13000
49.60000,-4.65390,-109.40000
49.70000,-4.66060,-109.54000
49.80000,-4.66730,-109.67000
49.90000,-4.67390,-109.80000
50.00000,-4.68060,-110.07000
50.10000,-4.68720,-110.34000
50.20000,-4.69390,-110.47000
50.30000,-4.70060,-110.61000
50.40000,-4.70720,-110.74000
50.50000,-4.71390,-111.01000
50.60000,-4.72060,-111.15000
50.70000,-4.72720,-111.28000
50.80000,-4.73390,-111.55000
50.90000,-4.74060,-111.68000
51.00000,-4.74720,-111.82000
51.10000,-4.75390,-111.95000
51.20000,-4.76060,-112.22000
51.30000,-4.76720,-112.35000
51.40000,-4.77390,-112.62000
51.50000,-4.78060,-112.76000
51.60000,-4.78720,-112.89000
51.70000,-4.79390,-113.16000
51.80000,-4.80060,-113.29000
51.90000,-4.80720,-113.56000
52.00000,-4.81390,-113.70000
52.10000,-4.82060,-113.83000
52.20000,-4.82720,-114.10000
52.30000,-4.83390,-114.23000
52.40000,-4.84060,-114.23000
52.50000,-4.84720,-114.50000
52.60000,-4.85390,-114.77000
52.70000,-4.86060,-114.90000
52.80000,-4.86720,-115.17000
52.90000,-4.87390,-115.17000
53.00000,-4.88060,-115.31000
53.10000,-4.88720,-115.58000
53.20000,-4.89390,-115.71000
53.30000,-4.90060,-115.84000
53.40000,-4.90720,-116.11000
53.50000,-4.91390,-116.38000
53.60000,-4.92060,-116.52000
53.70000,-4.92720,-116.65000
53.80000,-4.93390,-116.78000
53.90000,-4.94060,-116.92000
54.00000,-4.94720,-117.19000
54.10000,-4.95390,-117.32000
54.20000,-4.96060,-117.45000
54.30000,-4.96720,-117.59000
54.40000,-4.97390,-117.86000
54.50000,-4.98060,-118.13000
54.60000,-4.98720,-118.26000
54.70000,-4.99390,-118.53000
54.80000,-5.00060,-118.66000
54.90000,-5.00720,-118.80000
54.95000,-5.01060,-118.80000
55.05000,-5.01140,-118.80000
55.15000,-5.00470,-118.80000
55.25000,-4.99810,-118.53000
55.35000,-4.99140,-118.13000
55.45000,-4.98470,-117.72000
55.55000,-4.97810,-117.19000
55.65000,-4.97140,-116.78000
55.75000,-4.96470,-116.25000
55.85000,-4.95810,-115.84000
55.95000,-4.95140,-115.31000
56.05000,-4.94470,-115.04000
56.15000,-4.93810,-114.50000
56.25000,-4.93140,-114.10000
56.35000,-4.92470,-113.70000
56.45000,-4.91810,-113.29000
56.55000,-4.91140,-113.03000
56.65000,-4.90470,-112.49000
56.75000,-4.89810,-112.35000
56.85000,-4.89140,-111.95000
56.95000,-4.88470,-111.68000
57.05000,-4.87810,-111.28000
57.15000,-4.87140,-111.01000
57.25000,-4.86470,-110.74000
57.35000,-4.85810,-110.34000
57.45000,-4.85140,-110.21000
57.55000,-4.84470,-109.80000
57.65000,-4.83810,-109.54000
57.75000,-4.83140,-109.27000
57.85000,-4.82470,-109.00000
57.95000,-4.81810,-108.73000
58.05000,-4.81140,-108.46000
58.15000,-4.80470,-108.19000
58.25000,-4.79810,-107.79000
58.35000,-4.79140,-107.52000
58.45000,-4.78470,-107.25000
58.55000,-4.77810,-106.98000
58.65000,-4.77140,-106.72000
58.75000,-4.76470,-106.45000
58.85000,-4.75810,-106.31000
58.95000,-4.75140,-106.05000
59.05000,-4.74470,-105.64000
59.15000,-4.73810,-105.37000
59.25000,-4.73140,-105.11000
59.35000,-4.72470,-104.70000
59.45000,-4.71810,-104.57000
59.55000,-4.71140,-104.30000
59.65000,-4.70470,-104.03000
59.75000,-4.69810,-103.63000
59.85000,-4.69140,-103.49000
59.95000,-4.68480,-103.23000
60.05000,-4.67810,-102.82000
60.15000,-4.67140,-102.69000
60.25000,-4.66480,-102.29000
60.35000,-4.65810,-102.02000
60.45000,-4.65140,-101.75000
60.55000,-4.64480,-101.48000
60.65000,-4.63810,-101.35000
60.75000,-4.63140,-101.08000
60.85000,-4.62480,-100.81000
60.95000,-4.61810,-100.54000
61.05000,-4.61140,-100.14000
61.15000,-4.60480,-99.87000
61.25000,-4.59810,-99.60000
61.35000,-4.59140,-99.33000
61.45000,-4.58480,-99.20000
61.55000,-4.57810,-98.93000
61.65000,-4.57140,-98.66000
61.75000,-4.56480,-98.39000
61.85000,-4.55810,-97.99000
61.95000,-4.55140,-97.86000
62.05000,-4.54480,-97.45000
62.15000,-4.53810,-97.32000
62.25000,-4.53140,-96.92000
62.35000,-4.52480,-96.65000
62.45000,-4.51810,-96.38000
62.55000,-4.51140,-96.25000
62.65000,-4.50480,-95.98000
62.75000,-4.49810,-95.71000
62.85000,-4.49140,-95.44000
62.95000,-4.48480,-95.31000
63.05000,-4.47810,-94.90000
63.15000,-4.47140,-94.64000
63.25000,-4.46480,-94.37000
63.35000,-4.45810,-94.23000
63.45000,-4.45140,-93.96000
63.55000,-4.44480,-93.70000
63.65000,-4.43810,-93.43000
63.75000,-4.43140,-93.16000
63.85000,-4.42480,-92.89000
63.95000,-4.41810,-92.62000
64.05000,-4.41140,-92.35000
64.15000,-4.40480,-92.09000
64.25000,-4.39810,-91.82000
64.35001,-4.39140,-91.68000
64.45000,-4.38480,-91.41000
64.55000,-4.37810,-91.15000
64.65000,-4.37140,-90.88000
64.75000,-4.36480,-90.47000
64.85001,-4.35810,-90.34000
64.95000,-4.35140,-90.07000
65.05000,-4.34480,-89.80000
65.15000,-4.33810,-89.40000
65.25000,-4.33140,-89.27000
65.35001,-4.32480,-89.00000
65.45000,-4.31810,-88.86000
65.55000,-4.31140,-88.60000
65.65000,-4.30480,-88.33000
65.75000,-4.29810,-88.06000
65.85001,-4.29140,-87.79000
65.95001,-4.28480,-87.52000
66.05000,-4.27810,-87.12000
66.15000,-4.27140,-87.12000
66.25000,-4.26480,-86.72000
66.35001,-4.25810,-86.45000
66.45001,-4.25140,-86.31000
66.55000,-4.24480,-86.05000
66.65000,-4.23810,-85.78000
66.75000,-4.23140,-85.51000
66.85001,-4.22480,-85.24000
66.95001,-4.21810,-84.97000
67.05000,-4.21140,-84.70000
67.15000,-4.20480,-84.57000
67.25000,-4.19810,-84.17000
67.35001,-4.19140,-83.90000
67.45001,-4.18480,-83.63000
67.55000,-4.17810,-83.63000
67.65000,-4.17140,-83.23000
67.75000,-4.16480,-83.09000
67.85001,-4.15810,-82.82000
67.95001,-4.15150,-82.56000
68.05000,-4.14480,-82.29000
68.15000,-4.13810,-82.02000
68.25000,-4.13150,-81.75000
68.35001,-4.12480,-81.48000
68.45001,-4.11810,-81.21000
68.55000,-4.11150,-81.08000
68.65000,-4.10480,-80.81000
68.75000,-4.09810,-80.54000
68.85001,-4.09150,-80.27000
68.95001,-4.08480,-80.14000
69.05000,-4.07810,-79.74000
69.15000,-4.07150,-79.60000
69.25000,-4.06480,-79.20000
69.35001,-4.05810,-79.07000
69.45001,-4.05150,-78.80000
69.55000,-4.04480,-78.53000
69.65000,-4.03810,-78.26000
69.75000,-4.03150,-78.13000
69.85001,-4.02480,-77.86000
69.95001,-4.01810,-77.59000
70.05000,-4.01150,-77.32000
70.15000,-4.00480,-77.05000
70.25000,-3.99810,-76.78000
70.35001,-3.99150,-76.65000
70.45001,-3.98480,-76.38000
70.55000,-3.97810,-76.11000
70.65000,-3.97150,-75.84000
70.75000,-3.96480,-75.71000
70.85001,-3.95810,-75.31000
70.95001,-3.95150,-75.17000
71.05000,-3.94480,-74.90000
71.15000,-3.93810,-74.64000
71.25000,-3.93150,-74.23000
71.35001,-3.92480,-74.10000
71.45001,-3.91810,-73.83000
71.55000,-3.91150,-73.70000
71.65000,-3.90480,-73.43000
71.75000,-3.89810,-73.16000
71.85001,-3.89150,-73.03000
71.95001,-3.88480,-72.62000
72.05000,-3.87810,-72.49000
72.15000,-3.87150,-72.09000
72.25000,-3.86480,-71.82000
72.35001,-3.85810,-71.55000
72.45001,-3.85150,-71.41000
72.55000,-3.84480,-71.15000
72.65000,-3.83810,-71.01000
72.75000,-3.83150,-70.61000
72.85001,-3.82480,-70.47000
72.95001,-3.81810,-70.21000
73.05000,-3.81150,-69.94000
73.15000,-3.80480,-69.67000
73.25000,-3.79810,-69.40000
73.35001,-3.79150,-69.27000
73.45001,-3.78480,-69.00000
73.55000,-3.77810,-68.86000
73.65000,-3.77150,-68.60000
73.75000,-3.76480,-68.33000
73.85001,-3.75810,-68.06000
73.95001,-3.75150,-67.79000
74.05000,-3.74480,-67.52000
74.15000,-3.73810,-67.39000
74.25000,-3.73150,-66.98000
74.35001,-3.72480,-66.85000
74.45001,-3.71810,-66.72000
74.55000,-3.71150,-66.31000
74.65000,-3.70480,-66.05000
74.75000,-3.69810,-65.91000
74.85001,-3.69150,-65.64000
74.95001,-3.68480,-65.51000
75.05000,-3.67810,-65.24000
75.15000,-3.67150,-64.97000
75.25000,-3.66480,-64.70000
75.35001,-3.65810,-64.43000
75.45001,-3.65150,-64.17000
75.55000,-3.64480,-64.03000
75.65000,-3.63820,-63.76000
75.75000,-3.63150,-63.49000
75.85001,-3.62480,-63.36000
75.95001,-3.61820,-62.96000
76.05000,-3.61150,-62.82000
76.15000,-3.60480,-62.56000
76.25000,-3.59820,-62.29000
76.35001,-3.59150,-62.15000
76.45001,-3.58480,-61.88000
76.55000,-3.57820,-61.62000
76.65000,-3.57150,-61.35000
76.75000,-3.56480,-61.08000
76.85001,-3.55820,-60.81000
76.95001,-3.55150,-60.68000
77.05000,-3.54480,-60.41000
77.15000,-3.53820,-60.14000
77.25000,-3.53150,-60.00000
77.35001,-3.52480,-59.60000
77.45001,-3.51820,-59.33000
77.55000,-3.51150,-59.20000
77.65000,-3.50480,-59.07000
77.75000,-3.49820,-58.80000
77.85001,-3.49150,-58.53000
77.95001,-3.48480,-58.26000
78.05000,-3.47820,-58.13000
78.15000,-3.47150,-57.72000
78.25000,-3.46480,-57.59000
78.35001,-3.45820,-57.32000
78.45001,-3.45150,-57.19000
78.55000,-3.44480,-56.92000
78.65000,-3.43820,-56.65000
78.75000,-3.43150,-56.52000
78.85001,-3.42480,-56.25000
78.95001,-3.41820,-55.98000
79.05000,-3.41150,-55.84000
79.15000,-3.40480,-55.44000
79.25000,-3.39820,-55.31000
79.35001,-3.39150,-54.90000
79.45001,-3.38480,-54.77000
79.55000,-3.37820,-54.50000
79.65000,-3.37150,-54.37000
79.75000,-3.36480,-54.23000
79.85001,-3.35820,-53.83000
79.95001,-3.35150,-53.70000
80.05000,-3.34480,-53.43000
80.15000,-3.33820,-53.03000
80.25000,-3.33150,-52.89000
80.35001,-3.32480,-52.76000
80.45001,-3.31820,-52.49000
80.55000,-3.31150,-52.35000
80.65000,-3.30480,-52.09000
80.75001,-3.29820,-51.82000
80.85001,-3.29150,-51.55000
80.95001,-3.28480,-51.28000
81.05000,-3.27820,-51.15000
81.15000,-3.27150,-50.74000
81.25001,-3.26480,-50.61000
81.35001,-3.25820,-50.34000
81.45001,-3.25150,-50.07000
81.55000,-3.24480,-49.94000
81.65000,-3.23820,-49.67000
81.75001,-3.23150,-49.54000
81.85001,-3.22480,-49.27000
81.95001,-3.21820,-49.00000
82.05000,-3.21150,-48.73000
82.15000,-3.20480,-48.46000
82.25001,-3.19820,-48.33000
82.35001,-3.19150,-48.06000
82.45001,-3.18480,-47.92000
82.55000,-3.17820,-47.66000
82.65000,-3.17150,-47.39000
82.75001,-3.16480,-47.25000
82.85001,-3.15820,-46.85000
82.95001,-3.15150,-46.72000
83.05000,-3.14480,-46.58000
83.15000,-3.13820,-46.31000
83.25001,-3.13150,-46.18000
83.35001,-3.12480,-45.78000
83.45001,-3.11820,-45.64000
83.55000,-3.11150,-45.37000
83.65000,-3.10490,-45.11000
83.75001,-3.09820,-44.97000
83.85001,-3.09150,-44.70000
83.95001,-3.08490,-44.57000
84.05000,-3.07820,-44.17000
84.15000,-3.07150,-44.03000
84.25001,-3.06490,-43.76000
84.35001,-3.05820,-43.49000
84.45001,-3.05150,-43.36000
84.55000,-3.04490,-43.09000
84.65000,-3.03820,-42.82000
84.75001,-3.03150,-42.56000
84.85001,-3.02490,-42.42000
84.95001,-3.01820,-42.15000
85.05000,-3.01150,-42.02000
85.15000,-3.00490,-41.88000
85.25001,-2.99820,-41.62000
85.35001,-2.99150,-41.35000
85.45001,-2.98490,-40.94000
85.55000,-2.97820,-40.81000
85.65000,-2.97150,-40.54000
85.75001,-2.96490,-40.41000
85.85001,-2.95820,-40.14000
85.95001,-2.95150,-40.00000
86.05000,-2.94490,-39.74000
86.15000,-2.93820,-39.47000
86.25001,-2.93150,-39.33000
86.35001,-2.92490,-38.93000
86.45001,-2.91820,-38.80000
86.55000,-2.91150,-38.53000
86.65000,-2.90490,-38.26000
86.75001,-2.89820,-38.13000
86.85001,-2.89150,-37.99000
86.95001,-2.88490,-37.72000
87.05000,-2.87820,-37.45000
87.15000,-2.87150,-37.32000
87.25001,-2.86490,-37.05000
87.35001,-2.85820,-36.78000
87.45001,-2.85150,-36.52000
87.55000,-2.84490,-36.38000
87.65000,-2.83820,-36.11000
87.75001,-2.83150,-35.98000
87.85001,-2.82490,-35.84000
87.95001,-2.81820,-35.58000
88.05000,-2.81150,-35.31000
88.15000,-2.80490,-35.04000
88.25001,-2.79820,-34.77000
88.35001,-2.79150,-34.50000
88.45001,-2.78490,-34.37000
88.55000,-2.77820,-34.10000
88.65000,-2.77150,-34.10000
88.75001,-2.76490,-33.83000
88.85001,-2.75820,-33.56000
88.95001,-2.75150,-33.29000
89.05000,-2.74490,-33.03000
89.15000,-2.73820,-32.89000
89.25001,-2.73150,-32.62000
89.35001,-2.72490,-32.49000
89.45001,-2.71820,-32.09000
89.55000,-2.71150,-32.09000
89.65000,-2.70490,-31.82000
89.75001,-2.69820,-31.55000
89.85001,-2.69150,-31.41000
89.95001,-2.68490,-31.01000
90.05000,-2.67820,-30.88000
90.15000,-2.67150,-30.61000
90.25001,-2.66490,-30.47000
90.35001,-2.65820,-30.21000
90.45001,-2.65150,-30.07000
90.55000,-2.64490,-29.80000
90.65000,-2.63820,-29.67000
90.75001,-2.63150,-29.40000
90.85001,-2.62490,-29.13000
90.95001,-2.61820,-28.86000
91.05000,-2.61150,-28.73000
91.15000,-2.60490,-28.60000
91.25001,-2.59820,-28.33000
91.35001,-2.59160,-28.06000
91.45001,-2.58490,-27.92000
91.55000,-2.57820,-27.66000
91.65000,-2.57160,-27.39000
91.75001,-2.56490,-27.25000
91.85001,-2.55820,-26.98000
91.95001,-2.55160,-26.85000
92.05000,-2.54490,-26.58000
92.15000,-2.53820,-26.31000
92.25001,-2.53160,-26.18000
92.35001,-2.52490,-25.91000
92.45001,-2.51820,-25.78000
92.55000,-2.51160,-25.51000
92.65000,-2.50490,-25.24000
92.75001,-2.49820,-25.11000
92.85001,-2.49160,-24.84000
92.95001,-2.48490,-24.70000
93.05000,-2.47820,-24.43000
93.15000,-2.47160,-24.30000
93.25001,-2.46490,-24.03000
93.35001,-2.45820,-23.76000
93.45001,-2.45160,-23.63000
93.55000,-2.44490,-23.36000
93.65000,-2.43820,-23.23000
93.75001,-2.43160,-22.96000
93.85001,-2.42490,-22.82000
93.95001,-2.41820,-22.56000
94.05000,-2.41160,-22.42000
94.15000,-2.40490,-22.29000
94.25001,-2.39820,-21.88000
94.35001,-2.39160,-21.75000
94.45001,-2.38490,-21.48000
94.55000,-2.37820,-21.35000
94.65000,-2.37160,-21.08000
94.75001,-2.36490,-20.94000
94.85001,-2.35820,-20.68000
94.95001,-2.35160,-20.54000
95.05000,-2.34490,-20.27000
95.15000,-2.33820,-20.14000
95.25001,-2.33160,-19.87000
95.35001,-2.32490,-19.60000
95.45001,-2.31820,-19.47000
95.55000,-2.31160,-19.20000
95.65000,-2.30490,-19.07000
95.75001,-2.29820,-18.80000
95.85001,-2.29160,-18.66000
95.95001,-2.28490,-18.53000
96.05000,-2.27820,-18.26000
96.15000,-2.27160,-17.99000
96.25001,-2.26490,-17.72000
96.35001,-2.25820,-17.59000
96.45001,-2.25160,-17.32000
96.55000,-2.24490,-17.19000
96.65000,-2.23820,-17.05000
96.75001,-2.23160,-16.78000
96.85001,-2.22490,-16.65000
96.95001,-2.21820,-16.52000
97.05000,-2.21160,-16.25000
97.15000,-2.20490,-15.98000
97.25001,-2.19820,-15.71000
97.35001,-2.19160,-15.58000
97.45001,-2.18490,-15.44000
97.55000,-2.17820,-15.17000
97.65000,-2.17160,-15.04000
97.75001,-2.16490,-14.77000
97.85001,-2.15820,-14.64000
97.95001,-2.15160,-14.37000
98.05000,-2.14490,-14.23000
98.15000,-2.13820,-13.96000
98.25001,-2.13160,-13.70000
98.35001,-2.12490,-13.56000
98.45001,-2.11820,-13.43000
98.55000,-2.11160,-13.29000
98.65000,-2.10490,-13.03000
98.75001,-2.09820,-12.89000
98.85001,-2.09160,-12.62000
98.95001,-2.08490,-12.35000
99.05000,-2.07830,-12.22000
99.15000,-2.07160,-12.09000
99.25001,-2.06490,-11.82000
99.35001,-2.05830,-11.55000
99.45001,-2.05160,-11.41000
99.55000,-2.04490,-11.28000
99.65000,-2.03830,-11.15000
99.75001,-2.03160,-10.88000
99.85001,-2.02490,-10.61000
99.95001,-2.01830,-10.47000
100.05000,-2.01160,-10.34000
100.15000,-2.00490,-10.07000
100.25001,-1.99830,-9.80000
100.35001,-1.99160,-9.67000
100.45001,-1.98490,-9.40000
100.55000,-1.97830,-9.27000
100.65000,-1.97160,-9.13000
100.75001,-1.96490,-8.86000
100.85001,-1.95830,-8.73000
100.95001,-1.95160,-8.46000
101.05000,-1.94490,-8.19000
101.15000,-1.93830,-8.06000
101.25001,-1.93160,-7.92000
101.35001,-1.92490,-7.66000
101.45001,-1.91830,-7.52000
101.55000,-1.91160,-7.25000
101.65000,-1.90490,-6.98000
101.75001,-1.89830,-6.85000
101.85001,-1.89160,-6.72000
101.95001,-1.88490,-6.72000
102.05000,-1.87830,-6.31000
102.15000,-1.87160,-6.18000
102.25001,-1.86490,-6.05000
102.35001,-1.85830,-5.78000
102.45001,-1.85160,-5.51000
102.55000,-1.84490,-5.37000
102.65000,-1.83830,-5.24000
102.75001,-1.83160,-5.11000
102.85001,-1.82490,-4.84000
102.95001,-1.81830,-4.70000
103.05000,-1.81160,-4.57000
103.15000,-1.80490,-4.30000
103.25001,-1.79830,-4.17000
103.35001,-1.79160,-3.90000
103.45001,-1.78490,-3.76000
103.55000,-1.77830,-3.49000
103.65000,-1.77160,-3.36000
103.75001,-1.76490,-3.23000
103.85001,-1.75830,-3.09000
103.95001,-1.75160,-2.96000
104.05000,-1.74490,-2.69000
104.15000,-1.73830,-2.56000
104.25001,-1.73160,-2.42000
104.35001,-1.72490,-2.02000
104.45001,-1.71830,-1.88000
104.55000,-1.71160,-1.75000
104.65000,-1.70490,-1.62000
104.75001,-1.69830,-1.35000
104.85001,-1.69160,-1.21000
104.95001,-1.68490,-1.08000
105.05000,-1.67830,-0.94000
105.15000,-1.67160,-0.68000
105.25001,-1.66490,-0.41000
105.35001,-1.65830,-0.27000
105.45001,-1.65160,-0.14000
105.55000,-1.64490,0.00000
105.65000,-1.63830,0.26000
105.75001,-1.63160,0.26000
105.85001,-1.62490,0.26000
105.95001,-1.61830,0.40000
106.05000,-1.61160,0.26000
106.15000,-1.60490,0.26000
106.25001,-1.59830,0.40000
106.35001,-1.59160,0.53000
106.45001,-1.58490,0.53000
106.55000,-1.57830,0.53000
106.65000,-1.57160,0.40000
106.75001,-1.56490,0.26000
106.85001,-1.55830,0.26000
106.95001,-1.55160,0.26000
107.05000,-1.54500,0.40000
107.15000,-1.53830,0.40000
107.25001,-1.53160,0.40000
107.35001,-1.52500,0.40000
107.45001,-1.51830,0.26000
107.55000,-1.51160,0.26000
107.65000,-1.50500,0.26000
107.75001,-1.49830,0.26000
107.85001,-1.49160,0.26000
107.95001,-1.48500,0.40000
108.05000,-1.47830,0.40000
108.15000,-1.47160,0.26000
108.25001,-1.46500,0.26000
108.35001,-1.45830,0.53000
108.45001,-1.45160,0.26000
108.55000,-1.44500,0.26000
108.65000,-1.43830,0.26000
108.75001,-1.43160,0.26000
108.85001,-1.42500,0.26000
108.95001,-1.41830,0.26000
109.05000,-1.41160,0.40000
109.15000,-1.40500,0.40000
109.25001,-1.39830,0.26000
109.35001,-1.39160,0.26000
109.45001,-1.38500,0.26000
109.55000,-1.37830,0.26000
109.65000,-1.37160,0.40000
109.75001,-1.36500,0.53000
109.85001,-1.35830,0.26000
109.95001,-1.35160,0.40000
110.05000,-1.34500,0.26000
110.15000,-1.33830,0.26000
110.25001,-1.33160,0.26000
110.35001,-1.32500,0.26000
110.45001,-1.31830,0.40000
110.55000,-1.31160,0.26000
110.65000,-1.30500,0.40000
110.75001,-1.29830,0.26000
110.85001,-1.29160,0.40000
110.95001,-1.28500,0.40000
111.05000,-1.27830,0.40000
111.15000,-1.27160,0.26000
111.25001,-1.26500,0.40000
111.35001,-1.25830,0.26000
111.45001,-1.25160,0.26000
111.55000,-1.24500,0.53000
111.65000,-1.23830,0.40000
111.75001,-1.23160,0.53000
111.85001,-1.22500,0.40000
111.95001,-1.21830,0.26000
112.05000,-1.21160,0.40000
112.15000,-1.20500,0.26000
112.25001,-1.19830,0.26000
112.35001,-1.19160,0.26000
112.45001,-1.18500,0.53000
112.55000,-1.17830,0.53000
112.65001,-1.17160,0.53000
112.75001,-1.16500,0.26000
112.85001,-1.15830,0.26000
112.95001,-1.15160,0.26000
113.05000,-1.14500,0.26000
113.15001,-1.13830,0.26000
113.25001,-1.13160,0.26000
113.35001,-1.12500,0.40000
113.45001,-1.11830,0.40000
113.55000,-1.11160,0.26000
113.65001,-1.10500,0.26000
113.75001,-1.09830,0.40000
113.85001,-1.09160,0.40000
113.95001,-1.08500,0.26000
114.05000,-1.07830,0.26000
114.15001,-1.07160,0.26000
114.25001,-1.06500,0.26000
114.35001,-1.05830,0.26000
114.45001,-1.05160,0.40000
114.55000,-1.04500,0.40000
114.65001,-1.03830,0.40000
114.75001,-1.03170,0.26000
114.85001,-1.02500,0.26000
114.95001,-1.01830,0.26000
115.05000,-1.01170,0.40000
115.15001,-1.00500,0.53000
115.25001,-0.99830,0.40000
115.35001,-0.99170,0.40000
115.45001,-0.98500,0.40000
115.55000,-0.97830,0.40000
115.65001,-0.97170,0.40000
115.75001,-0.96500,0.26000
115.85001,-0.95830,0.40000
115.95001,-0.95170,0.40000
116.05000,-0.94500,0.40000
116.15001,-0.93830,0.26000
116.25001,-0.93170,0.26000
116.35001,-0.92500,0.26000
116.45001,-0.91830,0.53000
116.55000,-0.91170,0.40000
116.65001,-0.90500,0.40000
116.75001,-0.89830,0.40000
116.85001,-0.89170,0.26000
116.95001,-0.88500,0.40000
117.05000,-0.87830,0.26000
117.15001,-0.87170,0.53000
117.25001,-0.86500,0.40000
117.35001,-0.85830,0.26000
117.45001,-0.85170,0.26000
117.55000,-0.84500,0.26000
117.65001,-0.83830,0.40000
117.75001,-0.83170,0.26000
117.85001,-0.82500,0.40000
117.95001,-0.81830,0.40000
118.05000,-0.81170,0.40000
118.15001,-0.80500,0.13000
118.25001,-0.79830,0.26000
118.35001,-0.79170,0.26000
118.45001,-0.78500,0.40000
118.55000,-0.77830,0.40000
118.65001,-0.77170,0.40000
118.75001,-0.76500,0.40000
118.85001,-0.75830,0.40000
118.95001,-0.75170,0.26000
119.05000,-0.74500,0.40000
119.15001,-0.73830,0.26000
119.25001,-0.73170,0.26000
119.35001,-0.72500,0.26000
119.45001,-0.71830,0.40000
119.55000,-0.71170,0.26000
119.65001,-0.70500,0.40000
119.75001,-0.69830,0.26000
119.85001,-0.69170,0.53000
119.95001,-0.68500,0.26000
120.05000,-0.67830,0.26000
120.15001,-0.67170,0.26000
120.25001,-0.66500,0.13000
120.35001,-0.65830,0.26000
120.45001,-0.65170,0.40000
120.55000,-0.64500,0.53000
120.65001,-0.63830,0.40000
120.75001,-0.63170,0.53000
120.85001,-0.62500,0.26000
120.95001,-0.61830,0.26000
121.05000,-0.61170,0.26000
121.15001,-0.60500,0.26000
121.25001,-0.59830,0.26000
121.35001,-0.59170,0.40000
121.45001,-0.58500,0.40000
121.55000,-0.57830,0.40000
121.65001,-0.57170,0.53000
121.75001,-0.56500,0.40000
121.85001,-0.55830,0.40000
121.95001,-0.55170,0.40000
122.05000,-0.54500,0.40000
122.15001,-0.53830,0.40000
122.25001,-0.53170,0.26000
122.35001,-0.52500,0.26000
122.45001,-0.51840,0.26000
122.55000,-0.51170,0.40000
122.65001,-0.50500,0.40000
122.75001,-0.49840,0.40000
122.85001,-0.49170,0.40000
122.95001,-0.48500,0.26000
123.05000,-0.47840,0.26000
123.15001,-0.47170,0.26000
123.25001,-0.46500,0.26000
123.35001,-0.45840,0.40000
123.45001,-0.45170,0.40000
123.55000,-0.44500,0.26000
123.65001,-0.43840,0.26000
123.75001,-0.43170,0.26000
123.85001,-0.42500,0.26000
123.95001,-0.41840,0.26000
124.05000,-0.41170,0.40000
124.15001,-0.40500,0.40000
124.25001,-0.39840,0.26000
124.35001,-0.39170,0.40000
124.45001,-0.38500,0.26000
124.55000,-0.37840,0.53000
124.65001,-0.37170,0.40000
124.75001,-0.36500,0.26000
124.85001,-0.35840,0.26000
124.95001,-0.35170,0.26000
125.05000,-0.34500,0.26000
125.15001,-0.33840,0.40000
125.25001,-0.33170,0.40000
125.35001,-0.32500,0.40000
125.45001,-0.31840,0.40000
125.55000,-0.31170,0.40000
125.65001,-0.30500,0.40000
125.75001,-0.29840,0.26000
125.85001,-0.29170,0.40000
125.95001,-0.28500,0.53000
126.05000,-0.27840,0.40000
126.15001,-0.27170,0.40000
126.25001,-0.26500,0.26000
126.35001,-0.25840,0.40000
126.45001,-0.25170,0.26000
126.55000,-0.24500,0.40000
126.65001,-0.23840,0.40000
126.75001,-0.23170,0.40000
126.85001,-0.22500,0.40000
126.95001,-0.21840,0.40000
127.05000,-0.21160,0.26000
127.15001,-0.20500,0.26000
127.25001,-0.19830,0.40000
127.35001,-0.19160,0.26000
127.45001,-0.18500,0.40000
127.55000,-0.17830,0.40000
127.65001,-0.17160,0.26000
127.75001,-0.16500,0.40000
127.85001,-0.15830,0.40000
127.95001,-0.15160,0.40000
128.05000,-0.14500,0.26000
128.15001,-0.13830,0.40000
128.25000,-0.13160,0.26000
128.35001,-0.12500,0.26000
128.45002,-0.11830,0.26000
128.55000,-0.11160,0.26000
128.65001,-0.10500,0.40000
128.75000,-0.09830,0.40000
128.85001,-0.09160,0.40000
128.95002,-0.08500,0.26000
129.05000,-0.07830,0.26000
129.15001,-0.07160,0.26000
129.25000,-0.06500,0.26000
129.35001,-0.05830,0.26000
129.45002,-0.05160,0.40000
129.55000,-0.04500,0.40000
129.65001,-0.03830,0.26000
129.75000,-0.03160,0.40000
129.85001,-0.02500,0.53000
129.95002,-0.01830,0.40000
130.05000,-0.01160,0.26000
130.15001,-0.00500,0.40000
130.25000,0.00170,0.40000
130.35001,0.00840,0.26000
130.40001,0.01170,0.26000
130.50000,0.01190,0.40000
130.60001,0.00520,0.26000
130.70002,-0.00140,0.40000
130.80000,-0.00810,0.26000
130.90001,-0.01480,0.40000
131.00000,-0.02140,0.26000
131.10000,-0.02810,0.40000
131.20002,-0.03480,0.26000
131.30000,-0.04140,0.40000
131.40002,-0.04810,0.40000
131.50000,-0.05480,0.40000
131.60000,-0.06140,0.26000
131.70002,-0.06810,0.40000
131.80000,-0.07480,0.40000
131.90002,-0.08140,0.40000
132.00000,-0.08810,0.40000
132.10000,-0.09480,0.26000
132.20002,-0.10140,0.26000
132.30000,-0.10810,0.26000
132.40002,-0.11480,0.26000
132.50000,-0.12140,0.26000
132.60000,-0.12810,0.26000
132.70002,-0.13480,0.40000
132.80000,-0.14140,0.40000
132.90002,-0.14810,0.26000
133.00000,-0.15480,0.26000
133.10000,-0.16140,0.26000
133.20002,-0.16810,0.26000
133.30000,-0.17480,0.26000
133.40002,-0.18140,0.26000
133.50000,-0.18810,0.26000
133.60000,-0.19480,0.26000
133.70002,-0.20140,0.26000
133.80000,-0.20810,0.26000
133.90002,-0.21480,0.26000
134.00000,-0.22140,0.40000
134.10000,-0.22810,0.40000
134.20002,-0.23480,0.40000
134.30000,-0.24140,0.26000
134.40002,-0.24810,0.26000
134.50000,-0.25480,0.26000
134.60000,-0.26140,0.40000
134.70002,-0.26810,0.40000
134.80000,-0.27480,0.40000
134.90002,-0.28140,0.40000
135.00000,-0.28810,0.40000
135.10000,-0.29480,0.40000
135.20002,-0.30140,0.26000
135.30000,-0.30810,0.26000
135.40002,-0.31480,0.26000
135.50000,-0.32140,0.40000
135.60000,-0.32810,0.26000
135.70002,-0.33480,0.26000
135.80000,-0.34140,0.40000
135.90002,-0.34810,0.40000
136.00000,-0.35470,0.40000
136.10000,-0.36140,0.40000
136.20002,-0.36810,0.40000
136.30000,-0.37470,0.26000
136.40002,-0.38140,0.26000
136.50000,-0.38810,0.26000
136.60000,-0.39470,0.40000
136.70002,-0.40140,0.40000
136.80000,-0.40810,0.40000
136.90002,-0.41470,0.40000
137.00000,-0.42140,0.40000
137.10000,-0.42810,0.26000
137.20002,-0.43470,0.13000
137.30000,-0.44140,0.26000
137.40002,-0.44810,0.40000
137.50000,-0.45470,0.26000
137.60000,-0.46140,0.40000
137.70002,-0.46810,0.26000
137.80000,-0.47470,0.40000
137.90002,-0.48140,0.40000
138.00000,-0.48810,0.40000
138.10000,-0.49470,0.26000
138.20002,-0.50140,0.40000
138.30000,-0.50810,0.40000
138.40002,-0.51470,0.13000
138.50000,-0.52140,0.26000
138.60000,-0.52810,0.40000
138.70002,-0.53470,0.40000
138.80000,-0.54140,0.53000
138.90002,-0.54810,0.53000
139.00000,-0.55470,0.40000
139.10000,-0.56140,0.26000
139.20002,-0.56810,0.26000
139.30000,-0.57470,0.26000
139.40002,-0.58140,0.40000
139.50000,-0.58810,0.40000
139.60000,-0.59470,0.53000
139.70002,-0.60140,0.40000
139.80000,-0.60810,0.40000
139.90002,-0.61470,0.40000
140.00000,-0.62140,0.40000
140.10000,-0.62810,0.26000
140.20002,-0.63470,0.40000
140.30000,-0.64140,0.40000
140.40002,-0.64810,0.26000
140.50000,-0.65470,0.40000
140.60000,-0.66140,0.53000
140.70002,-0.66810,0.40000
140.80000,-0.67470,0.53000
140.90002,-0.68140,0.40000
141.00000,-0.68810,0.53000
141.10000,-0.69470,0.26000
141.20002,-0.70140,0.40000
141.30000,-0.70810,0.26000
141.40002,-0.71470,0.26000
141.50000,-0.72140,0.40000
141.60000,-0.72810,0.53000
141.70002,-0.73470,0.40000
141.80000,-0.74140,0.26000
141.90002,-0.74810,0.26000
142.00000,-0.75470,0.26000
142.10000,-0.76140,0.40000
142.20002,-0.76810,0.40000
142.30000,-0.77470,0.40000
142.40002,-0.78140,0.40000
142.50000,-0.78810,0.40000
142.60000,-0.79470,0.40000
142.70002,-0.80140,0.26000
142.80000,-0.80810,0.40000
142.90002,-0.81470,0.40000
143.00000,-0.82140,0.40000
143.10000,-0.82810,0.40000
143.20002,-0.83470,0.40000
143.30000,-0.84140,0.26000
143.40002,-0.84810,0.40000
143.50000,-0.85470,0.40000
143.60000,-0.86140,0.26000
143.70002,-0.86800,0.40000
143.80000,-0.87470,0.26000
143.90002,-0.88140,0.40000
144.00000,-0.88800,0.40000
144.10000,-0.89470,0.40000
144.20002,-0.90140,0.53000
144.30000,-0.90800,0.40000
144.40002,-0.91470,0.40000
144.50000,-0.92140,0.26000
144.60000,-0.92800,0.26000
144.70002,-0.93470,0.26000
144.80000,-0.94140,0.53000
144.90002,-0.94800,0.53000
145.00000,-0.95470,0.40000
145.10000,-0.96140,0.40000
145.20002,-0.96800,0.40000
145.30000,-0.97470,0.40000
145.40002,-0.98140,0.26000
145.50000,-0.98800,0.40000
145.60000,-0.99470,0.40000
145.70002,-1.00140,0.53000
145.80000,-1.00800,0.53000
145.90002,-1.01470,0.40000
146.00000,-1.02140,0.26000
146.10000,-1.02800,0.53000
146.20002,-1.03470,0.40000
146.30000,-1.04140,0.40000
146.40002,-1.04800,0.40000
146.50000,-1.05470,0.26000
146.60000,-1.06140,0.40000
146.70002,-1.06800,0.40000
146.80000,-1.07470,0.40000
146.90002,-1.08140,0.40000
147.00000,-1.08800,0.53000
147.10000,-1.09470,0.40000
147.20002,-1.10140,0.26000
147.30000,-1.10800,0.26000
147.40002,-1.11470,0.26000
147.50000,-1.12140,0.26000
147.60000,-1.12800,0.40000
147.70002,-1.13470,0.40000
147.80000,-1.14140,0.40000
147.90002,-1.14800,0.40000
148.00000,-1.15470,0.26000
148.10000,-1.16140,0.26000
148.20002,-1.16800,0.40000
148.30000,-1.17470,0.40000
148.40002,-1.18140,0.40000
148.50000,-1.18800,0.26000
148.60000,-1.19470,0.26000
148.70002,-1.20140,0.26000
148.80000,-1.20800,0.26000
148.90002,-1.21470,0.26000
149.00000,-1.22140,0.40000
149.10000,-1.22800,0.53000
149.20002,-1.23470,0.26000
149.30000,-1.24140,0.26000
149.40002,-1.24800,0.26000
149.50000,-1.25470,0.40000
149.60000,-1.26140,0.53000
149.70002,-1.26800,0.40000
149.80000,-1.27470,0.40000
149.90002,-1.28140,0.40000
150.00000,-1.28800,0.40000
150.10000,-1.29470,0.40000
150.20002,-1.30140,0.40000
150.30000,-1.30800,0.53000
150.40002,-1.31470,0.40000
150.50000,-1.32140,0.40000
150.60000,-1.32800,0.40000
150.70002,-1.33470,0.40000
150.80000,-1.34140,0.40000
150.90002,-1.34800,0.53000
151.00000,-1.35470,0.40000
151.10000,-1.36140,0.40000
151.20002,-1.36800,0.26000
151.30000,-1.37470,0.26000
151.40002,-1.38140,0.40000
151.50000,-1.38800,0.40000
151.60000,-1.39470,0.40000
151.70002,-1.40130,0.40000
151.80000,-1.40800,0.40000
151.90002,-1.41470,0.26000
152.00000,-1.42130,0.40000
152.10000,-1.42800,0.40000
152.20002,-1.43470,0.40000
152.30000,-1.44130,0.53000
152.40002,-1.44800,0.53000
152.50000,-1.45470,0.26000
152.60000,-1.46130,0.26000
152.70002,-1.46800,0.40000
152.80000,-1.47470,0.26000
152.90002,-1.48130,0.40000
153.00000,-1.48800,0.53000
153.10000,-1.49470,0.53000
153.20002,-1.50130,0.40000
153.30000,-1.50800,0.40000
153.40002,-1.51470,0.26000
153.50000,-1.52130,0.26000
153.60000,-1.52800,0.13000
153.70002,-1.53470,-0.14000
153.80000,-1.54130,-0.41000
153.90002,-1.54800,-0.54000
154.00000,-1.55470,-0.68000
154.10000,-1.56130,-0.94000
154.20002,-1.56800,-1.21000
154.30000,-1.57470,-1.48000
154.40002,-1.58130,-1.75000
154.50000,-1.58800,-1.88000
154.60000,-1.59470,-2.29000
154.70002,-1.60130,-2.42000
154.80000,-1.60800,-2.69000
154.90002,-1.61470,-2.82000
155.00000,-1.62130,-3.09000
155.10000,-1.62800,-3.36000
155.20002,-1.63470,-3.63000
155.30000,-1.64130,-3.90000
155.40002,-1.64800,-4.17000
155.50000,-1.65470,-4.43000
155.60000,-1.66130,-4.57000
155.70002,-1.66800,-4.70000
155.80000,-1.67470,-4.97000
155.90002,-1.68130,-5.24000
156.00000,-1.68800,-5.51000
156.10000,-1.69470,-5.78000
156.20002,-1.70130,-6.05000
156.30000,-1.70800,-6.31000
156.40002,-1.71470,-6.45000
156.50000,-1.72130,-6.85000
156.60000,-1.72800,-7.12000
156.70002,-1.73470,-7.25000
156.80000,-1.74130,-7.52000
156.90002,-1.74800,-7.79000
157.00000,-1.75470,-8.06000
157.10000,-1.76130,-8.33000
157.20002,-1.76800,-8.46000
157.30000,-1.77470,-8.86000
157.40002,-1.78130,-9.00000
157.50000,-1.78800,-9.27000
157.60000,-1.79470,-9.54000
157.70002,-1.80130,-9.67000
157.80000,-1.80800,-9.94000
157.90002,-1.81470,-10.21000
158.00000,-1.82130,-10.47000
158.10000,-1.82800,-10.74000
158.20002,-1.83470,-10.88000
158.30000,-1.84130,-11.15000
158.40002,-1.84800,-11.41000
158.50000,-1.85470,-11.68000
158.60000,-1.86130,-11.95000
158.70002,-1.86800,-12.22000
158.80000,-1.87470,-12.35000
158.90002,-1.88130,-12.76000
159.00000,-1.88800,-12.76000
159.10000,-1.89470,-13.16000
159.20002,-1.90130,-13.29000
159.30000,-1.90800,-13.70000
159.40002,-1.91460,-13.83000
159.50000,-1.92130,-14.10000
159.60000,-1.92800,-14.37000
159.70002,-1.93460,-14.50000
159.80000,-1.94130,-14.77000
159.90002,-1.94800,-15.04000
160.00000,-1.95460,-15.31000
160.10000,-1.96130,-15.58000
160.20002,-1.96800,-15.71000
160.30000,-1.97460,-15.98000
160.40002,-1.98130,-16.25000
160.50000,-1.98800,-16.52000
160.60000,-1.99460,-16.78000
160.70002,-2.00130,-17.05000
160.80000,-2.00800,-17.32000
160.90002,-2.01460,-17.45000
161.00002,-2.02130,-17.72000
161.10000,-2.02800,-17.86000
161.20002,-2.03460,-18.26000
161.30000,-2.04130,-18.53000
161.40002,-2.04800,-18.80000
161.50002,-2.05460,-19.07000
161.60000,-2.06130,-19.20000
161.70002,-2.06800,-19.47000
161.80000,-2.07460,-19.74000
161.90002,-2.08130,-20.00000
162.00002,-2.08800,-20.14000
162.10000,-2.09460,-20.41000
162.20002,-2.10130,-20.68000
162.30000,-2.10800,-20.94000
162.40002,-2.11460,-21.21000
162.50002,-2.12130,-21.35000
162.60000,-2.12800,-21.62000
162.70002,-2.13460,-21.88000
162.80000,-2.14130,-22.15000
162.90002,-2.14800,-22.29000
163.00002,-2.15460,-22.56000
163.10000,-2.16130,-22.69000
163.20002,-2.16800,-22.96000
163.30000,-2.17460,-23.36000
163.40002,-2.18130,-23.49000
163.50002,-2.18800,-23.76000
163.60000,-2.19460,-24.03000
163.70002,-2.20130,-24.17000
163.80000,-2.20800,-24.43000
163.90002,-2.21460,-24.70000
164.00002,-2.22130,-24.97000
164.10000,-2.22800,-25.24000
164.20002,-2.23460,-25.51000
164.30000,-2.24130,-25.64000
164.40002,-2.24800,-25.91000
164.50002,-2.25460,-26.18000
164.60000,-2.26130,-26.31000
164.70002,-2.26800,-26.58000
164.80000,-2.27460,-26.85000
164.90002,-2.28130,-27.12000
165.00002,-2.28800,-27.39000
165.10000,-2.29460,-27.52000
165.20002,-2.30130,-27.79000
165.30000,-2.30800,-28.06000
165.40002,-2.31460,-28.33000
165.50002,-2.32130,-28.60000
165.60000,-2.32800,-28.73000
165.70002,-2.33460,-29.00000
165.80000,-2.34130,-29.13000
165.90002,-2.34800,-29.40000
166.00002,-2.35460,-29.67000
166.10000,-2.36130,-29.94000
166.20002,-2.36800,-30.21000
166.30000,-2.37460,-30.47000
166.40002,-2.38130,-30.61000
166.50002,-2.38800,-30.88000
166.60000,-2.39460,-31.15000
166.70002,-2.40130,-31.41000
166.80000,-2.40800,-31.55000
166.90002,-2.41460,-31.95000
167.00002,-2.42130,-32.09000
167.10000,-2.42800,-32.22000
167.20002,-2.43460,-32.49000
167.30000,-2.44130,-32.76000
167.40002,-2.44790,-33.03000
167.50002,-2.45460,-33.29000
167.60000,-2.46130,-33.56000
167.70002,-2.46790,-33.70000
167.80000,-2.47460,-33.96000
167.90002,-2.48130,-34.10000
168.00002,-2.48790,-34.37000
168.10000,-2.49460,-34.64000
168.20002,-2.50130,-34.90000
168.30000,-2.50790,-35.17000
168.40002,-2.51460,-35.44000
168.50002,-2.52130,-35.58000
168.60000,-2.52790,-35.84000
168.70002,-2.53460,-36.11000
168.80000,-2.54130,-36.38000
168.90002,-2.54790,-36.52000
169.00002,-2.55460,-36.78000
169.10000,-2.56130,-36.92000
169.20002,-2.56790,-37.19000
169.30000,-2.57460,-37.32000
169.40002,-2.58130,-37.72000
169.50002,-2.58790,-37.99000
169.60000,-2.59460,-38.26000
169.70002,-2.60130,-38.39000
169.80000,-2.60790,-38.53000
169.90002,-2.61460,-38.80000
170.00002,-2.62130,-39.07000
170.10000,-2.62790,-39.33000
170.20002,-2.63460,-39.47000
170.30000,-2.64130,-39.74000
170.40002,-2.64790,-40.00000
170.50002,-2.65460,-40.27000
170.60000,-2.66130,-40.54000
170.70002,-2.66790,-40.81000
170.80000,-2.67460,-41.08000
170.90002,-2.68130,-41.21000
171.00002,-2.68790,-41.35000
171.10000,-2.69460,-41.62000
171.20002,-2.70130,-41.88000
171.30000,-2.70790,-42.15000
171.40002,-2.71460,-42.42000
171.50002,-2.72130,-42.69000
171.60000,-2.72790,-42.96000
171.70002,-2.73460,-43.09000
171.80000,-2.74130,-43.23000
171.90002,-2.74790,-43.49000
172.00002,-2.75460,-43.76000
172.10000,-2.76130,-44.03000
172.20002,-2.76790,-44.17000
172.30000,-2.77460,-44.43000
172.40002,-2.78130,-44.70000
172.50002,-2.78790,-44.84000
172.60000,-2.79460,-45.11000
172.70002,-2.80130,-45.37000
172.80000,-2.80790,-45.64000
172.90002,-2.81460,-45.78000
173.00002,-2.82130,-46.05000
173.10000,-2.82790,-46.31000
173.20002,-2.83460,-46.45000
173.30000,-2.84130,-46.72000
173.40002,-2.84790,-46.98000
173.50002,-2.85460,-47.39000
173.60000,-2.86130,-47.52000
173.70002,-2.86790,-47.66000
173.80000,-2.87460,-47.92000
173.90002,-2.88130,-48.06000
174.00002,-2.88790,-48.33000
174.10000,-2.89460,-48.46000
174.20002,-2.90130,-48.73000
174.30000,-2.90790,-49.00000
174.40002,-2.91460,-49.27000
174.50002,-2.92130,-49.54000
174.60000,-2.92790,-49.67000
174.70002,-2.93460,-49.94000
174.80000,-2.94130,-50.07000
174.90002,-2.94790,-50.34000
175.00002,-2.95460,-50.61000
175.10000,-2.96120,-50.88000
175.20002,-2.96790,-51.15000
175.30000,-2.97460,-51.28000
175.40002,-2.98120,-51.55000
175.50002,-2.98790,-51.82000
175.60000,-2.99460,-52.09000
175.70002,-3.00120,-52.22000
175.80000,-3.00790,-52.49000
175.90002,-3.01460,-52.62000
176.00002,-3.02120,-53.03000
176.10000,-3.02790,-53.16000
176.20002,-3.03460,-53.43000
176.30000,-3.04120,-53.56000
176.40002,-3.04790,-53.83000
176.50002,-3.05460,-54.10000
176.60000,-3.06120,-54.23000
176.70002,-3.06790,-54.50000
176.80000,-3.07460,-54.77000
176.90002,-3.08120,-54.90000
177.00002,-3.08790,-55.31000
177.10000,-3.09460,-55.44000
177.20002,-3.10120,-55.58000
177.30000,-3.10790,-55.84000
177.40002,-3.11460,-56.11000
177.50002,-3.12120,-56.25000
177.60000,-3.12790,-56.65000
177.70002,-3.13460,-56.78000
177.80000,-3.14120,-57.05000
177.90002,-3.14790,-57.19000
178.00002,-3.15460,-57.45000
178.10000,-3.16120,-57.72000
178.20002,-3.16790,-57.86000
178.30000,-3.17460,-58.13000
178.40002,-3.18120,-58.39000
178.50002,-3.18790,-58.53000
178.60000,-3.19460,-58.93000
178.70002,-3.20120,-58.93000
178.80000,-3.20790,-59.33000
178.90002,-3.21460,-59.47000
179.00002,-3.22120,-59.60000
179.10000,-3.22790,-59.87000
179.20002,-3.23460,-60.14000
179.30000,-3.24120,-60.41000
179.40002,-3.24790,-60.54000
179.50002,-3.25460,-60.81000
179.60000,-3.26120,-61.08000
179.70002,-3.26790,-61.21000
179.80000,-3.27460,-61.48000
179.90002,-3.28120,-61.62000
180.00002,-3.28790,-61.88000
180.10000,-3.29460,-62.15000
180.20002,-3.30120,-62.29000
180.30000,-3.30790,-62.56000
180.40002,-3.31460,-62.82000
180.50002,-3.32120,-63.09000
180.60000,-3.32790,-63.23000
180.70002,-3.33460,-63.49000
180.80000,-3.34120,-63.76000
180.90002,-3.34790,-63.90000
181.00002,-3.35460,-64.03000
181.10000,-3.36120,-64.30000
181.20002,-3.36790,-64.57000
181.30000,-3.37460,-64.84000
181.40002,-3.38120,-65.11000
181.50002,-3.38790,-65.24000
181.60000,-3.39460,-65.51000
181.70002,-3.40120,-65.78000
181.80000,-3.40790,-65.91000
181.90002,-3.41460,-66.05000
182.00002,-3.42120,-66.31000
182.10000,-3.42790,-66.45000
182.20002,-3.43460,-66.85000
182.30000,-3.44120,-66.98000
182.40002,-3.44790,-67.25000
182.50002,-3.45460,-67.39000
182.60000,-3.46120,-67.52000
182.70002,-3.46790,-67.92000
182.80000,-3.47450,-68.06000
182.90002,-3.48120,-68.33000
183.00002,-3.48790,-68.60000
183.10000,-3.49450,-68.86000
183.20002,-3.50120,-69.00000
183.30000,-3.50790,-69.13000
183.40002,-3.51450,-69.40000
183.50002,-3.52120,-69.67000
183.60000,-3.52790,-69.94000
183.70002,-3.53450,-70.07000
183.80000,-3.54120,-70.34000
183.90002,-3.54790,-70.61000
184.00002,-3.55450,-70.74000
184.10000,-3.56120,-70.88000
184.20002,-3.56790,-71.15000
184.30000,-3.57450,-71.41000
184.40002,-3.58120,-71.55000
184.50002,-3.58790,-71.82000
184.60000,-3.59450,-72.09000
184.70002,-3.60120,-72.22000
184.80000,-3.60790,-72.49000
184.90002,-3.61450,-72.62000
185.00002,-3.62120,-72.89000
185.10000,-3.62790,-73.16000
185.20002,-3.63450,-73.29000
185.30000,-3.64120,-73.43000
185.40002,-3.64790,-73.70000
185.50002,-3.65450,-73.96000
185.60000,-3.66120,-74.23000
185.70002,-3.66790,-74.50000
185.80000,-3.67450,-74.77000
185.90002,-3.68120,-74.90000
186.00002,-3.68790,-75.04000
186.10000,-3.69450,-75.31000
186.20002,-3.70120,-75.44000
186.30000,-3.70790,-75.71000
186.40002,-3.71450,-75.98000
186.50002,-3.72120,-76.25000
186.60000,-3.72790,-76.52000
186.70002,-3.73450,-76.65000
186.80000,-3.74120,-76.92000
186.90002,-3.74790,-77.05000
187.00002,-3.75450,-77.45000
187.10000,-3.76120,-77.59000
187.20002,-3.76790,-77.72000
187.30000,-3.77450,-77.86000
187.40002,-3.78120,-78.13000
187.50002,-3.78790,-78.39000
187.60000,-3.79450,-78.66000
187.70002,-3.80120,-78.93000
187.80000,-3.80790,-79.07000
187.90002,-3.81450,-79.20000
188.00002,-3.82120,-79.33000
188.10000,-3.82790,-79.60000
188.20002,-3.83450,-79.87000
188.30000,-3.84120,-80.14000
188.40002,-3.84790,-80.27000
188.50002,-3.85450,-80.68000
188.60000,-3.86120,-80.81000
188.70002,-3.86790,-80.94000
188.80000,-3.87450,-81.21000
188.90002,-3.88120,-81.35000
189.00002,-3.88790,-81.62000
189.10000,-3.89450,-81.75000
189.20002,-3.90120,-82.02000
189.30000,-3.90790,-82.29000
189.40002,-3.91450,-82.56000
189.50002,-3.92120,-82.69000
189.60000,-3.92790,-82.82000
189.70002,-3.93450,-83.23000
189.80000,-3.94120,-83.36000
189.90002,-3.94790,-83.63000
190.00002,-3.95450,-83.76000
190.10000,-3.96120,-83.90000
190.20002,-3.96790,-84.17000
190.30000,-3.97450,-84.43000
190.40002,-3.98120,-84.70000
190.50002,-3.98790,-84.97000
190.60000,-3.99450,-85.11000
190.70002,-4.00120,-85.24000
190.80000,-4.00780,-85.51000
190.90002,-4.01450,-85.64000
191.00002,-4.02120,-85.91000
191.10000,-4.02780,-86.18000
191.20002,-4.03450,-86.45000
191.30000,-4.04120,-86.58000
191.40002,-4.04780,-86.85000
191.50002,-4.05450,-87.12000
191.60000,-4.06120,-87.25000
191.70002,-4.06780,-87.52000
191.80000,-4.07450,-87.79000
191.90002,-4.08120,-87.92000
192.00002,-4.08780,-88.06000
192.10000,-4.09450,-88.33000
192.20002,-4.10120,-88.60000
192.30000,-4.10780,-88.73000
192.40002,-4.11450,-89.00000
192.50002,-4.12120,-89.27000
192.60000,-4.12780,-89.40000
192.70002,-4.13450,-89.67000
192.80000,-4.14120,-89.80000
192.90002,-4.14780,-90.07000
193.00002,-4.15450,-90.21000
193.10000,-4.16120,-90.47000
193.20002,-4.16780,-90.74000
193.30000,-4.17450,-90.88000
193.40002,-4.18120,-91.01000
193.50002,-4.18780,-91.28000
193.60000,-4.19450,-91.55000
193.70002,-4.20120,-91.68000
193.80000,-4.20780,-91.95000
193.90002,-4.21450,-92.22000
194.00002,-4.22120,-92.35000
194.10000,-4.22780,-92.62000
194.20002,-4.23450,-92.89000
194.30000,-4.24120,-93.03000
194.40002,-4.24780,-93.16000
194.50002,-4.25450,-93.43000
194.60000,-4.26120,-93.70000
194.70002,-4.26780,-93.96000
194.80000,-4.27450,-94.23000
194.90002,-4.28120,-94.37000
195.00002,-4.28780,-94.50000
195.10000,-4.29450,-94.77000
195.20002,-4.30120,-94.90000
195.30000,-4.30780,-95.17000
195.40002,-4.31450,-95.31000
195.50002,-4.32120,-95.58000
195.60000,-4.32780,-95.71000
195.70002,-4.33450,-95.98000
195.80000,-4.34120,-96.25000
195.90002,-4.34780,-96.52000
196.00002,-4.35450,-96.65000
196.10000,-4.36120,-96.78000
196.20002,-4.36780,-96.92000
196.30000,-4.37450,-97.19000
196.40002,-4.38120,-97.45000
196.50002,-4.38780,-97.72000
196.60000,-4.39450,-97.99000
196.70002,-4.40120,-98.13000
196.80000,-4.40780,-98.26000
196.90002,-4.41450,-98.39000
197.00002,-4.42120,-98.66000
197.10000,-4.42780,-98.93000
197.20002,-4.43450,-99.20000
197.30000,-4.44120,-99.33000
197.40002,-4.44780,-99.47000
197.50002,-4.45450,-99.74000
197.60000,-4.46120,-100.00000
197.70002,-4.46780,-100.14000
197.80000,-4.47450,-100.54000
197.90002,-4.48120,-100.68000
198.00002,-4.48780,-100.81000
198.10000,-4.49450,-100.94000
198.20002,-4.50120,-101.21000
198.30000,-4.50780,-101.35000
198.40002,-4.51450,-101.62000
198.50002,-4.52110,-101.88000
198.60000,-4.52780,-102.15000
198.70002,-4.53450,-102.29000
198.80000,-4.54110,-102.56000
198.90002,-4.54780,-102.69000
199.00002,-4.55450,-102.82000
199.10000,-4.56110,-103.09000
199.20002,-4.56780,-103.23000
199.30000,-4.57450,-103.49000
199.40002,-4.58110,-103.76000
199.50002,-4.58780,-103.90000
199.60000,-4.59450,-104.17000
199.70002,-4.60110,-104.30000
199.80000,-4.60780,-104.57000
199.90002,-4.61450,-104.84000
200.00002,-4.62110,-105.11000
200.10000,-4.62780,-105.11000
200.20002,-4.63450,-105.24000
200.30000,-4.64110,-105.51000
200.40002,-4.64780,-105.91000
200.50002,-4.65450,-106.05000
200.60000,-4.66110,-106.18000
200.70002,-4.66780,-106.45000
200.80000,-4.67450,-106.72000
200.90002,-4.68110,-106.85000
201.00002,-4.68780,-106.98000
201.10000,-4.69450,-107.25000
201.20002,-4.70110,-107.52000
201.30000,-4.70780,-107.66000
201.40002,-4.71450,-107.92000
201.50002,-4.72110,-108.06000
201.60000,-4.72780,-108.33000
201.70002,-4.73450,-108.46000
201.80000,-4.74110,-108.73000
201.90002,-4.74780,-108.86000
202.00002,-4.75450,-109.13000
202.10000,-4.76110,-109.27000
202.20002,-4.76780,-109.54000
202.30000,-4.77450,-109.80000
202.40002,-4.78110,-109.94000
202.50002,-4.78780,-110.07000
202.60000,-4.79450,-110.34000
202.70002,-4.80110,-110.47000
202.80000,-4.80780,-110.74000
202.90002,-4.81450,-111.01000
203.00002,-4.82110,-111.15000
203.10000,-4.82780,-111.28000
203.20002,-4.83450,-111.68000
203.30000,-4.84110,-111.82000
203.40002,-4.84780,-111.95000
203.50002,-4.85450,-112.09000
203.60000,-4.86110,-112.35000
203.70002,-4.86780,-112.49000
203.80000,-4.87450,-112.76000
203.90002,-4.88110,-113.03000
204.00002,-4.88780,-113.16000
204.10000,-4.89450,-113.43000
204.20002,-4.90110,-113.43000
204.30000,-4.90780,-113.70000
204.40002,-4.91450,-113.96000
204.50002,-4.92110,-114.10000
204.60000,-4.92780,-114.50000
204.70002,-4.93450,-114.64000
204.80000,-4.94110,-114.90000
204.90002,-4.94780,-114.90000
205.00002,-4.95450,-115.17000
205.10000,-4.96110,-115.31000
205.20002,-4.96780,-115.58000
205.30000,-4.97450,-115.71000
205.40002,-4.98110,-115.98000
205.50002,-4.98780,-116.11000
205.60000,-4.99450,-116.52000
205.70002,-5.00110,-116.52000
205.80000,-5.00780,-116.78000
205.90002,-5.01450,-117.05000
206.00002,-5.02110,-117.19000
206.10000,-5.02780,-117.32000
206.20002,-5.03440,-117.59000
206.30000,-5.04110,-117.72000
206.40002,-5.04780,-117.99000
206.50002,-5.05440,-118.26000
206.60000,-5.06110,-118.39000
206.70002,-5.06780,-118.66000
206.80000,-5.07440,-118.80000
206.90002,-5.08110,-118.93000
207.00002,-5.08780,-119.20000
207.10000,-5.09440,-119.33000
207.20002,-5.10110,-119.47000
207.30000,-5.10780,-119.74000
207.40002,-5.11440,-119.87000
207.50002,-5.12110,-120.14000
207.60000,-5.12780,-120.41000
207.70002,-5.13440,-120.54000
207.80000,-5.14110,-120.81000
207.90002,-5.14780,-120.94000
208.00002,-5.15440,-121.08000
208.10000,-5.16110,-121.21000
208.20002,-5.16780,-121.48000
208.30000,-5.17440,-121.75000
208.40002,-5.18110,-121.88000
208.50002,-5.18780,-122.02000
208.60000,-5.19440,-122.42000
208.70002,-5.20110,-122.56000
208.80000,-5.20780,-122.69000
208.90002,-5.21440,-122.82000
209.00002,-5.22110,-122.96000
209.10000,-5.22780,-123.09000
209.20002,-5.23440,-123.36000
209.30000,-5.24110,-123.63000
209.40002,-5.24780,-123.63000
209.50002,-5.25440,-123.90000
209.60000,-5.26110,-124.03000
209.70002,-5.26780,-124.17000
209.80000,-5.27440,-124.43000
209.90002,-5.28110,-124.57000
210.00002,-5.28780,-124.84000
210.10000,-5.29440,-124.97000
210.20002,-5.30110,-125.24000
210.30000,-5.30780,-125.37000
210.40002,-5.31440,-125.51000
210.50002,-5.32110,-125.78000
210.60000,-5.32780,-125.91000
210.70002,-5.33440,-126.18000
210.80000,-5.34110,-126.31000
210.90002,-5.34780,-126.58000
211.00002,-5.35440,-126.72000
211.10000,-5.36110,-126.85000
211.20002,-5.36780,-127.12000
211.30000,-5.37440,-127.25000
211.40002,-5.38110,-127.52000
211.50002,-5.38780,-127.52000
211.60000,-5.39440,-127.79000
211.70002,-5.40110,-127.92000
211.80000,-5.40780,-128.06000
211.90002,-5.41440,-128.33000
212.00002,-5.42110,-128.46000
212.10000,-5.42780,-128.60000
212.20002,-5.43440,-128.86000
212.30000,-5.44110,-128.86000
212.40002,-5.44780,-129.13000
212.50002,-5.45440,-129.27000
212.60000,-5.46110,-129.40000
212.70002,-5.46780,-129.67000
212.80000,-5.47440,-129.94000
212.90002,-5.48110,-129.94000
213.00002,-5.48780,-130.07000
213.10000,-5.49440,-130.34000
213.20002,-5.50110,-130.47000
213.30000,-5.50780,-130.61000
213.40002,-5.51440,-130.88000
213.50002,-5.52110,-131.01000
213.60000,-5.52780,-131.15000
213.70002,-5.53440,-131.28000
213.80000,-5.54110,-131.55000
213.90002,-5.54780,-131.68000
214.00002,-5.55440,-131.95000
214.10000,-5.56110,-131.95000
214.20002,-5.56770,-132.09000
214.30000,-5.57440,-132.35000
214.40002,-5.58110,-132.35000
214.50002,-5.58770,-132.49000
214.60000,-5.59440,-132.76000
214.70002,-5.60110,-133.03000
214.80000,-5.60770,-133.16000
214.90002,-5.61440,-133.43000
215.00002,-5.62110,-133.56000
215.10000,-5.62770,-133.70000
215.20002,-5.63440,-133.83000
215.30000,-5.64110,-133.96000
215.40002,-5.64770,-134.10000
215.50002,-5.65440,-134.50000
215.60000,-5.66110,-134.50000
215.70002,-5.66770,-134.64000
215.80000,-5.67440,-134.90000
215.90002,-5.68110,-135.04000
216.00002,-5.68770,-135.31000
216.10000,-5.69440,-135.44000
216.20002,-5.70110,-135.44000
216.30000,-5.70770,-135.58000
216.40002,-5.71440,-135.84000
216.50002,-5.72110,-135.98000
216.60000,-5.72770,-136.25000
216.70002,-5.73440,-136.52000
216.80000,-5.74110,-136.52000
216.90002,-5.74770,-136.78000
217.00002,-5.75440,-136.78000
217.10000,-5.76110,-136.92000
217.20002,-5.76770,-137.05000
217.30000,-5.77440,-137.32000
217.40002,-5.78110,-137.59000
217.50002,-5.78770,-137.72000
217.60000,-5.79440,-137.86000
217.70002,-5.80110,-137.99000
217.80000,-5.80770,-138.13000
217.90002,-5.81440,-138.26000
218.00002,-5.82110,-138.39000
218.10000,-5.82770,-138.53000
218.20002,-5.83440,-138.66000
218.30000,-5.84110,-138.80000
218.40002,-5.84770,-139.07000
218.50002,-5.85440,-139.20000
218.60000,-5.86110,-139.33000
218.70002,-5.86770,-139.60000
218.80000,-5.87440,-139.74000
218.90002,-5.88110,-139.87000
219.00002,-5.88770,-140.14000
219.10000,-5.89440,-140.14000
219.20002,-5.90110,-140.27000
219.30000,-5.90770,-140.54000
219.40002,-5.91440,-140.81000
219.50002,-5.92110,-140.94000
219.60000,-5.92770,-141.08000
219.70002,-5.93440,-141.21000
219.80000,-5.94110,-141.35000
219.90002,-5.94770,-141.48000
220.00002,-5.95440,-141.75000
220.10000,-5.96110,-141.88000
220.20002,-5.96770,-142.02000
220.30000,-5.97440,-142.15000
220.40002,-5.98110,-142.29000
220.50002,-5.98770,-142.42000
220.60000,-5.99440,-142.69000
220.70002,-6.00110,-142.82000
220.80000,-6.00770,-143.09000
220.90002,-6.01440,-143.23000
221.00002,-6.02110,-143.36000
221.10000,-6.02770,-143.36000
221.20002,-6.03440,-143.49000
221.30000,-6.04110,-143.76000
221.40002,-6.04770,-143.90000
221.50002,-6.05440,-144.03000
221.60000,-6.06110,-144.30000
221.70002,-6.06770,-144.57000
221.80000,-6.07440,-144.57000
221.90002,-6.08100,-144.70000
222.00002,-6.08770,-144.84000
222.10000,-6.09440,-145.11000
222.20002,-6.10100,-145.11000
222.30000,-6.10770,-145.24000
222.40002,-6.11440,-145.51000
222.50002,-6.12100,-145.64000
222.60000,-6.12770,-145.78000
222.70002,-6.13440,-146.05000
222.80000,-6.14100,-146.31000
222.90002,-6.14770,-146.31000
223.00002,-6.15440,-146.45000
223.10000,-6.16100,-146.58000
223.20002,-6.16770,-146.72000
223.30000,-6.17440,-146.85000
223.40002,-6.18100,-146.98000
223.50002,-6.18770,-147.25000
223.60000,-6.19440,-147.39000
223.70002,-6.20100,-147.52000
223.80000,-6.20770,-147.66000
223.90002,-6.21440,-147.92000
224.00002,-6.22100,-148.06000
224.10000,-6.22770,-148.19000
224.20002,-6.23440,-148.33000
224.30000,-6.24100,-148.33000
224.40002,-6.24770,-148.60000
224.50002,-6.25440,-148.73000
224.60000,-6.26100,-148.86000
224.70002,-6.26770,-149.13000
224.80000,-6.27440,-149.40000
224.90002,-6.28100,-149.54000
225.00002,-6.28770,-149.54000
225.10000,-6.29440,-149.80000
225.20002,-6.30100,-149.80000
225.30002,-6.30770,-149.94000
225.40002,-6.31440,-150.21000
225.50002,-6.32100,-150.34000
225.60000,-6.32770,-150.47000
225.70002,-6.33440,-150.61000
225.80002,-6.34100,-150.74000
225.90002,-6.34770,-151.01000
226.00002,-6.35440,-151.15000
226.10000,-6.36100,-151.28000
226.20002,-6.36770,-151.41000
226.30002,-6.37440,-151.55000
226.40002,-6.38100,-151.68000
226.50002,-6.38770,-151.82000
226.60000,-6.39440,-151.95000
226.70002,-6.40100,-152.09000
226.80002,-6.40770,-152.35000
226.90002,-6.41440,-152.49000
227.00002,-6.42100,-152.62000
227.10000,-6.42770,-152.89000
227.20002,-6.43440,-152.89000
227.30002,-6.44100,-153.16000
227.40002,-6.44770,-153.29000
227.50002,-6.45440,-153.56000
227.60000,-6.46100,-153.56000
227.70002,-6.46770,-153.70000
227.80002,-6.47440,-153.96000
227.90002,-6.48100,-154.10000
228.00002,-6.48770,-154.23000
228.10000,-6.49440,-154.37000
228.20002,-6.50100,-154.50000
228.30002,-6.50770,-154.77000
228.40002,-6.51440,-154.77000
228.50002,-6.52100,-154.77000
228.60000,-6.52770,-155.04000
228.70002,-6.53440,-155.17000
228.80002,-6.54100,-155.44000
228.90002,-6.54770,-155.58000
229.00002,-6.55440,-155.84000
229.10000,-6.56100,-155.84000
229.20002,-6.56770,-155.84000
229.30002,-6.57440,-156.11000
229.40002,-6.58100,-156.25000
229.50002,-6.58770,-156.37999
229.60000,-6.59440,-156.65000
229.70002,-6.60100,-156.78000
229.80002,-6.60770,-156.91999
229.90002,-6.61430,-157.05001
230.00002,-6.62100,-157.19000
230.10000,-6.62770,-157.32000
230.20002,-6.63430,-157.59001
230.30002,-6.64100,-157.72000
230.40002,-6.64770,-157.72000
230.50002,-6.65430,-157.99001
230.60000,-6.66100,-157.99001
230.70002,-6.66770,-158.26000
230.80002,-6.67430,-158.53001
230.90002,-6.68100,-158.66000
231.00002,-6.68770,-158.80000
231.10000,-6.69430,-158.92999
231.20002,-6.70100,-159.07001
231.30002,-6.70770,-159.07001
231.40002,-6.71430,-159.33000
231.50002,-6.72100,-159.46999
231.60000,-6.72770,-159.60000
231.70002,-6.73430,-159.86999
231.80002,-6.74100,-160.00001
231.90002,-6.74770,-160.00001
232.00002,-6.75430,-160.27000
232.10000,-6.76100,-160.40999
232.20002,-6.76770,-160.40999
232.30002,-6.77430,-160.68000
232.40002,-6.78100,-160.81000
232.50002,-6.78770,-161.08001
232.60000,-6.79430,-161.08001
232.70002,-6.80100,-161.21000
232.80002,-6.80770,-161.35000
232.90002,-6.81430,-161.62001
233.00002,-6.82100,-161.75000
233.10000,-6.82770,-161.87999
233.20002,-6.83430,-162.02001
233.30002,-6.84100,-162.02001
233.40002,-6.84770,-162.15000
233.50002,-6.85430,-162.41999
233.60000,-6.86100,-162.56001
233.70002,-6.86770,-162.69000
233.80002,-6.87430,-162.95999
233.90002,-6.88100,-162.95999
234.00002,-6.88770,-163.09001
234.10000,-6.89430,-163.23000
234.20002,-6.90100,-163.36000
234.30002,-6.90770,-163.49001
234.40002,-6.91430,-163.63000
234.50002,-6.92100,-163.90000
234.60000,-6.92770,-163.90000
234.70002,-6.93430,-164.17000
234.80002,-6.94100,-164.30000
234.90002,-6.94770,-164.42999
235.00002,-6.95430,-164.57001
235.10000,-6.96100,-164.70000
235.20002,-6.96770,-164.84000
235.30002,-6.97430,-164.84000
235.40002,-6.98100,-165.11001
235.50002,-6.98770,-165.24000
235.60000,-6.99430,-165.50999
235.70002,-7.00100,-165.64000
235.80002,-7.00770,-165.78000
235.90002,-7.01430,-165.90999
236.00002,-7.02100,-166.04999
236.10000,-7.02770,-166.04999
236.20002,-7.03430,-166.31000
236.30002,-7.04100,-166.44999
236.40002,-7.04770,-166.58001
236.50002,-7.05430,-166.72000
236.60000,-7.06100,-166.85000
236.70002,-7.06770,-166.97999
236.80002,-7.07430,-167.12001
236.90002,-7.08100,-167.25000
237.00002,-7.08770,-167.52001
237.10000,-7.09430,-167.66001
237.20002,-7.10100,-167.79000
237.30002,-7.10770,-167.79000
237.40002,-7.11430,-167.91999
237.50002,-7.12100,-168.19000
237.60000,-7.12760,-168.19000
237.70002,-7.13430,-168.45999
237.80002,-7.14100,-168.60001
237.90002,-7.14760,-168.73000
238.00002,-7.15430,-168.86000
238.10000,-7.16100,-168.99999
238.20002,-7.16760,-169.13000
238.30002,-7.17430,-169.40000
238.40002,-7.18100,-169.53999
238.50002,-7.18760,-169.53999
238.60000,-7.19430,-169.67000
238.70002,-7.20100,-169.80000
238.80002,-7.20760,-169.93999
238.90002,-7.21430,-170.07001
239.00002,-7.22100,-170.34000
239.10000,-7.22760,-170.46999
239.20002,-7.23430,-170.61001
239.30002,-7.24100,-170.61001
239.40002,-7.24760,-170.74000
239.50002,-7.25430,-170.88000
239.60000,-7.26100,-171.00999
239.70002,-7.26760,-171.28000
239.80002,-7.27430,-171.40999
239.90002,-7.28100,-171.54999
240.00002,-7.28760,-171.54999
240.10000,-7.29430,-171.82000
240.20002,-7.30100,-171.94999
240.30002,-7.30760,-172.09001
240.40002,-7.31430,-172.22000
240.50002,-7.32100,-172.35000
240.60000,-7.32760,-172.48999
240.70002,-7.33430,-172.62001
240.80002,-7.34100,-172.89000
240.90002,-7.34760,-173.02999
241.00002,-7.35430,-173.16001
241.10000,-7.36100,-173.29000
241.20002,-7.36760,-173.43000
241.30002,-7.37430,-173.56001
241.40002,-7.38100,-173.56001
241.50002,-7.38760,-173.83000
241.60000,-7.39430,-173.95999
241.70002,-7.40100,-174.10001
241.80002,-7.40760,-174.23000
241.90002,-7.41430,-174.49999
242.00002,-7.42100,-174.49999
242.10000,-7.42760,-174.49999
242.20002,-7.43430,-174.64001
242.30002,-7.44100,-174.90000
242.40002,-7.44760,-174.90000
242.50002,-7.45430,-175.17000
242.60000,-7.46100,-175.31000
242.70002,-7.46760,-175.43999
242.80002,-7.47430,-175.43999
242.90002,-7.48100,-175.71000
243.00002,-7.48760,-175.84000
243.10000,-7.49430,-175.97999
243.20002,-7.50100,-176.11001
243.30002,-7.50760,-176.25000
243.40002,-7.51430,-176.25000
243.50002,-7.52100,-176.51999
243.60000,-7.52760,-176.65001
243.70002,-7.53430,-176.92000
243.80002,-7.54100,-176.92000
243.90002,-7.54760,-177.04999
244.00002,-7.55430,-177.19001
244.10000,-7.56100,-177.19001
244.20002,-7.56760,-177.44999
244.30002,-7.57430,-177.59001
244.40002,-7.58100,-177.72000
244.50002,-7.58760,-177.72000
244.60000,-7.59430,-177.98999
244.70002,-7.60100,-178.13001
244.80002,-7.60760,-178.26000
244.90002,-7.61430,-178.39000
245.00002,-7.62100,-178.52999
245.10000,-7.62760,-178.66001
245.20002,-7.63430,-178.80000
245.30002,-7.64090,-178.93000
245.40002,-7.64760,-178.93000
245.50002,-7.65430,-179.06999
245.60000,-7.66090,-179.20000
245.70002,-7.66760,-179.47000
245.80002,-7.67430,-179.60001
245.90002,-7.68090,-179.74000
246.00002,-7.68760,-179.87000
246.10000,-7.69430,-179.99999
246.20002,-7.70090,-180.14001
246.30002,-7.70760,-180.14001
246.40002,-7.71430,-180.41000
246.50002,-7.72090,-180.53999
246.60000,-7.72760,-180.68001
246.70002,-7.73430,-180.81000
246.80002,-7.74090,-180.93999
246.90002,-7.74760,-180.93999
247.00002,-7.75430,-181.07999
247.10000,-7.76090,-181.35000
247.20002,-7.76760,-181.47999
247.30002,-7.77430,-181.47999
247.40002,-7.78090,-181.62001
247.50002,-7.78760,-181.75000
247.60000,-7.79430,-181.88000
247.70002,-7.80090,-182.01999
247.80002,-7.80760,-182.15001
247.90002,-7.81430,-182.42000
248.00002,-7.82090,-182.42000
248.10000,-7.82760,-182.15001
248.20002,-7.83430,-182.29000
248.30002,-7.84090,-182.42000
248.40002,-7.84760,-182.55999
248.50002,-7.85430,-182.55999
248.60000,-7.86090,-182.82000
248.70002,-7.86760,-182.96000
248.80002,-7.87430,-183.09001
248.90002,-7.88090,-183.23001
249.00002,-7.88760,-183.36000
249.10000,-7.89430,-183.63001
249.20002,-7.90090,-183.63001
249.30002,-7.90760,-183.76000
249.40002,-7.91430,-183.76000
249.50002,-7.92090,-183.90000
249.60000,-7.92760,-183.90000
249.70002,-7.93430,-184.17001
249.80002,-7.94090,-184.30000
249.90002,-7.94760,-184.43000
250.00002,-7.95430,-184.56999
250.10000,-7.96090,-184.70000
250.20002,-7.96760,-184.84000
250.30002,-7.97430,-184.97000
250.40002,-7.98090,-184.97000
250.50002,-7.98760,-185.24000
250.60000,-7.99430,-185.37000
250.70002,-8.00090,-185.50999
250.80002,-8.00760,-185.64001
250.90002,-8.01430,-185.78000
251.00002,-8.02090,-185.91000
251.10000,-8.02760,-185.91000
251.20002,-8.03430,-186.18001
251.30002,-8.04090,-186.31000
251.40002,-8.04760,-186.45000
251.50002,-8.05430,-186.57999
251.60000,-8.06090,-186.57999
251.70002,-8.06760,-186.72001
251.80002,-8.07430,-186.97999
251.90002,-8.08090,-186.97999
252.00002,-8.08760,-187.12001
252.10000,-8.09430,-187.25000
252.20002,-8.10090,-187.39000
252.30002,-8.10760,-187.51999
252.40002,-8.11430,-187.66001
252.50002,-8.12090,-187.79000
252.60000,-8.12760,-187.92000
252.70002,-8.13430,-188.05999
252.80002,-8.14090,-188.05999
252.90002,-8.14760,-188.33000
253.00002,-8.15430,-188.33000
253.10000,-8.16090,-188.46000
253.20002,-8.16760,-188.59999
253.30002,-8.17420,-188.86000
253.40002,-8.18090,-188.86000
253.50002,-8.18760,-189.00000
253.60000,-8.19420,-189.13001
253.70002,-8.20090,-189.27000
253.80002,-8.20760,-189.27000
253.90002,-8.21420,-189.54000
254.00002,-8.22090,-189.67001
254.10000,-8.22760,-189.80000
254.20002,-8.23420,-189.80000
254.30002,-8.24090,-189.94000
254.40002,-8.24760,-190.06999
254.50002,-8.25420,-190.34000
254.60000,-8.26090,-190.34000
254.70002,-8.26760,-190.47000
254.80002,-8.27420,-190.47000
254.90002,-8.28090,-190.60999
255.00002,-8.28760,-190.88000
255.10000,-8.29420,-191.00999
255.20002,-8.30090,-191.00999
255.30002,-8.30760,-191.28000
255.40002,-8.31420,-191.41000
255.50002,-8.32090,-191.41000
255.60000,-8.32760,-191.41000
255.70002,-8.33420,-191.68001
255.80002,-8.34090,-191.68001
255.90002,-8.34760,-191.95000
256.00000,-8.35420,-192.08999
256.10000,-8.36090,-192.22001
256.20002,-8.36760,-192.22001
256.30002,-8.37420,-192.35000
256.40003,-8.38090,-192.49000
256.50000,-8.38760,-192.62001
256.60000,-8.39420,-192.76001
256.70002,-8.40090,-192.76001
256.80002,-8.40760,-193.03000
256.90003,-8.41420,-193.03000
257.00000,-8.42090,-193.29000
257.10000,-8.42760,-193.43000
257.20002,-8.43420,-193.55999
257.30002,-8.44090,-193.70001
257.40003,-8.44760,-193.70001
257.50000,-8.45420,-193.83000
257.60000,-8.46090,-193.83000
257.70002,-8.46760,-194.09999
257.80002,-8.47420,-194.23001
257.90003,-8.48090,-194.37000
258.00000,-8.48760,-194.50000
258.10000,-8.49420,-194.63999
258.20002,-8.50090,-194.63999
258.30002,-8.50760,-194.77000
258.40003,-8.51420,-194.63999
258.50000,-8.52090,-194.77000
258.60000,-8.52760,-194.90000
258.70002,-8.53420,-195.17001
258.80002,-8.54090,-195.17001
258.90003,-8.54760,-195.31000
259.00000,-8.55420,-195.44000
259.10000,-8.56090,-195.57999
259.20002,-8.56760,-195.71001
259.30002,-8.57420,-195.84000
259.40003,-8.58090,-195.84000
259.50000,-8.58760,-195.98000
259.60000,-8.59420,-196.10999
259.70002,-8.60090,-196.10999
259.80002,-8.60760,-196.25001
259.90003,-8.61420,-196.52000
260.00000,-8.62090,-196.64999
260.10000,-8.62760,-196.78000
260.20002,-8.63420,-196.78000
260.30002,-8.64090,-196.92000
260.40003,-8.64760,-196.92000
260.50000,-8.65420,-197.04999
260.60000,-8.66090,-197.32000
260.70002,-8.66760,-197.45000
260.80002,-8.67420,-197.45000
260.90003,-8.68090,-197.58999
261.00000,-8.68750,-197.86000
261.10000,-8.69420,-197.86000
261.20002,-8.70090,-197.99000
261.30002,-8.70750,-198.12999
261.40003,-8.71420,-198.26001
261.50000,-8.72090,-198.39000
261.60000,-8.72750,-198.39000
261.70002,-8.73420,-198.66001
261.80002,-8.74090,-198.66001
261.90003,-8.74750,-198.80001
262.00000,-8.75420,-198.93000
262.10000,-8.76090,-199.07000
262.20000,-8.76750,-199.20001
262.30003,-8.77420,-199.33000
262.40003,-8.78090,-199.33000
262.50000,-8.78750,-199.33000
262.60000,-8.79420,-199.74001
262.70000,-8.80090,-199.74001
262.80003,-8.80750,-199.87000
262.90003,-8.81420,-199.87000
263.00000,-8.82090,-200.00000
263.10000,-8.82750,-200.13999
263.20000,-8.83420,-200.41000
263.30003,-8.84090,-200.41000
263.40003,-8.84750,-200.53999
263.50000,-8.85420,-200.53999
263.60000,-8.86090,-200.67999
263.70000,-8.86750,-200.81000
263.80003,-8.87420,-200.94000
263.90003,-8.88090,-200.94000
264.00000,-8.88750,-201.07999
264.10000,-8.89420,-201.21001
264.20000,-8.90090,-201.35000
264.30003,-8.90750,-201.48000
264.40003,-8.91420,-201.48000
264.50000,-8.92090,-201.61999
264.60000,-8.92750,-201.75001
264.70000,-8.93420,-201.88000
264.80003,-8.94090,-202.02000
264.90003,-8.94750,-202.02000
265.00000,-8.95420,-202.14999
265.10000,-8.96090,-202.29001
265.20000,-8.96750,-202.42000
265.30003,-8.97420,-202.56000
265.40003,-8.98090,-202.69001
265.50000,-8.98750,-202.69001
265.60000,-8.99420,-202.82000
265.70000,-9.00090,-202.96000
265.80003,-9.00750,-202.96000
265.90003,-9.01420,-203.08999
266.00000,-9.02090,-203.23001
266.10000,-9.02750,-203.49000
266.20000,-9.03420,-203.62999
266.30003,-9.04090,-203.62999
266.40003,-9.04750,-203.76001
266.50000,-9.05420,-203.76001
266.60000,-9.06090,-203.90000
266.70000,-9.06750,-204.03000
266.80003,-9.07420,-204.16999
266.90003,-9.08090,-204.30000
267.00000,-9.08750,-204.30000
267.10000,-9.09420,-204.43000
267.20000,-9.10090,-204.57000
267.30003,-9.10750,-204.43000
267.40003,-9.11420,-204.57000
267.50000,-9.12090,-204.43000
267.60000,-9.12750,-201.35000
267.70000,-9.13420,-167.52001
267.75000,-9.13750,8.18000
