Time,Extension,Load
(sec),(mm),(N)
0.00000,-1.42170,-1.48000
0.10000,-1.42980,-1.75000
0.20000,-1.43640,-1.88000
0.30000,-1.44310,-2.02000
0.40000,-1.44970,-2.15000
0.50000,-1.45640,-2.29000
0.60000,-1.46310,-2.42000
0.70000,-1.46970,-2.56000
0.80000,-1.47640,-2.69000
0.90000,-1.48310,-2.69000
1.00000,-1.48970,-2.82000
1.10000,-1.49640,-2.96000
1.20000,-1.50310,-3.09000
1.30000,-1.50970,-3.23000
1.40000,-1.51640,-3.36000
1.50000,-1.52310,-3.63000
1.60000,-1.52970,-3.63000
1.70000,-1.53640,-3.76000
1.80000,-1.54310,-3.90000
1.90000,-1.54970,-4.03000
2.00000,-1.55640,-4.17000
2.10000,-1.56310,-4.30000
2.20000,-1.56970,-4.43000
2.30000,-1.57640,-4.57000
2.40000,-1.58310,-4.57000
2.50000,-1.58970,-4.70000
2.60000,-1.59640,-4.84000
2.70000,-1.60310,-4.97000
2.80000,-1.60970,-5.11000
2.90000,-1.61640,-5.24000
3.00000,-1.62310,-5.37000
3.10000,-1.62970,-5.51000
3.20000,-1.63640,-5.64000
3.30000,-1.64310,-5.78000
3.40000,-1.64970,-5.78000
3.50000,-1.65640,-5.91000
3.60000,-1.66310,-6.05000
3.70000,-1.66970,-6.31000
3.80000,-1.67640,-6.45000
3.90000,-1.68310,-6.45000
4.00000,-1.68970,-6.58000
4.10000,-1.69640,-6.72000
4.20000,-1.70310,-6.85000
4.30000,-1.70970,-6.98000
4.40000,-1.71640,-7.12000
4.50000,-1.72310,-7.25000
4.60000,-1.72970,-7.39000
4.70000,-1.73640,-7.52000
4.80000,-1.74310,-7.52000
4.90000,-1.74970,-7.79000
5.00000,-1.75640,-7.79000
5.10000,-1.76310,-8.06000
5.20000,-1.76970,-8.19000
5.30000,-1.77640,-8.33000
5.40000,-1.78310,-8.46000
5.50000,-1.78970,-8.46000
5.60000,-1.79640,-8.60000
5.70000,-1.80310,-8.73000
5.80000,-1.80970,-8.86000
5.90000,-1.81640,-9.00000
6.00000,-1.82310,-9.13000
6.10000,-1.82970,-9.27000
6.20000,-1.83640,-9.40000
6.30000,-1.84310,-9.67000
6.40000,-1.84970,-9.80000
6.50000,-1.85640,-9.94000
6.60000,-1.86310,-10.07000
6.70000,-1.86970,-10.21000
6.80000,-1.87640,-10.34000
6.90000,-1.88310,-10.47000
7.00000,-1.88970,-10.61000
7.10000,-1.89640,-10.74000
7.20000,-1.90310,-10.88000
7.30000,-1.90970,-11.15000
7.40000,-1.91640,-11.28000
7.50000,-1.92310,-11.28000
7.60000,-1.92970,-11.55000
7.70000,-1.93640,-11.55000
7.80000,-1.94310,-11.68000
7.90000,-1.94970,-11.82000
8.00000,-1.95640,-11.95000
8.10000,-1.96300,-12.09000
8.20000,-1.96970,-12.35000
8.30000,-1.97640,-12.49000
8.40000,-1.98300,-12.49000
8.50000,-1.98970,-12.62000
8.60000,-1.99640,-12.76000
8.70000,-2.00300,-12.89000
8.80000,-2.00970,-12.89000
8.90000,-2.01640,-13.16000
9.00000,-2.02300,-13.29000
9.10000,-2.02970,-13.43000
9.20000,-2.03640,-13.56000
9.30000,-2.04300,-13.70000
9.40000,-2.04970,-13.96000
9.50000,-2.05640,-13.96000
9.60000,-2.06300,-14.10000
9.70000,-2.06970,-14.23000
9.80000,-2.07640,-14.23000
9.90000,-2.08300,-14.50000
10.00000,-2.08970,-14.64000
10.10000,-2.09640,-14.77000
10.20000,-2.10300,-14.90000
10.30000,-2.10970,-15.17000
10.40000,-2.11640,-15.17000
10.50000,-2.12300,-15.31000
10.60000,-2.12970,-15.31000
10.70000,-2.13640,-15.44000
10.80000,-2.14300,-15.58000
10.90000,-2.14970,-15.71000
11.00000,-2.15640,-15.84000
11.10000,-2.16300,-16.11000
11.20000,-2.16970,-16.25000
11.30000,-2.17640,-16.25000
11.40000,-2.18300,-16.38000
11.50000,-2.18970,-16.52000
11.60000,-2.19640,-16.65000
11.70000,-2.20300,-16.78000
11.80000,-2.20970,-16.92000
11.90000,-2.21640,-17.05000
12.00000,-2.22300,-17.19000
12.10000,-2.22970,-17.32000
12.20000,-2.23640,-17.45000
12.30000,-2.24300,-17.59000
12.40000,-2.24970,-17.72000
12.50000,-2.25640,-17.86000
12.60000,-2.26300,-17.99000
12.70000,-2.26970,-18.13000
12.80000,-2.27640,-18.13000
12.90000,-2.28300,-18.26000
13.00000,-2.28970,-18.53000
13.10000,-2.29640,-18.66000
13.20000,-2.30300,-18.80000
13.30000,-2.30970,-18.93000
13.40000,-2.31640,-19.07000
13.50000,-2.32300,-19.07000
13.60000,-2.32970,-19.20000
13.70000,-2.33640,-19.47000
13.80000,-2.34300,-19.47000
13.90000,-2.34970,-19.74000
14.00000,-2.35640,-19.74000
14.10000,-2.36300,-19.87000
14.20000,-2.36970,-20.00000
14.30000,-2.37640,-20.14000
14.40000,-2.38300,-20.27000
14.50000,-2.38970,-20.54000
14.60000,-2.39640,-20.54000
14.70000,-2.40300,-20.54000
14.80000,-2.40970,-20.81000
14.90000,-2.41640,-20.81000
15.00000,-2.42300,-21.08000
15.10000,-2.42970,-21.21000
15.20000,-2.43640,-21.35000
15.30000,-2.44300,-21.35000
15.40000,-2.44970,-21.62000
15.50000,-2.45640,-21.62000
15.60000,-2.46300,-21.88000
15.70000,-2.46970,-22.02000
15.80000,-2.47630,-22.02000
15.90000,-2.48300,-22.15000
16.00000,-2.48970,-22.42000
16.10000,-2.49630,-22.42000
16.20000,-2.50300,-22.69000
16.30000,-2.50970,-22.82000
16.40000,-2.51630,-22.96000
16.50000,-2.52300,-23.09000
16.60000,-2.52970,-23.23000
16.70000,-2.53630,-23.23000
16.80000,-2.54300,-23.36000
16.90000,-2.54970,-23.49000
17.00000,-2.55630,-23.63000
17.10000,-2.56300,-23.76000
17.20000,-2.56970,-23.90000
17.30000,-2.57630,-24.03000
17.40000,-2.58300,-24.17000
17.50000,-2.58970,-24.30000
17.60000,-2.59630,-24.43000
17.70000,-2.60300,-24.57000
17.80000,-2.60970,-24.57000
17.90000,-2.61630,-24.70000
18.00000,-2.62300,-24.97000
18.10000,-2.62970,-24.97000
18.20000,-2.63630,-25.24000
18.30000,-2.64300,-25.37000
18.40000,-2.64970,-25.64000
18.50000,-2.65630,-25.64000
18.60000,-2.66300,-25.78000
18.70000,-2.66970,-25.91000
18.80000,-2.67630,-25.91000
18.90000,-2.68300,-25.91000
19.00000,-2.68970,-26.18000
19.10000,-2.69630,-26.45000
19.20000,-2.70300,-26.45000
19.30000,-2.70970,-26.58000
19.40000,-2.71630,-26.72000
19.50000,-2.72300,-26.85000
19.60000,-2.72970,-26.98000
19.70000,-2.73630,-26.98000
19.80000,-2.74300,-27.12000
19.90000,-2.74970,-27.39000
20.00000,-2.75630,-27.52000
20.10000,-2.76300,-27.52000
20.20000,-2.76970,-27.79000
20.30000,-2.77630,-27.79000
20.40000,-2.78300,-28.06000
20.50000,-2.78970,-28.06000
20.60000,-2.79630,-28.19000
20.70000,-2.80300,-28.33000
20.80000,-2.80970,-28.33000
20.90000,-2.81630,-28.46000
21.00000,-2.82300,-28.60000
21.10000,-2.82970,-28.86000
21.20000,-2.83630,-29.00000
21.30000,-2.84300,-29.13000
21.40000,-2.84970,-29.27000
21.50000,-2.85630,-29.40000
21.60000,-2.86300,-29.40000
21.70000,-2.86970,-29.67000
21.80000,-2.87630,-29.80000
21.90000,-2.88300,-29.94000
22.00000,-2.88970,-30.07000
22.10000,-2.89630,-29.94000
22.20000,-2.90300,-30.21000
22.30000,-2.90970,-30.34000
22.40000,-2.91630,-30.61000
22.50000,-2.92300,-30.74000
22.60000,-2.92970,-31.01000
22.70000,-2.93630,-31.01000
22.80000,-2.94300,-31.15000
22.90000,-2.94970,-31.15000
23.00000,-2.95630,-31.41000
23.10000,-2.96300,-31.55000
23.20000,-2.96970,-31.68000
23.30000,-2.97630,-31.82000
23.40000,-2.98300,-32.09000
23.50000,-2.98970,-32.22000
23.60000,-2.99630,-32.22000
23.70000,-3.00300,-32.35000
23.80000,-3.00960,-32.62000
23.90000,-3.01630,-32.62000
24.00000,-3.02300,-32.76000
24.10000,-3.02960,-32.89000
24.20000,-3.03630,-32.89000
24.30000,-3.04300,-33.03000
24.40000,-3.04960,-33.29000
24.50000,-3.05630,-33.43000
24.60000,-3.06300,-33.43000
24.70000,-3.06960,-33.70000
24.80000,-3.07630,-33.70000
24.90000,-3.08300,-33.83000
25.00000,-3.08960,-33.96000
25.10000,-3.09630,-34.10000
25.20000,-3.10300,-34.10000
25.30000,-3.10960,-34.37000
25.40000,-3.11630,-34.50000
25.50000,-3.12300,-34.64000
25.60000,-3.12960,-34.77000
25.70000,-3.13630,-34.90000
25.80000,-3.14300,-35.04000
25.90000,-3.14960,-35.17000
26.00000,-3.15630,-35.17000
26.10000,-3.16300,-35.31000
26.20000,-3.16960,-35.44000
26.30000,-3.17630,-35.44000
26.40000,-3.18300,-35.71000
26.50000,-3.18960,-35.84000
26.60000,-3.19630,-35.98000
26.70000,-3.20300,-36.11000
26.80000,-3.20960,-36.25000
26.90000,-3.21630,-36.38000
27.00000,-3.22300,-36.38000
27.10000,-3.22960,-36.52000
27.20000,-3.23630,-36.65000
27.30000,-3.24300,-36.78000
27.40000,-3.24960,-36.92000
27.50000,-3.25630,-37.05000
27.60000,-3.26300,-37.19000
27.70000,-3.26960,-37.32000
27.80000,-3.27630,-37.45000
27.90000,-3.28300,-37.59000
28.00000,-3.28960,-37.72000
28.10000,-3.29630,-37.86000
28.20000,-3.30300,-37.86000
28.30000,-3.30960,-37.99000
28.40000,-3.31630,-38.13000
28.50000,-3.32300,-38.26000
28.60000,-3.32960,-38.53000
28.70000,-3.33630,-38.66000
28.80000,-3.34300,-38.66000
28.90000,-3.34960,-38.80000
29.00000,-3.35630,-38.93000
29.10000,-3.36300,-39.07000
29.20000,-3.36960,-39.20000
29.30000,-3.37630,-39.33000
29.40000,-3.38300,-39.33000
29.50000,-3.38960,-39.47000
29.60000,-3.39630,-39.60000
29.70000,-3.40300,-39.74000
29.80000,-3.40960,-39.87000
29.90000,-3.41630,-40.14000
30.00000,-3.42300,-40.14000
30.10000,-3.42960,-40.27000
30.20000,-3.43630,-40.41000
30.30000,-3.44300,-40.54000
30.40000,-3.44960,-40.68000
30.50000,-3.45630,-40.81000
30.60000,-3.46300,-40.81000
30.70000,-3.46960,-41.08000
30.80000,-3.47630,-41.21000
30.90000,-3.48300,-41.21000
31.00000,-3.48960,-41.35000
31.10000,-3.49630,-41.48000
31.20000,-3.50300,-41.62000
31.30000,-3.50960,-41.75000
31.40000,-3.51630,-41.88000
31.50000,-3.52290,-42.02000
31.60000,-3.52960,-42.02000
31.70000,-3.53630,-42.15000
31.80000,-3.54290,-42.29000
31.90000,-3.54960,-42.56000
32.00000,-3.55630,-42.56000
32.10000,-3.56290,-42.69000
32.20000,-3.56960,-42.82000
32.30000,-3.57630,-42.82000
32.40000,-3.58290,-43.09000
32.50000,-3.58960,-43.23000
32.60000,-3.59630,-43.36000
32.70000,-3.60290,-43.49000
32.80000,-3.60960,-43.63000
32.90000,-3.61630,-43.76000
33.00000,-3.62290,-43.76000
33.10000,-3.62960,-44.03000
33.20000,-3.63630,-44.03000
33.30000,-3.64290,-44.17000
33.40000,-3.64960,-44.30000
33.50000,-3.65630,-44.43000
33.60000,-3.66290,-44.43000
33.70000,-3.66960,-44.57000
33.80000,-3.67630,-44.70000
33.90000,-3.68290,-44.84000
34.00000,-3.68960,-44.97000
34.10000,-3.69630,-45.11000
34.20000,-3.70290,-45.24000
34.30000,-3.70960,-45.24000
34.40000,-3.71630,-45.51000
34.50000,-3.72290,-45.64000
34.60000,-3.72960,-45.78000
34.70000,-3.73630,-45.78000
34.80000,-3.74290,-45.91000
34.90000,-3.74960,-46.05000
35.00000,-3.75630,-46.05000
35.10000,-3.76290,-46.18000
35.20000,-3.76960,-46.45000
35.30000,-3.77630,-46.58000
35.40000,-3.78290,-46.72000
35.50000,-3.78960,-46.85000
35.60000,-3.79630,-46.85000
35.70000,-3.80290,-46.98000
35.80000,-3.80960,-46.98000
35.90000,-3.81630,-46.98000
36.00000,-3.82290,-47.12000
36.10000,-3.82960,-47.39000
36.20000,-3.83630,-47.52000
36.30000,-3.84290,-47.52000
36.40000,-3.84960,-47.66000
36.50000,-3.85630,-47.92000
36.60000,-3.86290,-47.92000
36.70000,-3.86960,-48.06000
36.80000,-3.87630,-48.19000
36.90000,-3.88290,-48.19000
37.00000,-3.88960,-48.33000
37.10000,-3.89630,-48.46000
37.20000,-3.90290,-48.60000
37.30000,-3.90960,-48.73000
37.40000,-3.91630,-48.86000
37.50000,-3.92290,-49.00000
37.60000,-3.92960,-49.00000
37.70000,-3.93630,-49.00000
37.80000,-3.94290,-49.13000
37.90000,-3.94960,-49.27000
38.00000,-3.95630,-49.40000
38.10000,-3.96290,-49.54000
38.20000,-3.96960,-49.54000
38.30000,-3.97630,-49.67000
38.40000,-3.98290,-49.67000
38.50000,-3.98960,-49.94000
38.60000,-3.99630,-50.07000
38.70000,-4.00290,-50.21000
38.80000,-4.00960,-50.21000
38.90000,-4.01630,-50.34000
39.00000,-4.02290,-50.34000
39.10000,-4.02960,-50.47000
39.20000,-4.03620,-50.61000
39.30000,-4.04290,-50.74000
39.40000,-4.04960,-50.88000
39.50000,-4.05620,-51.01000
39.60000,-4.06290,-51.15000
39.70000,-4.06960,-51.28000
39.80000,-4.07620,-51.28000
39.90000,-4.08290,-51.41000
40.00000,-4.08960,-51.55000
40.10000,-4.09620,-51.68000
40.20000,-4.10290,-51.82000
40.30000,-4.10960,-51.82000
40.40000,-4.11620,-51.95000
40.50000,-4.12290,-52.09000
40.60000,-4.12960,-52.22000
40.70000,-4.13620,-52.35000
40.80000,-4.14290,-52.49000
40.90000,-4.14960,-52.62000
41.00000,-4.15620,-52.62000
41.10000,-4.16290,-52.62000
41.20000,-4.16960,-52.76000
41.30000,-4.17620,-52.89000
41.40000,-4.18290,-53.03000
41.50000,-4.18960,-53.16000
41.60000,-4.19620,-53.29000
41.70000,-4.20290,-53.43000
41.80000,-4.20960,-53.56000
41.90000,-4.21620,-53.70000
42.00000,-4.22290,-53.70000
42.10000,-4.22960,-53.70000
42.20000,-4.23620,-53.96000
42.30000,-4.24290,-54.10000
42.40000,-4.24960,-54.10000
42.50000,-4.25620,-54.23000
42.60000,-4.26290,-54.37000
42.70000,-4.26960,-54.50000
42.80000,-4.27620,-54.64000
42.90000,-4.28290,-54.77000
43.00000,-4.28960,-54.90000
43.10000,-4.29620,-54.77000
43.20000,-4.30290,-55.04000
43.30000,-4.30960,-55.17000
43.40000,-4.31620,-55.17000
43.50000,-4.32290,-55.31000
43.60000,-4.32960,-55.58000
43.70000,-4.33620,-55.44000
43.80000,-4.34290,-55.71000
43.90000,-4.34960,-55.71000
44.00000,-4.35620,-55.84000
44.10000,-4.36290,-55.84000
44.20000,-4.36960,-55.98000
44.30000,-4.37620,-56.11000
44.40000,-4.38290,-56.25000
44.50000,-4.38960,-56.25000
44.60000,-4.39620,-56.38000
44.70000,-4.40290,-56.52000
44.80000,-4.40960,-56.65000
44.90000,-4.41620,-56.78000
45.00000,-4.42290,-56.78000
45.10000,-4.42960,-56.92000
45.20000,-4.43620,-57.05000
45.30000,-4.44290,-57.19000
45.40000,-4.44960,-57.32000
45.50000,-4.45620,-57.32000
45.60000,-4.46290,-57.45000
45.70000,-4.46960,-57.45000
45.80000,-4.47620,-57.59000
45.90000,-4.48290,-57.72000
46.00000,-4.48960,-57.86000
46.10000,-4.49620,-57.99000
46.20000,-4.50290,-57.99000
46.30000,-4.50960,-58.13000
46.40000,-4.51620,-58.26000
46.50000,-4.52290,-58.39000
46.60000,-4.52960,-58.39000
46.70000,-4.53620,-58.53000
46.80000,-4.54290,-58.66000
46.90000,-4.54960,-58.80000
47.00000,-4.55610,-58.93000
47.10000,-4.56280,-58.93000
47.20000,-4.56950,-59.07000
47.30000,-4.57610,-59.20000
47.40000,-4.58280,-59.20000
47.50000,-4.58950,-59.33000
47.60000,-4.59610,-59.60000
47.70000,-4.60280,-59.60000
47.80000,-4.60950,-59.74000
47.90000,-4.61610,-59.74000
48.00000,-4.62280,-59.87000
48.10000,-4.62950,-60.00000
48.20000,-4.63610,-60.14000
48.30000,-4.64280,-60.27000
48.40000,-4.64950,-60.27000
48.50000,-4.65610,-60.27000
48.60000,-4.66280,-60.54000
48.70000,-4.66950,-60.54000
48.80000,-4.67610,-60.81000
48.90000,-4.68280,-60.81000
49.00000,-4.68950,-60.94000
49.10000,-4.69610,-60.94000
49.20000,-4.70280,-61.08000
49.30000,-4.70950,-61.21000
49.40000,-4.71610,-61.21000
49.50000,-4.72280,-61.35000
49.60000,-4.72950,-61.62000
49.70000,-4.73610,-61.62000
49.80000,-4.74280,-61.62000
49.90000,-4.74950,-61.75000
50.00000,-4.75610,-61.75000
50.10000,-4.76280,-61.88000
50.20000,-4.76950,-62.02000
50.30000,-4.77610,-62.15000
50.40000,-4.78280,-62.29000
50.50000,-4.78950,-62.42000
50.60000,-4.79610,-62.42000
50.70000,-4.80280,-62.56000
50.80000,-4.80950,-62.69000
50.90000,-4.81610,-62.82000
51.00000,-4.82280,-62.82000
51.10000,-4.82950,-62.96000
51.20000,-4.83610,-62.96000
51.30000,-4.84280,-63.09000
51.40000,-4.84950,-63.23000
51.50000,-4.85610,-63.36000
51.60000,-4.86280,-63.49000
51.70000,-4.86950,-63.63000
51.80000,-4.87610,-63.63000
51.90000,-4.88280,-63.76000
52.00000,-4.88950,-63.90000
52.10000,-4.89610,-63.90000
52.20000,-4.90280,-63.90000
52.30000,-4.90950,-64.17000
52.40000,-4.91610,-64.30000
52.50000,-4.92280,-64.30000
52.60000,-4.92950,-64.43000
52.70000,-4.93610,-64.57000
52.80000,-4.94280,-64.70000
52.90000,-4.94950,-64.84000
53.00000,-4.95610,-64.84000
53.10000,-4.96280,-64.97000
53.20000,-4.96950,-64.97000
53.30000,-4.97610,-65.11000
53.40000,-4.98280,-65.24000
53.50000,-4.98950,-65.37000
53.60000,-4.99610,-65.51000
53.70000,-5.00280,-65.64000
53.80000,-5.00950,-65.64000
53.85000,-5.01280,-65.78000
53.95000,-5.01330,-65.91000
54.05000,-5.00670,-65.78000
54.15000,-5.00000,-65.64000
54.25000,-4.99330,-65.37000
54.35000,-4.98670,-65.11000
54.45000,-4.98000,-64.97000
54.55000,-4.97330,-64.70000
54.65000,-4.96670,-64.57000
54.75000,-4.96000,-64.30000
54.85000,-4.95330,-64.17000
54.95000,-4.94670,-64.03000
55.05000,-4.94000,-63.76000
55.15000,-4.93330,-63.63000
55.25000,-4.92670,-63.36000
55.35000,-4.92000,-63.23000
55.45000,-4.91330,-62.96000
55.55000,-4.90670,-62.82000
55.65000,-4.90000,-62.82000
55.75000,-4.89330,-62.56000
55.85000,-4.88670,-62.42000
55.95000,-4.88000,-62.29000
56.05000,-4.87330,-62.15000
56.15000,-4.86670,-61.75000
56.25000,-4.86000,-61.75000
56.35000,-4.85340,-61.48000
56.45000,-4.84670,-61.35000
56.55000,-4.84000,-61.08000
56.65000,-4.83340,-61.08000
56.75000,-4.82670,-60.81000
56.85000,-4.82000,-60.81000
56.95000,-4.81340,-60.54000
57.05000,-4.80670,-60.54000
57.15000,-4.80000,-60.27000
57.25000,-4.79340,-60.00000
57.35000,-4.78670,-59.87000
57.45000,-4.78000,-59.74000
57.55000,-4.77340,-59.60000
57.65000,-4.76670,-59.47000
57.75000,-4.76000,-59.33000
57.85000,-4.75340,-59.20000
57.95000,-4.74670,-59.07000
58.05000,-4.74000,-58.80000
58.15000,-4.73340,-58.66000
58.25000,-4.72670,-58.53000
58.35000,-4.72000,-58.39000
58.45000,-4.71340,-58.26000
58.55000,-4.70670,-58.13000
58.65000,-4.70000,-57.99000
58.75000,-4.69340,-57.86000
58.85000,-4.68670,-57.59000
58.95000,-4.68000,-57.59000
59.05000,-4.67340,-57.45000
59.15000,-4.66670,-57.19000
59.25000,-4.66000,-56.92000
59.35000,-4.65340,-56.92000
59.45000,-4.64670,-56.78000
59.55000,-4.64000,-56.65000
59.65000,-4.63340,-56.52000
59.75000,-4.62670,-56.38000
59.85000,-4.62000,-56.25000
59.95000,-4.61340,-55.98000
60.05000,-4.60670,-55.98000
60.15000,-4.60000,-55.71000
60.25000,-4.59340,-55.71000
60.35000,-4.58670,-55.44000
60.45000,-4.58000,-55.31000
60.55000,-4.57340,-55.17000
60.65000,-4.56670,-55.04000
60.75000,-4.56000,-54.90000
60.85000,-4.55340,-54.64000
60.95000,-4.54680,-54.64000
61.05000,-4.54010,-54.50000
61.15000,-4.53340,-54.37000
61.25000,-4.52680,-54.10000
61.35000,-4.52010,-54.10000
61.45000,-4.51340,-53.83000
61.55000,-4.50680,-53.83000
61.65000,-4.50010,-53.56000
61.75000,-4.49340,-53.56000
61.85000,-4.48680,-53.29000
61.95000,-4.48010,-53.16000
62.05000,-4.47340,-53.03000
62.15000,-4.46680,-52.89000
62.25000,-4.46010,-52.76000
62.35000,-4.45340,-52.62000
62.45000,-4.44680,-52.62000
62.55000,-4.44010,-52.35000
62.65000,-4.43340,-52.22000
62.75000,-4.42680,-52.09000
62.85000,-4.42010,-51.95000
62.95000,-4.41340,-51.95000
63.05000,-4.40680,-51.68000
63.15000,-4.40010,-51.55000
63.25000,-4.39340,-51.28000
63.35000,-4.38680,-51.28000
63.45000,-4.38010,-51.01000
63.55000,-4.37350,-50.88000
63.65000,-4.36680,-50.88000
63.75000,-4.36010,-50.61000
63.85000,-4.35350,-50.47000
63.95000,-4.34680,-50.34000
64.05000,-4.34010,-50.21000
64.15000,-4.33350,-50.07000
64.25000,-4.32680,-49.94000
64.35001,-4.32010,-49.80000
64.45000,-4.31350,-49.67000
64.55000,-4.30680,-49.54000
64.65000,-4.30010,-49.40000
64.75000,-4.29350,-49.27000
64.85001,-4.28680,-49.13000
64.95000,-4.28010,-49.00000
65.05000,-4.27350,-48.86000
65.15000,-4.26680,-48.73000
65.25000,-4.26010,-48.46000
65.35001,-4.25350,-48.19000
65.45000,-4.24680,-48.19000
65.55000,-4.24010,-48.06000
65.65000,-4.23350,-48.06000
65.75000,-4.22680,-47.92000
65.85001,-4.22010,-47.66000
65.95001,-4.21350,-47.66000
66.05000,-4.20680,-47.39000
66.15000,-4.20010,-47.39000
66.25000,-4.19350,-47.12000
66.35001,-4.18680,-46.98000
66.45001,-4.18010,-46.85000
66.55000,-4.17350,-46.72000
66.65000,-4.16680,-46.58000
66.75000,-4.16010,-46.58000
66.85001,-4.15350,-46.31000
66.95001,-4.14680,-46.18000
67.05000,-4.14010,-46.18000
67.15000,-4.13350,-45.91000
67.25000,-4.12680,-45.64000
67.35001,-4.12010,-45.51000
67.45001,-4.11350,-45.37000
67.55000,-4.10680,-45.24000
67.65000,-4.10010,-45.24000
67.75000,-4.09350,-45.24000
67.85001,-4.08680,-44.97000
67.95001,-4.08010,-44.84000
68.05000,-4.07350,-44.70000
68.15000,-4.06680,-44.57000
68.25000,-4.06010,-44.43000
68.35001,-4.05350,-44.30000
68.45001,-4.04680,-44.03000
68.55000,-4.04010,-44.03000
68.65000,-4.03350,-43.76000
68.75000,-4.02680,-43.76000
68.85001,-4.02010,-43.63000
68.95001,-4.01350,-43.49000
69.05000,-4.00680,-43.23000
69.15000,-4.00010,-43.23000
69.25000,-3.99350,-42.96000
69.35001,-3.98680,-42.82000
69.45001,-3.98010,-42.69000
69.55000,-3.97350,-42.56000
69.65000,-3.96680,-42.42000
69.75000,-3.96010,-42.42000
69.85001,-3.95350,-42.15000
69.95001,-3.94680,-42.02000
70.05000,-3.94010,-41.88000
70.15000,-3.93350,-41.75000
70.25000,-3.92680,-41.62000
70.35001,-3.92010,-41.48000
70.45001,-3.91350,-41.35000
70.55000,-3.90680,-41.21000
70.65000,-3.90010,-41.08000
70.75000,-3.89350,-40.94000
70.85001,-3.88680,-40.81000
70.95001,-3.88010,-40.68000
71.05000,-3.87350,-40.68000
71.15000,-3.86680,-40.41000
71.25000,-3.86020,-40.27000
71.35001,-3.85350,-40.14000
71.45001,-3.84680,-40.00000
71.55000,-3.84020,-39.74000
71.65000,-3.83350,-39.60000
71.75000,-3.82680,-39.60000
71.85001,-3.82020,-39.47000
71.95001,-3.81350,-39.33000
72.05000,-3.80680,-39.20000
72.15000,-3.80020,-39.07000
72.25000,-3.79350,-38.93000
72.35001,-3.78680,-38.80000
72.45001,-3.78020,-38.66000
72.55000,-3.77350,-38.53000
72.65000,-3.76680,-38.26000
72.75000,-3.76020,-38.13000
72.85001,-3.75350,-37.99000
72.95001,-3.74680,-37.99000
73.05000,-3.74020,-37.86000
73.15000,-3.73350,-37.72000
73.25000,-3.72680,-37.59000
73.35001,-3.72020,-37.45000
73.45001,-3.71350,-37.19000
73.55000,-3.70680,-37.05000
73.65000,-3.70020,-36.92000
73.75000,-3.69350,-36.92000
73.85001,-3.68680,-36.65000
73.95001,-3.68020,-36.65000
74.05000,-3.67350,-36.38000
74.15000,-3.66680,-36.25000
74.25000,-3.66020,-36.11000
74.35001,-3.65350,-35.98000
74.45001,-3.64680,-35.84000
74.55000,-3.64020,-35.71000
74.65000,-3.63350,-35.58000
74.75000,-3.62680,-35.44000
74.85001,-3.62020,-35.44000
74.95001,-3.61350,-35.17000
75.05000,-3.60680,-35.04000
75.15000,-3.60020,-35.04000
75.25000,-3.59350,-34.90000
75.35001,-3.58680,-34.77000
75.45001,-3.58020,-34.50000
75.55000,-3.57350,-34.37000
75.65000,-3.56680,-34.23000
75.75000,-3.56020,-34.10000
75.85001,-3.55350,-34.10000
75.95001,-3.54680,-33.96000
76.05000,-3.54020,-33.70000
76.15000,-3.53350,-33.56000
76.25000,-3.52680,-33.43000
76.35001,-3.52020,-33.29000
76.45001,-3.51350,-33.29000
76.55000,-3.50680,-33.03000
76.65000,-3.50020,-32.89000
76.75000,-3.49350,-32.76000
76.85001,-3.48680,-32.62000
76.95001,-3.48020,-32.49000
77.05000,-3.47350,-32.35000
77.15000,-3.46680,-32.22000
77.25000,-3.46020,-32.09000
77.35001,-3.45350,-31.95000
77.45001,-3.44680,-31.68000
77.55000,-3.44020,-31.68000
77.65000,-3.43350,-31.55000
77.75000,-3.42680,-31.41000
77.85001,-3.42020,-31.41000
77.95001,-3.41350,-31.15000
78.05000,-3.40680,-31.01000
78.15000,-3.40020,-30.88000
78.25000,-3.39350,-30.74000
78.35001,-3.38680,-30.61000
78.45001,-3.38020,-30.47000
78.55000,-3.37350,-30.34000
78.65000,-3.36680,-30.34000
78.75000,-3.36020,-30.07000
78.85001,-3.35350,-29.94000
78.95001,-3.34680,-29.80000
79.05000,-3.34020,-29.67000
79.15000,-3.33350,-29.54000
79.25000,-3.32690,-29.40000
79.35001,-3.32020,-29.27000
79.45001,-3.31350,-29.13000
79.55000,-3.30690,-29.00000
79.65000,-3.30020,-28.86000
79.75000,-3.29350,-28.60000
79.85001,-3.28690,-28.60000
79.95001,-3.28020,-28.46000
80.05000,-3.27350,-28.33000
80.15000,-3.26690,-28.19000
80.25000,-3.26020,-28.06000
80.35001,-3.25350,-27.92000
80.45001,-3.24690,-27.79000
80.55000,-3.24020,-27.66000
80.65000,-3.23350,-27.52000
80.75001,-3.22690,-27.39000
80.85001,-3.22020,-27.25000
80.95001,-3.21350,-27.12000
81.05000,-3.20690,-26.98000
81.15000,-3.20020,-26.85000
81.25001,-3.19350,-26.72000
81.35001,-3.18690,-26.58000
81.45001,-3.18020,-26.31000
81.55000,-3.17350,-26.18000
81.65000,-3.16690,-26.05000
81.75001,-3.16020,-25.91000
81.85001,-3.15350,-26.05000
81.95001,-3.14690,-25.78000
82.05000,-3.14020,-25.64000
82.15000,-3.13350,-25.51000
82.25001,-3.12690,-25.37000
82.35001,-3.12020,-25.24000
82.45001,-3.11350,-24.97000
82.55000,-3.10690,-24.84000
82.65000,-3.10020,-24.84000
82.75001,-3.09350,-24.57000
82.85001,-3.08690,-24.57000
82.95001,-3.08020,-24.43000
83.05000,-3.07350,-24.30000
83.15000,-3.06690,-24.17000
83.25001,-3.06020,-24.03000
83.35001,-3.05350,-23.90000
83.45001,-3.04690,-23.76000
83.55000,-3.04020,-23.49000
83.65000,-3.03350,-23.36000
83.75001,-3.02690,-23.09000
83.85001,-3.02020,-23.09000
83.95001,-3.01350,-22.96000
84.05000,-3.00690,-22.82000
84.15000,-3.00020,-22.69000
84.25001,-2.99350,-22.42000
84.35001,-2.98690,-22.29000
84.45001,-2.98020,-22.15000
84.55000,-2.97350,-22.02000
84.65000,-2.96690,-21.88000
84.75001,-2.96020,-21.75000
84.85001,-2.95350,-21.75000
84.95001,-2.94690,-21.62000
85.05000,-2.94020,-21.48000
85.15000,-2.93350,-21.35000
85.25001,-2.92690,-21.21000
85.35001,-2.92020,-21.21000
85.45001,-2.91350,-20.94000
85.55000,-2.90690,-20.81000
85.65000,-2.90020,-20.68000
85.75001,-2.89350,-20.54000
85.85001,-2.88690,-20.41000
85.95001,-2.88020,-20.41000
86.05000,-2.87350,-20.14000
86.15000,-2.86690,-20.14000
86.25001,-2.86020,-20.00000
86.35001,-2.85350,-19.87000
86.45001,-2.84690,-19.74000
86.55000,-2.84020,-19.74000
86.65000,-2.83350,-19.60000
86.75001,-2.82690,-19.33000
86.85001,-2.82020,-19.33000
86.95001,-2.81360,-19.07000
87.05000,-2.80690,-19.07000
87.15000,-2.80020,-18.80000
87.25001,-2.79360,-18.80000
87.35001,-2.78690,-18.66000
87.45001,-2.78020,-18.53000
87.55000,-2.77360,-18.53000
87.65000,-2.76690,-18.26000
87.75001,-2.76020,-18.13000
87.85001,-2.75360,-17.99000
87.95001,-2.74690,-17.86000
88.05000,-2.74020,-17.72000
88.15000,-2.73360,-17.59000
88.25001,-2.72690,-17.45000
88.35001,-2.72020,-17.32000
88.45001,-2.71360,-17.19000
88.55000,-2.70690,-17.19000
88.65000,-2.70020,-17.05000
88.75001,-2.69360,-16.92000
88.85001,-2.68690,-16.78000
88.95001,-2.68020,-16.65000
89.05000,-2.67360,-16.38000
89.15000,-2.66690,-16.25000
89.25001,-2.66020,-16.25000
89.35001,-2.65360,-16.11000
89.45001,-2.64690,-15.98000
89.55000,-2.64020,-15.84000
89.65000,-2.63360,-15.58000
89.75001,-2.62690,-15.58000
89.85001,-2.62020,-15.31000
89.95001,-2.61360,-15.31000
90.05000,-2.60690,-15.17000
90.15000,-2.60020,-15.04000
90.25001,-2.59360,-14.90000
90.35001,-2.58690,-14.64000
90.45001,-2.58020,-14.64000
90.55000,-2.57360,-14.37000
90.65000,-2.56690,-14.37000
90.75001,-2.56020,-14.23000
90.85001,-2.55360,-14.10000
90.95001,-2.54690,-13.96000
91.05000,-2.54020,-13.83000
91.15000,-2.53360,-13.70000
91.25001,-2.52690,-13.56000
91.35001,-2.52020,-13.43000
91.45001,-2.51360,-13.29000
91.55000,-2.50690,-13.16000
91.65000,-2.50020,-13.03000
91.75001,-2.49360,-12.89000
91.85001,-2.48690,-12.89000
91.95001,-2.48020,-12.76000
92.05000,-2.47360,-12.62000
92.15000,-2.46690,-12.49000
92.25001,-2.46020,-12.35000
92.35001,-2.45360,-12.22000
92.45001,-2.44690,-11.82000
92.55000,-2.44020,-11.95000
92.65000,-2.43360,-11.82000
92.75001,-2.42690,-11.68000
92.85001,-2.42020,-11.68000
92.95001,-2.41360,-11.55000
93.05000,-2.40690,-11.28000
93.15000,-2.40020,-11.15000
93.25001,-2.39360,-11.01000
93.35001,-2.38690,-11.01000
93.45001,-2.38020,-10.88000
93.55000,-2.37360,-10.74000
93.65000,-2.36690,-10.61000
93.75001,-2.36020,-10.61000
93.85001,-2.35360,-10.47000
93.95001,-2.34690,-10.34000
94.05000,-2.34020,-10.34000
94.15000,-2.33360,-10.21000
94.25001,-2.32690,-10.07000
94.35001,-2.32020,-9.94000
94.45001,-2.31360,-9.80000
94.55000,-2.30690,-9.67000
94.65000,-2.30020,-9.67000
94.75001,-2.29360,-9.54000
94.85001,-2.28690,-9.54000
94.95001,-2.28030,-9.54000
95.05000,-2.27360,-9.27000
95.15000,-2.26690,-9.27000
95.25001,-2.26030,-9.13000
95.35001,-2.25360,-9.13000
95.45001,-2.24690,-8.86000
95.55000,-2.24030,-8.86000
95.65000,-2.23350,-8.73000
95.75001,-2.22690,-8.60000
95.85001,-2.22020,-8.60000
95.95001,-2.21350,-8.46000
96.05000,-2.20690,-8.46000
96.15000,-2.20020,-8.33000
96.25001,-2.19350,-8.33000
96.35001,-2.18690,-8.06000
96.45001,-2.18020,-8.06000
96.55000,-2.17350,-7.92000
96.65000,-2.16690,-7.79000
96.75001,-2.16020,-7.79000
96.85001,-2.15350,-7.66000
96.95001,-2.14690,-7.66000
97.05000,-2.14020,-7.39000
97.15000,-2.13350,-7.39000
97.25001,-2.12690,-7.25000
97.35001,-2.12020,-7.12000
97.45001,-2.11350,-7.12000
97.55000,-2.10690,-6.98000
97.65000,-2.10020,-6.85000
97.75001,-2.09350,-6.58000
97.85001,-2.08690,-6.58000
97.95001,-2.08020,-6.31000
98.05000,-2.07350,-6.45000
98.15000,-2.06690,-6.31000
98.25001,-2.06020,-6.05000
98.35001,-2.05350,-6.05000
98.45001,-2.04690,-5.91000
98.55000,-2.04020,-5.78000
98.65000,-2.03350,-5.64000
98.75001,-2.02690,-5.51000
98.85001,-2.02020,-5.24000
98.95001,-2.01350,-5.11000
99.05000,-2.00690,-5.11000
99.15000,-2.00020,-4.97000
99.25001,-1.99350,-4.84000
99.35001,-1.98690,-4.70000
99.45001,-1.98020,-4.70000
99.55000,-1.97350,-4.43000
99.65000,-1.96690,-4.43000
99.75001,-1.96020,-4.30000
99.85001,-1.95350,-4.17000
99.95001,-1.94690,-4.03000
100.05000,-1.94020,-4.03000
100.15000,-1.93350,-3.90000
100.25001,-1.92690,-3.76000
100.35001,-1.92020,-3.76000
100.45001,-1.91350,-3.49000
100.55000,-1.90690,-3.36000
100.65000,-1.90020,-3.23000
100.75001,-1.89350,-3.23000
100.85001,-1.88690,-3.09000
100.95001,-1.88020,-2.96000
101.05000,-1.87350,-2.96000
101.15000,-1.86690,-2.82000
101.25001,-1.86020,-2.69000
101.35001,-1.85350,-2.56000
101.45001,-1.84690,-2.56000
101.55000,-1.84020,-2.29000
101.65000,-1.83350,-2.29000
101.75001,-1.82690,-2.15000
101.85001,-1.82020,-2.15000
101.95001,-1.81350,-2.02000
102.05000,-1.80690,-1.88000
102.15000,-1.80020,-1.88000
102.25001,-1.79350,-1.62000
102.35001,-1.78690,-1.62000
102.45001,-1.78020,-1.35000
102.55000,-1.77350,-1.35000
102.65000,-1.76690,-1.21000
102.75001,-1.76020,-1.21000
102.85001,-1.75350,-1.08000
102.95001,-1.74690,-0.94000
103.05000,-1.74020,-0.94000
103.15000,-1.73360,-0.68000
103.25001,-1.72690,-0.68000
103.35001,-1.72020,-0.54000
103.45001,-1.71360,-0.54000
103.55000,-1.70690,-0.41000
103.65000,-1.70020,-0.27000
103.75001,-1.69360,-0.27000
103.85001,-1.68690,-0.14000
103.95001,-1.68020,0.00000
104.05000,-1.67360,0.26000
104.15000,-1.66690,0.26000
104.25001,-1.66020,0.26000
104.35001,-1.65360,0.53000
104.45001,-1.64690,0.53000
104.55000,-1.64020,0.67000
104.65000,-1.63360,0.53000
104.75001,-1.62690,0.53000
104.85001,-1.62020,0.53000
104.95001,-1.61360,0.67000
105.05000,-1.60690,0.67000
105.15000,-1.60020,0.80000
105.25001,-1.59360,0.80000
105.35001,-1.58690,0.93000
105.45001,-1.58020,0.80000
105.55000,-1.57360,0.80000
105.65000,-1.56690,0.80000
105.75001,-1.56020,0.80000
105.85001,-1.55360,0.93000
105.95001,-1.54690,0.80000
106.05000,-1.54020,0.80000
106.15000,-1.53360,0.67000
106.25001,-1.52690,0.80000
106.35001,-1.52020,0.80000
106.45001,-1.51360,0.80000
106.55000,-1.50690,0.93000
106.65000,-1.50020,0.93000
106.75001,-1.49360,0.93000
106.85001,-1.48690,0.80000
106.95001,-1.48020,0.80000
107.05000,-1.47360,0.80000
107.15000,-1.46690,0.93000
107.25001,-1.46020,0.80000
107.35001,-1.45360,0.80000
107.45001,-1.44690,0.80000
107.55000,-1.44020,0.93000
107.65000,-1.43360,0.93000
107.75001,-1.42690,0.80000
107.85001,-1.42020,0.93000
107.95001,-1.41360,0.80000
108.05000,-1.40690,0.80000
108.15000,-1.40020,0.80000
108.25001,-1.39360,0.80000
108.35001,-1.38690,0.80000
108.45001,-1.38020,0.80000
108.55000,-1.37360,0.93000
108.65000,-1.36690,0.93000
108.75001,-1.36020,0.80000
108.85001,-1.35360,0.80000
108.95001,-1.34690,0.93000
109.05000,-1.34020,0.80000
109.15000,-1.33360,0.67000
109.25001,-1.32690,0.80000
109.35001,-1.32020,0.80000
109.45001,-1.31360,0.80000
109.55000,-1.30690,0.80000
109.65000,-1.30020,0.93000
109.75001,-1.29360,0.80000
109.85001,-1.28690,0.93000
109.95001,-1.28020,0.93000
110.05000,-1.27360,0.80000
110.15000,-1.26690,0.80000
110.25001,-1.26020,0.80000
110.35001,-1.25360,0.80000
110.45001,-1.24690,0.80000
110.55000,-1.24020,0.80000
110.65000,-1.23360,0.93000
110.75001,-1.22690,0.80000
110.85001,-1.22020,0.80000
110.95001,-1.21360,0.80000
111.05000,-1.20690,0.80000
111.15000,-1.20030,0.80000
111.25001,-1.19360,0.93000
111.35001,-1.18690,0.80000
111.45001,-1.18030,0.80000
111.55000,-1.17360,0.67000
111.65000,-1.16690,0.80000
111.75001,-1.16030,0.80000
111.85001,-1.15360,0.80000
111.95001,-1.14690,0.80000
112.05000,-1.14030,0.93000
112.15000,-1.13360,0.93000
112.25001,-1.12690,0.80000
112.35001,-1.12030,0.80000
112.45001,-1.11360,0.80000
112.55000,-1.10690,0.93000
112.65001,-1.10030,0.80000
112.75001,-1.09360,0.93000
112.85001,-1.08690,0.80000
112.95001,-1.08030,0.80000
113.05000,-1.07360,0.80000
113.15001,-1.06690,0.93000
113.25001,-1.06030,0.93000
113.35001,-1.05360,0.80000
113.45001,-1.04690,0.80000
113.55000,-1.04030,0.80000
113.65001,-1.03360,0.80000
113.75001,-1.02690,0.80000
113.85001,-1.02030,0.80000
113.95001,-1.01360,0.93000
114.05000,-1.00690,0.93000
114.15001,-1.00030,0.93000
114.25001,-0.99360,0.80000
114.35001,-0.98690,0.93000
114.45001,-0.98030,0.80000
114.55000,-0.97360,0.80000
114.65001,-0.96690,0.80000
114.75001,-0.96030,0.80000
114.85001,-0.95360,0.93000
114.95001,-0.94690,0.80000
115.05000,-0.94030,0.93000
115.15001,-0.93360,0.80000
115.25001,-0.92690,0.93000
115.35001,-0.92030,0.80000
115.45001,-0.91360,0.80000
115.55000,-0.90690,0.93000
115.65001,-0.90030,0.80000
115.75001,-0.89360,0.80000
115.85001,-0.88690,0.80000
115.95001,-0.88030,0.93000
116.05000,-0.87360,0.93000
116.15001,-0.86690,0.80000
116.25001,-0.86030,0.80000
116.35001,-0.85360,0.80000
116.45001,-0.84690,0.80000
116.55000,-0.84030,0.80000
116.65001,-0.83360,0.93000
116.75001,-0.82690,0.80000
116.85001,-0.82030,0.80000
116.95001,-0.81360,0.80000
117.05000,-0.80690,0.93000
117.15001,-0.80030,0.80000
117.25001,-0.79360,0.80000
117.35001,-0.78690,0.80000
117.45001,-0.78030,0.80000
117.55000,-0.77360,0.93000
117.65001,-0.76690,0.80000
117.75001,-0.76030,0.80000
117.85001,-0.75360,0.80000
117.95001,-0.74690,0.93000
118.05000,-0.74030,0.93000
118.15001,-0.73360,0.80000
118.25001,-0.72690,0.80000
118.35001,-0.72030,0.80000
118.45001,-0.71360,0.80000
118.55000,-0.70690,0.80000
118.65001,-0.70030,0.93000
118.75001,-0.69360,0.93000
118.85001,-0.68700,0.93000
118.95001,-0.68030,0.80000
119.05000,-0.67360,0.80000
119.15001,-0.66700,0.67000
119.25001,-0.66030,0.80000
119.35001,-0.65360,0.80000
119.45001,-0.64700,0.80000
119.55000,-0.64030,0.80000
119.65001,-0.63360,0.80000
119.75001,-0.62700,0.93000
119.85001,-0.62030,0.80000
119.95001,-0.61360,0.80000
120.05000,-0.60700,0.80000
120.15001,-0.60030,0.67000
120.25001,-0.59360,0.80000
120.35001,-0.58700,0.80000
120.45001,-0.58030,0.80000
120.55000,-0.57360,0.80000
120.65001,-0.56700,0.93000
120.75001,-0.56030,0.80000
120.85001,-0.55360,0.93000
120.95001,-0.54700,0.93000
121.05000,-0.54030,0.80000
121.15001,-0.53360,0.80000
121.25001,-0.52700,0.80000
121.35001,-0.52030,0.93000
121.45001,-0.51360,0.80000
121.55000,-0.50700,0.80000
121.65001,-0.50030,0.80000
121.75001,-0.49360,0.93000
121.85001,-0.48700,0.93000
121.95001,-0.48030,0.80000
122.05000,-0.47360,0.93000
122.15001,-0.46700,0.80000
122.25001,-0.46030,0.80000
122.35001,-0.45360,0.80000
122.45001,-0.44700,0.80000
122.55000,-0.44030,0.80000
122.65001,-0.43360,0.80000
122.75001,-0.42700,0.80000
122.85001,-0.42030,0.93000
122.95001,-0.41360,0.93000
123.05000,-0.40700,0.93000
123.15001,-0.40030,0.67000
123.25001,-0.39360,0.80000
123.35001,-0.38700,0.80000
123.45001,-0.38030,0.80000
123.55000,-0.37360,0.80000
123.65001,-0.36700,0.80000
123.75001,-0.36030,0.80000
123.85001,-0.35360,0.93000
123.95001,-0.34700,0.93000
124.05000,-0.34030,0.93000
124.15001,-0.33360,0.80000
124.25001,-0.32700,0.80000
124.35001,-0.32030,0.80000
124.45001,-0.31360,0.80000
124.55000,-0.30700,0.80000
124.65001,-0.30030,0.80000
124.75001,-0.29360,0.93000
124.85001,-0.28700,0.80000
124.95001,-0.28030,0.93000
125.05000,-0.27360,0.80000
125.15001,-0.26700,0.93000
125.25001,-0.26030,0.80000
125.35001,-0.25360,0.80000
125.45001,-0.24700,0.80000
125.55000,-0.24030,0.80000
125.65001,-0.23360,0.93000
125.75001,-0.22700,0.80000
125.85001,-0.22030,0.80000
125.95001,-0.21360,0.80000
126.05000,-0.20700,0.93000
126.15001,-0.20030,0.93000
126.25001,-0.19360,0.80000
126.35001,-0.18700,0.80000
126.45001,-0.18030,0.80000
126.55000,-0.17360,0.93000
126.65001,-0.16700,0.80000
126.75001,-0.16030,0.93000
126.85001,-0.15370,0.80000
126.95001,-0.14700,0.80000
127.05000,-0.14030,0.80000
127.15001,-0.13370,0.80000
127.25001,-0.12700,0.80000
127.35001,-0.12030,0.80000
127.45001,-0.11370,0.80000
127.55000,-0.10700,0.93000
127.65001,-0.10030,0.93000
127.75001,-0.09370,0.80000
127.85001,-0.08700,0.80000
127.95001,-0.08030,0.80000
128.05000,-0.07370,0.80000
128.15001,-0.06700,0.80000
128.25000,-0.06030,0.93000
128.35001,-0.05370,0.80000
128.45002,-0.04700,0.80000
128.55000,-0.04030,0.80000
128.65001,-0.03370,0.80000
128.75000,-0.02700,0.93000
128.85001,-0.02030,0.93000
128.95002,-0.01370,0.80000
129.05000,-0.00700,0.93000
129.15001,-0.00030,0.80000
129.20002,0.00300,0.80000
129.30000,0.00970,0.80000
129.35001,0.01300,0.80000
129.45002,0.01330,0.93000
129.55000,0.00660,0.93000
129.65001,0.00000,0.93000
129.75000,-0.00670,0.93000
129.85001,-0.01340,0.80000
129.95002,-0.02000,0.80000
130.05000,-0.02670,0.80000
130.15001,-0.03340,0.93000
130.25000,-0.04000,0.80000
130.35001,-0.04670,0.93000
130.45002,-0.05340,0.80000
130.55000,-0.06000,0.80000
130.65001,-0.06670,0.80000
130.75000,-0.07340,0.93000
130.85001,-0.08000,0.93000
130.95002,-0.08670,0.93000
131.05000,-0.09340,0.93000
131.15002,-0.10000,0.93000
131.25000,-0.10670,0.80000
131.35000,-0.11340,0.80000
131.45002,-0.12000,0.80000
131.55000,-0.12670,0.80000
131.65002,-0.13340,0.80000
131.75000,-0.14000,0.93000
131.85000,-0.14670,0.93000
131.95002,-0.15340,0.93000
132.05000,-0.16000,0.93000
132.15002,-0.16670,0.93000
132.25000,-0.17340,0.80000
132.35000,-0.18000,0.93000
132.45002,-0.18670,0.80000
132.55000,-0.19340,0.80000
132.65002,-0.20000,0.80000
132.75000,-0.20670,0.80000
132.85000,-0.21340,0.93000
132.95002,-0.22000,0.93000
133.05000,-0.22670,0.93000
133.15002,-0.23340,0.80000
133.25000,-0.24000,0.80000
133.35000,-0.24670,0.80000
133.45002,-0.25340,0.80000
133.55000,-0.26000,0.80000
133.65002,-0.26670,0.80000
133.75000,-0.27340,0.93000
133.85000,-0.28000,0.80000
133.95002,-0.28670,0.80000
134.05000,-0.29340,0.93000
134.15002,-0.30000,0.93000
134.25000,-0.30670,0.80000
134.35000,-0.31340,0.80000
134.45002,-0.32000,0.80000
134.55000,-0.32670,0.80000
134.65002,-0.33340,0.80000
134.75000,-0.34000,0.80000
134.85000,-0.34670,0.93000
134.95002,-0.35340,0.80000
135.05000,-0.36000,0.93000
135.15002,-0.36670,0.80000
135.25000,-0.37340,0.67000
135.35000,-0.38000,0.80000
135.45002,-0.38670,0.80000
135.55000,-0.39340,0.93000
135.65002,-0.40000,0.80000
135.75000,-0.40670,0.93000
135.85000,-0.41340,0.80000
135.95002,-0.42000,0.80000
136.05000,-0.42670,0.80000
136.15002,-0.43340,0.80000
136.25000,-0.44000,0.80000
136.35000,-0.44670,0.93000
136.45002,-0.45340,0.93000
136.55000,-0.46000,0.80000
136.65002,-0.46670,0.80000
136.75000,-0.47340,0.93000
136.85000,-0.48000,0.93000
136.95002,-0.48670,0.93000
137.05000,-0.49340,0.80000
137.15002,-0.50000,0.80000
137.25000,-0.50670,0.80000
137.35000,-0.51340,0.80000
137.45002,-0.52000,0.80000
137.55000,-0.52670,0.93000
137.65002,-0.53330,0.80000
137.75000,-0.54000,0.93000
137.85000,-0.54670,0.80000
137.95002,-0.55330,0.80000
138.05000,-0.56000,0.93000
138.15002,-0.56670,0.80000
138.25000,-0.57330,0.93000
138.35000,-0.58000,0.93000
138.45002,-0.58670,0.93000
138.55000,-0.59330,0.80000
138.65002,-0.60000,0.80000
138.75000,-0.60670,0.80000
138.85000,-0.61330,0.80000
138.95002,-0.62000,0.80000
139.05000,-0.62670,0.80000
139.15002,-0.63330,0.93000
139.25000,-0.64000,0.80000
139.35000,-0.64670,0.80000
139.45002,-0.65340,0.80000
139.55000,-0.66010,0.93000
139.65002,-0.66670,0.80000
139.75000,-0.67340,0.93000
139.85000,-0.68010,0.93000
139.95002,-0.68670,0.93000
140.05000,-0.69340,0.80000
140.15002,-0.70010,0.93000
140.25000,-0.70670,0.93000
140.35000,-0.71340,0.80000
140.45002,-0.72010,0.80000
140.55000,-0.72670,0.80000
140.65002,-0.73340,0.80000
140.75000,-0.74010,0.80000
140.85000,-0.74670,0.80000
140.95002,-0.75340,0.93000
141.05000,-0.76010,0.80000
141.15002,-0.76670,0.93000
141.25000,-0.77340,0.80000
141.35000,-0.78010,0.80000
141.45002,-0.78670,0.80000
141.55000,-0.79340,0.80000
141.65002,-0.80010,0.80000
141.75000,-0.80670,0.80000
141.85000,-0.81340,0.93000
141.95002,-0.82010,0.93000
142.05000,-0.82670,0.80000
142.15002,-0.83340,0.80000
142.25000,-0.84010,0.93000
142.35000,-0.84670,0.80000
142.45002,-0.85340,0.80000
142.55000,-0.86010,0.80000
142.65002,-0.86670,0.80000
142.75000,-0.87340,0.80000
142.85000,-0.88010,0.80000
142.95002,-0.88670,0.93000
143.05000,-0.89340,0.93000
143.15002,-0.90010,0.93000
143.25000,-0.90670,0.80000
143.35000,-0.91340,0.80000
143.45002,-0.92010,0.80000
143.55000,-0.92670,0.80000
143.65002,-0.93340,0.93000
143.75000,-0.94010,0.80000
143.85000,-0.94670,0.93000
143.95002,-0.95340,0.80000
144.05000,-0.96010,0.93000
144.15002,-0.96670,0.93000
144.25000,-0.97340,0.80000
144.35000,-0.98010,0.80000
144.45002,-0.98670,0.80000
144.55000,-0.99340,0.80000
144.65002,-1.00010,0.80000
144.75000,-1.00670,0.80000
144.85000,-1.01340,0.80000
144.95002,-1.02010,0.93000
145.05000,-1.02670,0.93000
145.15002,-1.03340,0.93000
145.25000,-1.04010,0.93000
145.35000,-1.04670,0.80000
145.45002,-1.05340,0.80000
145.55000,-1.06010,0.80000
145.65002,-1.06670,0.93000
145.75000,-1.07340,0.93000
145.85000,-1.08010,0.80000
145.95002,-1.08670,0.80000
146.05000,-1.09340,0.80000
146.15002,-1.10000,0.80000
146.25000,-1.10670,0.80000
146.35000,-1.11340,0.93000
146.45002,-1.12000,0.80000
146.55000,-1.12670,0.93000
146.65002,-1.13340,0.80000
146.75000,-1.14000,0.80000
146.85000,-1.14670,0.93000
146.95002,-1.15340,0.80000
147.05000,-1.16000,0.80000
147.15002,-1.16670,0.80000
147.25000,-1.17340,0.93000
147.35000,-1.18000,0.80000
147.45002,-1.18670,0.80000
147.55000,-1.19340,0.80000
147.65002,-1.20000,0.93000
147.75000,-1.20670,0.80000
147.85000,-1.21340,0.93000
147.95002,-1.22000,0.93000
148.05000,-1.22670,0.80000
148.15002,-1.23340,0.93000
148.25000,-1.24000,0.93000
148.35000,-1.24670,0.80000
148.45002,-1.25340,0.93000
148.55000,-1.26000,0.80000
148.65002,-1.26670,0.80000
148.75000,-1.27340,0.80000
148.85000,-1.28000,0.80000
148.95002,-1.28670,0.80000
149.05000,-1.29340,0.93000
149.15002,-1.30000,0.80000
149.25000,-1.30670,0.93000
149.35000,-1.31340,0.80000
149.45002,-1.32000,0.80000
149.55000,-1.32670,0.80000
149.65002,-1.33340,0.80000
149.75000,-1.34000,0.80000
149.85000,-1.34670,0.93000
149.95002,-1.35340,0.93000
150.05000,-1.36000,0.93000
150.15002,-1.36670,0.80000
150.25000,-1.37340,0.80000
150.35000,-1.38000,0.93000
150.45002,-1.38670,0.80000
150.55000,-1.39340,0.80000
150.65002,-1.40000,0.80000
150.75000,-1.40670,0.80000
150.85000,-1.41340,0.80000
150.95002,-1.42000,0.93000
151.05000,-1.42670,0.93000
151.15002,-1.43340,0.93000
151.25000,-1.44000,0.93000
151.35000,-1.44670,0.80000
151.45002,-1.45340,0.80000
151.55000,-1.46000,0.80000
151.65002,-1.46670,0.80000
151.75000,-1.47340,0.93000
151.85000,-1.48000,0.93000
151.95002,-1.48670,0.93000
152.05000,-1.49340,0.80000
152.15002,-1.50000,0.80000
152.25000,-1.50670,0.67000
152.35000,-1.51340,0.67000
152.45002,-1.52000,0.67000
152.55000,-1.52670,0.53000
152.65002,-1.53340,0.67000
152.75000,-1.54000,0.53000
152.85000,-1.54670,0.40000
152.95002,-1.55340,0.26000
153.05000,-1.56000,0.26000
153.15002,-1.56670,0.00000
153.25000,-1.57340,-0.27000
153.35000,-1.58000,-0.41000
153.45002,-1.58670,-0.54000
153.55000,-1.59340,-0.54000
153.65002,-1.60000,-0.68000
153.75000,-1.60670,-0.81000
153.85000,-1.61330,-0.94000
153.95002,-1.62000,-1.08000
154.05000,-1.62670,-1.21000
154.15002,-1.63330,-1.35000
154.25000,-1.64000,-1.48000
154.35000,-1.64670,-1.62000
154.45002,-1.65330,-1.62000
154.55000,-1.66000,-1.88000
154.65002,-1.66670,-1.88000
154.75000,-1.67330,-2.15000
154.85000,-1.68000,-2.29000
154.95002,-1.68670,-2.29000
155.05000,-1.69330,-2.42000
155.15002,-1.70000,-2.56000
155.25000,-1.70670,-2.69000
155.35000,-1.71330,-2.82000
155.45002,-1.72000,-3.09000
155.55000,-1.72670,-3.09000
155.65002,-1.73330,-3.23000
155.75000,-1.74000,-3.36000
155.85000,-1.74670,-3.49000
155.95002,-1.75330,-3.63000
156.05000,-1.76000,-3.76000
156.15002,-1.76670,-3.90000
156.25000,-1.77330,-3.90000
156.35000,-1.78000,-4.17000
156.45002,-1.78670,-4.30000
156.55000,-1.79330,-4.43000
156.65002,-1.80000,-4.57000
156.75000,-1.80670,-4.70000
156.85000,-1.81330,-4.84000
156.95002,-1.82000,-4.84000
157.05000,-1.82670,-5.11000
157.15002,-1.83330,-5.11000
157.25000,-1.84000,-5.37000
157.35000,-1.84670,-5.37000
157.45002,-1.85330,-5.64000
157.55000,-1.86000,-5.78000
157.65002,-1.86670,-5.78000
157.75000,-1.87330,-6.05000
157.85000,-1.88000,-6.18000
157.95002,-1.88670,-6.18000
158.05000,-1.89330,-6.31000
158.15002,-1.90000,-6.45000
158.25000,-1.90670,-6.58000
158.35000,-1.91330,-6.72000
158.45002,-1.92000,-6.85000
158.55000,-1.92670,-7.12000
158.65002,-1.93330,-7.25000
158.75000,-1.94000,-7.39000
158.85000,-1.94670,-7.52000
158.95002,-1.95330,-7.52000
159.05000,-1.96000,-7.79000
159.15002,-1.96670,-7.79000
159.25000,-1.97330,-7.92000
159.35000,-1.98000,-8.19000
159.45002,-1.98670,-8.46000
159.55000,-1.99330,-8.60000
159.65002,-2.00000,-8.73000
159.75000,-2.00670,-8.86000
159.85000,-2.01330,-8.86000
159.95002,-2.02000,-9.00000
160.05000,-2.02670,-9.13000
160.15002,-2.03330,-9.40000
160.25000,-2.04000,-9.40000
160.35000,-2.04670,-9.67000
160.45002,-2.05330,-9.80000
160.55000,-2.06000,-9.94000
160.65002,-2.06670,-10.07000
160.75002,-2.07330,-10.07000
160.85000,-2.08000,-10.34000
160.95002,-2.08670,-10.34000
161.05000,-2.09330,-10.61000
161.15002,-2.10000,-10.61000
161.25002,-2.10670,-10.74000
161.35000,-2.11330,-10.88000
161.45002,-2.12000,-11.01000
161.55000,-2.12660,-11.28000
161.65002,-2.13330,-11.28000
161.75002,-2.14000,-11.41000
161.85000,-2.14660,-11.55000
161.95002,-2.15330,-11.55000
162.05000,-2.16000,-11.82000
162.15002,-2.16660,-12.09000
162.25002,-2.17330,-12.22000
162.35000,-2.18000,-12.22000
162.45002,-2.18660,-12.49000
162.55000,-2.19330,-12.49000
162.65002,-2.20000,-12.62000
162.75002,-2.20660,-12.76000
162.85000,-2.21330,-13.03000
162.95002,-2.22000,-13.03000
163.05000,-2.22660,-13.16000
163.15002,-2.23330,-13.29000
163.25002,-2.24000,-13.43000
163.35000,-2.24660,-13.56000
163.45002,-2.25330,-13.70000
163.55000,-2.26000,-13.83000
163.65002,-2.26660,-13.83000
163.75002,-2.27330,-13.96000
163.85000,-2.28000,-14.10000
163.95002,-2.28660,-14.23000
164.05000,-2.29330,-14.50000
164.15002,-2.30000,-14.50000
164.25002,-2.30660,-14.77000
164.35000,-2.31330,-14.77000
164.45002,-2.32000,-15.04000
164.55000,-2.32660,-15.04000
164.65002,-2.33330,-15.17000
164.75002,-2.34000,-15.31000
164.85000,-2.34660,-15.58000
164.95002,-2.35330,-15.71000
165.05000,-2.36000,-15.71000
165.15002,-2.36660,-15.84000
165.25002,-2.37330,-15.84000
165.35000,-2.38000,-16.11000
165.45002,-2.38660,-16.25000
165.55000,-2.39330,-16.38000
165.65002,-2.40000,-16.52000
165.75002,-2.40660,-16.65000
165.85000,-2.41330,-16.78000
165.95002,-2.42000,-16.92000
166.05000,-2.42660,-17.05000
166.15002,-2.43330,-17.05000
166.25002,-2.44000,-17.19000
166.35000,-2.44660,-17.32000
166.45002,-2.45330,-17.59000
166.55000,-2.46000,-17.59000
166.65002,-2.46660,-17.86000
166.75002,-2.47330,-17.86000
166.85000,-2.48000,-17.99000
166.95002,-2.48660,-18.13000
167.05000,-2.49330,-18.26000
167.15002,-2.50000,-18.39000
167.25002,-2.50660,-18.53000
167.35000,-2.51330,-18.66000
167.45002,-2.52000,-18.80000
167.55000,-2.52660,-18.93000
167.65002,-2.53330,-19.07000
167.75002,-2.54000,-19.20000
167.85000,-2.54660,-19.33000
167.95002,-2.55330,-19.33000
168.05000,-2.56000,-19.47000
168.15002,-2.56660,-19.74000
168.25002,-2.57330,-19.87000
168.35000,-2.58000,-19.87000
168.45002,-2.58660,-20.00000
168.55000,-2.59330,-20.27000
168.65002,-2.60000,-20.41000
168.75002,-2.60660,-20.41000
168.85000,-2.61330,-20.54000
168.95002,-2.62000,-20.68000
169.05000,-2.62660,-20.81000
169.15002,-2.63330,-20.94000
169.25002,-2.64000,-21.08000
169.35000,-2.64660,-21.21000
169.45002,-2.65330,-21.35000
169.55000,-2.65990,-21.48000
169.65002,-2.66660,-21.62000
169.75002,-2.67330,-21.75000
169.85000,-2.67990,-21.88000
169.95002,-2.68660,-22.02000
170.05000,-2.69330,-22.02000
170.15002,-2.69990,-22.15000
170.25002,-2.70660,-22.42000
170.35000,-2.71330,-22.42000
170.45002,-2.71990,-22.69000
170.55000,-2.72660,-22.82000
170.65002,-2.73330,-22.82000
170.75002,-2.73990,-22.96000
170.85000,-2.74660,-23.09000
170.95002,-2.75330,-23.23000
171.05000,-2.75990,-23.36000
171.15002,-2.76660,-23.49000
171.25002,-2.77330,-23.63000
171.35000,-2.77990,-23.76000
171.45002,-2.78660,-23.90000
171.55000,-2.79330,-24.03000
171.65002,-2.79990,-24.17000
171.75002,-2.80660,-24.30000
171.85000,-2.81330,-24.43000
171.95002,-2.81990,-24.30000
172.05000,-2.82660,-24.57000
172.15002,-2.83330,-24.70000
172.25002,-2.83990,-24.84000
172.35000,-2.84660,-24.97000
172.45002,-2.85330,-24.97000
172.55000,-2.85990,-25.24000
172.65002,-2.86660,-25.37000
172.75002,-2.87330,-25.51000
172.85000,-2.87990,-25.64000
172.95002,-2.88660,-25.78000
173.05000,-2.89330,-25.78000
173.15002,-2.89990,-26.05000
173.25002,-2.90660,-26.05000
173.35000,-2.91330,-26.18000
173.45002,-2.91990,-26.31000
173.55000,-2.92660,-26.58000
173.65002,-2.93330,-26.72000
173.75002,-2.93990,-26.85000
173.85000,-2.94660,-27.12000
173.95002,-2.95330,-27.12000
174.05000,-2.95990,-27.25000
174.15002,-2.96660,-27.39000
174.25002,-2.97330,-27.39000
174.35000,-2.97990,-27.66000
174.45002,-2.98660,-27.92000
174.55000,-2.99330,-27.92000
174.65002,-2.99990,-28.06000
174.75002,-3.00660,-28.19000
174.85000,-3.01330,-28.46000
174.95002,-3.01990,-28.60000
175.05000,-3.02660,-28.73000
175.15002,-3.03330,-28.86000
175.25002,-3.03990,-29.00000
175.35000,-3.04660,-29.00000
175.45002,-3.05330,-29.13000
175.55000,-3.05990,-29.27000
175.65002,-3.06660,-29.54000
175.75002,-3.07330,-29.67000
175.85000,-3.07990,-29.80000
175.95002,-3.08660,-29.94000
176.05000,-3.09330,-29.94000
176.15002,-3.09990,-30.07000
176.25002,-3.10660,-30.21000
176.35000,-3.11330,-30.34000
176.45002,-3.11990,-30.47000
176.55000,-3.12660,-30.74000
176.65002,-3.13330,-30.88000
176.75002,-3.13990,-30.88000
176.85000,-3.14660,-31.01000
176.95002,-3.15330,-31.15000
177.05000,-3.15990,-31.28000
177.15002,-3.16660,-31.41000
177.25002,-3.17320,-31.55000
177.35000,-3.17990,-31.55000
177.45002,-3.18660,-31.68000
177.55000,-3.19320,-31.95000
177.65002,-3.19990,-32.09000
177.75002,-3.20660,-32.22000
177.85000,-3.21320,-32.22000
177.95002,-3.21990,-32.49000
178.05000,-3.22660,-32.49000
178.15002,-3.23320,-32.62000
178.25002,-3.23990,-32.76000
178.35000,-3.24660,-32.89000
178.45002,-3.25320,-33.03000
178.55000,-3.25990,-33.16000
178.65002,-3.26660,-33.29000
178.75002,-3.27320,-33.29000
178.85000,-3.27990,-33.56000
178.95002,-3.28660,-33.56000
179.05000,-3.29320,-33.83000
179.15002,-3.29990,-33.83000
179.25002,-3.30660,-34.10000
179.35000,-3.31320,-34.23000
179.45002,-3.31990,-34.37000
179.55000,-3.32660,-34.37000
179.65002,-3.33320,-34.50000
179.75002,-3.33990,-34.64000
179.85000,-3.34660,-34.77000
179.95002,-3.35320,-34.90000
180.05000,-3.35990,-35.04000
180.15002,-3.36660,-35.17000
180.25002,-3.37320,-35.31000
180.35000,-3.37990,-35.31000
180.45002,-3.38660,-35.58000
180.55000,-3.39320,-35.58000
180.65002,-3.39990,-35.84000
180.75002,-3.40660,-35.84000
180.85000,-3.41320,-35.98000
180.95002,-3.41990,-36.11000
181.05000,-3.42660,-36.38000
181.15002,-3.43320,-36.38000
181.25002,-3.43990,-36.52000
181.35000,-3.44660,-36.65000
181.45002,-3.45320,-36.78000
181.55000,-3.45990,-36.92000
181.65002,-3.46660,-37.05000
181.75002,-3.47320,-37.19000
181.85000,-3.47990,-37.32000
181.95002,-3.48660,-37.45000
182.05000,-3.49320,-37.59000
182.15002,-3.49990,-37.59000
182.25002,-3.50660,-37.72000
182.35000,-3.51320,-37.86000
182.45002,-3.51990,-37.99000
182.55000,-3.52660,-38.13000
182.65002,-3.53320,-38.39000
182.75002,-3.53990,-38.39000
182.85000,-3.54660,-38.53000
182.95002,-3.55320,-38.66000
183.05000,-3.55990,-38.80000
183.15002,-3.56660,-38.93000
183.25002,-3.57320,-38.93000
183.35000,-3.57990,-39.07000
183.45002,-3.58660,-39.20000
183.55000,-3.59320,-39.33000
183.65002,-3.59990,-39.47000
183.75002,-3.60660,-39.74000
183.85000,-3.61320,-39.87000
183.95002,-3.61990,-39.87000
184.05000,-3.62660,-40.14000
184.15002,-3.63320,-40.00000
184.25002,-3.63990,-40.14000
184.35000,-3.64660,-40.41000
184.45002,-3.65320,-40.54000
184.55000,-3.65990,-40.68000
184.65002,-3.66660,-40.81000
184.75002,-3.67320,-40.94000
184.85000,-3.67990,-40.94000
184.95002,-3.68660,-41.08000
185.05000,-3.69320,-41.08000
185.15002,-3.69990,-41.35000
185.25002,-3.70650,-41.48000
185.35000,-3.71320,-41.62000
185.45002,-3.71990,-41.62000
185.55000,-3.72650,-41.75000
185.65002,-3.73320,-41.88000
185.75002,-3.73990,-42.15000
185.85000,-3.74650,-42.29000
185.95002,-3.75320,-42.29000
186.05000,-3.75990,-42.42000
186.15002,-3.76650,-42.42000
186.25002,-3.77320,-42.69000
186.35000,-3.77990,-42.69000
186.45002,-3.78650,-42.96000
186.55000,-3.79320,-43.09000
186.65002,-3.79990,-43.23000
186.75002,-3.80650,-43.36000
186.85000,-3.81320,-43.36000
186.95002,-3.81990,-43.49000
187.05000,-3.82650,-43.63000
187.15002,-3.83320,-43.76000
187.25002,-3.83990,-43.90000
187.35000,-3.84650,-43.90000
187.45002,-3.85320,-44.17000
187.55000,-3.85990,-44.30000
187.65002,-3.86650,-44.43000
187.75002,-3.87320,-44.43000
187.85000,-3.87990,-44.57000
187.95002,-3.88650,-44.70000
188.05000,-3.89320,-44.97000
188.15002,-3.89990,-44.84000
188.25002,-3.90650,-45.11000
188.35000,-3.91320,-45.24000
188.45002,-3.91990,-45.24000
188.55000,-3.92650,-45.51000
188.65002,-3.93320,-45.51000
188.75002,-3.93990,-45.64000
188.85000,-3.94650,-45.78000
188.95002,-3.95320,-45.91000
189.05000,-3.95990,-46.05000
189.15002,-3.96650,-46.18000
189.25002,-3.97320,-46.31000
189.35000,-3.97990,-46.45000
189.45002,-3.98650,-46.45000
189.55000,-3.99320,-46.58000
189.65002,-3.99990,-46.72000
189.75002,-4.00650,-46.85000
189.85000,-4.01320,-47.12000
189.95002,-4.01990,-47.12000
190.05000,-4.02650,-47.25000
190.15002,-4.03320,-47.39000
190.25002,-4.03990,-47.39000
190.35000,-4.04650,-47.52000
190.45002,-4.05320,-47.52000
190.55000,-4.05990,-47.79000
190.65002,-4.06650,-47.92000
190.75002,-4.07320,-48.06000
190.85000,-4.07990,-48.19000
190.95002,-4.08650,-48.33000
191.05000,-4.09320,-48.46000
191.15002,-4.09990,-48.46000
191.25002,-4.10650,-48.73000
191.35000,-4.11320,-48.73000
191.45002,-4.11990,-48.86000
191.55000,-4.12650,-48.86000
191.65002,-4.13320,-49.00000
191.75002,-4.13990,-49.13000
191.85000,-4.14650,-49.27000
191.95002,-4.15320,-49.54000
192.05000,-4.15990,-49.67000
192.15002,-4.16650,-49.80000
192.25002,-4.17320,-49.80000
192.35000,-4.17990,-49.94000
192.45002,-4.18650,-49.94000
192.55000,-4.19320,-50.21000
192.65002,-4.19990,-50.34000
192.75002,-4.20650,-50.47000
192.85000,-4.21320,-50.61000
192.95002,-4.21980,-50.61000
193.05000,-4.22650,-50.74000
193.15002,-4.23320,-50.88000
193.25002,-4.23980,-51.01000
193.35000,-4.24650,-51.15000
193.45002,-4.25320,-51.28000
193.55000,-4.25980,-51.28000
193.65002,-4.26650,-51.41000
193.75002,-4.27320,-51.55000
193.85000,-4.27980,-51.68000
193.95002,-4.28650,-51.82000
194.05000,-4.29320,-51.95000
194.15002,-4.29980,-52.09000
194.25002,-4.30650,-52.09000
194.35000,-4.31320,-52.22000
194.45002,-4.31980,-52.35000
194.55000,-4.32650,-52.49000
194.65002,-4.33320,-52.62000
194.75002,-4.33980,-52.76000
194.85000,-4.34650,-52.89000
194.95002,-4.35320,-52.89000
195.05000,-4.35980,-53.16000
195.15002,-4.36650,-53.16000
195.25002,-4.37320,-53.29000
195.35000,-4.37980,-53.43000
195.45002,-4.38650,-53.56000
195.55000,-4.39320,-53.70000
195.65002,-4.39980,-53.83000
195.75002,-4.40650,-53.96000
195.85000,-4.41320,-54.10000
195.95002,-4.41980,-54.10000
196.05000,-4.42650,-54.23000
196.15002,-4.43320,-54.37000
196.25002,-4.43980,-54.50000
196.35000,-4.44650,-54.64000
196.45002,-4.45320,-54.77000
196.55000,-4.45980,-54.90000
196.65002,-4.46650,-54.90000
196.75002,-4.47320,-55.17000
196.85000,-4.47980,-55.17000
196.95002,-4.48650,-55.17000
197.05000,-4.49320,-55.31000
197.15002,-4.49980,-55.44000
197.25002,-4.50650,-55.58000
197.35000,-4.51320,-55.71000
197.45002,-4.51980,-55.84000
197.55000,-4.52650,-55.98000
197.65002,-4.53320,-55.98000
197.75002,-4.53980,-56.25000
197.85000,-4.54650,-56.25000
197.95002,-4.55310,-56.38000
198.05000,-4.55980,-56.65000
198.15002,-4.56640,-56.78000
198.25002,-4.57310,-56.92000
198.35000,-4.57980,-56.92000
198.45002,-4.58640,-57.05000
198.55000,-4.59310,-57.05000
198.65002,-4.59980,-57.32000
198.75002,-4.60640,-57.45000
198.85000,-4.61310,-57.45000
198.95002,-4.61980,-57.45000
199.05000,-4.62640,-57.72000
199.15002,-4.63310,-57.86000
199.25002,-4.63980,-57.99000
199.35000,-4.64640,-58.13000
199.45002,-4.65310,-58.13000
199.55000,-4.65980,-58.26000
199.65002,-4.66640,-58.39000
199.75002,-4.67310,-58.53000
199.85000,-4.67980,-58.66000
199.95002,-4.68640,-58.80000
200.05000,-4.69310,-58.93000
200.15002,-4.69970,-58.93000
200.25002,-4.70640,-59.07000
200.35000,-4.71310,-59.20000
200.45002,-4.71970,-59.33000
200.55000,-4.72640,-59.33000
200.65002,-4.73310,-59.60000
200.75002,-4.73970,-59.74000
200.85000,-4.74640,-59.87000
200.95002,-4.75310,-60.00000
201.05000,-4.75970,-60.14000
201.15002,-4.76640,-60.14000
201.25002,-4.77310,-60.14000
201.35000,-4.77970,-60.27000
201.45002,-4.78640,-60.41000
201.55000,-4.79310,-60.54000
201.65002,-4.79970,-60.68000
201.75002,-4.80640,-60.94000
201.85000,-4.81310,-61.08000
201.95002,-4.81970,-61.08000
202.05000,-4.82640,-61.21000
202.15002,-4.83310,-61.35000
202.25002,-4.83970,-61.35000
202.35000,-4.84640,-61.48000
202.45002,-4.85310,-61.62000
202.55000,-4.85970,-61.75000
202.65002,-4.86640,-61.88000
202.75002,-4.87310,-62.02000
202.85000,-4.87970,-62.15000
202.95002,-4.88640,-62.29000
203.05000,-4.89310,-62.29000
203.15002,-4.89970,-62.42000
203.25002,-4.90640,-62.42000
203.35000,-4.91310,-62.56000
203.45002,-4.91970,-62.69000
203.55000,-4.92640,-62.82000
203.65002,-4.93310,-63.09000
203.75002,-4.93970,-63.09000
203.85000,-4.94640,-63.23000
203.95002,-4.95310,-63.23000
204.05000,-4.95970,-63.49000
204.15002,-4.96640,-63.63000
204.25002,-4.97310,-63.76000
204.35000,-4.97970,-63.76000
204.45002,-4.98640,-63.76000
204.55000,-4.99310,-63.90000
204.65002,-4.99970,-64.03000
204.75002,-5.00640,-64.17000
204.85000,-5.01310,-64.30000
204.95002,-5.01970,-64.43000
205.05000,-5.02640,-64.43000
205.15002,-5.03310,-64.57000
205.25002,-5.03970,-64.70000
205.35000,-5.04640,-64.84000
205.45002,-5.05310,-64.97000
205.55000,-5.05970,-65.11000
205.65002,-5.06640,-65.24000
205.75002,-5.07310,-65.24000
205.85000,-5.07970,-65.37000
205.95002,-5.08640,-65.51000
206.05000,-5.09310,-65.78000
206.15002,-5.09970,-65.78000
206.25002,-5.10640,-65.91000
206.35000,-5.11310,-66.05000
206.45002,-5.11970,-66.05000
206.55000,-5.12640,-66.18000
206.65002,-5.13310,-66.18000
206.75002,-5.13970,-66.45000
206.85000,-5.14640,-66.58000
206.95002,-5.15310,-66.58000
207.05000,-5.15970,-66.72000
207.15002,-5.16640,-66.85000
207.25002,-5.17310,-66.98000
207.35000,-5.17970,-67.12000
207.45002,-5.18640,-67.25000
207.55000,-5.19310,-67.25000
207.65002,-5.19970,-67.25000
207.75002,-5.20640,-67.39000
207.85000,-5.21300,-67.52000
207.95002,-5.21970,-67.66000
208.05000,-5.22640,-67.79000
208.15002,-5.23300,-67.92000
208.25002,-5.23970,-68.06000
208.35000,-5.24640,-68.19000
208.45002,-5.25300,-68.19000
208.55000,-5.25970,-68.19000
208.65002,-5.26640,-68.33000
208.75002,-5.27300,-68.46000
208.85000,-5.27970,-68.60000
208.95002,-5.28640,-68.73000
209.05000,-5.29300,-68.86000
209.15002,-5.29970,-69.00000
209.25002,-5.30640,-69.00000
209.35000,-5.31300,-69.13000
209.45002,-5.31970,-69.27000
209.55000,-5.32640,-69.40000
209.65002,-5.33300,-69.40000
209.75002,-5.33970,-69.40000
209.85000,-5.34640,-69.67000
209.95002,-5.35300,-69.80000
210.05000,-5.35970,-69.94000
210.15002,-5.36640,-70.07000
210.25002,-5.37300,-70.07000
210.35000,-5.37970,-70.07000
210.45002,-5.38640,-70.21000
210.55000,-5.39300,-70.34000
210.65002,-5.39970,-70.34000
210.75002,-5.40640,-70.61000
210.85000,-5.41300,-70.61000
210.95002,-5.41970,-70.74000
211.05000,-5.42640,-70.88000
211.15002,-5.43300,-70.88000
211.25002,-5.43970,-71.01000
211.35000,-5.44640,-71.15000
211.45002,-5.45300,-71.28000
211.55000,-5.45970,-71.41000
211.65002,-5.46640,-71.55000
211.75002,-5.47300,-71.55000
211.85000,-5.47970,-71.68000
211.95002,-5.48640,-71.68000
212.05000,-5.49300,-71.82000
212.15002,-5.49970,-71.95000
212.25002,-5.50640,-72.09000
212.35000,-5.51300,-72.09000
212.45002,-5.51970,-72.09000
212.55000,-5.52640,-72.35000
212.65002,-5.53300,-72.49000
212.75002,-5.53970,-72.62000
212.85000,-5.54640,-72.76000
212.95002,-5.55300,-72.76000
213.05000,-5.55970,-72.76000
213.15002,-5.56640,-72.89000
213.25002,-5.57300,-73.03000
213.35000,-5.57970,-73.03000
213.45002,-5.58640,-73.16000
213.55000,-5.59300,-73.29000
213.65002,-5.59970,-73.43000
213.75002,-5.60640,-73.56000
213.85000,-5.61300,-73.56000
213.95002,-5.61970,-73.70000
214.05000,-5.62640,-73.70000
214.15002,-5.63300,-73.83000
214.25002,-5.63970,-73.96000
214.35000,-5.64640,-73.96000
214.45002,-5.65300,-74.10000
214.55000,-5.65970,-74.23000
214.65002,-5.66640,-74.23000
214.75002,-5.67300,-74.37000
214.85000,-5.67970,-74.64000
214.95002,-5.68640,-74.64000
215.05000,-5.69300,-74.64000
215.15002,-5.69970,-74.77000
215.25002,-5.70640,-74.90000
215.35000,-5.71300,-74.90000
215.45002,-5.71970,-75.17000
215.55000,-5.72640,-75.31000
215.65002,-5.73300,-75.31000
215.75002,-5.73970,-75.44000
215.85000,-5.74630,-75.58000
215.95002,-5.75300,-75.58000
216.05000,-5.75970,-75.71000
216.15002,-5.76630,-75.71000
216.25002,-5.77300,-75.84000
216.35000,-5.77970,-75.84000
216.45002,-5.78630,-75.98000
216.55000,-5.79300,-76.11000
216.65002,-5.79970,-76.11000
216.75002,-5.80630,-76.25000
216.85000,-5.81300,-76.52000
216.95002,-5.81970,-76.52000
217.05000,-5.82630,-76.65000
217.15002,-5.83300,-76.65000
217.25002,-5.83970,-76.78000
217.35000,-5.84630,-76.78000
217.45002,-5.85300,-76.78000
217.55000,-5.85970,-77.05000
217.65002,-5.86630,-77.19000
217.75002,-5.87300,-77.19000
217.85000,-5.87970,-77.19000
217.95002,-5.88630,-77.45000
218.05000,-5.89300,-77.59000
218.15002,-5.89970,-77.59000
218.25002,-5.90630,-77.72000
218.35000,-5.91300,-77.72000
218.45002,-5.91970,-77.72000
218.55000,-5.92630,-77.86000
218.65002,-5.93300,-77.99000
218.75002,-5.93970,-78.13000
218.85000,-5.94630,-78.26000
218.95002,-5.95300,-78.39000
219.05000,-5.95970,-78.39000
219.15002,-5.96630,-78.53000
219.25002,-5.97300,-78.53000
219.35000,-5.97970,-78.66000
219.45002,-5.98630,-78.66000
219.55000,-5.99300,-78.80000
219.65002,-5.99970,-78.80000
219.75002,-6.00630,-79.07000
219.85000,-6.01300,-79.07000
219.95002,-6.01970,-79.20000
220.05000,-6.02630,-79.33000
220.15002,-6.03300,-79.47000
220.25002,-6.03970,-79.60000
220.35000,-6.04630,-79.60000
220.45002,-6.05300,-79.74000
220.55000,-6.05970,-79.74000
220.65002,-6.06630,-79.87000
220.75002,-6.07300,-80.00000
220.85000,-6.07970,-80.00000
220.95002,-6.08630,-80.14000
221.05000,-6.09300,-80.14000
221.15002,-6.09970,-80.27000
221.25002,-6.10630,-80.27000
221.35000,-6.11300,-80.54000
221.45002,-6.11970,-80.54000
221.55000,-6.12630,-80.68000
221.65002,-6.13300,-80.81000
221.75002,-6.13970,-80.81000
221.85000,-6.14630,-80.94000
221.95002,-6.15300,-80.94000
222.05000,-6.15970,-81.08000
222.15002,-6.16630,-81.21000
222.25002,-6.17300,-81.35000
222.35000,-6.17970,-81.35000
222.45002,-6.18630,-81.48000
222.55000,-6.19300,-81.62000
222.65002,-6.19970,-81.62000
222.75002,-6.20630,-81.75000
222.85000,-6.21300,-81.75000
222.95002,-6.21970,-82.02000
223.05000,-6.22630,-82.02000
223.15002,-6.23300,-82.15000
223.25002,-6.23970,-82.15000
223.35000,-6.24630,-82.42000
223.45002,-6.25300,-82.42000
223.55000,-6.25960,-82.42000
223.65002,-6.26630,-82.56000
223.75002,-6.27300,-82.56000
223.85000,-6.27960,-82.69000
223.95002,-6.28630,-82.69000
224.05000,-6.29300,-82.82000
224.15002,-6.29960,-83.09000
224.25002,-6.30630,-83.09000
224.35000,-6.31300,-83.23000
224.45002,-6.31960,-83.23000
224.55000,-6.32630,-83.36000
224.65002,-6.33300,-83.36000
224.75002,-6.33960,-83.49000
224.85000,-6.34630,-83.49000
224.95002,-6.35300,-83.76000
225.05002,-6.35960,-83.76000
225.15002,-6.36630,-83.90000
225.25002,-6.37300,-84.03000
225.35000,-6.37960,-84.17000
225.45002,-6.38630,-84.17000
225.55002,-6.39300,-84.17000
225.65002,-6.39960,-84.30000
225.75002,-6.40630,-84.43000
225.85000,-6.41300,-84.43000
225.95002,-6.41960,-84.57000
226.05002,-6.42630,-84.70000
226.15002,-6.43300,-84.70000
226.25002,-6.43960,-84.84000
226.35000,-6.44630,-84.97000
226.45002,-6.45300,-84.97000
226.55002,-6.45960,-85.11000
226.65002,-6.46630,-85.24000
226.75002,-6.47300,-85.24000
226.85000,-6.47960,-85.37000
226.95002,-6.48630,-85.51000
227.05002,-6.49300,-85.64000
227.15002,-6.49960,-85.64000
227.25002,-6.50630,-85.78000
227.35000,-6.51300,-85.78000
227.45002,-6.51960,-85.78000
227.55002,-6.52630,-85.91000
227.65002,-6.53300,-86.05000
227.75002,-6.53960,-86.18000
227.85000,-6.54630,-86.31000
227.95002,-6.55300,-86.45000
228.05002,-6.55960,-86.45000
228.15002,-6.56630,-86.58000
228.25002,-6.57300,-86.58000
228.35000,-6.57960,-86.72000
228.45002,-6.58630,-86.72000
228.55002,-6.59300,-86.85000
228.65002,-6.59960,-86.85000
228.75002,-6.60630,-86.98000
228.85000,-6.61300,-87.12000
228.95002,-6.61960,-87.25000
229.05002,-6.62630,-87.25000
229.15002,-6.63300,-87.39000
229.25002,-6.63960,-87.39000
229.35000,-6.64630,-87.52000
229.45002,-6.65300,-87.66000
229.55002,-6.65960,-87.66000
229.65002,-6.66630,-87.79000
229.75002,-6.67300,-87.92000
229.85000,-6.67960,-88.06000
229.95002,-6.68630,-88.19000
230.05002,-6.69300,-88.19000
230.15002,-6.69960,-88.19000
230.25002,-6.70630,-88.19000
230.35000,-6.71300,-88.46000
230.45002,-6.71960,-88.46000
230.55002,-6.72630,-88.60000
230.65002,-6.73300,-88.73000
230.75002,-6.73960,-88.73000
230.85000,-6.74630,-88.86000
230.95002,-6.75300,-88.86000
231.05002,-6.75960,-89.13000
231.15002,-6.76630,-89.13000
231.25002,-6.77290,-89.13000
231.35000,-6.77960,-89.27000
231.45002,-6.78630,-89.40000
231.55002,-6.79290,-89.40000
231.65002,-6.79960,-89.40000
231.75002,-6.80630,-89.54000
231.85000,-6.81290,-89.67000
231.95002,-6.81960,-89.80000
232.05002,-6.82630,-89.94000
232.15002,-6.83290,-89.94000
232.25002,-6.83960,-90.07000
232.35000,-6.84630,-90.21000
232.45002,-6.85290,-90.21000
232.55002,-6.85960,-90.34000
232.65002,-6.86630,-90.47000
232.75002,-6.87290,-90.47000
232.85000,-6.87960,-90.61000
232.95002,-6.88630,-90.61000
233.05002,-6.89290,-90.74000
233.15002,-6.89960,-90.88000
233.25002,-6.90630,-91.01000
233.35000,-6.91290,-91.01000
233.45002,-6.91960,-91.15000
233.55002,-6.92630,-91.15000
233.65002,-6.93290,-91.15000
233.75002,-6.93960,-91.41000
233.85000,-6.94630,-91.55000
233.95002,-6.95290,-91.55000
234.05002,-6.95960,-91.55000
234.15002,-6.96630,-91.82000
234.25002,-6.97290,-91.82000
234.35000,-6.97960,-91.82000
234.45002,-6.98630,-91.95000
234.55002,-6.99290,-92.09000
234.65002,-6.99960,-92.09000
234.75002,-7.00630,-92.09000
234.85000,-7.01290,-92.35000
234.95002,-7.01960,-92.35000
235.05002,-7.02630,-92.49000
235.15002,-7.03290,-92.62000
235.25002,-7.03960,-92.76000
235.35000,-7.04630,-92.89000
235.45002,-7.05290,-92.89000
235.55002,-7.05960,-92.89000
235.65002,-7.06630,-92.89000
235.75002,-7.07290,-93.16000
235.85000,-7.07960,-93.16000
235.95002,-7.08630,-93.29000
236.05002,-7.09290,-93.43000
236.15002,-7.09960,-93.43000
236.25002,-7.10630,-93.56000
236.35000,-7.11290,-93.56000
236.45002,-7.11960,-93.70000
236.55002,-7.12630,-93.70000
236.65002,-7.13290,-93.83000
236.75002,-7.13960,-93.83000
236.85000,-7.14630,-93.96000
236.95002,-7.15290,-94.10000
237.05002,-7.15960,-94.23000
237.15002,-7.16630,-94.37000
237.25002,-7.17290,-94.37000
237.35000,-7.17960,-94.50000
237.45002,-7.18630,-94.50000
237.55002,-7.19290,-94.64000
237.65002,-7.19960,-94.64000
237.75002,-7.20630,-94.77000
237.85000,-7.21290,-94.90000
237.95002,-7.21960,-95.04000
238.05002,-7.22630,-95.17000
238.15002,-7.23290,-95.17000
238.25002,-7.23960,-95.17000
238.35000,-7.24630,-95.31000
238.45002,-7.25290,-95.44000
238.55002,-7.25960,-95.44000
238.65002,-7.26630,-95.58000
238.75002,-7.27290,-95.71000
238.85000,-7.27960,-95.71000
238.95002,-7.28630,-95.84000
239.05002,-7.29290,-95.98000
239.15002,-7.29960,-96.11000
239.25002,-7.30620,-96.11000
239.35000,-7.31290,-96.25000
239.45002,-7.31960,-96.25000
239.55002,-7.32620,-96.38000
239.65002,-7.33290,-96.38000
239.75002,-7.33960,-96.52000
239.85000,-7.34620,-96.65000
239.95002,-7.35290,-96.65000
240.05002,-7.35960,-96.78000
240.15002,-7.36620,-96.92000
240.25002,-7.37290,-96.92000
240.35000,-7.37960,-97.05000
240.45002,-7.38620,-97.19000
240.55002,-7.39290,-97.19000
240.65002,-7.39960,-97.32000
240.75002,-7.40620,-97.32000
240.85000,-7.41290,-97.32000
240.95002,-7.41960,-97.45000
241.05002,-7.42620,-97.72000
241.15002,-7.43290,-97.86000
241.25002,-7.43960,-97.86000
241.35000,-7.44620,-97.99000
241.45002,-7.45290,-98.13000
241.55002,-7.45960,-98.13000
241.65002,-7.46620,-98.13000
241.75002,-7.47290,-98.13000
241.85000,-7.47960,-98.39000
241.95002,-7.48620,-98.39000
242.05002,-7.49290,-98.53000
242.15002,-7.49960,-98.53000
242.25002,-7.50620,-98.66000
242.35000,-7.51290,-98.80000
242.45002,-7.51960,-98.80000
242.55002,-7.52620,-98.93000
242.65002,-7.53290,-99.07000
242.75002,-7.53960,-99.07000
242.85000,-7.54620,-99.07000
242.95002,-7.55290,-99.20000
243.05002,-7.55960,-99.33000
243.15002,-7.56620,-99.47000
243.25002,-7.57290,-99.60000
243.35000,-7.57960,-99.74000
243.45002,-7.58620,-99.74000
243.55002,-7.59290,-99.60000
243.65002,-7.59960,-99.87000
243.75002,-7.60620,-99.87000
243.85000,-7.61290,-100.00000
243.95002,-7.61960,-100.14000
244.05002,-7.62620,-100.27000
244.15002,-7.63290,-100.27000
244.25002,-7.63960,-100.27000
244.35000,-7.64620,-100.41000
244.45002,-7.65290,-100.41000
244.55002,-7.65960,-100.54000
244.65002,-7.66620,-100.68000
244.75002,-7.67290,-100.81000
244.85000,-7.67960,-100.81000
244.95002,-7.68620,-100.94000
245.05002,-7.69290,-100.94000
245.15002,-7.69960,-101.08000
245.25002,-7.70620,-101.21000
245.35000,-7.71290,-101.21000
245.45002,-7.71960,-101.35000
245.55002,-7.72620,-101.35000
245.65002,-7.73290,-101.48000
245.75002,-7.73960,-101.62000
245.85000,-7.74620,-101.75000
245.95002,-7.75290,-101.75000
246.05002,-7.75960,-101.88000
246.15002,-7.76620,-102.02000
246.25002,-7.77290,-102.02000
246.35000,-7.77960,-102.02000
246.45002,-7.78620,-102.15000
246.55002,-7.79290,-102.29000
246.65002,-7.79960,-102.42000
246.75002,-7.80620,-102.42000
246.85000,-7.81290,-102.56000
246.95002,-7.81950,-102.56000
247.05002,-7.82620,-102.69000
247.15002,-7.83290,-102.69000
247.25002,-7.83950,-102.82000
247.35000,-7.84620,-102.96000
247.45002,-7.85290,-102.96000
247.55002,-7.85950,-103.09000
247.65002,-7.86620,-103.23000
247.75002,-7.87290,-103.23000
247.85000,-7.87950,-103.36000
247.95002,-7.88620,-103.36000
248.05002,-7.89290,-103.49000
248.15002,-7.89950,-103.63000
248.25002,-7.90620,-103.63000
248.35000,-7.91290,-103.76000
248.45002,-7.91950,-103.76000
248.55002,-7.92620,-103.90000
248.65002,-7.93290,-104.03000
248.75002,-7.93950,-104.03000
248.85000,-7.94620,-104.03000
248.95002,-7.95290,-104.17000
249.05002,-7.95950,-104.30000
249.15002,-7.96620,-104.43000
249.25002,-7.97290,-104.57000
249.35000,-7.97950,-104.57000
249.45002,-7.98620,-104.70000
249.55002,-7.99290,-104.70000
249.65002,-7.99950,-104.70000
249.75002,-8.00620,-104.97000
249.85000,-8.01290,-104.97000
249.95002,-8.01950,-104.97000
250.05002,-8.02620,-105.11000
250.15002,-8.03290,-105.11000
250.25002,-8.03950,-105.24000
250.35000,-8.04620,-105.37000
250.45002,-8.05290,-105.37000
250.55002,-8.05950,-105.51000
250.65002,-8.06620,-105.51000
250.75002,-8.07290,-105.64000
250.85000,-8.07950,-105.78000
250.95002,-8.08620,-105.64000
251.05002,-8.09290,-105.91000
251.15002,-8.09950,-105.91000
251.25002,-8.10620,-106.05000
251.35000,-8.11290,-106.18000
251.45002,-8.11950,-106.18000
251.55002,-8.12620,-106.31000
251.65002,-8.13290,-106.31000
251.75002,-8.13950,-106.31000
251.85000,-8.14620,-106.45000
251.95002,-8.15290,-106.58000
252.05002,-8.15950,-106.72000
252.15002,-8.16620,-106.85000
252.25002,-8.17290,-106.85000
252.35000,-8.17950,-106.98000
252.45002,-8.18620,-106.98000
252.55002,-8.19290,-106.98000
252.65002,-8.19950,-107.12000
252.75002,-8.20620,-107.25000
252.85000,-8.21290,-107.25000
252.95002,-8.21950,-107.39000
253.05002,-8.22620,-107.52000
253.15002,-8.23290,-107.52000
253.25002,-8.23950,-107.66000
253.35000,-8.24620,-107.79000
253.45002,-8.25290,-107.79000
253.55002,-8.25950,-107.79000
253.65002,-8.26620,-107.79000
253.75002,-8.27290,-107.92000
253.85000,-8.27950,-108.06000
253.95002,-8.28620,-108.19000
254.05002,-8.29290,-108.19000
254.15002,-8.29950,-108.46000
254.25002,-8.30620,-108.46000
254.35000,-8.31290,-108.46000
254.45002,-8.31950,-108.60000
254.55002,-8.32620,-108.60000
254.65002,-8.33280,-108.73000
254.75002,-8.33950,-108.73000
254.85000,-8.34620,-108.86000
254.95002,-8.35280,-109.00000
255.05002,-8.35950,-109.13000
255.15002,-8.36620,-109.27000
255.25002,-8.37280,-109.27000
255.35000,-8.37950,-109.40000
255.45002,-8.38620,-109.54000
255.55002,-8.39280,-109.67000
255.65002,-8.39950,-109.54000
255.75002,-8.40620,-109.80000
255.85000,-8.41280,-109.80000
255.95002,-8.41950,-109.94000
256.05002,-8.42620,-110.07000
256.15003,-8.43280,-110.34000
256.25000,-8.43950,-110.34000
256.35000,-8.44620,-110.47000
256.45002,-8.45280,-110.47000
256.55002,-8.45950,-110.61000
256.65003,-8.46620,-110.74000
256.75000,-8.47280,-110.88000
256.85000,-8.47950,-110.88000
256.95002,-8.48620,-111.01000
257.05002,-8.49280,-110.88000
257.15003,-8.49950,-111.15000
257.25000,-8.50620,-111.15000
257.35000,-8.51280,-111.28000
257.45002,-8.51950,-111.41000
257.55002,-8.52620,-111.41000
257.65003,-8.53280,-111.55000
257.75000,-8.53950,-111.55000
257.85000,-8.54620,-111.68000
257.95002,-8.55280,-111.55000
258.05002,-8.55950,-111.82000
258.15003,-8.56620,-111.82000
258.25000,-8.57280,-111.95000
258.35000,-8.57950,-111.95000
258.45002,-8.58620,-112.22000
258.55002,-8.59280,-112.22000
258.65003,-8.59950,-112.35000
258.75000,-8.60620,-112.35000
258.85000,-8.61280,-112.35000
258.95002,-8.61950,-112.62000
259.05002,-8.62620,-112.62000
259.15003,-8.63280,-112.76000
259.25000,-8.63950,-112.89000
259.35000,-8.64620,-112.89000
259.45002,-8.65280,-113.03000
259.55002,-8.65950,-113.03000
259.65003,-8.66620,-113.16000
259.75000,-8.67280,-113.16000
259.85000,-8.67950,-113.29000
259.95002,-8.68620,-113.43000
260.05002,-8.69280,-113.43000
260.15003,-8.69950,-113.56000
260.25000,-8.70620,-113.56000
260.35000,-8.71280,-113.83000
260.45002,-8.71950,-113.83000
260.55002,-8.72620,-113.96000
260.65003,-8.73280,-113.96000
260.75000,-8.73950,-114.10000
260.85000,-8.74620,-114.10000
260.95002,-8.75280,-114.23000
261.05002,-8.75950,-114.23000
261.15003,-8.76620,-114.23000
261.25000,-8.77280,-114.37000
261.35000,-8.77950,-114.50000
261.45002,-8.78620,-114.64000
261.55002,-8.79280,-114.64000
261.65003,-8.79950,-114.77000
261.75000,-8.80620,-114.77000
261.85000,-8.81280,-114.77000
261.95002,-8.81950,-114.90000
262.05002,-8.82620,-115.04000
262.15003,-8.83280,-115.17000
262.25000,-8.83950,-115.17000
262.35000,-8.84620,-115.31000
262.45000,-8.85280,-115.17000
262.55003,-8.85950,-115.31000
262.65003,-8.86610,-115.44000
262.75000,-8.87280,-115.44000
262.85000,-8.87950,-115.44000
262.95000,-8.88610,-115.58000
263.05003,-8.89280,-115.58000
263.15003,-8.89950,-115.71000
263.25000,-8.90610,-115.84000
263.35000,-8.91280,-115.84000
263.45000,-8.91950,-115.84000
263.55003,-8.92610,-115.84000
263.65003,-8.93280,-115.98000
263.75000,-8.93950,-115.98000
263.85000,-8.94610,-116.11000
263.95000,-8.95280,-116.25000
264.05003,-8.95950,-116.25000
264.15003,-8.96610,-116.38000
264.25000,-8.97280,-116.38000
264.35000,-8.97950,-116.52000
264.45000,-8.98610,-116.52000
264.55003,-8.99280,-116.65000
264.65003,-8.99950,-116.65000
264.75000,-9.00610,-116.78000
264.85000,-9.01280,-116.78000
264.95000,-9.01950,-116.92000
265.05003,-9.02610,-117.05000
265.15003,-9.03280,-117.05000
265.25000,-9.03950,-117.19000
265.35000,-9.04610,-117.32000
265.45000,-9.05280,-117.45000
265.55003,-9.05950,-117.45000
265.65003,-9.06610,-117.45000
265.75000,-9.07280,-117.45000
265.85000,-9.07950,-117.59000
265.95000,-9.08610,-117.59000
266.05003,-9.09280,-117.72000
266.15003,-9.09950,-117.86000
266.25000,-9.10610,-117.99000
266.35000,-9.11280,-118.13000
266.45000,-9.11950,-117.99000
266.55003,-9.12610,-118.13000
266.65003,-9.13280,-118.26000
266.75000,-9.13950,-118.26000
266.85000,-9.14610,-118.39000
266.95000,-9.15280,-118.39000
267.05003,-9.15950,-118.53000
267.15003,-9.16610,-118.66000
267.25000,-9.17280,-118.80000
267.35000,-9.17950,-118.80000
267.45000,-9.18610,-118.93000
267.55003,-9.19280,-118.93000
267.65003,-9.19950,-119.07000
267.75000,-9.20610,-118.93000
267.85000,-9.21280,-119.07000
267.95000,-9.21950,-119.20000
268.05003,-9.22610,-119.33000
268.15003,-9.23280,-119.47000
268.25000,-9.23950,-119.47000
268.35000,-9.24610,-119.47000
268.45000,-9.25280,-119.60000
268.55003,-9.25950,-119.60000
268.65003,-9.26610,-119.74000
268.75000,-9.27280,-119.60000
268.85000,-9.27950,-119.74000
268.95000,-9.28610,-119.87000
269.05003,-9.29280,-119.87000
269.15003,-9.29950,-120.00000
269.25000,-9.30610,-120.14000
269.35000,-9.31280,-120.14000
269.45000,-9.31950,-120.14000
269.55003,-9.32610,-120.27000
269.65003,-9.33280,-120.27000
269.75000,-9.33950,-120.27000
269.85000,-9.34610,-120.27000
269.95000,-9.35280,-120.27000
270.05003,-9.35950,-120.27000
270.15003,-9.36610,-120.54000
270.25000,-9.37280,-120.68000
270.35000,-9.37940,-120.68000
270.45000,-9.38610,-120.81000
270.55003,-9.39280,-120.68000
270.65003,-9.39940,-120.81000
270.75000,-9.40610,-120.68000
270.85000,-9.41280,-120.81000
270.95000,-9.41940,-120.81000
271.05003,-9.42610,-120.94000
271.15003,-9.43280,-121.08000
271.25000,-9.43940,-121.08000
271.35000,-9.44610,-121.21000
271.45000,-9.45280,-121.21000
271.55003,-9.45940,-121.35000
271.65003,-9.46610,-121.35000
271.75000,-9.47280,-121.35000
271.85000,-9.47940,-121.35000
271.95000,-9.48610,-121.48000
272.05003,-9.49280,-121.48000
272.15003,-9.49940,-121.48000
272.25000,-9.50610,-121.62000
272.35000,-9.51280,-121.75000
272.45000,-9.51940,-121.75000
272.55003,-9.52610,-121.88000
272.65003,-9.53280,-121.75000
272.75000,-9.53940,-121.88000
272.85000,-9.54610,-122.02000
272.95000,-9.55280,-122.15000
273.05003,-9.55940,-122.15000
273.15003,-9.56610,-122.29000
273.25000,-9.57280,-122.15000
273.35000,-9.57940,-122.15000
273.45000,-9.58610,-122.42000
273.55003,-9.59280,-122.56000
273.65003,-9.59940,-122.56000
273.75000,-9.60610,-122.69000
273.85000,-9.61280,-122.69000
273.95000,-9.61940,-122.82000
274.05003,-9.62610,-122.69000
274.15003,-9.63280,-122.82000
274.25000,-9.63940,-122.96000
274.35000,-9.64610,-123.09000
274.45000,-9.65280,-123.09000
274.55003,-9.65940,-123.09000
274.65003,-9.66610,-123.36000
274.75000,-9.67280,-123.36000
274.85000,-9.67940,-123.49000
274.95000,-9.68610,-123.63000
275.05003,-9.69280,-123.63000
275.15003,-9.69940,-123.63000
275.25000,-9.70610,-123.63000
275.35000,-9.71280,-123.76000
275.45000,-9.71940,-123.90000
275.55003,-9.72610,-124.03000
275.65003,-9.73280,-124.17000
275.75000,-9.73940,-124.30000
275.85000,-9.74610,-124.30000
275.95000,-9.75280,-124.30000
276.05003,-9.75940,-124.43000
276.15003,-9.76610,-124.43000
276.25000,-9.77280,-124.70000
276.35000,-9.77940,-124.84000
276.45000,-9.78610,-124.84000
276.55003,-9.79280,-124.97000
276.65003,-9.79940,-124.97000
276.75000,-9.80610,-124.97000
276.85000,-9.81280,-125.11000
276.95000,-9.81940,-125.24000
277.05003,-9.82610,-125.24000
277.15003,-9.83280,-125.37000
277.25000,-9.83940,-125.37000
277.35000,-9.84610,-125.51000
277.45000,-9.85280,-125.64000
277.55003,-9.85940,-125.64000
277.65003,-9.86610,-125.78000
277.75000,-9.87280,-125.78000
277.85000,-9.87940,-125.91000
277.95000,-9.88610,-125.91000
278.05003,-9.89280,-126.05000
278.15003,-9.89940,-126.05000
278.25000,-9.90610,-126.18000
278.35000,-9.91270,-126.31000
278.45000,-9.91940,-126.31000
278.55003,-9.92610,-126.31000
278.65003,-9.93270,-126.31000
278.75000,-9.93940,-126.45000
278.85000,-9.94610,-126.58000
278.95000,-9.95270,-126.72000
279.05003,-9.95940,-126.72000
279.15003,-9.96610,-126.85000
279.25000,-9.97270,-126.72000
279.35000,-9.97940,-126.85000
279.45000,-9.98610,-126.85000
279.55003,-9.99270,-126.85000
279.65003,-9.99940,-127.12000
279.75000,-10.00610,-126.98000
279.85000,-10.01270,-127.12000
279.95000,-10.01940,-127.12000
