Time,Extension,Load
(sec),(mm),(N)
0.00000,-1.44860,-1.35000
0.10000,-1.45260,-1.35000
0.20000,-1.45590,-1.35000
0.30000,-1.45930,-1.48000
0.40000,-1.46260,-1.48000
0.50000,-1.46590,-1.62000
0.60000,-1.46930,-1.75000
0.70000,-1.47260,-1.62000
0.80000,-1.47590,-1.62000
0.90000,-1.47930,-1.75000
1.00000,-1.48260,-1.75000
1.10000,-1.48590,-1.88000
1.20000,-1.48930,-1.88000
1.30000,-1.49260,-2.02000
1.40000,-1.49590,-2.02000
1.50000,-1.49930,-2.02000
1.60000,-1.50260,-2.02000
1.70000,-1.50590,-2.15000
1.80000,-1.50930,-2.29000
1.90000,-1.51260,-2.29000
2.00000,-1.51590,-2.42000
2.10000,-1.51930,-2.42000
2.20000,-1.52260,-2.42000
2.30000,-1.52590,-2.42000
2.40000,-1.52930,-2.56000
2.50000,-1.53260,-2.56000
2.60000,-1.53590,-2.69000
2.70000,-1.53930,-2.56000
2.80000,-1.54260,-2.56000
2.90000,-1.54590,-2.69000
3.00000,-1.54930,-2.82000
3.10000,-1.55260,-2.82000
3.20000,-1.55590,-2.82000
3.30000,-1.55930,-3.09000
3.40000,-1.56260,-2.96000
3.50000,-1.56590,-3.09000
3.60000,-1.56930,-3.09000
3.70000,-1.57260,-3.09000
3.80000,-1.57590,-3.09000
3.90000,-1.57930,-3.23000
4.00000,-1.58260,-3.36000
4.10000,-1.58590,-3.36000
4.20000,-1.58930,-3.36000
4.30000,-1.59260,-3.36000
4.40000,-1.59590,-3.36000
4.50000,-1.59930,-3.49000
4.60000,-1.60260,-3.49000
4.70000,-1.60590,-3.63000
4.80000,-1.60930,-3.76000
4.90000,-1.61260,-3.76000
5.00000,-1.61590,-3.76000
5.10000,-1.61930,-3.76000
5.20000,-1.62260,-3.90000
5.30000,-1.62590,-4.03000
5.40000,-1.62930,-4.03000
5.50000,-1.63260,-4.03000
5.60000,-1.63590,-4.03000
5.70000,-1.63930,-4.03000
5.80000,-1.64260,-4.03000
5.90000,-1.64590,-4.17000
6.00000,-1.64920,-4.30000
6.10000,-1.65260,-4.43000
6.20000,-1.65590,-4.43000
6.30000,-1.65920,-4.43000
6.40000,-1.66260,-4.43000
6.50000,-1.66590,-4.43000
6.60000,-1.66920,-4.57000
6.70000,-1.67260,-4.70000
6.80000,-1.67590,-4.70000
6.90000,-1.67920,-4.84000
7.00000,-1.68260,-4.70000
7.10000,-1.68590,-4.70000
7.20000,-1.68920,-4.84000
7.30000,-1.69260,-4.84000
7.40000,-1.69590,-4.84000
7.50000,-1.69920,-4.97000
7.60000,-1.70260,-4.97000
7.70000,-1.70590,-5.11000
7.80000,-1.70920,-5.11000
7.90000,-1.71260,-5.24000
8.00000,-1.71590,-5.37000
8.10000,-1.71920,-5.37000
8.20000,-1.72260,-5.37000
8.30000,-1.72590,-5.37000
8.40000,-1.72920,-5.37000
8.50000,-1.73260,-5.51000
8.60000,-1.73590,-5.51000
8.70000,-1.73920,-5.64000
8.80000,-1.74260,-5.64000
8.90000,-1.74590,-5.78000
9.00000,-1.74920,-5.78000
9.10000,-1.75260,-5.78000
9.20000,-1.75590,-5.91000
9.30000,-1.75920,-5.91000
9.40000,-1.76260,-5.91000
9.50000,-1.76590,-6.05000
9.60000,-1.76920,-6.05000
9.70000,-1.77260,-6.05000
9.80000,-1.77590,-6.18000
9.90000,-1.77920,-6.31000
10.00000,-1.78260,-6.31000
10.10000,-1.78590,-6.31000
10.20000,-1.78920,-6.31000
10.30000,-1.79260,-6.45000
10.40000,-1.79590,-6.31000
10.50000,-1.79920,-6.45000
10.60000,-1.80260,-6.45000
10.70000,-1.80590,-6.72000
10.80000,-1.80920,-6.58000
10.90000,-1.81260,-6.72000
11.00000,-1.81590,-6.85000
11.10000,-1.81920,-6.85000
11.20000,-1.82260,-6.85000
11.30000,-1.82590,-6.85000
11.40000,-1.82920,-6.98000
11.50000,-1.83260,-6.98000
11.60000,-1.83590,-7.12000
11.70000,-1.83920,-7.12000
11.80000,-1.84260,-7.12000
11.90000,-1.84590,-7.25000
12.00000,-1.84920,-7.25000
12.10000,-1.85260,-7.25000
12.20000,-1.85590,-7.39000
12.30000,-1.85920,-7.39000
12.40000,-1.86260,-7.39000
12.50000,-1.86590,-7.66000
12.60000,-1.86920,-7.66000
12.70000,-1.87260,-7.52000
12.80000,-1.87590,-7.66000
12.90000,-1.87920,-7.66000
13.00000,-1.88260,-7.79000
13.10000,-1.88590,-7.79000
13.20000,-1.88920,-7.92000
13.30000,-1.89260,-7.92000
13.40000,-1.89590,-7.92000
13.50000,-1.89920,-8.06000
13.60000,-1.90260,-7.92000
13.70000,-1.90590,-8.06000
13.80000,-1.90920,-8.19000
13.90000,-1.91260,-8.19000
14.00000,-1.91590,-8.33000
14.10000,-1.91920,-8.33000
14.20000,-1.92260,-8.33000
14.30000,-1.92590,-8.46000
14.40000,-1.92920,-8.46000
14.50000,-1.93260,-8.46000
14.60000,-1.93590,-8.60000
14.70000,-1.93920,-8.60000
14.80000,-1.94260,-8.73000
14.90000,-1.94590,-8.73000
15.00000,-1.94920,-8.86000
15.10000,-1.95260,-8.73000
15.20000,-1.95590,-8.86000
15.30000,-1.95920,-9.00000
15.40000,-1.96260,-8.86000
15.50000,-1.96590,-9.00000
15.60000,-1.96920,-9.00000
15.70000,-1.97260,-9.00000
15.80000,-1.97590,-9.00000
15.90000,-1.97920,-9.13000
16.00000,-1.98260,-9.40000
16.10000,-1.98590,-9.40000
16.20000,-1.98920,-9.40000
16.30000,-1.99260,-9.40000
16.40000,-1.99590,-9.54000
16.50000,-1.99920,-9.54000
16.60000,-2.00260,-9.54000
16.70000,-2.00590,-9.54000
16.80000,-2.00920,-9.67000
16.90000,-2.01260,-9.80000
17.00000,-2.01590,-9.80000
17.10000,-2.01920,-9.80000
17.20000,-2.02260,-9.80000
17.30000,-2.02590,-9.94000
17.40000,-2.02920,-9.94000
17.50000,-2.03260,-10.07000
17.60000,-2.03590,-10.07000
17.70000,-2.03920,-10.21000
17.80000,-2.04260,-10.07000
17.90000,-2.04590,-10.21000
18.00000,-2.04920,-10.21000
18.10000,-2.05260,-10.34000
18.20000,-2.05590,-10.34000
18.30000,-2.05920,-10.47000
18.40000,-2.06260,-10.47000
18.50000,-2.06590,-10.47000
18.60000,-2.06920,-10.47000
18.70000,-2.07260,-10.61000
18.80000,-2.07590,-10.61000
18.90000,-2.07920,-10.74000
19.00000,-2.08260,-10.74000
19.10000,-2.08590,-10.88000
19.20000,-2.08920,-10.88000
19.30000,-2.09260,-10.88000
19.40000,-2.09590,-11.01000
19.50000,-2.09920,-11.01000
19.60000,-2.10260,-11.01000
19.70000,-2.10590,-11.15000
19.80000,-2.10920,-11.15000
19.90000,-2.11260,-11.15000
20.00000,-2.11590,-11.28000
20.10000,-2.11920,-11.28000
20.20000,-2.12260,-11.41000
20.30000,-2.12590,-11.41000
20.40000,-2.12920,-11.55000
20.50000,-2.13260,-11.41000
20.60000,-2.13590,-11.55000
20.70000,-2.13920,-11.68000
20.80000,-2.14260,-11.55000
20.90000,-2.14590,-11.68000
21.00000,-2.14920,-11.82000
21.10000,-2.15260,-11.82000
21.20000,-2.15590,-11.82000
21.30000,-2.15920,-11.95000
21.40000,-2.16260,-11.95000
21.50000,-2.16590,-12.09000
21.60000,-2.16920,-12.09000
21.70000,-2.17250,-11.95000
21.80000,-2.17590,-12.09000
21.90000,-2.17920,-12.09000
22.00000,-2.18250,-12.22000
22.10000,-2.18590,-12.22000
22.20000,-2.18920,-12.35000
22.30000,-2.19250,-12.35000
22.40000,-2.19590,-12.49000
22.50000,-2.19920,-12.49000
22.60000,-2.20250,-12.49000
22.70000,-2.20590,-12.62000
22.80000,-2.20920,-12.62000
22.90000,-2.21250,-12.62000
23.00000,-2.21590,-12.76000
23.10000,-2.21920,-12.76000
23.20000,-2.22250,-12.76000
23.30000,-2.22590,-12.89000
23.40000,-2.22920,-12.89000
23.50000,-2.23250,-12.89000
23.60000,-2.23590,-13.03000
23.70000,-2.23920,-13.03000
23.80000,-2.24250,-13.03000
23.90000,-2.24590,-13.03000
24.00000,-2.24920,-13.29000
24.10000,-2.25250,-13.29000
24.20000,-2.25590,-13.29000
24.30000,-2.25920,-13.43000
24.40000,-2.26250,-13.43000
24.50000,-2.26590,-13.43000
24.60000,-2.26920,-13.43000
24.70000,-2.27250,-13.43000
24.80000,-2.27590,-13.56000
24.90000,-2.27920,-13.70000
25.00000,-2.28250,-13.70000
25.10000,-2.28590,-13.70000
25.20000,-2.28920,-13.70000
25.30000,-2.29250,-13.83000
25.40000,-2.29590,-13.83000
25.50000,-2.29920,-13.83000
25.60000,-2.30250,-13.96000
25.70000,-2.30590,-14.10000
25.80000,-2.30920,-14.10000
25.90000,-2.31250,-14.10000
26.00000,-2.31590,-14.23000
26.10000,-2.31920,-14.23000
26.20000,-2.32250,-14.23000
26.30000,-2.32590,-14.37000
26.40000,-2.32920,-14.37000
26.50000,-2.33250,-14.50000
26.60000,-2.33590,-14.37000
26.70000,-2.33920,-14.50000
26.80000,-2.34250,-14.50000
26.90000,-2.34590,-14.64000
27.00000,-2.34920,-14.64000
27.10000,-2.35250,-14.64000
27.20000,-2.35590,-14.77000
27.30000,-2.35920,-14.77000
27.40000,-2.36250,-14.77000
27.50000,-2.36590,-14.90000
27.60000,-2.36920,-15.04000
27.70000,-2.37250,-15.04000
27.80000,-2.37590,-15.04000
27.90000,-2.37920,-15.04000
28.00000,-2.38250,-15.04000
28.10000,-2.38590,-15.17000
28.20000,-2.38920,-15.17000
28.30000,-2.39250,-15.31000
28.40000,-2.39590,-15.44000
28.50000,-2.39920,-15.44000
28.60000,-2.40250,-15.31000
28.70000,-2.40590,-15.44000
28.80000,-2.40920,-15.44000
28.90000,-2.41250,-15.44000
29.00000,-2.41590,-15.58000
29.10000,-2.41920,-15.71000
29.20000,-2.42250,-15.71000
29.30000,-2.42590,-15.84000
29.40000,-2.42920,-15.84000
29.50000,-2.43250,-15.84000
29.60000,-2.43590,-15.98000
29.70000,-2.43920,-15.98000
29.80000,-2.44250,-15.98000
29.90000,-2.44590,-16.11000
30.00000,-2.44920,-15.98000
30.10000,-2.45250,-16.11000
30.20000,-2.45590,-16.11000
30.30000,-2.45920,-16.25000
30.40000,-2.46250,-16.25000
30.50000,-2.46590,-16.38000
30.60000,-2.46920,-16.38000
30.70000,-2.47250,-16.38000
30.80000,-2.47590,-16.38000
30.90000,-2.47920,-16.52000
31.00000,-2.48250,-16.65000
31.10000,-2.48590,-16.65000
31.20000,-2.48920,-16.65000
31.30000,-2.49250,-16.65000
31.40000,-2.49590,-16.78000
31.50000,-2.49920,-16.78000
31.60000,-2.50250,-16.78000
31.70000,-2.50590,-16.92000
31.80000,-2.50920,-16.92000
31.90000,-2.51250,-17.05000
32.00000,-2.51590,-17.05000
32.10000,-2.51920,-17.19000
32.20000,-2.52250,-17.19000
32.30000,-2.52590,-17.19000
32.40000,-2.52920,-17.32000
32.50000,-2.53250,-17.19000
32.60000,-2.53590,-17.32000
32.70000,-2.53920,-17.45000
32.80000,-2.54250,-17.45000
32.90000,-2.54590,-17.45000
33.00000,-2.54920,-17.59000
33.10000,-2.55250,-17.59000
33.20000,-2.55590,-17.59000
33.30000,-2.55920,-17.72000
33.40000,-2.56250,-17.72000
33.50000,-2.56590,-17.72000
33.60000,-2.56920,-17.72000
33.70000,-2.57250,-17.86000
33.80000,-2.57590,-17.86000
33.90000,-2.57920,-17.99000
34.00000,-2.58250,-17.86000
34.10000,-2.58590,-18.13000
34.20000,-2.58920,-18.13000
34.30000,-2.59250,-18.13000
34.40000,-2.59590,-18.26000
34.50000,-2.59920,-18.26000
34.60000,-2.60250,-18.26000
34.70000,-2.60590,-18.26000
34.80000,-2.60920,-18.39000
34.90000,-2.61250,-18.39000
35.00000,-2.61590,-18.53000
35.10000,-2.61920,-18.66000
35.20000,-2.62250,-18.53000
35.30000,-2.62590,-18.53000
35.40000,-2.62920,-18.66000
35.50000,-2.63250,-18.66000
35.60000,-2.63590,-18.66000
35.70000,-2.63920,-18.80000
35.80000,-2.64250,-18.93000
35.90000,-2.64590,-18.93000
36.00000,-2.64920,-19.07000
36.10000,-2.65250,-19.07000
36.20000,-2.65590,-19.07000
36.30000,-2.65920,-19.07000
36.40000,-2.66250,-19.20000
36.50000,-2.66590,-19.20000
36.60000,-2.66920,-19.33000
36.70000,-2.67250,-19.33000
36.80000,-2.67590,-19.33000
36.90000,-2.67920,-19.33000
37.00000,-2.68250,-19.33000
37.10000,-2.68590,-19.47000
37.20000,-2.68920,-19.60000
37.30000,-2.69250,-19.47000
37.40000,-2.69580,-19.60000
37.50000,-2.69920,-19.60000
37.60000,-2.70250,-19.60000
37.70000,-2.70580,-19.74000
37.80000,-2.70920,-19.87000
37.90000,-2.71250,-19.87000
38.00000,-2.71580,-19.87000
38.10000,-2.71920,-20.00000
38.20000,-2.72250,-20.00000
38.30000,-2.72580,-20.00000
38.40000,-2.72920,-20.14000
38.50000,-2.73250,-20.14000
38.60000,-2.73580,-20.14000
38.70000,-2.73920,-20.27000
38.80000,-2.74250,-20.27000
38.90000,-2.74580,-20.27000
39.00000,-2.74920,-20.27000
39.10000,-2.75250,-20.41000
39.20000,-2.75580,-20.41000
39.30000,-2.75920,-20.54000
39.40000,-2.76250,-20.54000
39.50000,-2.76580,-20.54000
39.60000,-2.76920,-20.68000
39.70000,-2.77250,-20.68000
39.80000,-2.77580,-20.81000
39.90000,-2.77920,-20.94000
40.00000,-2.78250,-20.81000
40.10000,-2.78580,-20.94000
40.20000,-2.78920,-20.94000
40.30000,-2.79250,-21.08000
40.40000,-2.79580,-21.08000
40.50000,-2.79920,-21.08000
40.60000,-2.80250,-21.21000
40.70000,-2.80580,-21.21000
40.80000,-2.80920,-21.21000
40.90000,-2.81250,-21.21000
41.00000,-2.81580,-21.21000
41.10000,-2.81920,-21.48000
41.20000,-2.82250,-21.48000
41.30000,-2.82580,-21.62000
41.40000,-2.82920,-21.62000
41.50000,-2.83250,-21.62000
41.60000,-2.83580,-21.62000
41.70000,-2.83920,-21.62000
41.80000,-2.84250,-21.75000
41.90000,-2.84580,-21.75000
42.00000,-2.84920,-21.88000
42.10000,-2.85250,-21.75000
42.20000,-2.85580,-21.88000
42.30000,-2.85920,-21.88000
42.40000,-2.86250,-22.02000
42.50000,-2.86580,-22.02000
42.60000,-2.86920,-22.15000
42.70000,-2.87250,-22.15000
42.80000,-2.87580,-22.15000
42.90000,-2.87920,-22.29000
43.00000,-2.88250,-22.29000
43.10000,-2.88580,-22.42000
43.20000,-2.88920,-22.42000
43.30000,-2.89250,-22.42000
43.40000,-2.89580,-22.56000
43.50000,-2.89920,-22.56000
43.60000,-2.90250,-22.56000
43.70000,-2.90580,-22.69000
43.80000,-2.90920,-22.69000
43.90000,-2.91250,-22.69000
44.00000,-2.91580,-22.82000
44.10000,-2.91920,-22.82000
44.20000,-2.92250,-22.82000
44.30000,-2.92580,-22.96000
44.40000,-2.92920,-22.96000
44.50000,-2.93250,-22.96000
44.60000,-2.93580,-23.09000
44.70000,-2.93920,-23.09000
44.80000,-2.94250,-23.09000
44.90000,-2.94580,-23.23000
45.00000,-2.94920,-23.23000
45.10000,-2.95250,-23.23000
45.20000,-2.95580,-23.36000
45.30000,-2.95920,-23.36000
45.40000,-2.96250,-23.49000
45.50000,-2.96580,-23.49000
45.60000,-2.96920,-23.49000
45.70000,-2.97250,-23.49000
45.80000,-2.97580,-23.63000
45.90000,-2.97920,-23.63000
46.00000,-2.98250,-23.63000
46.10000,-2.98580,-23.63000
46.20000,-2.98920,-23.76000
46.30000,-2.99250,-23.90000
46.40000,-2.99580,-23.90000
46.50000,-2.99920,-24.03000
46.60000,-3.00250,-24.03000
46.70000,-3.00580,-24.03000
46.80000,-3.00920,-24.03000
46.90000,-3.01250,-24.03000
47.00000,-3.01580,-24.17000
47.10000,-3.01920,-24.17000
47.20000,-3.02250,-24.30000
47.30000,-3.02580,-24.43000
47.40000,-3.02920,-24.43000
47.50000,-3.03250,-24.43000
47.60000,-3.03580,-24.43000
47.70000,-3.03920,-24.43000
47.80000,-3.04250,-24.43000
47.90000,-3.04580,-24.57000
48.00000,-3.04920,-24.57000
48.10000,-3.05250,-24.70000
48.20000,-3.05580,-24.70000
48.30000,-3.05920,-24.84000
48.40000,-3.06250,-24.84000
48.50000,-3.06580,-24.97000
48.60000,-3.06920,-24.97000
48.70000,-3.07250,-24.84000
48.80000,-3.07580,-24.97000
48.90000,-3.07920,-25.11000
49.00000,-3.08250,-25.11000
49.10000,-3.08580,-25.24000
49.20000,-3.08920,-25.37000
49.30000,-3.09250,-25.24000
49.40000,-3.09580,-25.24000
49.50000,-3.09920,-25.37000
49.60000,-3.10250,-25.37000
49.70000,-3.10580,-25.24000
49.80000,-3.10920,-25.37000
49.90000,-3.11250,-25.51000
50.00000,-3.11580,-25.51000
50.10000,-3.11920,-25.64000
50.20000,-3.12250,-25.64000
50.30000,-3.12580,-25.78000
50.40000,-3.12920,-25.78000
50.50000,-3.13250,-25.91000
50.60000,-3.13580,-25.91000
50.70000,-3.13920,-25.91000
50.80000,-3.14250,-25.91000
50.90000,-3.14580,-25.91000
51.00000,-3.14920,-25.91000
51.10000,-3.15250,-26.05000
51.20000,-3.15580,-26.18000
51.30000,-3.15920,-26.18000
51.40000,-3.16250,-26.18000
51.50000,-3.16580,-26.31000
51.60000,-3.16920,-26.31000
51.70000,-3.17250,-26.18000
51.80000,-3.17580,-26.31000
51.90000,-3.17920,-26.45000
52.00000,-3.18250,-26.45000
52.10000,-3.18580,-26.58000
52.20000,-3.18920,-26.58000
52.30000,-3.19250,-26.58000
52.40000,-3.19580,-26.72000
52.50000,-3.19920,-26.72000
52.60000,-3.20250,-26.72000
52.70000,-3.20580,-26.72000
52.80000,-3.20920,-26.85000
52.90000,-3.21250,-26.85000
53.00000,-3.21580,-26.98000
53.10000,-3.21910,-26.98000
53.20000,-3.22250,-26.98000
53.30000,-3.22580,-26.98000
53.40000,-3.22910,-27.12000
53.50000,-3.23250,-27.12000
53.60000,-3.23580,-27.25000
53.70000,-3.23910,-27.39000
53.80000,-3.24250,-27.39000
53.90000,-3.24580,-27.39000
54.00000,-3.24910,-27.39000
54.10000,-3.25250,-27.39000
54.20000,-3.25580,-27.52000
54.30000,-3.25910,-27.52000
54.40000,-3.26250,-27.52000
54.50000,-3.26580,-27.66000
54.60000,-3.26910,-27.79000
54.70000,-3.27250,-27.79000
54.80000,-3.27580,-27.79000
54.90000,-3.27910,-27.79000
55.00000,-3.28250,-27.79000
55.10000,-3.28580,-27.79000
55.20000,-3.28910,-27.92000
55.30000,-3.29250,-27.92000
55.40000,-3.29580,-28.06000
55.50000,-3.29910,-28.19000
55.60000,-3.30250,-28.19000
55.70000,-3.30580,-28.19000
55.80000,-3.30910,-28.19000
55.90000,-3.31250,-28.19000
56.00000,-3.31580,-28.33000
56.10000,-3.31910,-28.33000
56.20000,-3.32250,-28.46000
56.30000,-3.32580,-28.33000
56.40000,-3.32910,-28.46000
56.50000,-3.33250,-28.46000
56.60000,-3.33580,-28.60000
56.70000,-3.33910,-28.60000
56.80000,-3.34250,-28.60000
56.90000,-3.34580,-28.73000
57.00000,-3.34910,-28.73000
57.10000,-3.35250,-28.86000
57.20000,-3.35580,-28.86000
57.30000,-3.35910,-29.00000
57.40000,-3.36250,-28.86000
57.50000,-3.36580,-29.00000
57.60000,-3.36910,-29.13000
57.70000,-3.37250,-29.00000
57.80000,-3.37580,-29.13000
57.90000,-3.37910,-29.13000
58.00000,-3.38250,-29.27000
58.10000,-3.38580,-29.27000
58.20000,-3.38910,-29.40000
58.30000,-3.39250,-29.27000
58.40000,-3.39580,-29.40000
58.50000,-3.39910,-29.40000
58.60000,-3.40250,-29.40000
58.70000,-3.40580,-29.54000
58.80000,-3.40910,-29.67000
58.90000,-3.41250,-29.67000
59.00000,-3.41580,-29.67000
59.10000,-3.41910,-29.80000
59.20000,-3.42250,-29.80000
59.30000,-3.42580,-29.80000
59.40000,-3.42910,-29.94000
59.50000,-3.43250,-29.94000
59.60000,-3.43580,-29.94000
59.70000,-3.43910,-30.07000
59.80000,-3.44250,-29.94000
59.90000,-3.44580,-30.07000
60.00000,-3.44910,-30.21000
60.10000,-3.45250,-30.21000
60.20000,-3.45580,-30.21000
60.30000,-3.45910,-30.34000
60.40000,-3.46250,-30.21000
60.50000,-3.46580,-30.21000
60.60000,-3.46910,-30.34000
60.70000,-3.47250,-30.47000
60.80000,-3.47580,-30.47000
60.90000,-3.47910,-30.47000
61.00000,-3.48250,-30.47000
61.10000,-3.48580,-30.61000
61.20000,-3.48910,-30.61000
61.30000,-3.49250,-30.74000
61.40000,-3.49580,-30.74000
61.50000,-3.49910,-30.74000
61.60000,-3.50250,-30.88000
61.70000,-3.50580,-30.88000
61.80000,-3.50910,-30.88000
61.90000,-3.51250,-30.88000
62.00000,-3.51580,-31.01000
62.10000,-3.51910,-31.01000
62.20000,-3.52250,-31.01000
62.30000,-3.52580,-31.15000
62.40000,-3.52910,-31.15000
62.50000,-3.53250,-31.28000
62.60000,-3.53580,-31.28000
62.70000,-3.53910,-31.41000
62.80000,-3.54250,-31.41000
62.90000,-3.54580,-31.41000
63.00000,-3.54910,-31.41000
63.10000,-3.55250,-31.41000
63.20000,-3.55580,-31.55000
63.30000,-3.55910,-31.68000
63.40000,-3.56250,-31.68000
63.50000,-3.56580,-31.68000
63.60000,-3.56910,-31.68000
63.70000,-3.57250,-31.68000
63.80000,-3.57580,-31.68000
63.90000,-3.57910,-31.82000
64.00000,-3.58250,-31.82000
64.10001,-3.58580,-31.95000
64.20000,-3.58910,-31.95000
64.30000,-3.59250,-32.22000
64.40000,-3.59580,-32.09000
64.50000,-3.59910,-32.22000
64.60001,-3.60250,-32.22000
64.70000,-3.60580,-32.35000
64.80000,-3.60910,-32.22000
64.90000,-3.61250,-32.22000
65.00000,-3.61580,-32.35000
65.10001,-3.61910,-32.35000
65.20000,-3.62250,-32.35000
65.30000,-3.62580,-32.49000
65.40000,-3.62910,-32.62000
65.50000,-3.63250,-32.62000
65.60001,-3.63580,-32.62000
65.70001,-3.63910,-32.62000
65.80000,-3.64250,-32.62000
65.90000,-3.64580,-32.62000
66.00000,-3.64910,-32.76000
66.10001,-3.65250,-32.89000
66.20001,-3.65580,-32.76000
66.30000,-3.65910,-32.89000
66.40000,-3.66250,-32.89000
66.50000,-3.66580,-33.03000
66.60001,-3.66910,-33.03000
66.70001,-3.67250,-33.03000
66.80000,-3.67580,-33.16000
66.90000,-3.67910,-33.16000
67.00000,-3.68250,-33.16000
67.10001,-3.68580,-33.16000
67.20001,-3.68910,-33.16000
67.30000,-3.69250,-33.29000
67.40000,-3.69580,-33.43000
67.50000,-3.69910,-33.43000
67.60001,-3.70250,-33.56000
67.70001,-3.70580,-33.43000
67.80000,-3.70910,-33.43000
67.90000,-3.71250,-33.56000
68.00000,-3.71580,-33.70000
68.10001,-3.71910,-33.83000
68.20001,-3.72250,-33.70000
68.30000,-3.72580,-33.83000
68.40000,-3.72910,-33.83000
68.50000,-3.73240,-33.83000
68.60001,-3.73580,-33.96000
68.70001,-3.73910,-33.96000
68.80000,-3.74240,-33.96000
68.90000,-3.74580,-33.96000
69.00000,-3.74910,-33.96000
69.10001,-3.75240,-33.96000
69.20001,-3.75580,-34.10000
69.30000,-3.75910,-34.23000
69.40000,-3.76240,-34.10000
69.50000,-3.76580,-34.23000
69.60001,-3.76910,-34.37000
69.70001,-3.77240,-34.37000
69.80000,-3.77580,-34.37000
69.90000,-3.77910,-34.37000
70.00000,-3.78240,-34.50000
70.10001,-3.78580,-34.50000
70.20001,-3.78910,-34.50000
70.30000,-3.79240,-34.50000
70.40000,-3.79580,-34.64000
70.50000,-3.79910,-34.64000
70.60001,-3.80240,-34.77000
70.70001,-3.80580,-34.77000
70.80000,-3.80910,-34.90000
70.90000,-3.81240,-34.90000
71.00000,-3.81580,-34.90000
71.10001,-3.81910,-34.90000
71.20001,-3.82240,-34.90000
71.30000,-3.82580,-34.90000
71.40000,-3.82910,-35.04000
71.50000,-3.83240,-35.17000
71.60001,-3.83580,-35.17000
71.70001,-3.83910,-35.31000
71.80000,-3.84240,-35.17000
71.90000,-3.84580,-35.31000
72.00000,-3.84910,-35.31000
72.10001,-3.85240,-35.31000
72.20001,-3.85580,-35.44000
72.30000,-3.85910,-35.44000
72.40000,-3.86240,-35.58000
72.50000,-3.86580,-35.44000
72.60001,-3.86910,-35.58000
72.70001,-3.87240,-35.58000
72.80000,-3.87580,-35.71000
72.90000,-3.87910,-35.71000
73.00000,-3.88240,-35.58000
73.10001,-3.88580,-35.84000
73.20001,-3.88910,-35.84000
73.30000,-3.89240,-35.84000
73.40000,-3.89580,-35.84000
73.50000,-3.89910,-35.98000
73.60001,-3.90240,-35.98000
73.70001,-3.90580,-36.11000
73.80000,-3.90910,-36.11000
73.90000,-3.91240,-35.98000
74.00000,-3.91580,-36.11000
74.10001,-3.91910,-36.11000
74.20001,-3.92240,-36.11000
74.30000,-3.92580,-36.25000
74.40000,-3.92910,-36.38000
74.50000,-3.93240,-36.38000
74.60001,-3.93580,-36.38000
74.70001,-3.93910,-36.52000
74.80000,-3.94240,-36.52000
74.90000,-3.94580,-36.52000
75.00000,-3.94910,-36.65000
75.10001,-3.95240,-36.65000
75.20001,-3.95580,-36.65000
75.30000,-3.95910,-36.65000
75.40000,-3.96240,-36.78000
75.50000,-3.96580,-36.92000
75.60001,-3.96910,-36.92000
75.70001,-3.97240,-36.92000
75.80000,-3.97580,-36.92000
75.90000,-3.97910,-36.92000
76.00000,-3.98240,-37.05000
76.10001,-3.98580,-37.05000
76.20001,-3.98910,-37.05000
76.30000,-3.99240,-37.05000
76.40000,-3.99580,-37.19000
76.50000,-3.99910,-37.19000
76.60001,-4.00240,-37.32000
76.70001,-4.00580,-37.32000
76.80000,-4.00910,-37.32000
76.90000,-4.01240,-37.32000
77.00000,-4.01580,-37.32000
77.10001,-4.01910,-37.45000
77.20001,-4.02240,-37.45000
77.30000,-4.02580,-37.59000
77.40000,-4.02910,-37.59000
77.50000,-4.03240,-37.72000
77.60001,-4.03580,-37.59000
77.70001,-4.03910,-37.72000
77.80000,-4.04240,-37.72000
77.90000,-4.04580,-37.72000
78.00000,-4.04910,-37.72000
78.10001,-4.05240,-37.72000
78.20001,-4.05580,-37.86000
78.30000,-4.05910,-37.99000
78.40000,-4.06240,-37.99000
78.50000,-4.06580,-38.13000
78.60001,-4.06910,-37.99000
78.70001,-4.07240,-37.99000
78.80000,-4.07580,-38.13000
78.90000,-4.07910,-38.13000
79.00000,-4.08240,-38.26000
79.10001,-4.08580,-38.26000
79.20001,-4.08910,-38.39000
79.30000,-4.09240,-38.26000
79.40000,-4.09580,-38.39000
79.50000,-4.09910,-38.39000
79.60001,-4.10240,-38.39000
79.70001,-4.10580,-38.53000
79.80000,-4.10910,-38.53000
79.90000,-4.11240,-38.53000
80.00000,-4.11580,-38.66000
80.10001,-4.11910,-38.66000
80.20001,-4.12240,-38.66000
80.30000,-4.12580,-38.80000
80.40000,-4.12910,-38.80000
80.50001,-4.13240,-38.80000
80.60001,-4.13580,-38.80000
80.70001,-4.13910,-38.93000
80.80000,-4.14240,-38.93000
80.90000,-4.14580,-38.93000
81.00001,-4.14910,-39.07000
81.10001,-4.15240,-38.93000
81.20001,-4.15580,-39.07000
81.30000,-4.15910,-39.07000
81.40000,-4.16240,-39.07000
81.50001,-4.16580,-39.20000
81.60001,-4.16910,-39.20000
81.70001,-4.17240,-39.33000
81.80000,-4.17580,-39.33000
81.90000,-4.17910,-39.33000
82.00001,-4.18240,-39.33000
82.10001,-4.18580,-39.33000
82.20001,-4.18910,-39.47000
82.30000,-4.19240,-39.60000
82.40000,-4.19580,-39.60000
82.50001,-4.19910,-39.74000
82.60001,-4.20240,-39.60000
82.70001,-4.20580,-39.60000
82.80000,-4.20910,-39.74000
82.90000,-4.21240,-39.74000
83.00001,-4.21580,-39.74000
83.10001,-4.21910,-39.87000
83.20001,-4.22240,-39.87000
83.30000,-4.22580,-39.87000
83.40000,-4.22910,-39.87000
83.50001,-4.23240,-40.00000
83.60001,-4.23580,-40.14000
83.70001,-4.23910,-40.14000
83.80000,-4.24240,-40.14000
83.90000,-4.24580,-40.14000
84.00001,-4.24910,-40.14000
84.10001,-4.25240,-40.14000
84.20001,-4.25570,-40.27000
84.30000,-4.25910,-40.41000
84.40000,-4.26240,-40.41000
84.50001,-4.26570,-40.41000
84.60001,-4.26910,-40.41000
84.70001,-4.27240,-40.41000
84.80000,-4.27570,-40.41000
84.90000,-4.27910,-40.41000
85.00001,-4.28240,-40.54000
85.10001,-4.28570,-40.54000
85.20001,-4.28910,-40.68000
85.30000,-4.29240,-40.68000
85.40000,-4.29570,-40.68000
85.50001,-4.29910,-40.81000
85.60001,-4.30240,-40.68000
85.70001,-4.30570,-40.94000
85.80000,-4.30910,-40.94000
85.90000,-4.31240,-40.94000
86.00001,-4.31570,-40.81000
86.10001,-4.31910,-40.94000
86.20001,-4.32240,-41.08000
86.30000,-4.32570,-41.08000
86.40000,-4.32910,-41.21000
86.50001,-4.33240,-41.08000
86.60001,-4.33570,-41.21000
86.70001,-4.33910,-41.21000
86.80000,-4.34240,-41.21000
86.90000,-4.34570,-41.35000
87.00001,-4.34910,-41.35000
87.10001,-4.35240,-41.35000
87.20001,-4.35570,-41.35000
87.30000,-4.35910,-41.48000
87.40000,-4.36240,-41.48000
87.50001,-4.36570,-41.62000
87.60001,-4.36910,-41.62000
87.70001,-4.37240,-41.62000
87.80000,-4.37570,-41.75000
87.90000,-4.37910,-41.75000
88.00001,-4.38240,-41.75000
88.10001,-4.38570,-41.75000
88.20001,-4.38910,-41.75000
88.30000,-4.39240,-41.75000
88.40000,-4.39570,-41.88000
88.50001,-4.39910,-41.88000
88.60001,-4.40240,-42.02000
88.70001,-4.40570,-42.02000
88.80000,-4.40910,-42.02000
88.90000,-4.41240,-42.02000
89.00001,-4.41570,-42.15000
89.10001,-4.41910,-42.15000
89.20001,-4.42240,-42.15000
89.30000,-4.42570,-42.15000
89.40000,-4.42910,-42.15000
89.50001,-4.43240,-42.29000
89.60001,-4.43570,-42.29000
89.70001,-4.43910,-42.42000
89.80000,-4.44240,-42.56000
89.90000,-4.44570,-42.42000
90.00001,-4.44910,-42.42000
90.10001,-4.45240,-42.42000
90.20001,-4.45570,-42.56000
90.30000,-4.45910,-42.56000
90.40000,-4.46240,-42.56000
90.50001,-4.46570,-42.69000
90.60001,-4.46910,-42.69000
90.70001,-4.47240,-42.69000
90.80000,-4.47570,-42.69000
90.90000,-4.47910,-42.82000
91.00001,-4.48240,-42.69000
91.10001,-4.48570,-42.82000
91.20001,-4.48910,-42.82000
91.30000,-4.49240,-42.96000
91.40000,-4.49570,-42.82000
91.50001,-4.49910,-43.09000
91.60001,-4.50240,-43.09000
91.70001,-4.50570,-43.09000
91.80000,-4.50910,-43.09000
91.90000,-4.51240,-43.09000
92.00001,-4.51570,-43.09000
92.10001,-4.51910,-43.09000
92.20001,-4.52240,-43.23000
92.30000,-4.52570,-43.36000
92.40000,-4.52910,-43.49000
92.50001,-4.53240,-43.49000
92.60001,-4.53570,-43.49000
92.70001,-4.53910,-43.49000
92.80000,-4.54240,-43.49000
92.90000,-4.54570,-43.63000
93.00001,-4.54910,-43.49000
93.10001,-4.55240,-43.63000
93.20001,-4.55570,-43.63000
93.30000,-4.55910,-43.76000
93.40000,-4.56240,-43.63000
93.50001,-4.56570,-43.76000
93.60001,-4.56910,-43.76000
93.70001,-4.57240,-43.76000
93.80000,-4.57570,-43.90000
93.90000,-4.57910,-43.90000
94.00001,-4.58240,-43.90000
94.10001,-4.58570,-43.90000
94.20001,-4.58910,-44.03000
94.30000,-4.59240,-44.03000
94.40000,-4.59570,-44.17000
94.50001,-4.59910,-44.17000
94.60001,-4.60240,-44.17000
94.70001,-4.60570,-44.30000
94.80000,-4.60910,-44.17000
94.90000,-4.61240,-44.17000
95.00001,-4.61570,-44.30000
95.10001,-4.61910,-44.30000
95.20001,-4.62240,-44.30000
95.30000,-4.62570,-44.43000
95.40000,-4.62910,-44.43000
95.50001,-4.63240,-44.43000
95.60001,-4.63570,-44.43000
95.70001,-4.63910,-44.43000
95.80000,-4.64240,-44.57000
95.90000,-4.64570,-44.70000
96.00001,-4.64910,-44.70000
96.10001,-4.65240,-44.57000
96.20001,-4.65570,-44.70000
96.30000,-4.65910,-44.70000
96.40000,-4.66240,-44.70000
96.50001,-4.66570,-44.84000
96.60001,-4.66910,-44.84000
96.70001,-4.67240,-44.84000
96.80000,-4.67570,-44.84000
96.90000,-4.67910,-44.97000
97.00001,-4.68240,-44.97000
97.10001,-4.68570,-44.97000
97.20001,-4.68910,-44.97000
97.30000,-4.69240,-44.97000
97.40000,-4.69570,-45.11000
97.50001,-4.69910,-45.24000
97.60001,-4.70240,-45.24000
97.70001,-4.70570,-45.24000
97.80000,-4.70910,-45.37000
97.90000,-4.71240,-45.37000
98.00001,-4.71570,-45.51000
98.10001,-4.71910,-45.37000
98.20001,-4.72240,-45.37000
98.30000,-4.72570,-45.37000
98.40000,-4.72910,-45.51000
98.50001,-4.73240,-45.51000
98.60001,-4.73570,-45.64000
98.70001,-4.73910,-45.64000
98.80000,-4.74240,-45.64000
98.90000,-4.74570,-45.64000
99.00001,-4.74910,-45.64000
99.10001,-4.75240,-45.64000
99.20001,-4.75570,-45.78000
99.30000,-4.75910,-45.78000
99.40000,-4.76240,-45.91000
99.50001,-4.76570,-45.78000
99.60001,-4.76910,-45.91000
99.70001,-4.77240,-45.91000
99.80000,-4.77570,-46.05000
99.90000,-4.77900,-46.05000
100.00001,-4.78240,-46.05000
100.10001,-4.78570,-46.05000
100.20001,-4.78900,-46.05000
100.30000,-4.79240,-46.05000
100.40000,-4.79570,-46.18000
100.50001,-4.79900,-46.31000
100.60001,-4.80240,-46.31000
100.70001,-4.80570,-46.31000
100.80000,-4.80900,-46.31000
100.90000,-4.81240,-46.31000
101.00001,-4.81570,-46.45000
101.10001,-4.81900,-46.45000
101.20001,-4.82240,-46.45000
101.30000,-4.82570,-46.58000
101.40000,-4.82900,-46.58000
101.50001,-4.83240,-46.58000
101.60001,-4.83570,-46.72000
101.70001,-4.83900,-46.72000
101.80000,-4.84240,-46.72000
101.90000,-4.84570,-46.72000
102.00001,-4.84900,-46.72000
102.10001,-4.85240,-46.72000
102.20001,-4.85570,-46.85000
102.30000,-4.85900,-46.85000
102.40000,-4.86240,-46.85000
102.50001,-4.86570,-46.98000
102.60001,-4.86900,-46.98000
102.70001,-4.87240,-46.98000
102.80000,-4.87570,-47.12000
102.90000,-4.87900,-47.12000
103.00001,-4.88240,-47.12000
103.10001,-4.88570,-47.12000
103.20001,-4.88900,-47.25000
103.30000,-4.89240,-47.39000
103.40000,-4.89570,-47.25000
103.50001,-4.89900,-47.25000
103.60001,-4.90240,-47.25000
103.70001,-4.90570,-47.25000
103.80000,-4.90900,-47.39000
103.90000,-4.91240,-47.39000
104.00001,-4.91570,-47.52000
104.10001,-4.91900,-47.52000
104.20001,-4.92240,-47.52000
104.30000,-4.92570,-47.52000
104.40000,-4.92900,-47.52000
104.50001,-4.93240,-47.52000
104.60001,-4.93570,-47.79000
104.70001,-4.93900,-47.79000
104.80000,-4.94240,-47.79000
104.90000,-4.94570,-47.79000
105.00001,-4.94900,-47.92000
105.10001,-4.95240,-47.79000
105.20001,-4.95570,-47.92000
105.30000,-4.95900,-47.92000
105.40000,-4.96240,-47.92000
105.50001,-4.96570,-47.92000
105.60001,-4.96900,-48.06000
105.70001,-4.97240,-48.06000
105.80000,-4.97570,-48.06000
105.90000,-4.97900,-48.19000
106.00001,-4.98240,-48.19000
106.10001,-4.98570,-48.06000
106.20001,-4.98900,-48.19000
106.30000,-4.99240,-48.19000
106.40000,-4.99570,-48.19000
106.50001,-4.99900,-48.33000
106.60001,-5.00240,-48.46000
106.65000,-5.00400,-48.46000
