Time,Extension,Load
(sec),(mm),(N)
0.00000,-1.63000,-1.35000
0.10000,-1.63740,-1.35000
0.20000,-1.64410,-1.48000
0.30000,-1.65080,-1.62000
0.40000,-1.65740,-1.48000
0.50000,-1.66410,-1.48000
0.60000,-1.67080,-1.62000
0.70000,-1.67740,-1.62000
0.80000,-1.68410,-1.75000
0.90000,-1.69080,-1.75000
1.00000,-1.69740,-1.88000
1.10000,-1.70410,-1.88000
1.20000,-1.71080,-1.88000
1.30000,-1.71740,-2.02000
1.40000,-1.72410,-2.02000
1.50000,-1.73080,-2.02000
1.60000,-1.73740,-2.15000
1.70000,-1.74410,-2.29000
1.80000,-1.75080,-2.29000
1.90000,-1.75740,-2.42000
2.00000,-1.76410,-2.42000
2.10000,-1.77080,-2.56000
2.20000,-1.77740,-2.56000
2.30000,-1.78410,-2.69000
2.40000,-1.79080,-2.82000
2.50000,-1.79740,-2.69000
2.60000,-1.80410,-2.82000
2.70000,-1.81080,-2.96000
2.80000,-1.81740,-2.96000
2.90000,-1.82410,-3.09000
3.00000,-1.83080,-3.23000
3.10000,-1.83740,-3.23000
3.20000,-1.84410,-3.23000
3.30000,-1.85080,-3.36000
3.40000,-1.85740,-3.36000
3.50000,-1.86410,-3.49000
3.60000,-1.87080,-3.63000
3.70000,-1.87740,-3.63000
3.80000,-1.88410,-3.63000
3.90000,-1.89080,-3.76000
4.00000,-1.89740,-3.90000
4.10000,-1.90410,-4.03000
4.20000,-1.91080,-4.03000
4.30000,-1.91740,-4.03000
4.40000,-1.92410,-4.30000
4.50000,-1.93080,-4.17000
4.60000,-1.93740,-4.30000
4.70000,-1.94410,-4.43000
4.80000,-1.95080,-4.70000
4.90000,-1.95740,-4.70000
5.00000,-1.96410,-4.97000
5.10000,-1.97080,-4.97000
5.20000,-1.97740,-4.97000
5.30000,-1.98410,-5.11000
5.40000,-1.99080,-5.24000
5.50000,-1.99740,-5.37000
5.60000,-2.00410,-5.51000
5.70000,-2.01080,-5.78000
5.80000,-2.01740,-5.78000
5.90000,-2.02410,-6.05000
6.00000,-2.03080,-6.18000
6.10000,-2.03740,-6.18000
6.20000,-2.04410,-6.31000
6.30000,-2.05080,-6.45000
6.40000,-2.05740,-6.45000
6.50000,-2.06410,-6.58000
6.60000,-2.07080,-6.58000
6.70000,-2.07740,-6.72000
6.80000,-2.08410,-6.85000
6.90000,-2.09070,-6.98000
7.00000,-2.09740,-6.98000
7.10000,-2.10410,-7.12000
7.20000,-2.11070,-7.25000
7.30000,-2.11740,-7.39000
7.40000,-2.12410,-7.39000
7.50000,-2.13070,-7.52000
7.60000,-2.13740,-7.52000
7.70000,-2.14410,-7.66000
7.80000,-2.15070,-7.79000
7.90000,-2.15740,-7.79000
8.00000,-2.16410,-7.92000
8.10000,-2.17070,-8.06000
8.20000,-2.17740,-8.19000
8.30000,-2.18410,-8.19000
8.40000,-2.19070,-8.33000
8.50000,-2.19740,-8.33000
8.60000,-2.20410,-8.46000
8.70000,-2.21070,-8.46000
8.80000,-2.21740,-8.60000
8.90000,-2.22410,-8.73000
9.00000,-2.23070,-8.86000
9.10000,-2.23740,-8.86000
9.20000,-2.24410,-9.00000
9.30000,-2.25070,-9.13000
9.40000,-2.25740,-9.13000
9.50000,-2.26410,-9.27000
9.60000,-2.27070,-9.40000
9.70000,-2.27740,-9.40000
9.80000,-2.28410,-9.54000
9.90000,-2.29070,-9.54000
10.00000,-2.29740,-9.67000
10.10000,-2.30410,-9.80000
10.20000,-2.31070,-10.07000
10.30000,-2.31740,-10.07000
10.40000,-2.32410,-10.21000
10.50000,-2.33070,-10.21000
10.60000,-2.33740,-10.21000
10.70000,-2.34410,-10.34000
10.80000,-2.35070,-10.34000
10.90000,-2.35740,-10.47000
11.00000,-2.36410,-10.61000
11.10000,-2.37070,-10.74000
11.20000,-2.37740,-10.88000
11.30000,-2.38410,-10.88000
11.40000,-2.39070,-11.01000
11.50000,-2.39740,-11.01000
11.60000,-2.40410,-11.15000
11.70000,-2.41070,-11.28000
11.80000,-2.41740,-11.41000
11.90000,-2.42410,-11.41000
12.00000,-2.43070,-11.55000
12.10000,-2.43740,-11.55000
12.20000,-2.44410,-11.68000
12.30000,-2.45070,-11.82000
12.40000,-2.45740,-11.82000
12.50000,-2.46410,-11.95000
12.60000,-2.47070,-12.09000
12.70000,-2.47740,-12.09000
12.80000,-2.48410,-12.22000
12.90000,-2.49070,-12.35000
13.00000,-2.49740,-12.22000
13.10000,-2.50410,-12.49000
13.20000,-2.51070,-12.62000
13.30000,-2.51740,-12.62000
13.40000,-2.52410,-12.76000
13.50000,-2.53070,-12.76000
13.60000,-2.53740,-12.89000
13.70000,-2.54410,-13.03000
13.80000,-2.55070,-13.16000
13.90000,-2.55740,-13.16000
14.00000,-2.56410,-13.29000
14.10000,-2.57070,-13.29000
14.20000,-2.57740,-13.43000
14.30000,-2.58410,-13.56000
14.40000,-2.59070,-13.56000
14.50000,-2.59740,-13.70000
14.60000,-2.60400,-13.70000
14.70000,-2.61070,-13.96000
14.80000,-2.61740,-13.96000
14.90000,-2.62400,-14.10000
15.00000,-2.63070,-14.23000
15.10000,-2.63740,-14.10000
15.20000,-2.64400,-14.23000
15.30000,-2.65070,-14.37000
15.40000,-2.65740,-14.50000
15.50000,-2.66400,-14.64000
15.60000,-2.67070,-14.64000
15.70000,-2.67740,-14.77000
15.80000,-2.68400,-14.90000
15.90000,-2.69070,-14.90000
16.00000,-2.69740,-14.90000
16.10000,-2.70400,-15.04000
16.20000,-2.71070,-15.17000
16.30000,-2.71740,-15.31000
16.40000,-2.72400,-15.31000
16.50000,-2.73070,-15.44000
16.60000,-2.73740,-15.44000
16.70000,-2.74400,-15.58000
16.80000,-2.75070,-15.58000
16.90000,-2.75740,-15.71000
17.00000,-2.76400,-15.84000
17.10000,-2.77070,-15.98000
17.20000,-2.77740,-15.98000
17.30000,-2.78400,-15.98000
17.40000,-2.79070,-16.11000
17.50000,-2.79740,-16.25000
17.60000,-2.80400,-16.38000
17.70000,-2.81070,-16.38000
17.80000,-2.81740,-16.52000
17.90000,-2.82400,-16.52000
18.00000,-2.83070,-16.65000
18.10000,-2.83740,-16.78000
18.20000,-2.84400,-16.78000
18.30000,-2.85070,-17.05000
18.40000,-2.85740,-17.05000
18.50000,-2.86400,-17.19000
18.60000,-2.87070,-17.19000
18.70000,-2.87740,-17.19000
18.80000,-2.88400,-17.19000
18.90000,-2.89070,-17.32000
19.00000,-2.89740,-17.59000
19.10000,-2.90400,-17.72000
19.20000,-2.91070,-17.72000
19.30000,-2.91740,-17.72000
19.40000,-2.92400,-17.86000
19.50000,-2.93070,-17.99000
19.60000,-2.93740,-17.86000
19.70000,-2.94400,-17.99000
19.80000,-2.95070,-18.13000
19.90000,-2.95740,-18.13000
20.00000,-2.96400,-18.39000
20.10000,-2.97070,-18.53000
20.20000,-2.97740,-18.53000
20.30000,-2.98400,-18.66000
20.40000,-2.99070,-18.80000
20.50000,-2.99740,-18.80000
20.60000,-3.00400,-18.80000
20.70000,-3.01070,-18.93000
20.80000,-3.01740,-18.93000
20.90000,-3.02400,-19.07000
21.00000,-3.03070,-19.20000
21.10000,-3.03740,-19.33000
21.20000,-3.04400,-19.33000
21.30000,-3.05070,-19.47000
21.40000,-3.05740,-19.47000
21.50000,-3.06400,-19.60000
21.60000,-3.07070,-19.60000
21.70000,-3.07740,-19.87000
21.80000,-3.08400,-19.87000
21.90000,-3.09070,-19.87000
22.00000,-3.09740,-20.00000
22.10000,-3.10400,-20.14000
22.20000,-3.11070,-20.14000
22.30000,-3.11740,-20.27000
22.40000,-3.12400,-20.41000
22.50000,-3.13070,-20.41000
22.60000,-3.13730,-20.54000
22.70000,-3.14400,-20.54000
22.80000,-3.15070,-20.68000
22.90000,-3.15730,-20.81000
23.00000,-3.16400,-20.81000
23.10000,-3.17070,-20.94000
23.20000,-3.17730,-21.08000
23.30000,-3.18400,-21.08000
23.40000,-3.19070,-21.21000
23.50000,-3.19730,-21.35000
23.60000,-3.20400,-21.35000
23.70000,-3.21070,-21.48000
23.80000,-3.21730,-21.62000
23.90000,-3.22400,-21.62000
24.00000,-3.23070,-21.75000
24.10000,-3.23730,-21.75000
24.20000,-3.24400,-21.88000
24.30000,-3.25070,-22.02000
24.40000,-3.25730,-22.15000
24.50000,-3.26400,-22.15000
24.60000,-3.27070,-22.29000
24.70000,-3.27730,-22.29000
24.80000,-3.28400,-22.42000
24.90000,-3.29070,-22.56000
25.00000,-3.29730,-22.56000
25.10000,-3.30400,-22.56000
25.20000,-3.31070,-22.69000
25.30000,-3.31730,-22.69000
25.40000,-3.32400,-22.82000
25.50000,-3.33070,-22.96000
25.60000,-3.33730,-23.09000
25.70000,-3.34400,-23.09000
25.80000,-3.35070,-23.23000
25.90000,-3.35730,-23.23000
26.00000,-3.36400,-23.36000
26.10000,-3.37070,-23.36000
26.20000,-3.37730,-23.49000
26.30000,-3.38400,-23.63000
26.40000,-3.39070,-23.76000
26.50000,-3.39730,-23.76000
26.60000,-3.40400,-23.90000
26.70000,-3.41070,-23.90000
26.80000,-3.41730,-23.90000
26.90000,-3.42400,-24.03000
27.00000,-3.43070,-24.17000
27.10000,-3.43730,-24.30000
27.20000,-3.44400,-24.43000
27.30000,-3.45070,-24.43000
27.40000,-3.45730,-24.43000
27.50000,-3.46400,-24.57000
27.60000,-3.47070,-24.70000
27.70000,-3.47730,-24.70000
27.80000,-3.48400,-24.84000
27.90000,-3.49070,-24.84000
28.00000,-3.49730,-24.97000
28.10000,-3.50400,-24.97000
28.20000,-3.51070,-25.24000
28.30000,-3.51730,-25.24000
28.40000,-3.52400,-25.37000
28.50000,-3.53070,-25.37000
28.60000,-3.53730,-25.51000
28.70000,-3.54400,-25.51000
28.80000,-3.55070,-25.51000
28.90000,-3.55730,-25.64000
29.00000,-3.56400,-25.64000
29.10000,-3.57070,-25.91000
29.20000,-3.57730,-25.91000
29.30000,-3.58400,-26.05000
29.40000,-3.59070,-26.18000
29.50000,-3.59730,-26.18000
29.60000,-3.60400,-26.18000
29.70000,-3.61070,-26.31000
29.80000,-3.61730,-26.45000
29.90000,-3.62400,-26.45000
30.00000,-3.63070,-26.58000
30.10000,-3.63730,-26.58000
30.20000,-3.64400,-26.72000
30.30000,-3.65060,-26.85000
30.40000,-3.65730,-26.85000
30.50000,-3.66400,-26.98000
30.60000,-3.67060,-26.98000
30.70000,-3.67730,-27.12000
30.80000,-3.68400,-27.12000
30.90000,-3.69060,-27.25000
31.00000,-3.69730,-27.39000
31.10000,-3.70400,-27.39000
31.20000,-3.71060,-27.66000
31.30000,-3.71730,-27.66000
31.40000,-3.72400,-27.66000
31.50000,-3.73060,-27.79000
31.60000,-3.73730,-27.79000
31.70000,-3.74400,-27.92000
31.80000,-3.75060,-28.19000
31.90000,-3.75730,-28.06000
32.00000,-3.76400,-28.19000
32.10000,-3.77060,-28.33000
32.20000,-3.77730,-28.33000
32.30000,-3.78400,-28.33000
32.40000,-3.79060,-28.46000
32.50000,-3.79730,-28.60000
32.60000,-3.80400,-28.60000
32.70000,-3.81060,-28.73000
32.80000,-3.81730,-28.73000
32.90000,-3.82400,-28.86000
33.00000,-3.83060,-28.86000
33.10000,-3.83730,-29.00000
33.20000,-3.84400,-29.13000
33.30000,-3.85060,-29.27000
33.40000,-3.85730,-29.13000
33.50000,-3.86400,-29.27000
33.60000,-3.87060,-29.40000
33.70000,-3.87730,-29.40000
33.80000,-3.88400,-29.54000
33.90000,-3.89060,-29.67000
34.00000,-3.89730,-29.67000
34.10000,-3.90400,-29.80000
34.20000,-3.91060,-29.94000
34.30000,-3.91730,-29.94000
34.40000,-3.92400,-29.94000
34.50000,-3.93060,-30.07000
34.60000,-3.93730,-30.07000
34.70000,-3.94400,-30.21000
34.80000,-3.95060,-30.21000
34.90000,-3.95730,-30.34000
35.00000,-3.96400,-30.34000
35.10000,-3.97060,-30.47000
35.20000,-3.97730,-30.74000
35.30000,-3.98400,-30.61000
35.40000,-3.99060,-30.74000
35.50000,-3.99730,-30.74000
35.60000,-4.00400,-31.01000
35.70000,-4.01060,-31.01000
35.80000,-4.01730,-31.01000
35.90000,-4.02400,-31.01000
36.00000,-4.03060,-31.15000
36.10000,-4.03730,-31.28000
36.20000,-4.04400,-31.28000
36.30000,-4.05060,-31.41000
36.40000,-4.05730,-31.41000
36.50000,-4.06400,-31.55000
36.60000,-4.07060,-31.68000
36.70000,-4.07730,-31.68000
36.80000,-4.08400,-31.82000
36.90000,-4.09060,-31.82000
37.00000,-4.09730,-31.95000
37.10000,-4.10400,-31.95000
37.20000,-4.11060,-32.22000
37.30000,-4.11730,-32.22000
37.40000,-4.12400,-32.35000
37.50000,-4.13060,-32.35000
37.60000,-4.13730,-32.35000
37.70000,-4.14400,-32.49000
37.80000,-4.15060,-32.49000
37.90000,-4.15730,-32.62000
38.00000,-4.16400,-32.76000
38.10000,-4.17060,-32.76000
38.20000,-4.17730,-32.76000
38.30000,-4.18390,-32.89000
38.40000,-4.19060,-33.03000
38.50000,-4.19730,-33.03000
38.60000,-4.20390,-33.16000
38.70000,-4.21060,-33.29000
38.80000,-4.21730,-33.29000
38.90000,-4.22390,-33.29000
39.00000,-4.23060,-33.43000
39.10000,-4.23730,-33.56000
39.20000,-4.24390,-33.70000
39.30000,-4.25060,-33.70000
39.40000,-4.25730,-33.70000
39.50000,-4.26390,-33.83000
39.60000,-4.27060,-33.83000
39.70000,-4.27730,-33.96000
39.80000,-4.28390,-33.96000
39.90000,-4.29060,-34.10000
40.00000,-4.29730,-34.23000
40.10000,-4.30390,-34.23000
40.20000,-4.31060,-34.37000
40.30000,-4.31730,-34.37000
40.40000,-4.32390,-34.37000
40.50000,-4.33060,-34.50000
40.60000,-4.33730,-34.64000
40.70000,-4.34390,-34.77000
40.80000,-4.35060,-34.77000
40.90000,-4.35730,-34.77000
41.00000,-4.36390,-34.90000
41.10000,-4.37060,-34.90000
41.20000,-4.37730,-35.04000
41.30000,-4.38390,-35.17000
41.40000,-4.39060,-35.17000
41.50000,-4.39730,-35.31000
41.60000,-4.40390,-35.31000
41.70000,-4.41060,-35.44000
41.80000,-4.41730,-35.44000
41.90000,-4.42390,-35.58000
42.00000,-4.43060,-35.58000
42.10000,-4.43730,-35.71000
42.20000,-4.44390,-35.84000
42.30000,-4.45060,-35.84000
42.40000,-4.45730,-35.98000
42.50000,-4.46390,-35.98000
42.60000,-4.47060,-36.11000
42.70000,-4.47730,-36.11000
42.80000,-4.48390,-36.25000
42.90000,-4.49060,-36.25000
43.00000,-4.49730,-36.25000
43.10000,-4.50390,-36.38000
43.20000,-4.51060,-36.52000
43.30000,-4.51730,-36.65000
43.40000,-4.52390,-36.65000
43.50000,-4.53060,-36.78000
43.60000,-4.53730,-36.78000
43.70000,-4.54390,-36.92000
43.80000,-4.55060,-36.92000
43.90000,-4.55730,-36.92000
44.00000,-4.56390,-37.05000
44.10000,-4.57060,-37.19000
44.20000,-4.57730,-37.19000
44.30000,-4.58390,-37.32000
44.40000,-4.59060,-37.45000
44.50000,-4.59730,-37.45000
44.60000,-4.60390,-37.59000
44.70000,-4.61060,-37.59000
44.80000,-4.61730,-37.59000
44.90000,-4.62390,-37.72000
45.00000,-4.63060,-37.72000
45.10000,-4.63730,-37.86000
45.20000,-4.64390,-37.86000
45.30000,-4.65060,-37.99000
45.40000,-4.65730,-38.13000
45.50000,-4.66390,-38.26000
45.60000,-4.67060,-38.26000
45.70000,-4.67730,-38.26000
45.80000,-4.68390,-38.26000
45.90000,-4.69060,-38.39000
46.00000,-4.69720,-38.53000
46.10000,-4.70390,-38.66000
46.20000,-4.71060,-38.66000
46.30000,-4.71720,-38.80000
46.40000,-4.72390,-38.80000
46.50000,-4.73060,-38.93000
46.60000,-4.73720,-38.93000
46.70000,-4.74390,-39.07000
46.80000,-4.75060,-39.07000
46.90000,-4.75720,-39.20000
47.00000,-4.76390,-39.20000
47.10000,-4.77060,-39.33000
47.20000,-4.77720,-39.33000
47.30000,-4.78390,-39.47000
47.40000,-4.79060,-39.60000
47.50000,-4.79720,-39.47000
47.60000,-4.80390,-39.60000
47.70000,-4.81060,-39.74000
47.80000,-4.81720,-39.74000
47.90000,-4.82390,-39.87000
48.00000,-4.83060,-40.00000
48.10000,-4.83720,-40.00000
48.20000,-4.84390,-40.14000
48.30000,-4.85060,-40.27000
48.40000,-4.85720,-40.27000
48.50000,-4.86390,-40.27000
48.60000,-4.87060,-40.41000
48.70000,-4.87720,-40.41000
48.80000,-4.88390,-40.41000
48.90000,-4.89060,-40.54000
49.00000,-4.89720,-40.54000
49.10000,-4.90390,-40.68000
49.20000,-4.91060,-40.81000
49.30000,-4.91720,-40.81000
49.40000,-4.92390,-40.94000
49.50000,-4.93060,-41.08000
49.60000,-4.93720,-41.08000
49.70000,-4.94390,-41.08000
49.80000,-4.95060,-41.35000
49.90000,-4.95720,-41.35000
50.00000,-4.96390,-41.35000
50.10000,-4.97060,-41.48000
50.20000,-4.97720,-41.48000
50.30000,-4.98390,-41.48000
50.40000,-4.99060,-41.62000
50.50000,-4.99720,-41.75000
50.55000,-5.00060,-41.75000
50.65000,-5.00720,-41.88000
50.70000,-5.01060,-41.88000
50.80000,-5.01060,-42.02000
50.90000,-5.00390,-41.88000
51.00000,-4.99720,-41.75000
51.10000,-4.99060,-41.62000
51.20000,-4.98390,-41.62000
51.30000,-4.97720,-41.48000
51.40000,-4.97060,-41.35000
51.50000,-4.96390,-41.21000
51.60000,-4.95720,-41.08000
51.70000,-4.95060,-40.94000
51.80000,-4.94390,-40.94000
51.90000,-4.93720,-40.81000
52.00000,-4.93060,-40.68000
52.10000,-4.92390,-40.54000
52.20000,-4.91720,-40.41000
52.30000,-4.91060,-40.41000
52.40000,-4.90390,-40.27000
52.50000,-4.89720,-40.14000
52.60000,-4.89060,-40.00000
52.70000,-4.88390,-39.87000
52.80000,-4.87720,-39.87000
52.90000,-4.87060,-39.74000
53.00000,-4.86390,-39.60000
53.10000,-4.85720,-39.47000
53.20000,-4.85060,-39.33000
53.30000,-4.84390,-39.33000
53.40000,-4.83720,-39.33000
53.50000,-4.83060,-39.20000
53.60000,-4.82390,-39.07000
53.70000,-4.81720,-38.93000
53.80000,-4.81060,-38.80000
53.90000,-4.80390,-38.80000
54.00000,-4.79720,-38.53000
54.10000,-4.79060,-38.53000
54.20000,-4.78390,-38.39000
54.30000,-4.77720,-38.39000
54.40000,-4.77060,-38.26000
54.50000,-4.76390,-38.13000
54.60000,-4.75720,-38.13000
54.70000,-4.75060,-37.86000
54.80000,-4.74390,-37.86000
54.90000,-4.73720,-37.86000
55.00000,-4.73060,-37.72000
55.10000,-4.72390,-37.45000
55.20000,-4.71720,-37.45000
55.30000,-4.71060,-37.45000
55.40000,-4.70390,-37.45000
55.50000,-4.69720,-37.32000
55.60000,-4.69060,-37.19000
55.70000,-4.68390,-37.05000
55.80000,-4.67730,-36.92000
55.90000,-4.67060,-36.78000
56.00000,-4.66390,-36.65000
56.10000,-4.65730,-36.65000
56.20000,-4.65060,-36.52000
56.30000,-4.64390,-36.52000
56.40000,-4.63730,-36.38000
56.50000,-4.63060,-36.25000
56.60000,-4.62390,-36.11000
56.70000,-4.61730,-36.11000
56.80000,-4.61060,-35.98000
56.90000,-4.60390,-35.84000
57.00000,-4.59730,-35.84000
57.10000,-4.59060,-35.58000
57.20000,-4.58390,-35.58000
57.30000,-4.57730,-35.58000
57.40000,-4.57060,-35.44000
57.50000,-4.56390,-35.31000
57.60000,-4.55730,-35.17000
57.70000,-4.55060,-35.17000
57.80000,-4.54390,-35.04000
57.90000,-4.53730,-34.90000
58.00000,-4.53060,-34.90000
58.10000,-4.52390,-34.77000
58.20000,-4.51730,-34.64000
58.30000,-4.51060,-34.64000
58.40000,-4.50390,-34.50000
58.50000,-4.49730,-34.23000
58.60000,-4.49060,-34.23000
58.70000,-4.48390,-34.23000
58.80000,-4.47730,-34.23000
58.90000,-4.47060,-34.10000
59.00000,-4.46390,-33.96000
59.10000,-4.45730,-33.96000
59.20000,-4.45060,-33.70000
59.30000,-4.44390,-33.70000
59.40000,-4.43730,-33.56000
59.50000,-4.43060,-33.56000
59.60000,-4.42390,-33.43000
59.70000,-4.41730,-33.43000
59.80000,-4.41060,-33.29000
59.90000,-4.40390,-33.16000
60.00000,-4.39730,-33.03000
60.10000,-4.39060,-33.03000
60.20000,-4.38390,-32.89000
60.30000,-4.37730,-32.76000
60.40000,-4.37060,-32.76000
60.50000,-4.36390,-32.62000
60.60000,-4.35730,-32.62000
60.70000,-4.35060,-32.49000
60.80000,-4.34390,-32.35000
60.90000,-4.33730,-32.22000
61.00000,-4.33060,-32.22000
61.10000,-4.32390,-32.09000
61.20000,-4.31730,-31.95000
61.30000,-4.31060,-31.82000
61.40000,-4.30390,-31.95000
61.50000,-4.29730,-31.82000
61.60000,-4.29060,-31.68000
61.70000,-4.28390,-31.55000
61.80000,-4.27730,-31.55000
61.90000,-4.27060,-31.28000
62.00000,-4.26390,-31.15000
62.10000,-4.25730,-31.15000
62.20000,-4.25060,-31.01000
62.30000,-4.24390,-31.01000
62.40000,-4.23730,-31.01000
62.50000,-4.23060,-30.88000
62.60000,-4.22390,-30.88000
62.70000,-4.21730,-30.74000
62.80000,-4.21060,-30.61000
62.90000,-4.20390,-30.47000
63.00000,-4.19730,-30.34000
63.10000,-4.19060,-30.34000
63.20000,-4.18390,-30.21000
63.30000,-4.17730,-30.07000
63.40000,-4.17060,-30.07000
63.50000,-4.16400,-29.94000
63.60000,-4.15730,-29.94000
63.70000,-4.15060,-29.80000
63.80000,-4.14400,-29.80000
63.90000,-4.13730,-29.54000
64.00000,-4.13060,-29.40000
64.10001,-4.12400,-29.40000
64.20000,-4.11730,-29.40000
64.30000,-4.11060,-29.27000
64.40000,-4.10400,-29.13000
64.50000,-4.09730,-29.00000
64.60001,-4.09060,-28.86000
64.70000,-4.08400,-28.86000
64.80000,-4.07730,-28.86000
64.90000,-4.07060,-28.73000
65.00000,-4.06400,-28.60000
65.10001,-4.05730,-28.60000
65.20000,-4.05060,-28.33000
65.30000,-4.04400,-28.33000
65.40000,-4.03730,-28.19000
65.50000,-4.03060,-28.06000
65.60001,-4.02400,-28.06000
65.70001,-4.01730,-28.06000
65.80000,-4.01060,-27.92000
65.90000,-4.00400,-27.79000
66.00000,-3.99730,-27.66000
66.10001,-3.99060,-27.52000
66.20001,-3.98400,-27.52000
66.30000,-3.97730,-27.39000
66.40000,-3.97060,-27.25000
66.50000,-3.96400,-27.25000
66.60001,-3.95730,-27.12000
66.70001,-3.95060,-26.98000
66.80000,-3.94400,-26.98000
66.90000,-3.93730,-26.98000
67.00000,-3.93060,-26.85000
67.10001,-3.92400,-26.72000
67.20001,-3.91730,-26.72000
67.30000,-3.91060,-26.45000
67.40000,-3.90400,-26.31000
67.50000,-3.89730,-26.45000
67.60001,-3.89060,-26.31000
67.70001,-3.88400,-26.18000
67.80000,-3.87730,-26.18000
67.90000,-3.87060,-25.91000
68.00000,-3.86400,-25.78000
68.10001,-3.85730,-25.78000
68.20001,-3.85060,-25.64000
68.30000,-3.84400,-25.64000
68.40000,-3.83730,-25.51000
68.50000,-3.83060,-25.37000
68.60001,-3.82400,-25.37000
68.70001,-3.81730,-25.37000
68.80000,-3.81060,-25.24000
68.90000,-3.80400,-25.11000
69.00000,-3.79730,-24.97000
69.10001,-3.79060,-24.84000
69.20001,-3.78400,-24.84000
69.30000,-3.77730,-24.57000
69.40000,-3.77060,-24.57000
69.50000,-3.76400,-24.43000
69.60001,-3.75730,-24.57000
69.70001,-3.75060,-24.43000
69.80000,-3.74400,-24.30000
69.90000,-3.73730,-24.30000
70.00000,-3.73060,-24.03000
70.10001,-3.72400,-23.90000
70.20001,-3.71730,-23.76000
70.30000,-3.71060,-23.76000
70.40000,-3.70400,-23.63000
70.50000,-3.69730,-23.63000
70.60001,-3.69060,-23.49000
70.70001,-3.68400,-23.49000
70.80000,-3.67730,-23.36000
70.90000,-3.67060,-23.23000
71.00000,-3.66400,-23.09000
71.10001,-3.65730,-23.09000
71.20001,-3.65060,-23.09000
71.30000,-3.64400,-22.82000
71.40000,-3.63730,-22.82000
71.50000,-3.63070,-22.69000
71.60001,-3.62400,-22.69000
71.70001,-3.61730,-22.69000
71.80000,-3.61070,-22.56000
71.90000,-3.60400,-22.42000
72.00000,-3.59730,-22.29000
72.10001,-3.59070,-22.29000
72.20001,-3.58400,-22.02000
72.30000,-3.57730,-22.15000
72.40000,-3.57070,-22.02000
72.50000,-3.56400,-22.02000
72.60001,-3.55730,-21.88000
72.70001,-3.55070,-21.62000
72.80000,-3.54400,-21.48000
72.90000,-3.53730,-21.48000
73.00000,-3.53070,-21.35000
73.10001,-3.52400,-21.35000
73.20001,-3.51730,-21.35000
73.30000,-3.51070,-21.21000
73.40000,-3.50400,-21.08000
73.50000,-3.49730,-21.08000
73.60001,-3.49070,-20.81000
73.70001,-3.48400,-20.81000
73.80000,-3.47730,-20.68000
73.90000,-3.47070,-20.54000
74.00000,-3.46400,-20.41000
74.10001,-3.45730,-20.54000
74.20001,-3.45070,-20.41000
74.30000,-3.44400,-20.41000
74.40000,-3.43730,-20.27000
74.50000,-3.43070,-20.14000
74.60001,-3.42400,-20.00000
74.70001,-3.41730,-19.87000
74.80000,-3.41070,-19.87000
74.90000,-3.40400,-19.87000
75.00000,-3.39730,-19.74000
75.10001,-3.39070,-19.60000
75.20001,-3.38400,-19.47000
75.30000,-3.37730,-19.47000
75.40000,-3.37070,-19.33000
75.50000,-3.36400,-19.33000
75.60001,-3.35730,-19.20000
75.70001,-3.35070,-19.07000
75.80000,-3.34400,-19.07000
75.90000,-3.33730,-18.93000
76.00000,-3.33070,-18.80000
76.10001,-3.32400,-18.80000
76.20001,-3.31730,-18.66000
76.30000,-3.31070,-18.53000
76.40000,-3.30400,-18.53000
76.50000,-3.29730,-18.39000
76.60001,-3.29070,-18.39000
76.70001,-3.28400,-18.13000
76.80000,-3.27730,-18.26000
76.90000,-3.27070,-18.13000
77.00000,-3.26400,-18.13000
77.10001,-3.25730,-17.99000
77.20001,-3.25070,-17.86000
77.30000,-3.24400,-17.72000
77.40000,-3.23730,-17.59000
77.50000,-3.23070,-17.45000
77.60001,-3.22400,-17.45000
77.70001,-3.21730,-17.45000
77.80000,-3.21070,-17.45000
77.90000,-3.20400,-17.32000
78.00000,-3.19730,-17.19000
78.10001,-3.19070,-17.05000
78.20001,-3.18400,-17.05000
78.30000,-3.17730,-16.92000
78.40000,-3.17070,-16.78000
78.50000,-3.16400,-16.78000
78.60001,-3.15730,-16.78000
78.70001,-3.15070,-16.52000
78.80000,-3.14400,-16.52000
78.90000,-3.13730,-16.38000
79.00000,-3.13070,-16.38000
79.10001,-3.12400,-16.25000
79.20001,-3.11740,-16.25000
79.30000,-3.11070,-16.25000
79.40000,-3.10400,-16.11000
79.50000,-3.09740,-15.98000
79.60001,-3.09070,-15.98000
79.70001,-3.08400,-15.84000
79.80000,-3.07740,-15.71000
79.90000,-3.07070,-15.71000
80.00000,-3.06400,-15.58000
80.10001,-3.05740,-15.44000
80.20001,-3.05070,-15.31000
80.30000,-3.04400,-15.31000
80.40000,-3.03740,-15.31000
80.50001,-3.03070,-15.17000
80.60001,-3.02400,-15.17000
80.70001,-3.01740,-15.04000
80.80000,-3.01070,-14.90000
80.90000,-3.00400,-14.90000
81.00001,-2.99740,-14.77000
81.10001,-2.99070,-14.77000
81.20001,-2.98400,-14.64000
81.30000,-2.97740,-14.50000
81.40000,-2.97070,-14.37000
81.50001,-2.96400,-14.37000
81.60001,-2.95740,-14.23000
81.70001,-2.95070,-14.23000
81.80000,-2.94400,-14.23000
81.90000,-2.93740,-14.10000
82.00001,-2.93070,-13.96000
82.10001,-2.92400,-13.83000
82.20001,-2.91740,-13.83000
82.30000,-2.91070,-13.70000
82.40000,-2.90400,-13.56000
82.50001,-2.89740,-13.56000
82.60001,-2.89070,-13.43000
82.70001,-2.88400,-13.43000
82.80000,-2.87740,-13.29000
82.90000,-2.87070,-13.16000
83.00001,-2.86400,-13.16000
83.10001,-2.85740,-13.16000
83.20001,-2.85070,-13.03000
83.30000,-2.84400,-12.76000
83.40000,-2.83740,-12.76000
83.50001,-2.83070,-12.62000
83.60001,-2.82400,-12.62000
83.70001,-2.81740,-12.49000
83.80000,-2.81070,-12.49000
83.90000,-2.80400,-12.35000
84.00001,-2.79740,-12.22000
84.10001,-2.79070,-12.09000
84.20001,-2.78400,-12.22000
84.30000,-2.77740,-12.09000
84.40000,-2.77070,-11.82000
84.50001,-2.76400,-11.82000
84.60001,-2.75740,-11.82000
84.70001,-2.75070,-11.68000
84.80000,-2.74400,-11.55000
84.90000,-2.73740,-11.55000
85.00001,-2.73070,-11.41000
85.10001,-2.72400,-11.28000
85.20001,-2.71740,-11.28000
85.30000,-2.71070,-11.28000
85.40000,-2.70400,-11.15000
85.50001,-2.69740,-11.01000
85.60001,-2.69070,-11.01000
85.70001,-2.68400,-10.88000
85.80000,-2.67740,-10.88000
85.90000,-2.67070,-10.74000
86.00001,-2.66400,-10.61000
86.10001,-2.65740,-10.47000
86.20001,-2.65070,-10.34000
86.30000,-2.64400,-10.34000
86.40000,-2.63740,-10.21000
86.50001,-2.63070,-10.21000
86.60001,-2.62400,-10.21000
86.70001,-2.61740,-10.07000
86.80000,-2.61070,-9.94000
86.90000,-2.60400,-9.80000
87.00001,-2.59740,-9.80000
87.10001,-2.59070,-9.54000
87.20001,-2.58410,-9.54000
87.30000,-2.57740,-9.40000
87.40000,-2.57070,-9.40000
87.50001,-2.56410,-9.27000
87.60001,-2.55740,-9.27000
87.70001,-2.55070,-9.27000
87.80000,-2.54410,-9.13000
87.90000,-2.53740,-9.13000
88.00001,-2.53070,-9.00000
88.10001,-2.52410,-8.86000
88.20001,-2.51740,-8.73000
88.30000,-2.51070,-8.60000
88.40000,-2.50410,-8.46000
88.50001,-2.49740,-8.60000
88.60001,-2.49070,-8.46000
88.70001,-2.48410,-8.46000
88.80000,-2.47740,-8.19000
88.90000,-2.47070,-8.19000
89.00001,-2.46410,-8.06000
89.10001,-2.45740,-7.92000
89.20001,-2.45070,-7.92000
89.30000,-2.44410,-7.92000
89.40000,-2.43740,-7.79000
89.50001,-2.43070,-7.66000
89.60001,-2.42410,-7.52000
89.70001,-2.41740,-7.52000
89.80000,-2.41070,-7.39000
89.90000,-2.40410,-7.39000
90.00001,-2.39740,-7.25000
90.10001,-2.39070,-7.25000
90.20001,-2.38410,-7.12000
90.30000,-2.37740,-6.98000
90.40000,-2.37070,-6.85000
90.50001,-2.36410,-6.85000
90.60001,-2.35740,-6.72000
90.70001,-2.35070,-6.58000
90.80000,-2.34410,-6.58000
90.90000,-2.33740,-6.45000
91.00001,-2.33070,-6.45000
91.10001,-2.32410,-6.31000
91.20001,-2.31740,-6.31000
91.30000,-2.31070,-6.18000
91.40000,-2.30410,-6.05000
91.50001,-2.29740,-6.05000
91.60001,-2.29070,-5.78000
91.70001,-2.28410,-5.78000
91.80000,-2.27740,-5.78000
91.90000,-2.27070,-5.78000
92.00001,-2.26410,-5.64000
92.10001,-2.25740,-5.51000
92.20001,-2.25070,-5.37000
92.30000,-2.24410,-5.37000
92.40000,-2.23740,-5.37000
92.50001,-2.23070,-5.11000
92.60001,-2.22410,-5.11000
92.70001,-2.21740,-4.97000
92.80000,-2.21070,-4.97000
92.90000,-2.20410,-4.84000
93.00001,-2.19740,-4.84000
93.10001,-2.19070,-4.70000
93.20001,-2.18410,-4.57000
93.30000,-2.17740,-4.57000
93.40000,-2.17070,-4.43000
93.50001,-2.16410,-4.30000
93.60001,-2.15740,-4.17000
93.70001,-2.15070,-4.17000
93.80000,-2.14410,-4.17000
93.90000,-2.13740,-4.17000
94.00001,-2.13070,-4.03000
94.10001,-2.12410,-4.03000
94.20001,-2.11740,-3.76000
94.30000,-2.11070,-3.63000
94.40000,-2.10410,-3.63000
94.50001,-2.09740,-3.49000
94.60001,-2.09070,-3.49000
94.70001,-2.08410,-3.49000
94.80000,-2.07740,-3.36000
94.90000,-2.07080,-3.23000
95.00001,-2.06410,-3.23000
95.10001,-2.05740,-3.09000
95.20001,-2.05080,-2.96000
95.30000,-2.04410,-2.82000
95.40000,-2.03740,-2.82000
95.50001,-2.03080,-2.69000
95.60001,-2.02410,-2.42000
95.70001,-2.01740,-2.42000
95.80000,-2.01080,-2.42000
95.90000,-2.00410,-2.29000
96.00001,-1.99740,-2.29000
96.10001,-1.99080,-2.15000
96.20001,-1.98410,-2.02000
96.30000,-1.97740,-1.88000
96.40000,-1.97080,-1.75000
96.50001,-1.96410,-1.75000
96.60001,-1.95740,-1.75000
96.70001,-1.95080,-1.75000
96.80000,-1.94410,-1.62000
96.90000,-1.93740,-1.62000
97.00001,-1.93080,-1.48000
97.10001,-1.92410,-1.48000
97.20001,-1.91740,-1.35000
97.30000,-1.91080,-1.35000
97.40000,-1.90410,-1.35000
97.50001,-1.89740,-1.35000
97.60001,-1.89080,-1.21000
97.70001,-1.88410,-1.21000
97.80000,-1.87740,-1.08000
97.90000,-1.87080,-0.94000
98.00001,-1.86410,-0.94000
98.10001,-1.85740,-0.94000
98.20001,-1.85080,-0.81000
98.30000,-1.84410,-0.81000
98.40000,-1.83740,-0.81000
98.50001,-1.83080,-0.81000
98.60001,-1.82410,-0.81000
98.70001,-1.81740,-0.81000
98.80000,-1.81080,-0.68000
98.90000,-1.80410,-0.68000
99.00001,-1.79740,-0.41000
99.10001,-1.79080,-0.41000
99.20001,-1.78410,-0.27000
99.30000,-1.77740,-0.41000
99.40000,-1.77080,-0.41000
99.50001,-1.76410,-0.27000
99.60001,-1.75740,-0.27000
99.70001,-1.75080,-0.14000
99.80000,-1.74410,-0.14000
99.90000,-1.73740,-0.14000
100.00001,-1.73080,0.00000
100.10001,-1.72410,0.00000
100.20001,-1.71740,0.13000
100.30000,-1.71080,0.26000
100.40000,-1.70410,0.26000
100.50001,-1.69740,0.40000
100.60001,-1.69080,0.40000
100.70001,-1.68410,0.26000
100.80000,-1.67740,0.40000
100.90000,-1.67080,0.53000
101.00001,-1.66410,0.67000
101.10001,-1.65740,0.53000
101.20001,-1.65080,0.67000
101.30000,-1.64410,0.67000
101.40000,-1.63740,0.67000
101.50001,-1.63080,0.67000
101.60001,-1.62410,0.67000
101.70001,-1.61740,0.67000
101.80000,-1.61080,0.67000
101.90000,-1.60410,0.67000
102.00001,-1.59740,0.53000
102.10001,-1.59080,0.67000
102.20001,-1.58410,0.67000
102.30000,-1.57740,0.67000
102.40000,-1.57080,0.67000
102.50001,-1.56410,0.67000
102.60001,-1.55750,0.67000
102.70001,-1.55080,0.67000
102.80000,-1.54410,0.67000
102.90000,-1.53750,0.53000
103.00001,-1.53080,0.67000
103.10001,-1.52410,0.67000
103.20001,-1.51750,0.67000
103.30000,-1.51080,0.67000
103.40000,-1.50410,0.67000
103.50001,-1.49750,0.67000
103.60001,-1.49080,0.67000
103.70001,-1.48410,0.67000
103.80000,-1.47750,0.67000
103.90000,-1.47080,0.67000
104.00001,-1.46410,0.67000
104.10001,-1.45750,0.67000
104.20001,-1.45080,0.67000
104.30000,-1.44410,0.67000
104.40000,-1.43750,0.67000
104.50001,-1.43080,0.67000
104.60001,-1.42410,0.67000
104.70001,-1.41750,0.53000
104.80000,-1.41080,0.67000
104.90000,-1.40410,0.67000
105.00001,-1.39750,0.67000
105.10001,-1.39080,0.67000
105.20001,-1.38410,0.67000
105.30000,-1.37750,0.67000
105.40000,-1.37080,0.67000
105.50001,-1.36410,0.67000
105.60001,-1.35750,0.67000
105.70001,-1.35080,0.67000
105.80000,-1.34410,0.67000
105.90000,-1.33750,0.67000
106.00001,-1.33080,0.80000
106.10001,-1.32410,0.67000
106.20001,-1.31750,0.53000
106.30000,-1.31080,0.67000
106.40000,-1.30410,0.67000
106.50001,-1.29750,0.67000
106.60001,-1.29080,0.67000
106.70001,-1.28410,0.67000
106.80000,-1.27750,0.53000
106.90000,-1.27080,0.67000
107.00001,-1.26410,0.53000
107.10001,-1.25750,0.67000
107.20001,-1.25080,0.67000
107.30000,-1.24410,0.67000
107.40000,-1.23750,0.53000
107.50001,-1.23080,0.67000
107.60001,-1.22410,0.67000
107.70001,-1.21750,0.67000
107.80000,-1.21080,0.80000
107.90000,-1.20410,0.67000
108.00001,-1.19750,0.67000
108.10001,-1.19080,0.53000
108.20001,-1.18410,0.67000
108.30000,-1.17750,0.67000
108.40000,-1.17080,0.67000
108.50001,-1.16410,0.67000
108.60001,-1.15750,0.67000
108.70001,-1.15080,0.80000
108.80000,-1.14410,0.67000
108.90000,-1.13750,0.67000
109.00001,-1.13080,0.53000
109.10001,-1.12410,0.67000
109.20001,-1.11750,0.67000
109.30000,-1.11080,0.67000
109.40000,-1.10410,0.67000
109.50001,-1.09750,0.53000
109.60001,-1.09080,0.67000
109.70001,-1.08410,0.67000
109.80000,-1.07750,0.67000
109.90000,-1.07080,0.67000
110.00001,-1.06410,0.67000
110.10001,-1.05750,0.53000
110.20001,-1.05080,0.53000
110.30000,-1.04410,0.67000
110.40000,-1.03750,0.67000
110.50001,-1.03080,0.67000
110.60001,-1.02420,0.67000
110.70001,-1.01750,0.67000
110.80000,-1.01080,0.67000
110.90000,-1.00420,0.67000
111.00001,-0.99750,0.53000
111.10001,-0.99080,0.67000
111.20001,-0.98420,0.53000
111.30000,-0.97750,0.67000
111.40000,-0.97080,0.80000
111.50001,-0.96420,0.67000
111.60001,-0.95750,0.67000
111.70001,-0.95080,0.67000
111.80000,-0.94420,0.67000
111.90000,-0.93750,0.67000
112.00001,-0.93080,0.67000
112.10001,-0.92420,0.53000
112.20001,-0.91750,0.53000
112.30000,-0.91080,0.80000
112.40000,-0.90420,0.67000
112.50001,-0.89750,0.67000
112.60001,-0.89080,0.67000
112.70001,-0.88420,0.67000
112.80000,-0.87750,0.53000
112.90001,-0.87080,0.67000
113.00001,-0.86420,0.67000
113.10001,-0.85750,0.67000
113.20001,-0.85080,0.67000
113.30000,-0.84420,0.80000
113.40001,-0.83750,0.67000
113.50001,-0.83080,0.67000
113.60001,-0.82420,0.67000
113.70001,-0.81750,0.67000
113.80000,-0.81080,0.67000
113.90001,-0.80420,0.67000
114.00001,-0.79750,0.67000
114.10001,-0.79080,0.67000
114.20001,-0.78420,0.67000
114.30000,-0.77750,0.67000
114.40001,-0.77080,0.53000
114.50001,-0.76420,0.67000
114.60001,-0.75750,0.67000
114.70001,-0.75080,0.67000
114.80000,-0.74420,0.53000
114.90001,-0.73750,0.53000
115.00001,-0.73080,0.67000
115.10001,-0.72420,0.67000
115.20001,-0.71750,0.67000
115.30000,-0.71080,0.67000
115.40001,-0.70420,0.67000
115.50001,-0.69750,0.67000
115.60001,-0.69080,0.67000
115.70001,-0.68420,0.67000
115.80000,-0.67750,0.53000
115.90001,-0.67080,0.53000
116.00001,-0.66420,0.67000
116.10001,-0.65750,0.67000
116.20001,-0.65080,0.67000
116.30000,-0.64420,0.67000
116.40001,-0.63750,0.53000
116.50001,-0.63080,0.67000
116.60001,-0.62420,0.67000
116.70001,-0.61750,0.67000
116.80000,-0.61080,0.67000
116.90001,-0.60420,0.53000
117.00001,-0.59750,0.53000
117.10001,-0.59080,0.67000
117.20001,-0.58420,0.67000
117.30000,-0.57750,0.67000
117.40001,-0.57080,0.67000
117.50001,-0.56420,0.67000
117.60001,-0.55750,0.67000
117.70001,-0.55080,0.67000
117.80000,-0.54420,0.67000
117.90001,-0.53750,0.67000
118.00001,-0.53080,0.67000
118.10001,-0.52420,0.67000
118.20001,-0.51750,0.53000
118.30000,-0.51090,0.53000
118.40001,-0.50420,0.53000
118.50001,-0.49750,0.67000
118.60001,-0.49090,0.67000
118.70001,-0.48420,0.67000
118.80000,-0.47750,0.67000
118.90001,-0.47090,0.67000
119.00001,-0.46420,0.67000
119.10001,-0.45750,0.53000
119.20001,-0.45090,0.67000
119.30000,-0.44420,0.67000
119.40001,-0.43750,0.67000
119.50001,-0.43090,0.67000
119.60001,-0.42420,0.67000
119.70001,-0.41750,0.67000
119.80000,-0.41090,0.67000
119.90001,-0.40420,0.67000
120.00001,-0.39750,0.67000
120.10001,-0.39090,0.67000
120.20001,-0.38420,0.67000
120.30000,-0.37750,0.67000
120.40001,-0.37090,0.67000
120.50001,-0.36420,0.67000
120.60001,-0.35750,0.67000
120.70001,-0.35090,0.67000
120.80000,-0.34420,0.67000
120.90001,-0.33750,0.53000
121.00001,-0.33090,0.67000
121.10001,-0.32420,0.67000
121.20001,-0.31750,0.67000
121.30000,-0.31090,0.67000
121.40001,-0.30420,0.67000
121.50001,-0.29750,0.67000
121.60001,-0.29090,0.67000
121.70001,-0.28420,0.67000
121.80000,-0.27750,0.67000
121.90001,-0.27090,0.67000
122.00001,-0.26420,0.53000
122.10001,-0.25750,0.67000
122.20001,-0.25090,0.67000
122.30000,-0.24420,0.67000
122.40001,-0.23750,0.67000
122.50001,-0.23090,0.53000
122.60001,-0.22420,0.80000
122.70001,-0.21750,0.67000
122.80000,-0.21090,0.67000
122.90001,-0.20420,0.53000
123.00001,-0.19750,0.53000
123.10001,-0.19090,0.67000
123.20001,-0.18420,0.67000
123.30000,-0.17750,0.67000
123.40001,-0.17090,0.67000
123.50001,-0.16420,0.67000
123.60001,-0.15750,0.53000
123.70001,-0.15090,0.67000
123.80000,-0.14420,0.67000
123.90001,-0.13750,0.53000
124.00001,-0.13090,0.67000
124.10001,-0.12420,0.67000
124.20001,-0.11750,0.67000
124.30000,-0.11090,0.53000
124.40001,-0.10420,0.67000
124.50001,-0.09750,0.67000
124.60001,-0.09090,0.67000
124.70001,-0.08420,0.67000
124.80000,-0.07750,0.67000
124.90001,-0.07090,0.67000
125.00001,-0.06420,0.67000
125.10001,-0.05750,0.67000
125.20001,-0.05090,0.67000
125.30000,-0.04420,0.67000
125.40001,-0.03750,0.67000
125.50001,-0.03090,0.67000
125.60001,-0.02420,0.67000
125.70001,-0.01750,0.67000
125.80000,-0.01090,0.67000
125.90001,-0.00420,0.53000
126.00001,0.00240,0.67000
126.10001,0.00910,0.80000
126.15001,0.01240,0.67000
126.25001,0.01300,0.53000
126.35001,0.00630,0.67000
126.45001,-0.00030,0.67000
126.55000,-0.00700,0.53000
126.65001,-0.01370,0.67000
126.75001,-0.02030,0.67000
126.85001,-0.02700,0.67000
126.95001,-0.03370,0.67000
127.05000,-0.04030,0.53000
127.15001,-0.04700,0.53000
127.25001,-0.05370,0.67000
127.35001,-0.06030,0.67000
127.45001,-0.06700,0.67000
127.55000,-0.07370,0.67000
127.65001,-0.08030,0.53000
127.75001,-0.08700,0.67000
127.85001,-0.09370,0.67000
127.95001,-0.10030,0.53000
128.05000,-0.10700,0.53000
128.15001,-0.11370,0.53000
128.25000,-0.12030,0.67000
128.35001,-0.12700,0.67000
128.45002,-0.13370,0.67000
128.55000,-0.14030,0.67000
128.65001,-0.14700,0.80000
128.75000,-0.15370,0.67000
128.85001,-0.16030,0.67000
128.95002,-0.16700,0.53000
129.05000,-0.17360,0.53000
129.15001,-0.18030,0.53000
129.25000,-0.18700,0.53000
129.35001,-0.19360,0.67000
129.45002,-0.20030,0.80000
129.55000,-0.20700,0.80000
129.65001,-0.21360,0.67000
129.75000,-0.22030,0.67000
129.85001,-0.22700,0.67000
129.95002,-0.23360,0.67000
130.05000,-0.24030,0.67000
130.15001,-0.24700,0.53000
130.25000,-0.25360,0.67000
130.35001,-0.26030,0.53000
130.45002,-0.26700,0.67000
130.55000,-0.27360,0.67000
130.65001,-0.28030,0.67000
130.75000,-0.28700,0.53000
130.85001,-0.29360,0.67000
130.95002,-0.30030,0.67000
131.05000,-0.30700,0.67000
131.15002,-0.31360,0.67000
131.25000,-0.32030,0.67000
131.35000,-0.32700,0.67000
131.45002,-0.33360,0.80000
131.55000,-0.34030,0.67000
131.65002,-0.34700,0.53000
131.75000,-0.35360,0.67000
131.85000,-0.36030,0.67000
131.95002,-0.36700,0.53000
132.05000,-0.37360,0.67000
132.15002,-0.38030,0.67000
132.25000,-0.38700,0.67000
132.35000,-0.39360,0.67000
132.45002,-0.40030,0.67000
132.55000,-0.40700,0.67000
132.65002,-0.41360,0.67000
132.75000,-0.42030,0.67000
132.85000,-0.42700,0.67000
132.95002,-0.43360,0.53000
133.05000,-0.44030,0.53000
133.15002,-0.44700,0.67000
133.25000,-0.45360,0.67000
133.35000,-0.46030,0.67000
133.45002,-0.46700,0.67000
133.55000,-0.47360,0.67000
133.65002,-0.48030,0.67000
133.75000,-0.48700,0.67000
133.85000,-0.49360,0.53000
133.95002,-0.50030,0.53000
134.05000,-0.50700,0.67000
134.15002,-0.51360,0.67000
134.25000,-0.52030,0.67000
134.35000,-0.52700,0.67000
134.45002,-0.53360,0.67000
134.55000,-0.54030,0.67000
134.65002,-0.54700,0.67000
134.75000,-0.55360,0.67000
134.85000,-0.56030,0.67000
134.95002,-0.56700,0.67000
135.05000,-0.57360,0.53000
135.15002,-0.58030,0.67000
135.25000,-0.58700,0.67000
135.35000,-0.59360,0.53000
135.45002,-0.60030,0.67000
135.55000,-0.60700,0.67000
135.65002,-0.61360,0.67000
135.75000,-0.62030,0.67000
135.85000,-0.62700,0.80000
135.95002,-0.63360,0.67000
136.05000,-0.64030,0.67000
136.15002,-0.64700,0.53000
136.25000,-0.65360,0.67000
136.35000,-0.66030,0.67000
136.45002,-0.66700,0.53000
136.55000,-0.67360,0.53000
136.65002,-0.68030,0.67000
136.75000,-0.68700,0.80000
136.85000,-0.69360,0.80000
136.95002,-0.70030,0.80000
137.05000,-0.70690,0.67000
137.15002,-0.71360,0.53000
137.25000,-0.72030,0.67000
137.35000,-0.72690,0.67000
137.45002,-0.73360,0.67000
137.55000,-0.74030,0.67000
137.65002,-0.74690,0.67000
137.75000,-0.75360,0.67000
137.85000,-0.76030,0.67000
137.95002,-0.76690,0.67000
138.05000,-0.77360,0.53000
138.15002,-0.78030,0.67000
138.25000,-0.78690,0.53000
138.35000,-0.79360,0.67000
138.45002,-0.80030,0.53000
138.55000,-0.80690,0.67000
138.65002,-0.81360,0.67000
138.75000,-0.82030,0.67000
138.85000,-0.82690,0.67000
138.95002,-0.83360,0.53000
139.05000,-0.84030,0.67000
139.15002,-0.84690,0.67000
139.25000,-0.85360,0.67000
139.35000,-0.86030,0.67000
139.45002,-0.86690,0.80000
139.55000,-0.87360,0.80000
139.65002,-0.88030,0.67000
139.75000,-0.88690,0.67000
139.85000,-0.89360,0.67000
139.95002,-0.90030,0.67000
140.05000,-0.90690,0.67000
140.15002,-0.91360,0.67000
140.25000,-0.92030,0.53000
140.35000,-0.92690,0.67000
140.45002,-0.93360,0.53000
140.55000,-0.94030,0.67000
140.65002,-0.94690,0.67000
140.75000,-0.95360,0.67000
140.85000,-0.96030,0.67000
140.95002,-0.96690,0.67000
141.05000,-0.97360,0.67000
141.15002,-0.98030,0.53000
141.25000,-0.98690,0.67000
141.35000,-0.99360,0.53000
141.45002,-1.00030,0.53000
141.55000,-1.00690,0.53000
141.65002,-1.01360,0.67000
141.75000,-1.02030,0.80000
141.85000,-1.02690,0.67000
141.95002,-1.03360,0.67000
142.05000,-1.04030,0.67000
142.15002,-1.04690,0.67000
142.25000,-1.05360,0.67000
142.35000,-1.06030,0.67000
142.45002,-1.06690,0.53000
142.55000,-1.07360,0.67000
142.65002,-1.08030,0.67000
142.75000,-1.08690,0.67000
142.85000,-1.09360,0.67000
142.95002,-1.10030,0.67000
143.05000,-1.10690,0.67000
143.15002,-1.11360,0.67000
143.25000,-1.12030,0.67000
143.35000,-1.12690,0.53000
143.45002,-1.13360,0.53000
143.55000,-1.14030,0.67000
143.65002,-1.14690,0.67000
143.75000,-1.15360,0.67000
143.85000,-1.16030,0.53000
143.95002,-1.16690,0.53000
144.05000,-1.17360,0.53000
144.15002,-1.18030,0.53000
144.25000,-1.18690,0.53000
144.35000,-1.19360,0.53000
144.45002,-1.20030,0.53000
144.55000,-1.20690,0.67000
144.65002,-1.21360,0.67000
144.75000,-1.22020,0.67000
144.85000,-1.22690,0.67000
144.95002,-1.23360,0.67000
145.05000,-1.24020,0.53000
145.15002,-1.24690,0.53000
145.25000,-1.25360,0.53000
145.35000,-1.26020,0.67000
145.45002,-1.26690,0.67000
145.55000,-1.27360,0.80000
145.65002,-1.28020,0.67000
145.75000,-1.28690,0.67000
145.85000,-1.29360,0.67000
145.95002,-1.30020,0.67000
146.05000,-1.30690,0.53000
146.15002,-1.31360,0.53000
146.25000,-1.32020,0.53000
146.35000,-1.32690,0.53000
146.45002,-1.33360,0.53000
146.55000,-1.34020,0.67000
146.65002,-1.34690,0.67000
146.75000,-1.35360,0.67000
146.85000,-1.36020,0.67000
146.95002,-1.36690,0.53000
147.05000,-1.37360,0.53000
147.15002,-1.38020,0.53000
147.25000,-1.38690,0.53000
147.35000,-1.39360,0.53000
147.45002,-1.40020,0.67000
147.55000,-1.40690,0.80000
147.65002,-1.41360,0.67000
147.75000,-1.42020,0.67000
147.85000,-1.42690,0.53000
147.95002,-1.43360,0.67000
148.05000,-1.44020,0.53000
148.15002,-1.44690,0.53000
148.25000,-1.45360,0.67000
148.35000,-1.46020,0.67000
148.45002,-1.46690,0.53000
148.55000,-1.47360,0.67000
148.65002,-1.48020,0.67000
148.75000,-1.48690,0.67000
148.85000,-1.49360,0.67000
148.95002,-1.50020,0.67000
149.05000,-1.50690,0.67000
149.15002,-1.51360,0.53000
149.25000,-1.52020,0.53000
149.35000,-1.52690,0.53000
149.45002,-1.53360,0.53000
149.55000,-1.54020,0.53000
149.65002,-1.54690,0.67000
149.75000,-1.55360,0.67000
149.85000,-1.56020,0.67000
149.95002,-1.56690,0.53000
150.05000,-1.57360,0.53000
150.15002,-1.58020,0.53000
150.25000,-1.58690,0.53000
150.35000,-1.59360,0.40000
150.45002,-1.60020,0.26000
150.55000,-1.60690,0.26000
150.65002,-1.61360,0.13000
150.75000,-1.62020,0.00000
150.85000,-1.62690,0.00000
150.95002,-1.63360,0.00000
151.05000,-1.64020,-0.14000
151.15002,-1.64690,-0.27000
151.25000,-1.65360,-0.27000
151.35000,-1.66020,-0.41000
151.45002,-1.66690,-0.41000
151.55000,-1.67360,-0.41000
151.65002,-1.68020,-0.41000
151.75000,-1.68690,-0.54000
151.85000,-1.69360,-0.68000
151.95002,-1.70020,-0.81000
152.05000,-1.70690,-0.81000
152.15002,-1.71360,-0.81000
152.25000,-1.72020,-0.94000
152.35000,-1.72690,-0.94000
152.45002,-1.73360,-1.08000
152.55000,-1.74020,-1.08000
152.65002,-1.74690,-1.08000
152.75000,-1.75350,-1.21000
152.85000,-1.76020,-1.08000
152.95002,-1.76690,-1.08000
153.05000,-1.77350,-1.21000
153.15002,-1.78020,-1.35000
153.25000,-1.78690,-1.35000
153.35000,-1.79350,-1.48000
153.45002,-1.80020,-1.48000
153.55000,-1.80690,-1.62000
153.65002,-1.81350,-1.48000
153.75000,-1.82020,-1.62000
153.85000,-1.82690,-1.62000
153.95002,-1.83350,-1.62000
154.05000,-1.84020,-1.75000
154.15002,-1.84690,-1.88000
154.25000,-1.85350,-2.02000
154.35000,-1.86020,-2.02000
154.45002,-1.86690,-2.02000
154.55000,-1.87350,-2.15000
154.65002,-1.88020,-2.29000
154.75000,-1.88690,-2.29000
154.85000,-1.89350,-2.29000
154.95002,-1.90020,-2.42000
155.05000,-1.90690,-2.42000
155.15002,-1.91350,-2.56000
155.25000,-1.92020,-2.56000
155.35000,-1.92690,-2.69000
155.45002,-1.93350,-2.82000
155.55000,-1.94020,-2.82000
155.65002,-1.94690,-2.82000
155.75000,-1.95350,-3.09000
155.85000,-1.96020,-3.09000
155.95002,-1.96690,-3.36000
156.05000,-1.97350,-3.36000
156.15002,-1.98020,-3.49000
156.25000,-1.98690,-3.63000
156.35000,-1.99350,-3.63000
156.45002,-2.00020,-3.76000
156.55000,-2.00690,-3.90000
156.65002,-2.01350,-4.03000
156.75000,-2.02020,-4.17000
156.85000,-2.02690,-4.30000
156.95002,-2.03350,-4.57000
157.05000,-2.04020,-4.57000
157.15002,-2.04690,-4.70000
157.25000,-2.05350,-4.84000
157.35000,-2.06020,-4.97000
157.45002,-2.06690,-4.97000
157.55000,-2.07350,-5.11000
157.65002,-2.08020,-5.11000
157.75000,-2.08690,-5.24000
157.85000,-2.09350,-5.37000
157.95002,-2.10020,-5.51000
158.05000,-2.10690,-5.51000
158.15002,-2.11350,-5.64000
158.25000,-2.12020,-5.78000
158.35000,-2.12690,-5.78000
158.45002,-2.13350,-5.91000
158.55000,-2.14020,-5.91000
158.65002,-2.14690,-6.05000
158.75000,-2.15350,-6.18000
158.85000,-2.16020,-6.31000
158.95002,-2.16690,-6.31000
159.05000,-2.17350,-6.45000
159.15002,-2.18020,-6.58000
159.25000,-2.18690,-6.58000
159.35000,-2.19350,-6.72000
159.45002,-2.20020,-6.85000
159.55000,-2.20690,-6.98000
159.65002,-2.21350,-6.98000
159.75000,-2.22020,-6.98000
159.85000,-2.22690,-7.12000
159.95002,-2.23350,-7.12000
160.05000,-2.24020,-7.39000
160.15002,-2.24690,-7.52000
160.25000,-2.25350,-7.52000
160.35000,-2.26020,-7.66000
160.45002,-2.26680,-7.66000
160.55000,-2.27350,-7.79000
160.65002,-2.28020,-7.79000
160.75002,-2.28680,-8.06000
160.85000,-2.29350,-8.06000
160.95002,-2.30020,-8.19000
161.05000,-2.30680,-8.19000
161.15002,-2.31350,-8.33000
161.25002,-2.32020,-8.46000
161.35000,-2.32680,-8.46000
161.45002,-2.33360,-8.60000
161.55000,-2.34020,-8.73000
161.65002,-2.34690,-8.73000
161.75002,-2.35360,-8.86000
161.85000,-2.36020,-9.00000
161.95002,-2.36690,-9.00000
162.05000,-2.37360,-9.13000
162.15002,-2.38020,-9.27000
162.25002,-2.38690,-9.40000
162.35000,-2.39360,-9.40000
162.45002,-2.40020,-9.54000
162.55000,-2.40690,-9.54000
162.65002,-2.41360,-9.67000
162.75002,-2.42020,-9.80000
162.85000,-2.42690,-9.80000
162.95002,-2.43360,-9.94000
163.05000,-2.44020,-10.07000
163.15002,-2.44690,-10.21000
163.25002,-2.45360,-10.21000
163.35000,-2.46020,-10.34000
163.45002,-2.46690,-10.34000
163.55000,-2.47360,-10.47000
163.65002,-2.48020,-10.47000
163.75002,-2.48690,-10.47000
163.85000,-2.49360,-10.61000
163.95002,-2.50020,-10.74000
164.05000,-2.50690,-10.88000
164.15002,-2.51360,-11.01000
164.25002,-2.52020,-11.15000
164.35000,-2.52690,-11.28000
164.45002,-2.53360,-11.28000
164.55000,-2.54020,-11.28000
164.65002,-2.54690,-11.41000
164.75002,-2.55360,-11.41000
164.85000,-2.56020,-11.55000
164.95002,-2.56690,-11.68000
165.05000,-2.57360,-11.82000
165.15002,-2.58020,-11.82000
165.25002,-2.58690,-12.09000
165.35000,-2.59360,-12.09000
165.45002,-2.60020,-12.22000
165.55000,-2.60690,-12.22000
165.65002,-2.61360,-12.35000
165.75002,-2.62020,-12.35000
165.85000,-2.62690,-12.49000
165.95002,-2.63360,-12.49000
166.05000,-2.64020,-12.62000
166.15002,-2.64690,-12.76000
166.25002,-2.65360,-12.76000
166.35000,-2.66020,-12.89000
166.45002,-2.66690,-12.89000
166.55000,-2.67360,-13.03000
166.65002,-2.68020,-13.16000
166.75002,-2.68690,-13.16000
166.85000,-2.69360,-13.29000
166.95002,-2.70020,-13.43000
167.05000,-2.70690,-13.43000
167.15002,-2.71360,-13.56000
167.25002,-2.72020,-13.56000
167.35000,-2.72690,-13.70000
167.45002,-2.73360,-13.83000
167.55000,-2.74020,-13.96000
167.65002,-2.74690,-14.10000
167.75002,-2.75360,-14.10000
167.85000,-2.76020,-14.23000
167.95002,-2.76690,-14.23000
168.05000,-2.77360,-14.37000
168.15002,-2.78020,-14.37000
168.25002,-2.78690,-14.50000
168.35000,-2.79360,-14.64000
168.45002,-2.80020,-14.64000
168.55000,-2.80690,-14.64000
168.65002,-2.81360,-14.90000
168.75002,-2.82020,-14.90000
168.85000,-2.82690,-15.04000
168.95002,-2.83350,-15.17000
169.05000,-2.84020,-15.17000
169.15002,-2.84690,-15.17000
169.25002,-2.85350,-15.31000
169.35000,-2.86020,-15.31000
169.45002,-2.86690,-15.58000
169.55000,-2.87350,-15.71000
169.65002,-2.88020,-15.71000
169.75002,-2.88690,-15.71000
169.85000,-2.89350,-15.71000
169.95002,-2.90020,-15.84000
170.05000,-2.90690,-15.98000
170.15002,-2.91350,-15.98000
170.25002,-2.92020,-16.25000
170.35000,-2.92690,-16.38000
170.45002,-2.93350,-16.38000
170.55000,-2.94020,-16.52000
170.65002,-2.94690,-16.52000
170.75002,-2.95350,-16.65000
170.85000,-2.96020,-16.78000
170.95002,-2.96690,-16.78000
171.05000,-2.97350,-16.78000
171.15002,-2.98020,-16.92000
171.25002,-2.98690,-17.05000
171.35000,-2.99350,-17.05000
171.45002,-3.00020,-17.19000
171.55000,-3.00690,-17.32000
171.65002,-3.01350,-17.45000
171.75002,-3.02020,-17.45000
171.85000,-3.02690,-17.45000
171.95002,-3.03350,-17.59000
172.05000,-3.04020,-17.72000
172.15002,-3.04690,-17.72000
172.25002,-3.05350,-17.99000
172.35000,-3.06020,-17.99000
172.45002,-3.06690,-18.13000
172.55000,-3.07350,-18.13000
172.65002,-3.08020,-18.26000
172.75002,-3.08690,-18.26000
172.85000,-3.09350,-18.39000
172.95002,-3.10020,-18.53000
173.05000,-3.10690,-18.53000
173.15002,-3.11350,-18.66000
173.25002,-3.12020,-18.80000
173.35000,-3.12690,-18.80000
173.45002,-3.13350,-18.93000
173.55000,-3.14020,-18.93000
173.65002,-3.14690,-19.07000
173.75002,-3.15350,-19.07000
173.85000,-3.16020,-19.20000
173.95002,-3.16690,-19.33000
174.05000,-3.17350,-19.33000
174.15002,-3.18020,-19.47000
174.25002,-3.18690,-19.60000
174.35000,-3.19350,-19.74000
174.45002,-3.20020,-19.74000
174.55000,-3.20690,-19.74000
174.65002,-3.21350,-19.87000
174.75002,-3.22020,-19.87000
174.85000,-3.22690,-20.00000
174.95002,-3.23350,-20.14000
175.05000,-3.24020,-20.27000
175.15002,-3.24690,-20.27000
175.25002,-3.25350,-20.41000
175.35000,-3.26020,-20.54000
175.45002,-3.26690,-20.54000
175.55000,-3.27350,-20.68000
175.65002,-3.28020,-20.81000
175.75002,-3.28690,-20.81000
175.85000,-3.29350,-20.94000
175.95002,-3.30020,-20.94000
176.05000,-3.30690,-20.94000
176.15002,-3.31350,-21.08000
176.25002,-3.32020,-21.21000
176.35000,-3.32690,-21.35000
176.45002,-3.33350,-21.48000
176.55000,-3.34020,-21.48000
176.65002,-3.34680,-21.62000
176.75002,-3.35350,-21.62000
176.85000,-3.36020,-21.75000
176.95002,-3.36680,-21.88000
177.05000,-3.37350,-21.88000
177.15002,-3.38020,-22.02000
177.25002,-3.38680,-21.88000
177.35000,-3.39350,-22.15000
177.45002,-3.40020,-22.15000
177.55000,-3.40680,-22.42000
177.65002,-3.41350,-22.42000
177.75002,-3.42020,-22.56000
177.85000,-3.42680,-22.56000
177.95002,-3.43350,-22.56000
178.05000,-3.44020,-22.82000
178.15002,-3.44680,-22.82000
178.25002,-3.45350,-22.82000
178.35000,-3.46020,-22.96000
178.45002,-3.46680,-23.09000
178.55000,-3.47350,-23.23000
178.65002,-3.48020,-23.23000
178.75002,-3.48680,-23.36000
178.85000,-3.49350,-23.36000
178.95002,-3.50020,-23.49000
179.05000,-3.50680,-23.49000
179.15002,-3.51350,-23.63000
179.25002,-3.52020,-23.76000
179.35000,-3.52680,-23.90000
179.45002,-3.53350,-23.90000
179.55000,-3.54020,-24.03000
179.65002,-3.54680,-24.03000
179.75002,-3.55350,-24.17000
179.85000,-3.56020,-24.17000
179.95002,-3.56680,-24.17000
180.05000,-3.57350,-24.30000
180.15002,-3.58020,-24.43000
180.25002,-3.58680,-24.57000
180.35000,-3.59350,-24.70000
180.45002,-3.60020,-24.84000
180.55000,-3.60680,-24.84000
180.65002,-3.61350,-24.84000
180.75002,-3.62020,-24.84000
180.85000,-3.62680,-24.97000
180.95002,-3.63350,-25.11000
181.05000,-3.64020,-25.24000
181.15002,-3.64680,-25.37000
181.25002,-3.65350,-25.37000
181.35000,-3.66020,-25.37000
181.45002,-3.66680,-25.51000
181.55000,-3.67350,-25.51000
181.65002,-3.68020,-25.78000
181.75002,-3.68680,-25.78000
181.85000,-3.69350,-25.91000
181.95002,-3.70020,-25.91000
182.05000,-3.70680,-25.91000
182.15002,-3.71350,-26.05000
182.25002,-3.72020,-26.18000
182.35000,-3.72680,-26.31000
182.45002,-3.73350,-26.31000
182.55000,-3.74020,-26.31000
182.65002,-3.74680,-26.45000
182.75002,-3.75350,-26.45000
182.85000,-3.76020,-26.58000
182.95002,-3.76680,-26.72000
183.05000,-3.77350,-26.85000
183.15002,-3.78020,-26.85000
183.25002,-3.78680,-26.98000
183.35000,-3.79350,-26.98000
183.45002,-3.80020,-27.12000
183.55000,-3.80680,-27.12000
183.65002,-3.81350,-27.25000
183.75002,-3.82020,-27.25000
183.85000,-3.82680,-27.39000
183.95002,-3.83350,-27.66000
184.05000,-3.84020,-27.66000
184.15002,-3.84680,-27.66000
184.25002,-3.85350,-27.79000
184.35000,-3.86020,-27.92000
184.45002,-3.86680,-27.92000
184.55000,-3.87350,-27.92000
184.65002,-3.88010,-28.06000
184.75002,-3.88680,-28.19000
184.85000,-3.89350,-28.19000
184.95002,-3.90010,-28.19000
185.05000,-3.90680,-28.46000
185.15002,-3.91350,-28.60000
185.25002,-3.92010,-28.60000
185.35000,-3.92680,-28.60000
185.45002,-3.93350,-28.73000
185.55000,-3.94010,-28.73000
185.65002,-3.94680,-28.86000
185.75002,-3.95350,-28.86000
185.85000,-3.96010,-29.00000
185.95002,-3.96680,-29.13000
186.05000,-3.97350,-29.13000
186.15002,-3.98010,-29.27000
186.25002,-3.98680,-29.40000
186.35000,-3.99350,-29.54000
186.45002,-4.00010,-29.54000
186.55000,-4.00680,-29.67000
186.65002,-4.01350,-29.67000
186.75002,-4.02010,-29.80000
186.85000,-4.02680,-29.80000
186.95002,-4.03350,-29.80000
187.05000,-4.04010,-29.94000
187.15002,-4.04680,-29.94000
187.25002,-4.05350,-30.07000
187.35000,-4.06010,-30.21000
187.45002,-4.06680,-30.34000
187.55000,-4.07350,-30.34000
187.65002,-4.08010,-30.47000
187.75002,-4.08680,-30.47000
187.85000,-4.09350,-30.61000
187.95002,-4.10010,-30.74000
188.05000,-4.10680,-30.74000
188.15002,-4.11350,-30.74000
188.25002,-4.12010,-30.88000
188.35000,-4.12680,-31.01000
188.45002,-4.13350,-31.15000
188.55000,-4.14010,-31.15000
188.65002,-4.14680,-31.28000
188.75002,-4.15350,-31.28000
188.85000,-4.16010,-31.28000
188.95002,-4.16680,-31.41000
189.05000,-4.17350,-31.55000
189.15002,-4.18010,-31.68000
189.25002,-4.18680,-31.68000
189.35000,-4.19350,-31.68000
189.45002,-4.20010,-31.82000
189.55000,-4.20680,-31.82000
189.65002,-4.21350,-31.95000
189.75002,-4.22010,-32.22000
189.85000,-4.22680,-32.22000
189.95002,-4.23350,-32.22000
190.05000,-4.24010,-32.35000
190.15002,-4.24680,-32.35000
190.25002,-4.25350,-32.49000
190.35000,-4.26010,-32.49000
190.45002,-4.26680,-32.62000
190.55000,-4.27350,-32.62000
190.65002,-4.28010,-32.76000
190.75002,-4.28680,-32.76000
190.85000,-4.29350,-32.89000
190.95002,-4.30010,-33.03000
191.05000,-4.30680,-33.03000
191.15002,-4.31350,-33.16000
191.25002,-4.32010,-33.29000
191.35000,-4.32680,-33.29000
191.45002,-4.33350,-33.29000
191.55000,-4.34010,-33.43000
191.65002,-4.34680,-33.43000
191.75002,-4.35350,-33.56000
191.85000,-4.36010,-33.70000
191.95002,-4.36680,-33.70000
192.05000,-4.37350,-33.83000
192.15002,-4.38010,-33.96000
192.25002,-4.38680,-33.96000
192.35000,-4.39340,-34.10000
192.45002,-4.40010,-34.23000
192.55000,-4.40680,-34.23000
192.65002,-4.41340,-34.37000
192.75002,-4.42010,-34.37000
192.85000,-4.42680,-34.50000
192.95002,-4.43340,-34.50000
193.05000,-4.44010,-34.64000
193.15002,-4.44680,-34.77000
193.25002,-4.45340,-34.77000
193.35000,-4.46010,-34.90000
193.45002,-4.46680,-34.90000
193.55000,-4.47340,-34.90000
193.65002,-4.48010,-35.04000
193.75002,-4.48680,-35.17000
193.85000,-4.49340,-35.31000
193.95002,-4.50010,-35.31000
194.05000,-4.50680,-35.31000
194.15002,-4.51340,-35.31000
194.25002,-4.52010,-35.44000
194.35000,-4.52680,-35.44000
194.45002,-4.53340,-35.71000
194.55000,-4.54010,-35.71000
194.65002,-4.54680,-35.84000
194.75002,-4.55340,-35.98000
194.85000,-4.56000,-35.98000
194.95002,-4.56670,-35.98000
195.05000,-4.57340,-36.11000
195.15002,-4.58000,-36.25000
195.25002,-4.58670,-36.25000
195.35000,-4.59340,-36.38000
195.45002,-4.60000,-36.52000
195.55000,-4.60670,-36.52000
195.65002,-4.61340,-36.65000
195.75002,-4.62000,-36.65000
195.85000,-4.62670,-36.78000
195.95002,-4.63340,-36.92000
196.05000,-4.64000,-36.92000
196.15002,-4.64670,-36.92000
196.25002,-4.65340,-37.05000
196.35000,-4.66000,-37.05000
196.45002,-4.66670,-37.19000
196.55000,-4.67340,-37.32000
196.65002,-4.68000,-37.32000
196.75002,-4.68670,-37.45000
196.85000,-4.69340,-37.45000
196.95002,-4.70000,-37.59000
197.05000,-4.70670,-37.59000
197.15002,-4.71340,-37.72000
197.25002,-4.72000,-37.86000
197.35000,-4.72670,-37.99000
197.45002,-4.73340,-37.99000
197.55000,-4.74000,-38.13000
197.65002,-4.74670,-38.13000
197.75002,-4.75340,-38.13000
197.85000,-4.76000,-38.39000
197.95002,-4.76670,-38.26000
198.05000,-4.77340,-38.39000
198.15002,-4.78000,-38.53000
198.25002,-4.78670,-38.53000
198.35000,-4.79340,-38.53000
198.45002,-4.80000,-38.80000
198.55000,-4.80670,-38.93000
198.65002,-4.81340,-38.93000
198.75002,-4.82000,-38.93000
198.85000,-4.82670,-38.93000
198.95002,-4.83340,-39.07000
199.05000,-4.84000,-39.07000
199.15002,-4.84670,-39.20000
199.25002,-4.85340,-39.33000
199.35000,-4.86000,-39.33000
199.45002,-4.86670,-39.60000
199.55000,-4.87330,-39.47000
199.65002,-4.88000,-39.60000
199.75002,-4.88670,-39.74000
199.85000,-4.89330,-39.87000
199.95002,-4.90000,-39.87000
200.05000,-4.90670,-40.00000
200.15002,-4.91330,-40.00000
200.25002,-4.92000,-40.14000
200.35000,-4.92670,-40.14000
200.45002,-4.93330,-40.27000
200.55000,-4.94000,-40.41000
200.65002,-4.94670,-40.54000
200.75002,-4.95330,-40.41000
200.85000,-4.96000,-40.68000
200.95002,-4.96670,-40.68000
201.05000,-4.97330,-40.68000
201.15002,-4.98000,-40.68000
201.25002,-4.98670,-40.81000
201.35000,-4.99330,-40.94000
201.45002,-5.00000,-41.08000
201.55000,-5.00670,-41.08000
201.65002,-5.01330,-41.21000
201.75002,-5.02000,-41.21000
201.85000,-5.02670,-41.35000
201.95002,-5.03330,-41.48000
202.05000,-5.04000,-41.48000
202.15002,-5.04670,-41.62000
202.25002,-5.05330,-41.62000
202.35000,-5.06000,-41.62000
202.45002,-5.06670,-41.75000
202.55000,-5.07330,-41.88000
202.65002,-5.08000,-41.88000
202.75002,-5.08670,-42.02000
202.85000,-5.09330,-42.02000
202.95002,-5.10000,-42.15000
203.05000,-5.10670,-42.15000
203.15002,-5.11330,-42.29000
203.25002,-5.12000,-42.42000
203.35000,-5.12670,-42.42000
203.45002,-5.13330,-42.56000
203.55000,-5.14000,-42.56000
203.65002,-5.14670,-42.69000
203.75002,-5.15330,-42.82000
203.85000,-5.16000,-42.82000
203.95002,-5.16670,-42.96000
204.05000,-5.17330,-42.96000
204.15002,-5.18000,-42.96000
204.25002,-5.18670,-42.96000
204.35000,-5.19330,-43.09000
204.45002,-5.20000,-43.23000
204.55000,-5.20670,-43.36000
204.65002,-5.21330,-43.36000
204.75002,-5.22000,-43.49000
204.85000,-5.22670,-43.49000
204.95002,-5.23330,-43.63000
205.05000,-5.24000,-43.63000
205.15002,-5.24670,-43.63000
205.25002,-5.25330,-43.76000
205.35000,-5.26000,-43.90000
205.45002,-5.26670,-43.90000
205.55000,-5.27330,-44.03000
205.65002,-5.28000,-44.17000
205.75002,-5.28670,-44.17000
205.85000,-5.29330,-44.30000
205.95002,-5.30000,-44.43000
206.05000,-5.30670,-44.43000
206.15002,-5.31330,-44.57000
206.25002,-5.32000,-44.57000
206.35000,-5.32670,-44.57000
206.45002,-5.33330,-44.70000
206.55000,-5.34000,-44.70000
206.65002,-5.34670,-44.84000
206.75002,-5.35330,-44.97000
206.85000,-5.36000,-44.97000
206.95002,-5.36670,-44.97000
207.05000,-5.37330,-45.11000
207.15002,-5.38000,-45.24000
207.25002,-5.38660,-45.37000
207.35000,-5.39330,-45.37000
207.45002,-5.40000,-45.37000
207.55000,-5.40660,-45.51000
207.65002,-5.41330,-45.51000
207.75002,-5.42000,-45.64000
207.85000,-5.42660,-45.78000
207.95002,-5.43330,-45.78000
208.05000,-5.44000,-45.91000
208.15002,-5.44660,-46.05000
208.25002,-5.45330,-46.05000
208.35000,-5.46000,-46.05000
208.45002,-5.46660,-46.18000
208.55000,-5.47330,-46.31000
208.65002,-5.48000,-46.45000
208.75002,-5.48660,-46.45000
208.85000,-5.49330,-46.45000
208.95002,-5.50000,-46.58000
209.05000,-5.50660,-46.58000
209.15002,-5.51330,-46.72000
209.25002,-5.52000,-46.72000
209.35000,-5.52660,-46.85000
209.45002,-5.53330,-46.98000
209.55000,-5.54000,-46.98000
209.65002,-5.54660,-46.98000
209.75002,-5.55330,-47.12000
209.85000,-5.56000,-47.25000
209.95002,-5.56660,-47.39000
210.05000,-5.57330,-47.39000
210.15002,-5.58000,-47.39000
210.25002,-5.58660,-47.52000
210.35000,-5.59330,-47.52000
210.45002,-5.60000,-47.66000
210.55000,-5.60660,-47.66000
210.65002,-5.61330,-47.79000
210.75002,-5.62000,-47.92000
210.85000,-5.62660,-47.92000
210.95002,-5.63330,-48.06000
211.05000,-5.64000,-48.06000
211.15002,-5.64660,-48.06000
211.25002,-5.65330,-48.19000
211.35000,-5.66000,-48.19000
211.45002,-5.66660,-48.33000
211.55000,-5.67330,-48.46000
211.65002,-5.68000,-48.46000
211.75002,-5.68660,-48.60000
211.85000,-5.69330,-48.60000
211.95002,-5.70000,-48.73000
212.05000,-5.70660,-48.86000
212.15002,-5.71330,-48.86000
212.25002,-5.72000,-48.86000
212.35000,-5.72660,-48.86000
212.45002,-5.73330,-49.00000
212.55000,-5.74000,-49.13000
212.65002,-5.74660,-49.13000
212.75002,-5.75330,-49.27000
212.85000,-5.76000,-49.27000
212.95002,-5.76660,-49.54000
213.05000,-5.77330,-49.40000
213.15002,-5.78000,-49.54000
213.25002,-5.78660,-49.54000
213.35000,-5.79330,-49.67000
213.45002,-5.80000,-49.80000
213.55000,-5.80660,-49.94000
213.65002,-5.81330,-49.80000
213.75002,-5.82000,-49.94000
213.85000,-5.82660,-49.94000
213.95002,-5.83330,-50.07000
214.05000,-5.84000,-50.07000
214.15002,-5.84660,-50.21000
214.25002,-5.85330,-50.34000
214.35000,-5.86000,-50.34000
214.45002,-5.86660,-50.47000
214.55000,-5.87330,-50.61000
214.65002,-5.88000,-50.61000
214.75002,-5.88660,-50.74000
214.85000,-5.89330,-50.74000
214.95002,-5.90000,-50.74000
215.05000,-5.90660,-50.74000
215.15002,-5.91330,-50.88000
215.25002,-5.91990,-51.01000
215.35000,-5.92660,-51.01000
215.45002,-5.93330,-51.15000
215.55000,-5.93990,-51.15000
215.65002,-5.94660,-51.28000
215.75002,-5.95330,-51.28000
215.85000,-5.95990,-51.41000
215.95002,-5.96660,-51.41000
216.05000,-5.97330,-51.41000
216.15002,-5.97990,-51.55000
216.25002,-5.98660,-51.68000
216.35000,-5.99330,-51.68000
216.45002,-5.99990,-51.82000
216.55000,-6.00660,-51.82000
216.65002,-6.01330,-51.95000
216.75002,-6.01990,-52.09000
216.85000,-6.02660,-52.09000
216.95002,-6.03330,-52.22000
217.05000,-6.03990,-52.22000
217.15002,-6.04660,-52.35000
217.25002,-6.05330,-52.35000
217.35000,-6.05990,-52.35000
217.45002,-6.06660,-52.49000
217.55000,-6.07330,-52.49000
217.65002,-6.07990,-52.62000
217.75002,-6.08660,-52.62000
217.85000,-6.09330,-52.76000
217.95002,-6.09990,-52.89000
218.05000,-6.10660,-52.89000
218.15002,-6.11330,-52.89000
218.25002,-6.11990,-53.03000
218.35000,-6.12660,-53.16000
218.45002,-6.13330,-53.03000
218.55000,-6.13990,-53.16000
218.65002,-6.14660,-53.16000
218.75002,-6.15330,-53.43000
218.85000,-6.15990,-53.43000
218.95002,-6.16660,-53.56000
219.05000,-6.17330,-53.56000
219.15002,-6.17990,-53.70000
219.25002,-6.18660,-53.70000
219.35000,-6.19330,-53.83000
219.45002,-6.19990,-53.83000
219.55000,-6.20660,-53.83000
219.65002,-6.21330,-53.96000
219.75002,-6.21990,-54.10000
219.85000,-6.22660,-54.10000
219.95002,-6.23330,-54.10000
220.05000,-6.23990,-54.23000
220.15002,-6.24660,-54.37000
220.25002,-6.25330,-54.37000
220.35000,-6.25990,-54.50000
220.45002,-6.26660,-54.50000
220.55000,-6.27330,-54.50000
220.65002,-6.27990,-54.64000
220.75002,-6.28660,-54.64000
220.85000,-6.29330,-54.77000
220.95002,-6.29990,-54.77000
221.05000,-6.30660,-54.90000
221.15002,-6.31330,-54.90000
221.25002,-6.31990,-54.90000
221.35000,-6.32660,-55.04000
221.45002,-6.33330,-55.17000
221.55000,-6.33990,-55.17000
221.65002,-6.34660,-55.31000
221.75002,-6.35330,-55.44000
221.85000,-6.35990,-55.44000
221.95002,-6.36660,-55.58000
222.05000,-6.37330,-55.58000
222.15002,-6.37990,-55.58000
222.25002,-6.38660,-55.71000
222.35000,-6.39330,-55.71000
222.45002,-6.39990,-55.71000
222.55000,-6.40660,-55.84000
222.65002,-6.41330,-55.98000
222.75002,-6.41990,-55.98000
222.85000,-6.42660,-56.11000
222.95002,-6.43320,-56.25000
223.05000,-6.43990,-56.25000
223.15002,-6.44660,-56.25000
223.25002,-6.45320,-56.25000
223.35000,-6.45990,-56.25000
223.45002,-6.46660,-56.38000
223.55000,-6.47320,-56.52000
223.65002,-6.47990,-56.65000
223.75002,-6.48660,-56.65000
223.85000,-6.49320,-56.65000
223.95002,-6.49990,-56.78000
224.05000,-6.50660,-56.78000
224.15002,-6.51320,-56.92000
224.25002,-6.51990,-56.92000
224.35000,-6.52660,-57.05000
224.45002,-6.53320,-57.05000
224.55000,-6.53990,-57.05000
224.65002,-6.54660,-57.19000
224.75002,-6.55320,-57.32000
224.85000,-6.55990,-57.32000
224.95002,-6.56660,-57.45000
225.05002,-6.57320,-57.45000
225.15002,-6.57990,-57.45000
225.25002,-6.58660,-57.59000
225.35000,-6.59320,-57.59000
225.45002,-6.59990,-57.72000
225.55002,-6.60660,-57.86000
225.65002,-6.61320,-57.86000
225.75002,-6.61990,-57.86000
225.85000,-6.62660,-57.99000
225.95002,-6.63320,-57.99000
226.05002,-6.63990,-58.13000
226.15002,-6.64660,-58.13000
226.25002,-6.65320,-58.26000
226.35000,-6.65990,-58.26000
226.45002,-6.66660,-58.39000
226.55002,-6.67320,-58.39000
226.65002,-6.67990,-58.53000
226.75002,-6.68660,-58.53000
226.85000,-6.69320,-58.66000
226.95002,-6.69990,-58.66000
227.05002,-6.70660,-58.80000
227.15002,-6.71320,-58.66000
227.25002,-6.71990,-58.80000
227.35000,-6.72660,-58.93000
227.45002,-6.73320,-58.93000
227.55002,-6.73990,-59.07000
227.65002,-6.74660,-59.20000
227.75002,-6.75320,-59.20000
227.85000,-6.75990,-59.33000
227.95002,-6.76660,-59.33000
228.05002,-6.77320,-59.47000
228.15002,-6.77990,-59.33000
228.25002,-6.78660,-59.47000
228.35000,-6.79320,-59.60000
228.45002,-6.79990,-59.47000
228.55002,-6.80660,-59.47000
228.65002,-6.81320,-59.74000
228.75002,-6.81990,-59.74000
228.85000,-6.82660,-59.87000
228.95002,-6.83320,-60.00000
229.05002,-6.83990,-60.00000
229.15002,-6.84660,-60.00000
229.25002,-6.85320,-60.00000
229.35000,-6.85990,-60.00000
229.45002,-6.86660,-60.14000
229.55002,-6.87320,-60.14000
229.65002,-6.87990,-60.27000
229.75002,-6.88660,-60.54000
229.85000,-6.89320,-60.54000
229.95002,-6.89990,-60.54000
230.05002,-6.90660,-60.54000
230.15002,-6.91320,-60.68000
230.25002,-6.91990,-60.68000
230.35000,-6.92660,-60.68000
230.45002,-6.93320,-60.81000
230.55002,-6.93990,-60.81000
230.65002,-6.94650,-60.81000
230.75002,-6.95320,-60.94000
230.85000,-6.95990,-60.94000
230.95002,-6.96650,-61.08000
231.05002,-6.97320,-61.21000
231.15002,-6.97990,-61.21000
231.25002,-6.98650,-61.08000
231.35000,-6.99320,-61.35000
231.45002,-6.99990,-61.35000
231.55002,-7.00650,-61.48000
231.65002,-7.01320,-61.48000
231.75002,-7.01990,-61.62000
231.85000,-7.02650,-61.62000
231.95002,-7.03320,-61.62000
232.05002,-7.03990,-61.75000
232.15002,-7.04650,-61.75000
232.25002,-7.05320,-61.88000
232.35000,-7.05990,-62.02000
232.45002,-7.06650,-62.02000
232.55002,-7.07320,-62.02000
232.65002,-7.07990,-62.15000
232.75002,-7.08650,-62.15000
232.85000,-7.09320,-62.29000
232.95002,-7.09990,-62.42000
233.05002,-7.10650,-62.42000
233.15002,-7.11320,-62.42000
233.25002,-7.11990,-62.42000
233.35000,-7.12650,-62.56000
233.45002,-7.13320,-62.56000
233.55002,-7.13990,-62.56000
233.65002,-7.14650,-62.69000
233.75002,-7.15320,-62.82000
233.85000,-7.15990,-62.82000
233.95002,-7.16650,-62.96000
234.05002,-7.17320,-62.96000
234.15002,-7.17990,-62.96000
234.25002,-7.18650,-63.09000
234.35000,-7.19320,-63.09000
234.45002,-7.19990,-63.23000
234.55002,-7.20650,-63.23000
234.65002,-7.21320,-63.23000
234.75002,-7.21990,-63.36000
234.85000,-7.22650,-63.36000
234.95002,-7.23320,-63.49000
235.05002,-7.23990,-63.63000
235.15002,-7.24650,-63.63000
235.25002,-7.25320,-63.76000
235.35000,-7.25990,-63.76000
235.45002,-7.26650,-63.90000
235.55002,-7.27320,-63.90000
235.65002,-7.27990,-63.90000
235.75002,-7.28650,-64.03000
235.85000,-7.29320,-64.03000
235.95002,-7.29990,-64.03000
236.05002,-7.30650,-64.17000
236.15002,-7.31320,-64.30000
236.25002,-7.31990,-64.30000
236.35000,-7.32650,-64.43000
236.45002,-7.33320,-64.43000
236.55002,-7.33990,-64.57000
236.65002,-7.34650,-64.43000
236.75002,-7.35320,-64.57000
236.85000,-7.35990,-64.70000
236.95002,-7.36650,-64.70000
237.05002,-7.37320,-64.84000
237.15002,-7.37990,-64.84000
237.25002,-7.38650,-64.84000
237.35000,-7.39320,-64.84000
237.45002,-7.39990,-64.97000
237.55002,-7.40650,-64.97000
237.65002,-7.41320,-65.24000
237.75002,-7.41990,-65.24000
237.85000,-7.42650,-65.24000
237.95002,-7.43320,-65.37000
238.05002,-7.43990,-65.37000
238.15002,-7.44650,-65.37000
238.25002,-7.45320,-65.37000
238.35000,-7.45990,-65.51000
238.45002,-7.46650,-65.64000
238.55002,-7.47320,-65.64000
238.65002,-7.47980,-65.64000
238.75002,-7.48650,-65.91000
238.85000,-7.49320,-65.78000
238.95002,-7.49980,-65.91000
239.05002,-7.50650,-65.91000
239.15002,-7.51320,-66.05000
239.25002,-7.51980,-66.05000
239.35000,-7.52650,-66.05000
239.45002,-7.53320,-66.18000
239.55002,-7.53980,-66.18000
239.65002,-7.54650,-66.31000
239.75002,-7.55320,-66.45000
239.85000,-7.55980,-66.45000
239.95002,-7.56650,-66.45000
240.05002,-7.57320,-66.45000
240.15002,-7.57980,-66.58000
240.25002,-7.58650,-66.58000
240.35000,-7.59320,-66.72000
240.45002,-7.59980,-66.72000
240.55002,-7.60650,-66.85000
240.65002,-7.61320,-66.85000
240.75002,-7.61980,-66.98000
240.85000,-7.62650,-67.12000
240.95002,-7.63320,-67.12000
241.05002,-7.63980,-67.25000
241.15002,-7.64650,-67.25000
241.25002,-7.65320,-67.25000
241.35000,-7.65980,-67.39000
241.45002,-7.66650,-67.39000
241.55002,-7.67320,-67.52000
241.65002,-7.67980,-67.52000
241.75002,-7.68650,-67.66000
241.85000,-7.69320,-67.66000
241.95002,-7.69980,-67.66000
242.05002,-7.70650,-67.66000
242.15002,-7.71320,-67.79000
242.25002,-7.71980,-67.79000
242.35000,-7.72650,-67.92000
242.45002,-7.73320,-67.92000
242.55002,-7.73980,-68.06000
242.65002,-7.74650,-68.19000
242.75002,-7.75320,-68.06000
242.85000,-7.75980,-68.19000
242.95002,-7.76650,-68.19000
243.05002,-7.77320,-68.19000
243.15002,-7.77980,-68.46000
243.25002,-7.78650,-68.46000
243.35000,-7.79320,-68.46000
243.45002,-7.79980,-68.60000
243.55002,-7.80650,-68.60000
243.65002,-7.81320,-68.73000
243.75002,-7.81980,-68.73000
243.85000,-7.82650,-68.86000
243.95002,-7.83320,-68.86000
244.05002,-7.83980,-68.86000
244.15002,-7.84650,-68.86000
244.25002,-7.85320,-69.00000
244.35000,-7.85980,-69.00000
244.45002,-7.86650,-69.13000
244.55002,-7.87320,-69.13000
244.65002,-7.87980,-69.27000
244.75002,-7.88650,-69.27000
244.85000,-7.89320,-69.27000
244.95002,-7.89980,-69.40000
245.05002,-7.90650,-69.54000
245.15002,-7.91320,-69.54000
245.25002,-7.91980,-69.54000
245.35000,-7.92650,-69.54000
245.45002,-7.93320,-69.54000
245.55002,-7.93980,-69.67000
245.65002,-7.94650,-69.67000
245.75002,-7.95320,-69.80000
245.85000,-7.95980,-69.80000
245.95002,-7.96650,-69.94000
246.05002,-7.97320,-70.07000
246.15002,-7.97980,-70.07000
246.25002,-7.98650,-70.21000
246.35000,-7.99310,-70.07000
246.45002,-7.99980,-70.21000
246.55002,-8.00650,-70.21000
246.65002,-8.01310,-70.34000
246.75002,-8.01980,-70.34000
246.85000,-8.02650,-70.47000
246.95002,-8.03310,-70.47000
247.05002,-8.03980,-70.47000
247.15002,-8.04650,-70.74000
247.25002,-8.05310,-70.74000
247.35000,-8.05980,-70.74000
247.45002,-8.06650,-70.74000
247.55002,-8.07310,-70.74000
247.65002,-8.07980,-70.88000
247.75002,-8.08650,-70.88000
247.85000,-8.09310,-71.01000
247.95002,-8.09980,-71.01000
248.05002,-8.10650,-71.15000
248.15002,-8.11310,-71.15000
248.25002,-8.11980,-71.15000
248.35000,-8.12650,-71.15000
248.45002,-8.13310,-71.28000
248.55002,-8.13980,-71.41000
248.65002,-8.14650,-71.55000
248.75002,-8.15310,-71.55000
248.85000,-8.15980,-71.55000
248.95002,-8.16650,-71.55000
249.05002,-8.17310,-71.68000
249.15002,-8.17980,-71.68000
249.25002,-8.18650,-71.82000
249.35000,-8.19310,-71.82000
249.45002,-8.19980,-71.82000
249.55002,-8.20650,-71.82000
249.65002,-8.21310,-71.95000
249.75002,-8.21980,-71.95000
249.85000,-8.22650,-72.22000
249.95002,-8.23310,-72.22000
250.05002,-8.23980,-72.22000
250.15002,-8.24650,-72.22000
250.25002,-8.25310,-72.22000
250.35000,-8.25980,-72.35000
250.45002,-8.26650,-72.35000
250.55002,-8.27310,-72.49000
250.65002,-8.27980,-72.62000
250.75002,-8.28650,-72.62000
250.85000,-8.29310,-72.62000
250.95002,-8.29980,-72.76000
251.05002,-8.30650,-72.76000
251.15002,-8.31310,-72.89000
251.25002,-8.31980,-72.89000
251.35000,-8.32650,-73.03000
251.45002,-8.33310,-73.03000
251.55002,-8.33980,-73.03000
251.65002,-8.34650,-73.03000
251.75002,-8.35310,-73.16000
251.85000,-8.35980,-73.29000
251.95002,-8.36650,-73.29000
252.05002,-8.37310,-73.43000
252.15002,-8.37980,-73.43000
252.25002,-8.38650,-73.43000
252.35000,-8.39310,-73.43000
252.45002,-8.39980,-73.56000
252.55002,-8.40650,-73.70000
252.65002,-8.41310,-73.70000
252.75002,-8.41980,-73.70000
252.85000,-8.42650,-73.70000
252.95002,-8.43310,-73.83000
253.05002,-8.43980,-73.83000
253.15002,-8.44650,-73.96000
253.25002,-8.45310,-73.96000
253.35000,-8.45980,-73.96000
253.45002,-8.46650,-74.10000
253.55002,-8.47310,-74.23000
253.65002,-8.47980,-74.10000
253.75002,-8.48650,-74.23000
253.85000,-8.49310,-74.23000
253.95002,-8.49980,-74.37000
254.05002,-8.50640,-74.50000
254.15002,-8.51310,-74.50000
254.25002,-8.51980,-74.50000
254.35000,-8.52640,-74.64000
254.45002,-8.53310,-74.64000
254.55002,-8.53980,-74.77000
254.65002,-8.54640,-74.77000
254.75002,-8.55310,-74.77000
254.85000,-8.55980,-74.90000
254.95002,-8.56640,-74.90000
255.05002,-8.57310,-75.04000
255.15002,-8.57980,-75.04000
255.25002,-8.58640,-75.04000
255.35000,-8.59310,-75.17000
255.45002,-8.59980,-75.04000
255.55002,-8.60640,-75.17000
255.65002,-8.61310,-75.31000
255.75002,-8.61980,-75.31000
255.85000,-8.62640,-75.44000
255.95002,-8.63310,-75.44000
256.05002,-8.63980,-75.58000
256.15003,-8.64640,-75.58000
256.25000,-8.65310,-75.58000
256.35000,-8.65980,-75.58000
256.45002,-8.66640,-75.58000
256.55002,-8.67310,-75.84000
256.65003,-8.67980,-75.84000
256.75000,-8.68640,-75.98000
256.85000,-8.69310,-75.98000
256.95002,-8.69980,-75.98000
257.05002,-8.70640,-76.11000
257.15003,-8.71310,-76.11000
257.25000,-8.71980,-76.25000
257.35000,-8.72640,-76.25000
257.45002,-8.73310,-76.25000
257.55002,-8.73980,-76.25000
257.65003,-8.74640,-76.38000
257.75000,-8.75310,-76.52000
257.85000,-8.75980,-76.52000
257.95002,-8.76640,-76.65000
258.05002,-8.77310,-76.65000
258.15003,-8.77980,-76.65000
258.25000,-8.78640,-76.78000
258.35000,-8.79310,-76.78000
258.45002,-8.79980,-76.78000
258.55002,-8.80640,-76.92000
258.65003,-8.81310,-76.92000
258.75000,-8.81980,-76.92000
258.85000,-8.82640,-77.19000
258.95002,-8.83310,-77.05000
259.05002,-8.83980,-77.19000
259.15003,-8.84640,-77.19000
259.25000,-8.85310,-77.32000
259.35000,-8.85980,-77.45000
259.45002,-8.86640,-77.45000
259.55002,-8.87310,-77.45000
259.65003,-8.87980,-77.45000
259.75000,-8.88640,-77.59000
259.85000,-8.89310,-77.59000
259.95002,-8.89980,-77.72000
260.05002,-8.90640,-77.72000
260.15003,-8.91310,-77.86000
260.25000,-8.91980,-77.86000
260.35000,-8.92640,-77.99000
260.45002,-8.93310,-77.99000
260.55002,-8.93980,-78.13000
260.65003,-8.94640,-78.13000
260.75000,-8.95310,-78.13000
260.85000,-8.95980,-78.13000
260.95002,-8.96640,-78.26000
261.05002,-8.97310,-78.39000
261.15003,-8.97980,-78.26000
261.25000,-8.98640,-78.39000
261.35000,-8.99310,-78.53000
261.45002,-8.99980,-78.53000
261.55002,-9.00640,-78.53000
261.65003,-9.01310,-78.53000
261.75000,-9.01980,-78.66000
261.85000,-9.02640,-78.66000
261.95002,-9.03310,-78.80000
262.05002,-9.03970,-78.93000
262.15003,-9.04640,-78.93000
262.25000,-9.05310,-79.07000
262.35000,-9.05970,-79.07000
262.45000,-9.06640,-79.07000
262.55003,-9.07310,-79.07000
262.65003,-9.07970,-79.20000
262.75000,-9.08640,-79.33000
262.85000,-9.09310,-79.20000
262.95000,-9.09970,-79.33000
263.05003,-9.10640,-79.47000
263.15003,-9.11310,-79.47000
263.25000,-9.11970,-79.60000
263.35000,-9.12640,-79.60000
263.45000,-9.13310,-79.74000
263.55003,-9.13970,-79.74000
263.65003,-9.14640,-79.60000
263.75000,-9.15310,-79.74000
263.85000,-9.15970,-79.74000
263.95000,-9.16640,-79.87000
264.05003,-9.17310,-80.00000
264.15003,-9.17970,-80.00000
264.25000,-9.18640,-80.14000
264.35000,-9.19310,-80.14000
264.45000,-9.19970,-80.14000
264.55003,-9.20640,-80.14000
264.65003,-9.21310,-80.27000
264.75000,-9.21970,-80.41000
264.85000,-9.22640,-80.41000
264.95000,-9.23310,-80.41000
265.05003,-9.23970,-80.41000
265.15003,-9.24640,-80.54000
265.25000,-9.25310,-80.54000
265.35000,-9.25970,-80.68000
265.45000,-9.26640,-80.68000
265.55003,-9.27310,-80.68000
265.65003,-9.27970,-80.81000
265.75000,-9.28640,-80.94000
265.85000,-9.29310,-80.94000
265.95000,-9.29970,-81.08000
266.05003,-9.30640,-81.08000
266.15003,-9.31310,-81.08000
266.25000,-9.31970,-81.08000
266.35000,-9.32640,-81.21000
266.45000,-9.33310,-81.21000
266.55003,-9.33970,-81.21000
266.65003,-9.34640,-81.35000
266.75000,-9.35310,-81.35000
266.85000,-9.35970,-81.48000
266.95000,-9.36640,-81.62000
267.05003,-9.37310,-81.62000
267.15003,-9.37970,-81.62000
267.25000,-9.38640,-81.62000
267.35000,-9.39310,-81.75000
267.45000,-9.39970,-81.62000
267.55003,-9.40640,-81.88000
267.65003,-9.41310,-81.88000
267.75000,-9.41970,-82.02000
267.85000,-9.42640,-81.88000
267.95000,-9.43310,-82.02000
268.05003,-9.43970,-82.15000
268.15003,-9.44640,-82.15000
268.25000,-9.45310,-82.29000
268.35000,-9.45970,-82.29000
268.45000,-9.46640,-82.29000
268.55003,-9.47310,-82.29000
268.65003,-9.47970,-82.29000
268.75000,-9.48640,-82.42000
268.85000,-9.49310,-82.56000
268.95000,-9.49970,-82.56000
269.05003,-9.50640,-82.56000
269.15003,-9.51310,-82.69000
269.25000,-9.51970,-82.69000
269.35000,-9.52640,-82.82000
269.45000,-9.53310,-82.82000
269.55003,-9.53970,-82.96000
269.65003,-9.54640,-82.96000
269.75000,-9.55300,-82.96000
269.85000,-9.55970,-82.96000
269.95000,-9.56640,-83.09000
270.05003,-9.57300,-83.09000
270.15003,-9.57970,-83.23000
270.25000,-9.58640,-83.23000
270.35000,-9.59300,-83.36000
270.45000,-9.59970,-83.36000
270.55003,-9.60640,-83.49000
270.65003,-9.61300,-83.49000
270.75000,-9.61970,-83.63000
270.85000,-9.62640,-83.63000
270.95000,-9.63300,-83.63000
271.05003,-9.63970,-83.63000
271.15003,-9.64640,-83.76000
271.25000,-9.65300,-83.76000
271.35000,-9.65970,-83.90000
271.45000,-9.66640,-83.90000
271.55003,-9.67300,-83.90000
271.65003,-9.67970,-83.90000
271.75000,-9.68640,-84.03000
271.85000,-9.69300,-84.03000
271.95000,-9.69970,-84.17000
272.05003,-9.70640,-84.17000
272.15003,-9.71300,-84.30000
272.25000,-9.71970,-84.30000
272.35000,-9.72640,-84.30000
272.45000,-9.73300,-84.30000
272.55003,-9.73970,-84.43000
272.65003,-9.74640,-84.43000
272.75000,-9.75300,-84.43000
272.85000,-9.75970,-84.57000
272.95000,-9.76640,-84.70000
273.05003,-9.77300,-84.70000
273.15003,-9.77970,-84.70000
273.25000,-9.78640,-84.84000
273.35000,-9.79300,-84.84000
273.45000,-9.79970,-84.97000
273.55003,-9.80640,-84.97000
273.65003,-9.81300,-84.97000
273.75000,-9.81970,-84.97000
273.85000,-9.82640,-85.11000
273.95000,-9.83300,-85.11000
274.05003,-9.83970,-85.11000
274.15003,-9.84640,-85.24000
274.25000,-9.85300,-85.24000
274.35000,-9.85970,-85.37000
274.45000,-9.86640,-85.24000
274.55003,-9.87300,-85.24000
274.65003,-9.87970,-85.37000
274.75000,-9.88640,-85.37000
274.85000,-9.89300,-85.51000
274.95000,-9.89970,-85.51000
275.05003,-9.90640,-85.64000
275.15003,-9.91300,-85.64000
275.25000,-9.91970,-85.64000
275.35000,-9.92640,-85.78000
275.45000,-9.93300,-85.78000
275.55003,-9.93970,-85.78000
275.65003,-9.94640,-85.91000
275.75000,-9.95300,-86.05000
275.85000,-9.95970,-86.05000
275.95000,-9.96640,-86.05000
276.05003,-9.97300,-86.05000
276.15003,-9.97970,-86.18000
276.25000,-9.98640,-86.18000
276.35000,-9.99300,-86.18000
276.45000,-9.99970,-86.18000
276.50000,-10.00300,-86.18000
