Time,Extension,Load
(sec),(mm),(N)
0.00000,0.00000,-0.27000
0.10000,-0.00290,-0.27000
0.20000,-0.00620,-0.27000
0.30000,-0.00960,-0.41000
0.40000,-0.01290,-0.54000
0.50000,-0.01620,-0.41000
0.60000,-0.01960,-0.54000
0.70000,-0.02290,-0.54000
0.80000,-0.02620,-0.54000
0.90000,-0.02960,-0.54000
1.00000,-0.03290,-0.54000
1.10000,-0.03620,-0.54000
1.20000,-0.03960,-0.41000
1.30000,-0.04290,-0.41000
1.40000,-0.04620,-0.41000
1.50000,-0.04960,-0.41000
1.60000,-0.05290,-0.41000
1.70000,-0.05620,-0.54000
1.80000,-0.05960,-0.41000
1.90000,-0.06290,-0.41000
2.00000,-0.06620,-0.54000
2.10000,-0.06960,-0.54000
2.20000,-0.07290,-0.41000
2.30000,-0.07620,-0.27000
2.40000,-0.07960,-0.54000
2.50000,-0.08290,-0.54000
2.60000,-0.08620,-0.54000
2.70000,-0.08960,-0.54000
2.80000,-0.09290,-0.68000
2.90000,-0.09620,-0.68000
3.00000,-0.09960,-0.68000
3.10000,-0.10290,-0.68000
3.20000,-0.10620,-0.54000
3.30000,-0.10960,-0.68000
3.40000,-0.11290,-0.54000
3.50000,-0.11620,-0.54000
3.60000,-0.11960,-0.54000
3.70000,-0.12290,-0.68000
3.80000,-0.12620,-0.68000
3.90000,-0.12960,-0.81000
4.00000,-0.13290,-0.68000
4.10000,-0.13620,-0.68000
4.20000,-0.13960,-0.68000
4.30000,-0.14290,-0.68000
4.40000,-0.14620,-0.68000
4.50000,-0.14960,-0.68000
4.60000,-0.15290,-0.68000
4.70000,-0.15620,-0.81000
4.80000,-0.15960,-0.81000
4.90000,-0.16290,-0.81000
5.00000,-0.16620,-0.81000
5.10000,-0.16960,-0.81000
5.20000,-0.17290,-0.81000
5.30000,-0.17620,-0.68000
5.40000,-0.17960,-0.68000
5.50000,-0.18290,-0.81000
5.60000,-0.18620,-0.81000
5.70000,-0.18960,-0.94000
5.80000,-0.19290,-0.94000
5.90000,-0.19620,-0.94000
6.00000,-0.19960,-1.08000
6.10000,-0.20290,-1.08000
6.20000,-0.20620,-1.08000
6.30000,-0.20960,-1.08000
6.40000,-0.21290,-1.21000
6.50000,-0.21620,-1.21000
6.60000,-0.21950,-1.21000
6.70000,-0.22290,-1.08000
6.80000,-0.22620,-1.08000
6.90000,-0.22950,-1.21000
7.00000,-0.23290,-1.21000
7.10000,-0.23620,-1.21000
7.20000,-0.23950,-1.21000
7.30000,-0.24290,-1.21000
7.40000,-0.24620,-1.21000
7.50000,-0.24950,-1.21000
7.60000,-0.25290,-1.21000
7.70000,-0.25620,-1.21000
7.80000,-0.25950,-1.35000
7.90000,-0.26290,-1.35000
8.00000,-0.26620,-1.35000
8.10000,-0.26950,-1.35000
8.20000,-0.27290,-1.35000
8.30000,-0.27620,-1.35000
8.40000,-0.27950,-1.35000
8.50000,-0.28290,-1.35000
8.60000,-0.28620,-1.35000
8.70000,-0.28950,-1.35000
8.80000,-0.29290,-1.35000
8.90000,-0.29620,-1.35000
9.00000,-0.29950,-1.35000
9.10000,-0.30290,-1.48000
9.20000,-0.30620,-1.48000
9.30000,-0.30950,-1.48000
9.40000,-0.31290,-1.48000
9.50000,-0.31620,-1.35000
9.60000,-0.31950,-1.48000
9.70000,-0.32290,-1.48000
9.80000,-0.32620,-1.48000
9.90000,-0.32950,-1.48000
10.00000,-0.33290,-1.48000
10.10000,-0.33620,-1.48000
10.20000,-0.33950,-1.48000
10.30000,-0.34290,-1.48000
10.40000,-0.34620,-1.48000
10.50000,-0.34950,-1.62000
10.60000,-0.35290,-1.48000
10.70000,-0.35620,-1.48000
10.80000,-0.35950,-1.48000
10.90000,-0.36290,-1.62000
11.00000,-0.36620,-1.62000
11.10000,-0.36950,-1.75000
11.20000,-0.37290,-1.62000
11.30000,-0.37620,-1.62000
11.40000,-0.37950,-1.62000
11.50000,-0.38290,-1.62000
11.60000,-0.38620,-1.62000
11.70000,-0.38950,-1.75000
11.80000,-0.39290,-1.88000
11.90000,-0.39620,-1.88000
12.00000,-0.39950,-1.75000
12.10000,-0.40290,-1.88000
12.20000,-0.40620,-1.88000
12.30000,-0.40950,-1.88000
12.40000,-0.41290,-1.75000
12.50000,-0.41620,-1.88000
12.60000,-0.41950,-1.88000
12.70000,-0.42290,-2.02000
12.80000,-0.42620,-1.88000
12.90000,-0.42950,-1.88000
13.00000,-0.43290,-2.02000
13.10000,-0.43620,-1.88000
13.20000,-0.43950,-1.88000
13.30000,-0.44290,-1.88000
13.40000,-0.44620,-1.88000
13.50000,-0.44950,-1.88000
13.60000,-0.45290,-2.02000
13.70000,-0.45620,-2.02000
13.80000,-0.45950,-2.02000
13.90000,-0.46290,-2.02000
14.00000,-0.46620,-2.02000
14.10000,-0.46950,-2.02000
14.20000,-0.47290,-2.02000
14.30000,-0.47620,-2.02000
14.40000,-0.47950,-2.02000
14.50000,-0.48290,-2.15000
14.60000,-0.48620,-2.15000
14.70000,-0.48950,-2.15000
14.80000,-0.49290,-2.15000
14.90000,-0.49620,-2.15000
15.00000,-0.49950,-2.15000
15.10000,-0.50290,-2.15000
15.20000,-0.50620,-2.15000
15.30000,-0.50950,-2.15000
15.40000,-0.51290,-2.15000
15.50000,-0.51620,-2.15000
15.60000,-0.51950,-2.15000
15.70000,-0.52290,-2.15000
15.80000,-0.52620,-2.29000
15.90000,-0.52950,-2.29000
16.00000,-0.53290,-2.29000
16.10000,-0.53620,-2.29000
16.20000,-0.53950,-2.15000
16.30000,-0.54290,-2.29000
16.40000,-0.54620,-2.29000
16.50000,-0.54950,-2.29000
16.60000,-0.55290,-2.29000
16.70000,-0.55620,-2.29000
16.80000,-0.55950,-2.42000
16.90000,-0.56290,-2.29000
17.00000,-0.56620,-2.29000
17.10000,-0.56950,-2.29000
17.20000,-0.57290,-2.42000
17.30000,-0.57620,-2.29000
17.40000,-0.57950,-2.42000
17.50000,-0.58290,-2.29000
17.60000,-0.58620,-2.29000
17.70000,-0.58950,-2.42000
17.80000,-0.59290,-2.42000
17.90000,-0.59620,-2.42000
18.00000,-0.59950,-2.42000
18.10000,-0.60290,-2.42000
18.20000,-0.60620,-2.42000
18.30000,-0.60950,-2.42000
18.40000,-0.61290,-2.42000
18.50000,-0.61620,-2.42000
18.60000,-0.61950,-2.56000
18.70000,-0.62290,-2.56000
18.80000,-0.62620,-2.56000
18.90000,-0.62950,-2.42000
19.00000,-0.63290,-2.42000
19.10000,-0.63620,-2.42000
19.20000,-0.63950,-2.69000
19.30000,-0.64290,-2.56000
19.40000,-0.64620,-2.56000
19.50000,-0.64950,-2.56000
19.60000,-0.65290,-2.56000
19.70000,-0.65620,-2.56000
19.80000,-0.65950,-2.56000
19.90000,-0.66290,-2.69000
20.00000,-0.66620,-2.69000
20.10000,-0.66950,-2.69000
20.20000,-0.67290,-2.69000
20.30000,-0.67620,-2.69000
20.40000,-0.67950,-2.69000
20.50000,-0.68290,-2.69000
20.60000,-0.68620,-2.69000
20.70000,-0.68950,-2.82000
20.80000,-0.69290,-2.69000
20.90000,-0.69620,-2.69000
21.00000,-0.69950,-2.69000
21.10000,-0.70290,-2.69000
21.20000,-0.70620,-2.69000
21.30000,-0.70950,-2.82000
21.40000,-0.71290,-2.82000
21.50000,-0.71620,-2.82000
21.60000,-0.71950,-2.82000
21.70000,-0.72290,-2.82000
21.80000,-0.72620,-2.82000
21.90000,-0.72950,-2.82000
22.00000,-0.73290,-2.82000
22.10000,-0.73620,-2.82000
22.20000,-0.73950,-2.96000
22.30000,-0.74280,-2.82000
22.40000,-0.74620,-2.82000
22.50000,-0.74950,-2.82000
22.60000,-0.75280,-2.96000
22.70000,-0.75620,-2.96000
22.80000,-0.75950,-2.96000
22.90000,-0.76280,-2.96000
23.00000,-0.76620,-2.82000
23.10000,-0.76950,-2.96000
23.20000,-0.77280,-2.96000
23.30000,-0.77620,-2.96000
23.40000,-0.77950,-2.96000
23.50000,-0.78280,-2.96000
23.60000,-0.78620,-2.96000
23.70000,-0.78950,-3.09000
23.80000,-0.79280,-2.96000
23.90000,-0.79620,-3.09000
24.00000,-0.79950,-2.96000
24.10000,-0.80280,-3.09000
24.20000,-0.80620,-3.23000
24.30000,-0.80950,-3.09000
24.40000,-0.81280,-3.09000
24.50000,-0.81620,-3.09000
24.60000,-0.81950,-3.09000
24.70000,-0.82280,-3.23000
24.80000,-0.82620,-3.09000
24.90000,-0.82950,-3.23000
25.00000,-0.83280,-3.23000
25.10000,-0.83620,-3.09000
25.20000,-0.83950,-3.23000
25.30000,-0.84280,-3.23000
25.40000,-0.84620,-3.09000
25.50000,-0.84950,-3.23000
25.60000,-0.85280,-3.23000
25.70000,-0.85620,-3.09000
25.80000,-0.85950,-3.23000
25.90000,-0.86280,-3.36000
26.00000,-0.86620,-3.23000
26.10000,-0.86950,-3.36000
26.20000,-0.87280,-3.36000
26.30000,-0.87620,-3.36000
26.40000,-0.87950,-3.23000
26.50000,-0.88280,-3.36000
26.60000,-0.88620,-3.36000
26.70000,-0.88950,-3.36000
26.80000,-0.89280,-3.36000
26.90000,-0.89620,-3.49000
27.00000,-0.89950,-3.36000
27.10000,-0.90280,-3.36000
27.20000,-0.90620,-3.49000
27.30000,-0.90950,-3.49000
27.40000,-0.91280,-3.36000
27.50000,-0.91620,-3.36000
27.60000,-0.91950,-3.36000
27.70000,-0.92280,-3.36000
27.80000,-0.92620,-3.49000
27.90000,-0.92950,-3.49000
28.00000,-0.93280,-3.49000
28.10000,-0.93620,-3.49000
28.20000,-0.93950,-3.63000
28.30000,-0.94280,-3.63000
28.40000,-0.94620,-3.49000
28.50000,-0.94950,-3.63000
28.60000,-0.95280,-3.63000
28.70000,-0.95620,-3.63000
28.80000,-0.95950,-3.63000
28.90000,-0.96280,-3.76000
29.00000,-0.96620,-3.63000
29.10000,-0.96950,-3.76000
29.20000,-0.97280,-3.76000
29.30000,-0.97620,-3.63000
29.40000,-0.97950,-3.49000
29.50000,-0.98280,-3.63000
29.60000,-0.98620,-3.63000
29.70000,-0.98950,-3.63000
29.80000,-0.99280,-3.63000
29.90000,-0.99620,-3.76000
30.00000,-0.99950,-3.76000
30.10000,-1.00280,-3.90000
30.20000,-1.00620,-3.76000
30.30000,-1.00950,-3.90000
30.40000,-1.01280,-3.76000
30.50000,-1.01620,-3.76000
30.60000,-1.01950,-3.76000
30.70000,-1.02280,-4.03000
30.80000,-1.02620,-4.03000
30.90000,-1.02950,-4.03000
31.00000,-1.03280,-4.03000
31.10000,-1.03620,-3.90000
31.20000,-1.03950,-4.03000
31.30000,-1.04280,-3.90000
31.40000,-1.04620,-3.90000
31.50000,-1.04950,-3.90000
31.60000,-1.05280,-3.90000
31.70000,-1.05620,-4.03000
31.80000,-1.05950,-4.03000
31.90000,-1.06280,-4.03000
32.00000,-1.06620,-4.03000
32.10000,-1.06950,-4.03000
32.20000,-1.07280,-4.17000
32.30000,-1.07620,-4.17000
32.40000,-1.07950,-4.17000
32.50000,-1.08280,-4.17000
32.60000,-1.08620,-4.17000
32.70000,-1.08950,-4.17000
32.80000,-1.09280,-4.30000
32.90000,-1.09620,-4.17000
33.00000,-1.09950,-4.17000
33.10000,-1.10280,-4.17000
33.20000,-1.10620,-4.30000
33.30000,-1.10950,-4.30000
33.40000,-1.11280,-4.30000
33.50000,-1.11620,-4.30000
33.60000,-1.11950,-4.30000
33.70000,-1.12280,-4.30000
33.80000,-1.12620,-4.17000
33.90000,-1.12950,-4.17000
34.00000,-1.13280,-4.30000
34.10000,-1.13620,-4.43000
34.20000,-1.13950,-4.43000
34.30000,-1.14280,-4.43000
34.40000,-1.14620,-4.43000
34.50000,-1.14950,-4.43000
34.60000,-1.15280,-4.43000
34.70000,-1.15620,-4.43000
34.80000,-1.15950,-4.57000
34.90000,-1.16280,-4.57000
35.00000,-1.16620,-4.57000
35.10000,-1.16950,-4.57000
35.20000,-1.17280,-4.57000
35.30000,-1.17620,-4.57000
35.40000,-1.17950,-4.57000
35.50000,-1.18280,-4.70000
35.60000,-1.18620,-4.57000
35.70000,-1.18950,-4.70000
35.80000,-1.19280,-4.57000
35.90000,-1.19620,-4.57000
36.00000,-1.19950,-4.70000
36.10000,-1.20280,-4.84000
36.20000,-1.20620,-4.70000
36.30000,-1.20950,-4.70000
36.40000,-1.21280,-4.70000
36.50000,-1.21620,-4.70000
36.60000,-1.21950,-4.70000
36.70000,-1.22280,-4.70000
36.80000,-1.22620,-4.84000
36.90000,-1.22950,-4.84000
37.00000,-1.23280,-4.84000
37.10000,-1.23620,-4.84000
37.20000,-1.23950,-4.84000
37.30000,-1.24280,-4.84000
37.40000,-1.24620,-4.97000
37.50000,-1.24950,-4.97000
37.60000,-1.25280,-4.97000
37.70000,-1.25620,-4.97000
37.80000,-1.25950,-4.97000
37.90000,-1.26280,-5.11000
38.00000,-1.26610,-4.97000
38.10000,-1.26950,-4.97000
38.20000,-1.27280,-4.97000
38.30000,-1.27610,-4.97000
38.40000,-1.27950,-5.11000
38.50000,-1.28280,-4.97000
38.60000,-1.28610,-4.97000
38.70000,-1.28950,-5.11000
38.80000,-1.29280,-5.24000
38.90000,-1.29610,-5.11000
39.00000,-1.29950,-5.24000
39.10000,-1.30280,-5.24000
39.20000,-1.30610,-5.11000
39.30000,-1.30950,-5.24000
39.40000,-1.31280,-5.24000
39.50000,-1.31610,-5.24000
39.60000,-1.31950,-5.24000
39.70000,-1.32280,-5.37000
39.80000,-1.32610,-5.24000
39.90000,-1.32950,-5.37000
40.00000,-1.33280,-5.37000
40.10000,-1.33610,-5.37000
40.20000,-1.33950,-5.37000
40.30000,-1.34280,-5.37000
40.40000,-1.34610,-5.37000
40.50000,-1.34950,-5.24000
40.60000,-1.35280,-5.37000
40.70000,-1.35610,-5.37000
40.80000,-1.35950,-5.51000
40.90000,-1.36280,-5.51000
41.00000,-1.36610,-5.51000
41.10000,-1.36950,-5.51000
41.20000,-1.37280,-5.51000
41.30000,-1.37610,-5.51000
41.40000,-1.37950,-5.51000
41.50000,-1.38280,-5.64000
41.60000,-1.38610,-5.64000
41.70000,-1.38950,-5.64000
41.80000,-1.39280,-5.64000
41.90000,-1.39610,-5.64000
42.00000,-1.39950,-5.78000
42.10000,-1.40280,-5.64000
42.20000,-1.40610,-5.78000
42.30000,-1.40950,-5.78000
42.40000,-1.41280,-5.78000
42.50000,-1.41610,-5.64000
42.60000,-1.41950,-5.78000
42.70000,-1.42280,-5.78000
42.80000,-1.42610,-5.78000
42.90000,-1.42950,-5.78000
43.00000,-1.43280,-5.91000
43.10000,-1.43610,-5.78000
43.20000,-1.43950,-5.78000
43.30000,-1.44280,-5.91000
43.40000,-1.44610,-5.91000
43.50000,-1.44950,-5.91000
43.60000,-1.45280,-5.91000
43.70000,-1.45610,-5.91000
43.80000,-1.45950,-6.05000
43.90000,-1.46280,-6.05000
44.00000,-1.46610,-6.05000
44.10000,-1.46950,-6.05000
44.20000,-1.47280,-6.05000
44.30000,-1.47610,-6.18000
44.40000,-1.47950,-6.18000
44.50000,-1.48280,-6.18000
44.60000,-1.48610,-6.05000
44.70000,-1.48950,-6.18000
44.80000,-1.49280,-6.05000
44.90000,-1.49610,-6.18000
45.00000,-1.49950,-6.18000
45.10000,-1.50280,-6.18000
45.20000,-1.50610,-6.18000
45.30000,-1.50950,-6.18000
45.40000,-1.51280,-6.18000
45.50000,-1.51610,-6.18000
45.60000,-1.51950,-6.31000
45.70000,-1.52280,-6.31000
45.80000,-1.52610,-6.31000
45.90000,-1.52950,-6.31000
46.00000,-1.53280,-6.45000
46.10000,-1.53610,-6.45000
46.20000,-1.53950,-6.45000
46.30000,-1.54280,-6.45000
46.40000,-1.54610,-6.45000
46.50000,-1.54950,-6.58000
46.60000,-1.55280,-6.45000
46.70000,-1.55610,-6.45000
46.80000,-1.55950,-6.58000
46.90000,-1.56280,-6.58000
47.00000,-1.56610,-6.58000
47.10000,-1.56950,-6.58000
47.20000,-1.57280,-6.58000
47.30000,-1.57610,-6.58000
47.40000,-1.57950,-6.58000
47.50000,-1.58280,-6.58000
47.60000,-1.58610,-6.58000
47.70000,-1.58950,-6.72000
47.80000,-1.59280,-6.72000
47.90000,-1.59610,-6.72000
48.00000,-1.59950,-6.85000
48.10000,-1.60280,-6.85000
48.20000,-1.60610,-6.85000
48.30000,-1.60950,-6.85000
48.40000,-1.61280,-6.85000
48.50000,-1.61610,-6.85000
48.60000,-1.61950,-6.85000
48.70000,-1.62280,-6.98000
48.80000,-1.62610,-6.98000
48.90000,-1.62950,-6.98000
49.00000,-1.63280,-6.98000
49.10000,-1.63610,-6.98000
49.20000,-1.63950,-6.98000
49.30000,-1.64280,-6.98000
49.40000,-1.64610,-6.98000
49.50000,-1.64950,-6.98000
49.60000,-1.65280,-7.12000
49.70000,-1.65610,-6.98000
49.80000,-1.65950,-7.12000
49.90000,-1.66280,-7.25000
50.00000,-1.66610,-7.12000
50.10000,-1.66950,-7.12000
50.20000,-1.67280,-7.12000
50.30000,-1.67610,-7.25000
50.40000,-1.67950,-7.25000
50.50000,-1.68280,-7.25000
50.60000,-1.68610,-7.12000
50.70000,-1.68950,-7.39000
50.80000,-1.69280,-7.39000
50.90000,-1.69610,-7.25000
51.00000,-1.69950,-7.39000
51.10000,-1.70280,-7.39000
51.20000,-1.70610,-7.39000
51.30000,-1.70950,-7.39000
51.40000,-1.71280,-7.39000
51.50000,-1.71610,-7.52000
51.60000,-1.71950,-7.52000
51.70000,-1.72280,-7.52000
51.80000,-1.72610,-7.52000
51.90000,-1.72950,-7.52000
52.00000,-1.73280,-7.52000
52.10000,-1.73610,-7.52000
52.20000,-1.73950,-7.52000
52.30000,-1.74280,-7.66000
52.40000,-1.74610,-7.66000
52.50000,-1.74950,-7.66000
52.60000,-1.75280,-7.66000
52.70000,-1.75610,-7.66000
52.80000,-1.75950,-7.66000
52.90000,-1.76280,-7.66000
53.00000,-1.76610,-7.79000
53.10000,-1.76950,-7.79000
53.20000,-1.77280,-7.79000
53.30000,-1.77610,-7.79000
53.40000,-1.77940,-7.79000
53.50000,-1.78280,-7.92000
53.60000,-1.78610,-7.79000
53.70000,-1.78940,-7.92000
53.80000,-1.79280,-8.06000
53.90000,-1.79610,-8.06000
54.00000,-1.79940,-7.92000
54.10000,-1.80280,-8.06000
54.20000,-1.80610,-7.92000
54.30000,-1.80940,-8.06000
54.40000,-1.81280,-8.06000
54.50000,-1.81610,-8.06000
54.60000,-1.81940,-8.06000
54.70000,-1.82280,-8.06000
54.80000,-1.82610,-8.06000
54.90000,-1.82940,-8.19000
55.00000,-1.83280,-8.33000
55.10000,-1.83610,-8.33000
55.20000,-1.83940,-8.33000
55.30000,-1.84280,-8.33000
55.40000,-1.84610,-8.33000
55.50000,-1.84940,-8.33000
55.60000,-1.85280,-8.33000
55.70000,-1.85610,-8.33000
55.80000,-1.85940,-8.33000
55.90000,-1.86280,-8.46000
56.00000,-1.86610,-8.33000
56.10000,-1.86940,-8.46000
56.20000,-1.87280,-8.46000
56.30000,-1.87610,-8.46000
56.40000,-1.87940,-8.60000
56.50000,-1.88280,-8.60000
56.60000,-1.88610,-8.46000
56.70000,-1.88940,-8.46000
56.80000,-1.89280,-8.46000
56.90000,-1.89610,-8.60000
57.00000,-1.89940,-8.60000
57.10000,-1.90280,-8.73000
57.20000,-1.90610,-8.60000
57.30000,-1.90940,-8.73000
57.40000,-1.91280,-8.73000
57.50000,-1.91610,-8.73000
57.60000,-1.91940,-8.73000
57.70000,-1.92280,-8.86000
57.80000,-1.92610,-8.86000
57.90000,-1.92940,-8.86000
58.00000,-1.93280,-8.86000
58.10000,-1.93610,-8.86000
58.20000,-1.93940,-8.86000
58.30000,-1.94280,-9.00000
58.40000,-1.94610,-9.00000
58.50000,-1.94940,-9.00000
58.60000,-1.95280,-9.00000
58.70000,-1.95610,-8.86000
58.80000,-1.95940,-9.00000
58.90000,-1.96280,-9.00000
59.00000,-1.96610,-9.00000
59.10000,-1.96940,-9.13000
59.20000,-1.97280,-9.13000
59.30000,-1.97610,-9.13000
59.40000,-1.97940,-9.13000
59.50000,-1.98280,-9.13000
59.60000,-1.98610,-9.13000
59.70000,-1.98940,-9.27000
59.80000,-1.99280,-9.27000
59.90000,-1.99610,-9.27000
60.00000,-1.99940,-9.40000
60.10000,-2.00280,-9.27000
60.20000,-2.00610,-9.40000
60.30000,-2.00940,-9.40000
60.40000,-2.01280,-9.40000
60.50000,-2.01610,-9.40000
60.60000,-2.01940,-9.40000
60.70000,-2.02280,-9.40000
60.80000,-2.02610,-9.40000
60.90000,-2.02940,-9.40000
61.00000,-2.03280,-9.54000
61.10000,-2.03610,-9.54000
61.20000,-2.03940,-9.54000
61.30000,-2.04280,-9.54000
61.40000,-2.04610,-9.54000
61.50000,-2.04940,-9.54000
61.60000,-2.05280,-9.54000
61.70000,-2.05610,-9.54000
61.80000,-2.05940,-9.67000
61.90000,-2.06280,-9.67000
62.00000,-2.06610,-9.67000
62.10000,-2.06940,-9.67000
62.20000,-2.07280,-9.80000
62.30000,-2.07610,-9.80000
62.40000,-2.07940,-9.94000
62.50000,-2.08280,-9.80000
62.60000,-2.08610,-9.80000
62.70000,-2.08940,-9.80000
62.80000,-2.09280,-9.80000
62.90000,-2.09610,-9.80000
63.00000,-2.09940,-9.94000
63.10000,-2.10280,-10.07000
63.20000,-2.10610,-10.07000
63.30000,-2.10940,-10.07000
63.40000,-2.11280,-10.07000
63.50000,-2.11610,-10.07000
63.60000,-2.11940,-10.07000
63.70000,-2.12280,-10.07000
63.80000,-2.12610,-10.07000
63.90000,-2.12940,-10.21000
64.00000,-2.13280,-10.21000
64.10001,-2.13610,-10.07000
64.20000,-2.13940,-10.21000
64.30000,-2.14280,-10.34000
64.40000,-2.14610,-10.21000
64.50000,-2.14940,-10.34000
64.60001,-2.15280,-10.34000
64.70000,-2.15610,-10.34000
64.80000,-2.15940,-10.34000
64.90000,-2.16280,-10.34000
65.00000,-2.16610,-10.47000
65.10001,-2.16940,-10.47000
65.20000,-2.17280,-10.47000
65.30000,-2.17610,-10.47000
65.40000,-2.17940,-10.47000
65.50000,-2.18280,-10.47000
65.60001,-2.18610,-10.61000
65.70001,-2.18940,-10.47000
65.80000,-2.19280,-10.61000
65.90000,-2.19610,-10.61000
66.00000,-2.19940,-10.61000
66.10001,-2.20280,-10.61000
66.20001,-2.20610,-10.61000
66.30000,-2.20940,-10.74000
66.40000,-2.21280,-10.61000
66.50000,-2.21610,-10.74000
66.60001,-2.21940,-10.74000
66.70001,-2.22280,-10.74000
66.80000,-2.22610,-10.74000
66.90000,-2.22940,-10.74000
67.00000,-2.23280,-10.88000
67.10001,-2.23610,-10.74000
67.20001,-2.23940,-11.01000
67.30000,-2.24280,-10.88000
67.40000,-2.24610,-11.01000
67.50000,-2.24940,-11.01000
67.60001,-2.25280,-11.01000
67.70001,-2.25610,-11.01000
67.80000,-2.25940,-11.15000
67.90000,-2.26280,-11.15000
68.00000,-2.26610,-11.15000
68.10001,-2.26940,-11.15000
68.20001,-2.27280,-11.15000
68.30000,-2.27610,-11.15000
68.40000,-2.27940,-11.15000
68.50000,-2.28280,-11.28000
68.60001,-2.28610,-11.28000
68.70001,-2.28940,-11.28000
68.80000,-2.29280,-11.28000
68.90000,-2.29610,-11.28000
69.00000,-2.29940,-11.28000
69.10001,-2.30270,-11.28000
69.20001,-2.30610,-11.41000
69.30000,-2.30940,-11.41000
69.40000,-2.31270,-11.41000
69.50000,-2.31610,-11.41000
69.60001,-2.31940,-11.41000
69.70001,-2.32270,-11.41000
69.80000,-2.32610,-11.55000
69.90000,-2.32940,-11.55000
70.00000,-2.33270,-11.55000
70.10001,-2.33610,-11.55000
70.20001,-2.33940,-11.68000
70.30000,-2.34270,-11.68000
70.40000,-2.34610,-11.68000
70.50000,-2.34940,-11.68000
70.60001,-2.35270,-11.68000
70.70001,-2.35610,-11.55000
70.80000,-2.35940,-11.68000
70.90000,-2.36270,-11.68000
71.00000,-2.36610,-11.68000
71.10001,-2.36940,-11.68000
71.20001,-2.37270,-11.95000
71.30000,-2.37610,-11.82000
71.40000,-2.37940,-11.82000
71.50000,-2.38270,-11.95000
71.60001,-2.38610,-11.82000
71.70001,-2.38940,-11.82000
71.80000,-2.39270,-11.95000
71.90000,-2.39610,-11.95000
72.00000,-2.39940,-11.95000
72.10001,-2.40270,-12.09000
72.20001,-2.40610,-12.09000
72.30000,-2.40940,-12.09000
72.40000,-2.41270,-12.09000
72.50000,-2.41610,-12.22000
72.60001,-2.41940,-12.22000
72.70001,-2.42270,-12.22000
72.80000,-2.42610,-12.22000
72.90000,-2.42940,-12.09000
73.00000,-2.43270,-12.22000
73.10001,-2.43610,-12.22000
73.20001,-2.43940,-12.22000
73.30000,-2.44270,-12.09000
73.40000,-2.44610,-10.47000
73.50000,-2.44940,-10.74000
73.60001,-2.45270,-10.74000
73.70001,-2.45610,-10.88000
73.80000,-2.45940,-11.01000
73.90000,-2.46270,-11.15000
74.00000,-2.46610,-11.15000
74.10001,-2.46940,-11.28000
74.20001,-2.47270,-11.41000
74.30000,-2.47610,-11.41000
74.40000,-2.47940,-11.41000
74.50000,-2.48270,-11.41000
74.60001,-2.48610,-11.68000
74.70001,-2.48940,-11.68000
74.80000,-2.49270,-11.68000
74.90000,-2.49610,-11.68000
75.00000,-2.49940,-11.82000
75.10001,-2.50270,-11.82000
75.20001,-2.50610,-11.82000
75.30000,-2.50940,-11.95000
75.40000,-2.51270,-11.95000
75.50000,-2.51610,-11.95000
75.60001,-2.51940,-11.95000
75.70001,-2.52270,-12.09000
75.80000,-2.52610,-12.09000
75.90000,-2.52940,-12.22000
76.00000,-2.53270,-12.22000
76.10001,-2.53610,-12.22000
76.20001,-2.53940,-12.22000
76.30000,-2.54270,-12.35000
76.40000,-2.54610,-12.35000
76.50000,-2.54940,-12.35000
76.60001,-2.55270,-12.35000
76.70001,-2.55610,-12.49000
76.80000,-2.55940,-12.49000
76.90000,-2.56270,-12.49000
77.00000,-2.56610,-12.49000
77.10001,-2.56940,-12.49000
77.20001,-2.57270,-12.62000
77.30000,-2.57610,-12.62000
77.40000,-2.57940,-12.62000
77.50000,-2.58270,-12.76000
77.60001,-2.58610,-12.62000
77.70001,-2.58940,-12.76000
77.80000,-2.59270,-12.76000
77.90000,-2.59610,-12.76000
78.00000,-2.59940,-12.76000
78.10001,-2.60270,-12.89000
78.20001,-2.60610,-12.89000
78.30000,-2.60940,-12.89000
78.40000,-2.61270,-12.89000
78.50000,-2.61610,-12.89000
78.60001,-2.61940,-13.03000
78.70001,-2.62270,-13.03000
78.80000,-2.62610,-13.03000
78.90000,-2.62940,-13.03000
79.00000,-2.63270,-13.03000
79.10001,-2.63610,-13.16000
79.20001,-2.63940,-13.16000
79.30000,-2.64270,-13.29000
79.40000,-2.64610,-13.16000
79.50000,-2.64940,-13.29000
79.60001,-2.65270,-13.29000
79.70001,-2.65610,-13.29000
79.80000,-2.65940,-13.16000
79.90000,-2.66270,-13.29000
80.00000,-2.66610,-13.29000
80.10001,-2.66940,-13.43000
80.20001,-2.67270,-13.43000
80.30000,-2.67610,-13.43000
80.40000,-2.67940,-13.43000
80.50001,-2.68270,-13.43000
80.60001,-2.68610,-13.29000
80.70001,-2.68940,-13.43000
80.80000,-2.69270,-13.43000
80.90000,-2.69610,-13.56000
81.00001,-2.69940,-13.56000
81.10001,-2.70270,-13.56000
81.20001,-2.70610,-13.56000
81.30000,-2.70940,-13.70000
81.40000,-2.71270,-13.70000
81.50001,-2.71610,-13.70000
81.60001,-2.71940,-13.70000
81.70001,-2.72270,-13.70000
81.80000,-2.72610,-13.70000
81.90000,-2.72940,-13.70000
82.00001,-2.73270,-13.96000
82.10001,-2.73610,-13.83000
82.20001,-2.73940,-13.83000
82.30000,-2.74270,-13.96000
82.40000,-2.74610,-13.96000
82.50001,-2.74940,-13.96000
82.60001,-2.75270,-13.96000
82.70001,-2.75610,-13.96000
82.80000,-2.75940,-13.96000
82.90000,-2.76270,-13.96000
83.00001,-2.76610,-13.96000
83.10001,-2.76940,-14.10000
83.20001,-2.77270,-14.10000
83.30000,-2.77610,-14.23000
83.40000,-2.77940,-14.23000
83.50001,-2.78270,-14.23000
83.60001,-2.78610,-14.37000
83.70001,-2.78940,-14.23000
83.80000,-2.79270,-14.23000
83.90000,-2.79610,-14.23000
84.00001,-2.79940,-14.37000
84.10001,-2.80270,-14.37000
84.20001,-2.80610,-14.37000
84.30000,-2.80940,-14.50000
84.40000,-2.81270,-14.50000
84.50001,-2.81610,-14.50000
84.60001,-2.81940,-14.50000
84.70001,-2.82270,-14.64000
84.80000,-2.82600,-14.50000
84.90000,-2.82940,-14.50000
85.00001,-2.83270,-14.50000
85.10001,-2.83600,-14.50000
85.20001,-2.83940,-14.50000
85.30000,-2.84270,-14.64000
85.40000,-2.84600,-14.77000
85.50001,-2.84940,-14.77000
85.60001,-2.85270,-14.77000
85.70001,-2.85600,-14.64000
85.80000,-2.85940,-14.77000
85.90000,-2.86270,-14.77000
86.00001,-2.86600,-14.77000
86.10001,-2.86940,-14.77000
86.20001,-2.87270,-14.90000
86.30000,-2.87600,-14.90000
86.40000,-2.87940,-14.90000
86.50001,-2.88270,-14.90000
86.60001,-2.88600,-15.04000
86.70001,-2.88940,-15.04000
86.80000,-2.89270,-15.04000
86.90000,-2.89600,-15.04000
87.00001,-2.89940,-15.04000
87.10001,-2.90270,-15.04000
87.20001,-2.90600,-15.04000
87.30000,-2.90940,-15.04000
87.40000,-2.91270,-15.17000
87.50001,-2.91600,-15.17000
87.60001,-2.91940,-15.17000
87.70001,-2.92270,-15.31000
87.80000,-2.92600,-15.17000
87.90000,-2.92940,-15.17000
88.00001,-2.93270,-15.31000
88.10001,-2.93600,-15.31000
88.20001,-2.93940,-15.31000
88.30000,-2.94270,-15.44000
88.40000,-2.94600,-15.44000
88.50001,-2.94940,-15.44000
88.60001,-2.95270,-15.44000
88.70001,-2.95600,-15.44000
88.80000,-2.95940,-15.58000
88.90000,-2.96270,-15.44000
89.00001,-2.96600,-15.58000
89.10001,-2.96940,-15.58000
89.20001,-2.97270,-15.58000
89.30000,-2.97600,-15.71000
89.40000,-2.97940,-15.71000
89.50001,-2.98270,-15.71000
89.60001,-2.98600,-15.71000
89.70001,-2.98940,-15.71000
89.80000,-2.99270,-15.71000
89.90000,-2.99600,-15.71000
90.00001,-2.99940,-15.71000
90.10001,-3.00270,-15.84000
90.20001,-3.00600,-15.84000
90.30000,-3.00940,-15.84000
90.40000,-3.01270,-15.98000
90.50001,-3.01600,-15.84000
90.60001,-3.01940,-15.84000
90.70001,-3.02270,-15.98000
90.80000,-3.02600,-15.98000
90.90000,-3.02940,-15.98000
91.00001,-3.03270,-16.11000
91.10001,-3.03600,-15.98000
91.20001,-3.03940,-16.11000
91.30000,-3.04270,-16.11000
91.40000,-3.04600,-16.11000
91.50001,-3.04940,-16.11000
91.60001,-3.05270,-16.25000
91.70001,-3.05600,-16.25000
91.80000,-3.05940,-16.25000
91.90000,-3.06270,-16.25000
92.00001,-3.06600,-16.25000
92.10001,-3.06940,-16.38000
92.20001,-3.07270,-16.38000
92.30000,-3.07600,-16.38000
92.40000,-3.07940,-16.38000
92.50001,-3.08270,-16.38000
92.60001,-3.08600,-16.38000
92.70001,-3.08940,-16.38000
92.80000,-3.09270,-16.52000
92.90000,-3.09600,-16.52000
93.00001,-3.09940,-16.52000
93.10001,-3.10270,-16.65000
93.20001,-3.10600,-16.52000
93.30000,-3.10940,-16.65000
93.40000,-3.11270,-16.65000
93.50001,-3.11600,-16.65000
93.60001,-3.11940,-16.65000
93.70001,-3.12270,-16.78000
93.80000,-3.12600,-16.65000
93.90000,-3.12940,-16.78000
94.00001,-3.13270,-16.78000
94.10001,-3.13600,-16.78000
94.20001,-3.13940,-16.92000
94.30000,-3.14270,-16.92000
94.40000,-3.14600,-16.92000
94.50001,-3.14940,-16.78000
94.60001,-3.15270,-16.92000
94.70001,-3.15600,-16.92000
94.80000,-3.15940,-17.05000
94.90000,-3.16270,-16.92000
95.00001,-3.16600,-17.05000
95.10001,-3.16940,-17.05000
95.20001,-3.17270,-17.05000
95.30000,-3.17600,-17.05000
95.40000,-3.17940,-17.19000
95.50001,-3.18270,-17.19000
95.60001,-3.18600,-17.19000
95.70001,-3.18940,-17.19000
95.80000,-3.19270,-17.19000
95.90000,-3.19600,-17.19000
96.00001,-3.19940,-17.32000
96.10001,-3.20270,-17.32000
96.20001,-3.20600,-17.32000
96.30000,-3.20940,-17.32000
96.40000,-3.21270,-17.45000
96.50001,-3.21600,-17.32000
96.60001,-3.21940,-17.45000
96.70001,-3.22270,-17.45000
96.80000,-3.22600,-17.45000
96.90000,-3.22940,-17.45000
97.00001,-3.23270,-17.45000
97.10001,-3.23600,-17.45000
97.20001,-3.23940,-17.45000
97.30000,-3.24270,-17.45000
97.40000,-3.24600,-17.59000
97.50001,-3.24940,-17.72000
97.60001,-3.25270,-17.72000
97.70001,-3.25600,-17.72000
97.80000,-3.25940,-17.59000
97.90000,-3.26270,-17.72000
98.00001,-3.26600,-17.86000
98.10001,-3.26940,-17.72000
98.20001,-3.27270,-17.86000
98.30000,-3.27600,-17.86000
98.40000,-3.27940,-17.99000
98.50001,-3.28270,-17.86000
98.60001,-3.28600,-17.99000
98.70001,-3.28940,-17.99000
98.80000,-3.29270,-17.99000
98.90000,-3.29600,-17.99000
99.00001,-3.29940,-17.99000
99.10001,-3.30270,-17.99000
99.20001,-3.30600,-17.99000
99.30000,-3.30940,-18.13000
99.40000,-3.31270,-18.13000
99.50001,-3.31600,-18.13000
99.60001,-3.31940,-18.13000
99.70001,-3.32270,-18.26000
99.80000,-3.32600,-18.26000
99.90000,-3.32940,-18.26000
100.00001,-3.33270,-18.26000
100.10001,-3.33600,-18.26000
100.20001,-3.33940,-18.39000
100.30000,-3.34270,-18.39000
100.40000,-3.34600,-18.39000
100.50001,-3.34930,-18.39000
100.60001,-3.35270,-18.39000
100.70001,-3.35600,-18.53000
100.80000,-3.35930,-18.53000
100.90000,-3.36270,-18.66000
101.00001,-3.36600,-18.53000
101.10001,-3.36930,-18.53000
101.20001,-3.37270,-18.53000
101.30000,-3.37600,-18.53000
101.40000,-3.37930,-18.53000
101.50001,-3.38270,-18.66000
101.60001,-3.38600,-18.66000
101.70001,-3.38930,-18.66000
101.80000,-3.39270,-18.80000
101.90000,-3.39600,-18.66000
102.00001,-3.39930,-18.80000
102.10001,-3.40270,-18.80000
102.20001,-3.40600,-18.66000
102.30000,-3.40930,-18.80000
102.40000,-3.41270,-18.80000
102.50001,-3.41600,-18.93000
102.60001,-3.41930,-18.93000
102.70001,-3.42270,-18.93000
102.80000,-3.42600,-19.07000
102.90000,-3.42930,-19.07000
103.00001,-3.43270,-18.93000
103.10001,-3.43600,-19.07000
103.20001,-3.43930,-19.07000
103.30000,-3.44270,-19.07000
103.40000,-3.44600,-19.07000
103.50001,-3.44930,-19.20000
103.60001,-3.45270,-19.20000
103.70001,-3.45600,-19.20000
103.80000,-3.45930,-19.20000
103.90000,-3.46270,-19.33000
104.00001,-3.46600,-19.20000
104.10001,-3.46930,-19.20000
104.20001,-3.47270,-19.20000
104.30000,-3.47600,-19.33000
104.40000,-3.47930,-19.33000
104.50001,-3.48270,-19.47000
104.60001,-3.48600,-19.33000
104.70001,-3.48930,-19.47000
104.80000,-3.49270,-19.47000
104.90000,-3.49600,-19.47000
105.00001,-3.49930,-19.47000
105.10001,-3.50270,-19.60000
105.20001,-3.50600,-19.60000
105.30000,-3.50930,-19.60000
105.40000,-3.51270,-19.60000
105.50001,-3.51600,-19.74000
105.60001,-3.51930,-19.74000
105.70001,-3.52270,-19.74000
105.80000,-3.52600,-19.74000
105.90000,-3.52930,-19.74000
106.00001,-3.53270,-19.74000
106.10001,-3.53600,-19.74000
106.20001,-3.53930,-19.87000
106.30000,-3.54270,-19.87000
106.40000,-3.54600,-19.87000
106.50001,-3.54930,-20.00000
106.60001,-3.55270,-19.87000
106.70001,-3.55600,-19.87000
106.80000,-3.55930,-20.00000
106.90000,-3.56270,-20.00000
107.00001,-3.56600,-20.00000
107.10001,-3.56930,-20.00000
107.20001,-3.57270,-20.14000
107.30000,-3.57600,-20.00000
107.40000,-3.57930,-20.14000
107.50001,-3.58270,-20.14000
107.60001,-3.58600,-20.14000
107.70001,-3.58930,-20.14000
107.80000,-3.59270,-20.27000
107.90000,-3.59600,-20.27000
108.00001,-3.59930,-20.27000
108.10001,-3.60270,-20.27000
108.20001,-3.60600,-20.27000
108.30000,-3.60930,-20.41000
108.40000,-3.61270,-20.41000
108.50001,-3.61600,-20.41000
108.60001,-3.61930,-20.41000
108.70001,-3.62270,-20.41000
108.80000,-3.62600,-20.41000
108.90000,-3.62930,-20.41000
109.00001,-3.63270,-20.41000
109.10001,-3.63600,-20.54000
109.20001,-3.63930,-20.54000
109.30000,-3.64270,-20.54000
109.40000,-3.64600,-20.54000
109.50001,-3.64930,-20.68000
109.60001,-3.65270,-20.68000
109.70001,-3.65600,-20.81000
109.80000,-3.65930,-20.81000
109.90000,-3.66270,-20.81000
110.00001,-3.66600,-20.68000
110.10001,-3.66930,-20.68000
110.20001,-3.67270,-20.81000
110.30000,-3.67600,-20.81000
110.40000,-3.67930,-20.94000
110.50001,-3.68270,-20.94000
110.60001,-3.68600,-20.94000
110.70001,-3.68930,-20.94000
110.80000,-3.69270,-20.94000
110.90000,-3.69600,-20.94000
111.00001,-3.69930,-20.94000
111.10001,-3.70270,-21.08000
111.20001,-3.70600,-20.94000
111.30000,-3.70930,-21.08000
111.40000,-3.71270,-21.08000
111.50001,-3.71600,-21.21000
111.60001,-3.71930,-21.21000
111.70001,-3.72270,-21.21000
111.80000,-3.72600,-21.21000
111.90000,-3.72930,-21.35000
112.00001,-3.73270,-21.21000
112.10001,-3.73600,-21.21000
112.20001,-3.73930,-21.35000
112.30000,-3.74270,-21.35000
112.40000,-3.74600,-21.48000
112.50001,-3.74930,-21.35000
112.60001,-3.75270,-21.48000
112.70001,-3.75600,-21.48000
112.80000,-3.75930,-21.48000
112.90001,-3.76270,-21.48000
113.00001,-3.76600,-21.48000
113.10001,-3.76930,-21.48000
113.20001,-3.77270,-21.48000
113.30000,-3.77600,-21.62000
113.40001,-3.77930,-21.48000
113.50001,-3.78270,-21.62000
113.60001,-3.78600,-21.62000
113.70001,-3.78930,-21.62000
113.80000,-3.79270,-21.75000
113.90001,-3.79600,-21.75000
114.00001,-3.79930,-21.75000
114.10001,-3.80270,-21.75000
114.20001,-3.80600,-21.75000
114.30000,-3.80930,-21.75000
114.40001,-3.81270,-21.88000
114.50001,-3.81600,-21.88000
114.60001,-3.81930,-22.02000
114.70001,-3.82270,-21.88000
114.80000,-3.82600,-21.88000
114.90001,-3.82930,-22.02000
115.00001,-3.83270,-22.02000
115.10001,-3.83600,-22.02000
115.20001,-3.83930,-22.02000
115.30000,-3.84270,-22.15000
115.40001,-3.84600,-21.88000
115.50001,-3.84930,-22.02000
115.60001,-3.85270,-22.15000
115.70001,-3.85600,-22.02000
115.80000,-3.85930,-22.15000
115.90001,-3.86260,-22.15000
116.00001,-3.86600,-22.29000
116.10001,-3.86930,-22.15000
116.20001,-3.87260,-22.29000
116.30000,-3.87600,-22.29000
116.40001,-3.87930,-22.42000
116.50001,-3.88260,-22.42000
116.60001,-3.88600,-22.42000
116.70001,-3.88930,-22.42000
116.80000,-3.89260,-22.42000
116.90001,-3.89600,-22.42000
117.00001,-3.89930,-22.56000
117.10001,-3.90260,-22.56000
117.20001,-3.90600,-22.56000
117.30000,-3.90930,-22.56000
117.40001,-3.91260,-22.56000
117.50001,-3.91600,-22.56000
117.60001,-3.91930,-22.56000
117.70001,-3.92260,-22.56000
117.80000,-3.92600,-22.69000
117.90001,-3.92930,-22.69000
118.00001,-3.93260,-22.69000
118.10001,-3.93600,-22.69000
118.20001,-3.93930,-22.69000
118.30000,-3.94260,-22.82000
118.40001,-3.94600,-22.82000
118.50001,-3.94930,-22.82000
118.60001,-3.95260,-22.82000
118.70001,-3.95600,-22.96000
118.80000,-3.95930,-22.82000
118.90001,-3.96260,-22.96000
119.00001,-3.96600,-22.96000
119.10001,-3.96930,-22.96000
119.20001,-3.97260,-22.96000
119.30000,-3.97600,-22.96000
119.40001,-3.97930,-23.09000
119.50001,-3.98260,-23.09000
119.60001,-3.98600,-23.09000
119.70001,-3.98930,-23.09000
119.80000,-3.99260,-23.23000
119.90001,-3.99600,-23.23000
120.00001,-3.99930,-23.23000
120.10001,-4.00260,-23.23000
120.20001,-4.00600,-23.23000
120.30000,-4.00930,-23.23000
120.40001,-4.01260,-23.23000
120.50001,-4.01600,-23.36000
120.60001,-4.01930,-23.36000
120.70001,-4.02260,-23.36000
120.80000,-4.02600,-23.36000
120.90001,-4.02930,-23.36000
121.00001,-4.03260,-23.49000
121.10001,-4.03600,-23.36000
121.20001,-4.03930,-23.49000
121.30000,-4.04260,-23.63000
121.40001,-4.04600,-23.63000
121.50001,-4.04930,-23.49000
121.60001,-4.05260,-23.63000
121.70001,-4.05600,-23.63000
121.80000,-4.05930,-23.63000
121.90001,-4.06260,-23.76000
122.00001,-4.06600,-23.63000
122.10001,-4.06930,-23.63000
122.20001,-4.07260,-23.76000
122.30000,-4.07600,-23.76000
122.40001,-4.07930,-23.76000
122.50001,-4.08260,-23.90000
122.60001,-4.08600,-23.90000
122.70001,-4.08930,-23.90000
122.80000,-4.09260,-23.90000
122.90001,-4.09600,-23.90000
123.00001,-4.09930,-23.90000
123.10001,-4.10260,-23.90000
123.20001,-4.10600,-24.03000
123.30000,-4.10930,-24.03000
123.40001,-4.11260,-24.03000
123.50001,-4.11600,-24.03000
123.60001,-4.11930,-24.17000
123.70001,-4.12260,-24.17000
123.80000,-4.12600,-24.03000
123.90001,-4.12930,-24.17000
124.00001,-4.13260,-24.17000
124.10001,-4.13600,-24.17000
124.20001,-4.13930,-24.17000
124.30000,-4.14260,-24.30000
124.40001,-4.14600,-24.17000
124.50001,-4.14930,-24.30000
124.60001,-4.15260,-24.30000
124.70001,-4.15600,-24.30000
124.80000,-4.15930,-24.30000
124.90001,-4.16260,-24.30000
125.00001,-4.16600,-24.30000
125.10001,-4.16930,-24.30000
125.20001,-4.17260,-24.43000
125.30000,-4.17600,-24.43000
125.40001,-4.17930,-24.57000
125.50001,-4.18260,-24.57000
125.60001,-4.18600,-24.57000
125.70001,-4.18930,-24.57000
125.80000,-4.19260,-24.57000
125.90001,-4.19600,-24.70000
126.00001,-4.19930,-24.57000
126.10001,-4.20260,-24.70000
126.20001,-4.20600,-24.57000
126.30000,-4.20930,-24.70000
126.40001,-4.21260,-24.70000
126.50001,-4.21600,-24.70000
126.60001,-4.21930,-24.70000
126.70001,-4.22260,-24.84000
126.80000,-4.22600,-24.84000
126.90001,-4.22930,-24.84000
127.00001,-4.23260,-24.84000
127.10001,-4.23600,-24.84000
127.20001,-4.23930,-24.97000
127.30000,-4.24260,-24.97000
127.40001,-4.24600,-24.84000
127.50001,-4.24930,-24.97000
127.60001,-4.25260,-24.97000
127.70001,-4.25600,-24.97000
127.80000,-4.25930,-25.11000
127.90001,-4.26260,-25.24000
128.00000,-4.26600,-25.11000
128.10001,-4.26930,-25.11000
128.20002,-4.27260,-25.11000
128.30000,-4.27600,-25.24000
128.40001,-4.27930,-25.11000
128.50000,-4.28260,-25.24000
128.60001,-4.28600,-25.24000
128.70002,-4.28930,-25.37000
128.80000,-4.29260,-25.37000
128.90001,-4.29600,-25.24000
129.00000,-4.29930,-25.37000
129.10001,-4.30260,-25.37000
129.20002,-4.30600,-25.24000
129.30000,-4.30930,-25.37000
129.40001,-4.31260,-25.37000
129.50000,-4.31600,-25.51000
129.60001,-4.31930,-25.37000
129.70002,-4.32260,-25.51000
129.80000,-4.32600,-25.51000
129.90001,-4.32930,-25.64000
130.00000,-4.33260,-25.64000
130.10001,-4.33600,-25.51000
130.20002,-4.33930,-25.64000
130.30000,-4.34260,-25.64000
130.40001,-4.34600,-25.64000
130.50000,-4.34930,-25.64000
130.60001,-4.35260,-25.78000
130.70002,-4.35600,-25.78000
130.80000,-4.35930,-25.78000
130.90001,-4.36260,-25.91000
131.00000,-4.36600,-25.78000
131.10000,-4.36930,-25.78000
131.20002,-4.37260,-25.78000
131.30000,-4.37600,-25.91000
131.40002,-4.37930,-25.91000
131.50000,-4.38260,-25.91000
131.60000,-4.38590,-25.78000
131.70002,-4.38930,-25.91000
131.80000,-4.39260,-25.91000
131.90002,-4.39590,-25.91000
132.00000,-4.39930,-26.05000
132.10000,-4.40260,-26.05000
132.20002,-4.40590,-26.18000
132.30000,-4.40930,-26.05000
132.40002,-4.41260,-26.18000
132.50000,-4.41590,-26.18000
132.60000,-4.41930,-26.18000
132.70002,-4.42260,-26.31000
132.80000,-4.42590,-26.18000
132.90002,-4.42930,-26.31000
133.00000,-4.43260,-26.31000
133.10000,-4.43590,-26.31000
133.20002,-4.43930,-26.18000
133.30000,-4.44260,-26.45000
133.40002,-4.44590,-26.45000
133.50000,-4.44930,-26.31000
133.60000,-4.45260,-26.45000
133.70002,-4.45590,-26.45000
133.80000,-4.45930,-26.45000
133.90002,-4.46260,-26.45000
134.00000,-4.46590,-26.45000
134.10000,-4.46930,-26.58000
134.20002,-4.47260,-26.58000
134.30000,-4.47590,-26.45000
134.40002,-4.47930,-26.58000
134.50000,-4.48260,-26.58000
134.60000,-4.48590,-26.58000
134.70002,-4.48930,-26.72000
134.80000,-4.49260,-26.72000
134.90002,-4.49590,-26.72000
135.00000,-4.49930,-26.72000
135.10000,-4.50260,-26.72000
135.20002,-4.50590,-26.72000
135.30000,-4.50930,-26.85000
135.40002,-4.51260,-26.85000
135.50000,-4.51590,-26.85000
135.60000,-4.51930,-26.98000
135.70002,-4.52260,-26.85000
135.80000,-4.52590,-26.85000
135.90002,-4.52930,-26.98000
136.00000,-4.53260,-26.98000
136.10000,-4.53590,-26.98000
136.20002,-4.53930,-26.98000
136.30000,-4.54260,-26.98000
136.40002,-4.54590,-26.98000
136.50000,-4.54930,-26.98000
136.60000,-4.55250,-26.98000
136.70002,-4.55590,-27.25000
136.80000,-4.55920,-27.25000
136.90002,-4.56250,-27.25000
137.00000,-4.56590,-27.12000
137.10000,-4.56920,-27.25000
137.20002,-4.57250,-27.25000
137.30000,-4.57590,-27.25000
137.40002,-4.57920,-27.25000
137.50000,-4.58250,-27.25000
137.60000,-4.58590,-27.25000
137.70002,-4.58920,-27.39000
137.80000,-4.59250,-27.39000
137.90002,-4.59590,-27.39000
138.00000,-4.59920,-27.52000
138.10000,-4.60250,-27.52000
138.20002,-4.60590,-27.39000
138.30000,-4.60920,-27.52000
138.40002,-4.61250,-27.52000
138.50000,-4.61590,-27.52000
138.60000,-4.61920,-27.52000
138.70002,-4.62250,-27.66000
138.80000,-4.62590,-27.66000
138.90002,-4.62920,-27.66000
139.00000,-4.63250,-27.66000
139.10000,-4.63590,-27.66000
139.20002,-4.63920,-27.66000
139.30000,-4.64250,-27.79000
139.40002,-4.64590,-27.66000
139.50000,-4.64920,-27.79000
139.60000,-4.65250,-27.79000
139.70002,-4.65590,-27.79000
139.80000,-4.65920,-27.92000
139.90002,-4.66250,-27.79000
140.00000,-4.66590,-27.79000
140.10000,-4.66920,-27.92000
140.20002,-4.67250,-27.92000
140.30000,-4.67590,-27.92000
140.40002,-4.67920,-27.92000
140.50000,-4.68250,-27.92000
140.60000,-4.68590,-27.92000
140.70002,-4.68920,-28.06000
140.80000,-4.69250,-28.06000
140.90002,-4.69590,-28.06000
141.00000,-4.69920,-28.06000
141.10000,-4.70250,-28.06000
141.20002,-4.70590,-28.06000
141.30000,-4.70920,-28.19000
141.40002,-4.71250,-28.33000
141.50000,-4.71590,-28.33000
141.60000,-4.71920,-28.33000
141.70002,-4.72250,-28.33000
141.80000,-4.72590,-28.19000
141.90002,-4.72920,-28.33000
142.00000,-4.73250,-28.33000
142.10000,-4.73590,-28.46000
142.20002,-4.73920,-28.33000
142.30000,-4.74250,-28.46000
142.40002,-4.74590,-28.33000
142.50000,-4.74920,-28.46000
142.60000,-4.75250,-28.46000
142.70002,-4.75590,-28.46000
142.80000,-4.75920,-28.60000
142.90002,-4.76250,-28.60000
143.00000,-4.76590,-28.60000
143.10000,-4.76920,-28.60000
143.20002,-4.77250,-28.60000
143.30000,-4.77590,-28.73000
143.40002,-4.77920,-28.73000
143.50000,-4.78250,-28.73000
143.60000,-4.78590,-28.60000
143.70002,-4.78920,-28.73000
143.80000,-4.79250,-28.73000
143.90002,-4.79590,-28.73000
144.00000,-4.79920,-28.86000
144.10000,-4.80250,-29.00000
144.20002,-4.80590,-28.86000
144.30000,-4.80920,-28.86000
144.40002,-4.81250,-28.86000
144.50000,-4.81590,-28.86000
144.60000,-4.81920,-28.86000
144.70002,-4.82250,-28.86000
144.80000,-4.82590,-29.00000
144.90002,-4.82920,-29.00000
145.00000,-4.83250,-29.00000
145.10000,-4.83590,-29.00000
145.20002,-4.83920,-29.13000
145.30000,-4.84250,-29.13000
145.40002,-4.84590,-29.13000
145.50000,-4.84920,-29.13000
145.60000,-4.85250,-29.13000
145.70002,-4.85590,-29.13000
145.80000,-4.85920,-29.27000
145.90002,-4.86250,-29.27000
146.00000,-4.86580,-29.27000
146.10000,-4.86920,-29.40000
146.20002,-4.87250,-29.27000
146.30000,-4.87580,-29.27000
146.40002,-4.87920,-29.40000
146.50000,-4.88250,-29.40000
146.60000,-4.88580,-29.40000
146.70002,-4.88920,-29.40000
146.80000,-4.89250,-29.40000
146.90002,-4.89580,-29.40000
147.00000,-4.89920,-29.40000
147.10000,-4.90250,-29.54000
147.20002,-4.90580,-29.54000
147.30000,-4.90920,-29.40000
147.40002,-4.91250,-29.54000
147.50000,-4.91580,-29.40000
147.60000,-4.91920,-29.54000
147.70002,-4.92250,-29.54000
147.80000,-4.92580,-29.67000
147.90002,-4.92920,-29.67000
148.00000,-4.93250,-29.67000
148.10000,-4.93580,-29.67000
148.20002,-4.93920,-29.80000
148.30000,-4.94250,-29.67000
148.40002,-4.94580,-29.80000
148.50000,-4.94920,-29.80000
148.60000,-4.95250,-29.80000
148.70002,-4.95580,-29.80000
148.80000,-4.95920,-29.94000
148.90002,-4.96250,-29.94000
149.00000,-4.96580,-29.94000
149.10000,-4.96920,-29.94000
149.20002,-4.97250,-29.94000
149.30000,-4.97580,-29.80000
149.40002,-4.97920,-29.94000
149.50000,-4.98250,-30.07000
149.60000,-4.98580,-30.07000
149.70002,-4.98920,-30.07000
149.80000,-4.99250,-30.21000
149.90002,-4.99580,-30.07000
150.00000,-4.99920,-30.07000
150.10000,-5.00250,-30.07000
150.20002,-5.00580,-30.21000
