Time,Extension,Load
(sec),(mm),(N)
0.00000,-0.63810,-1.88000
0.10000,-0.64590,-2.29000
0.20000,-0.65260,-2.42000
0.30000,-0.65920,-2.56000
0.40000,-0.66590,-2.82000
0.50000,-0.67260,-2.96000
0.60000,-0.67920,-3.23000
0.70000,-0.68590,-3.49000
0.80000,-0.69260,-3.63000
0.90000,-0.69920,-3.76000
1.00000,-0.70590,-3.90000
1.10000,-0.71260,-4.17000
1.20000,-0.71920,-4.43000
1.30000,-0.72590,-4.57000
1.40000,-0.73260,-4.84000
1.50000,-0.73920,-4.97000
1.60000,-0.74590,-5.11000
1.70000,-0.75260,-5.24000
1.80000,-0.75920,-5.51000
1.90000,-0.76590,-5.64000
2.00000,-0.77260,-5.91000
2.10000,-0.77920,-6.18000
2.20000,-0.78590,-6.31000
2.30000,-0.79260,-6.45000
2.40000,-0.79920,-6.58000
2.50000,-0.80590,-6.85000
2.60000,-0.81260,-6.98000
2.70000,-0.81920,-7.25000
2.80000,-0.82590,-7.52000
2.90000,-0.83260,-7.66000
3.00000,-0.83920,-7.79000
3.10000,-0.84590,-8.06000
3.20000,-0.85260,-8.19000
3.30000,-0.85920,-8.46000
3.40000,-0.86590,-8.73000
3.50000,-0.87260,-8.86000
3.60000,-0.87920,-9.00000
3.70000,-0.88590,-9.27000
3.80000,-0.89260,-9.40000
3.90000,-0.89920,-9.54000
4.00000,-0.90590,-9.80000
4.10000,-0.91260,-10.07000
4.20000,-0.91920,-10.21000
4.30000,-0.92590,-10.47000
4.40000,-0.93260,-10.61000
4.50000,-0.93920,-10.88000
4.60000,-0.94590,-11.01000
4.70000,-0.95260,-11.28000
4.80000,-0.95920,-11.41000
4.90000,-0.96590,-11.55000
5.00000,-0.97260,-11.68000
5.10000,-0.97920,-11.95000
5.20000,-0.98590,-12.09000
5.30000,-0.99260,-12.35000
5.40000,-0.99920,-12.62000
5.50000,-1.00590,-12.76000
5.60000,-1.01260,-13.03000
5.70000,-1.01920,-13.16000
5.80000,-1.02590,-13.29000
5.90000,-1.03260,-13.56000
6.00000,-1.03920,-13.70000
6.10000,-1.04590,-13.96000
6.20000,-1.05260,-14.10000
6.30000,-1.05920,-14.23000
6.40000,-1.06590,-14.50000
6.50000,-1.07260,-14.64000
6.60000,-1.07920,-14.90000
6.70000,-1.08590,-15.04000
6.80000,-1.09250,-15.31000
6.90000,-1.09920,-15.44000
7.00000,-1.10590,-15.71000
7.10000,-1.11250,-15.84000
7.20000,-1.11920,-16.11000
7.30000,-1.12590,-16.25000
7.40000,-1.13250,-16.52000
7.50000,-1.13920,-16.65000
7.60000,-1.14590,-16.92000
7.70000,-1.15250,-17.05000
7.80000,-1.15920,-17.19000
7.90000,-1.16590,-17.32000
8.00000,-1.17250,-17.59000
8.10000,-1.17920,-17.72000
8.20000,-1.18590,-17.99000
8.30000,-1.19250,-18.13000
8.40000,-1.19920,-18.39000
8.50000,-1.20590,-18.53000
8.60000,-1.21250,-18.80000
8.70000,-1.21920,-18.93000
8.80000,-1.22590,-19.20000
8.90000,-1.23250,-19.20000
9.00000,-1.23920,-19.47000
9.10000,-1.24590,-19.74000
9.20000,-1.25250,-19.87000
9.30000,-1.25920,-20.00000
9.40000,-1.26590,-20.41000
9.50000,-1.27250,-20.54000
9.60000,-1.27920,-20.68000
9.70000,-1.28590,-20.94000
9.80000,-1.29250,-20.94000
9.90000,-1.29920,-21.21000
10.00000,-1.30590,-21.35000
10.10000,-1.31250,-21.62000
10.20000,-1.31920,-21.75000
10.30000,-1.32590,-22.02000
10.40000,-1.33250,-22.15000
10.50000,-1.33920,-22.29000
10.60000,-1.34590,-22.42000
10.70000,-1.35250,-22.82000
10.80000,-1.35920,-22.96000
10.90000,-1.36590,-23.09000
11.00000,-1.37250,-23.36000
11.10000,-1.37920,-23.63000
11.20000,-1.38590,-23.76000
11.30000,-1.39250,-24.03000
11.40000,-1.39920,-24.17000
11.50000,-1.40590,-24.43000
11.60000,-1.41250,-24.43000
11.70000,-1.41920,-24.57000
11.80000,-1.42590,-22.15000
11.90000,-1.43250,-22.15000
12.00000,-1.43920,-22.29000
12.10000,-1.44590,-22.42000
12.20000,-1.45250,-22.69000
12.30000,-1.45920,-22.82000
12.40000,-1.46590,-23.09000
12.50000,-1.47250,-23.23000
12.60000,-1.47920,-23.49000
12.70000,-1.48590,-23.76000
12.80000,-1.49250,-23.90000
12.90000,-1.49920,-24.17000
13.00000,-1.50590,-24.30000
13.10000,-1.51250,-24.57000
13.20000,-1.51920,-24.70000
13.30000,-1.52590,-24.97000
13.40000,-1.53250,-25.11000
13.50000,-1.53920,-25.37000
13.60000,-1.54590,-25.51000
13.70000,-1.55250,-25.78000
13.80000,-1.55920,-26.05000
13.90000,-1.56590,-26.18000
14.00000,-1.57250,-26.31000
14.10000,-1.57920,-26.58000
14.20000,-1.58590,-26.72000
14.30000,-1.59250,-26.85000
14.40000,-1.59920,-27.12000
14.50000,-1.60580,-27.25000
14.60000,-1.61250,-27.52000
14.70000,-1.61920,-27.66000
14.80000,-1.62580,-27.92000
14.90000,-1.63250,-28.06000
15.00000,-1.63920,-28.33000
15.10000,-1.64580,-28.46000
15.20000,-1.65250,-28.60000
15.30000,-1.65920,-28.86000
15.40000,-1.66580,-29.13000
15.50000,-1.67250,-29.27000
15.60000,-1.67920,-29.40000
15.70000,-1.68580,-29.67000
15.80000,-1.69250,-29.80000
15.90000,-1.69920,-29.94000
16.00000,-1.70580,-30.21000
16.10000,-1.71250,-30.47000
16.20000,-1.71920,-30.61000
16.30000,-1.72580,-30.88000
16.40000,-1.73250,-31.01000
16.50000,-1.73920,-31.28000
16.60000,-1.74580,-31.41000
16.70000,-1.75250,-31.68000
16.80000,-1.75920,-31.82000
16.90000,-1.76580,-32.09000
17.00000,-1.77250,-32.09000
17.10000,-1.77920,-32.35000
17.20000,-1.78580,-32.49000
17.30000,-1.79250,-32.76000
17.40000,-1.79920,-32.89000
17.50000,-1.80580,-33.16000
17.60000,-1.81250,-33.43000
17.70000,-1.81920,-33.56000
17.80000,-1.82580,-33.83000
17.90000,-1.83250,-33.83000
18.00000,-1.83920,-34.10000
18.10000,-1.84580,-34.23000
18.20000,-1.85250,-34.50000
18.30000,-1.85920,-34.64000
18.40000,-1.86580,-34.90000
18.50000,-1.87250,-35.17000
18.60000,-1.87920,-35.17000
18.70000,-1.88580,-35.44000
18.80000,-1.89250,-35.71000
18.90000,-1.89920,-35.98000
19.00000,-1.90580,-36.11000
19.10000,-1.91250,-36.25000
19.20000,-1.91920,-36.52000
19.30000,-1.92580,-36.65000
19.40000,-1.93250,-36.78000
19.50000,-1.93920,-37.05000
19.60000,-1.94580,-37.32000
19.70000,-1.95250,-37.45000
19.80000,-1.95920,-37.59000
19.90000,-1.96580,-37.86000
20.00000,-1.97250,-37.99000
20.10000,-1.97920,-38.26000
20.20000,-1.98580,-38.39000
20.30000,-1.99250,-38.66000
20.40000,-1.99920,-38.80000
20.50000,-2.00580,-39.07000
20.60000,-2.01250,-39.20000
20.70000,-2.01920,-39.47000
20.80000,-2.02580,-39.60000
20.90000,-2.03250,-39.74000
21.00000,-2.03920,-39.87000
21.10000,-2.04580,-40.14000
21.20000,-2.05250,-40.41000
21.30000,-2.05920,-40.54000
21.40000,-2.06580,-40.68000
21.50000,-2.07250,-40.94000
21.60000,-2.07920,-41.21000
21.70000,-2.08580,-41.21000
21.80000,-2.09250,-41.48000
21.90000,-2.09920,-41.75000
22.00000,-2.10580,-41.88000
22.10000,-2.11250,-42.02000
22.20000,-2.11920,-42.29000
22.30000,-2.12580,-42.42000
22.40000,-2.13250,-42.69000
22.50000,-2.13910,-42.96000
22.60000,-2.14580,-43.09000
22.70000,-2.15250,-43.36000
22.80000,-2.15910,-43.49000
22.90000,-2.16580,-43.76000
23.00000,-2.17250,-43.76000
23.10000,-2.17910,-44.03000
23.20000,-2.18580,-44.30000
23.30000,-2.19250,-44.43000
23.40000,-2.19910,-44.57000
23.50000,-2.20580,-44.84000
23.60000,-2.21250,-44.97000
23.70000,-2.21910,-45.24000
23.80000,-2.22580,-45.37000
23.90000,-2.23250,-45.51000
24.00000,-2.23910,-45.78000
24.10000,-2.24580,-46.05000
24.20000,-2.25250,-46.18000
24.30000,-2.25910,-46.31000
24.40000,-2.26580,-46.45000
24.50000,-2.27250,-46.72000
24.60000,-2.27910,-46.98000
24.70000,-2.28580,-47.12000
24.80000,-2.29250,-47.39000
24.90000,-2.29910,-47.52000
25.00000,-2.30580,-47.79000
25.10000,-2.31250,-47.79000
25.20000,-2.31910,-46.31000
25.30000,-2.32580,-44.70000
25.40000,-2.33250,-44.97000
25.50000,-2.33910,-45.11000
25.60000,-2.34580,-45.37000
25.70000,-2.35250,-45.64000
25.80000,-2.35910,-45.78000
25.90000,-2.36580,-45.91000
26.00000,-2.37250,-46.18000
26.10000,-2.37910,-46.45000
26.20000,-2.38580,-46.72000
26.30000,-2.39250,-46.85000
26.40000,-2.39910,-47.12000
26.50000,-2.40580,-47.25000
26.60000,-2.41250,-47.52000
26.70000,-2.41910,-47.66000
26.80000,-2.42580,-47.92000
26.90000,-2.43250,-48.06000
27.00000,-2.43910,-48.33000
27.10000,-2.44580,-48.46000
27.20000,-2.45250,-48.73000
27.30000,-2.45910,-48.86000
27.40000,-2.46580,-49.00000
27.50000,-2.47250,-49.27000
27.60000,-2.47910,-49.54000
27.70000,-2.48580,-49.67000
27.80000,-2.49250,-49.94000
27.90000,-2.49910,-50.07000
28.00000,-2.50580,-50.21000
28.10000,-2.51250,-50.47000
28.20000,-2.51910,-50.61000
28.30000,-2.52580,-50.88000
28.40000,-2.53250,-51.01000
28.50000,-2.53910,-51.28000
28.60000,-2.54580,-51.41000
28.70000,-2.55250,-51.55000
28.80000,-2.55910,-51.82000
28.90000,-2.56580,-51.95000
29.00000,-2.57250,-52.22000
29.10000,-2.57910,-52.35000
29.20000,-2.58580,-52.62000
29.30000,-2.59250,-52.76000
29.40000,-2.59910,-53.03000
29.50000,-2.60580,-53.16000
29.60000,-2.61250,-53.29000
29.70000,-2.61910,-53.56000
29.80000,-2.62580,-53.83000
29.90000,-2.63250,-53.96000
30.00000,-2.63910,-54.23000
30.10000,-2.64580,-54.37000
30.20000,-2.65240,-54.50000
30.30000,-2.65910,-54.77000
30.40000,-2.66580,-55.04000
30.50000,-2.67240,-55.17000
30.60000,-2.67910,-55.31000
30.70000,-2.68580,-55.44000
30.80000,-2.69240,-55.71000
30.90000,-2.69910,-55.84000
31.00000,-2.70580,-56.11000
31.10000,-2.71240,-56.25000
31.20000,-2.71910,-56.52000
31.30000,-2.72580,-56.65000
31.40000,-2.73240,-56.78000
31.50000,-2.73910,-57.05000
31.60000,-2.74580,-57.32000
31.70000,-2.75240,-57.45000
31.80000,-2.75910,-57.59000
31.90000,-2.76580,-57.86000
32.00000,-2.77240,-57.99000
32.10000,-2.77910,-58.13000
32.20000,-2.78580,-58.39000
32.30000,-2.79240,-58.53000
32.40000,-2.79910,-58.80000
32.50000,-2.80580,-58.93000
32.60000,-2.81240,-59.20000
32.70000,-2.81910,-59.33000
32.80000,-2.82580,-59.60000
32.90000,-2.83240,-59.74000
33.00000,-2.83910,-60.00000
33.10000,-2.84580,-60.14000
33.20000,-2.85240,-60.41000
33.30000,-2.85910,-60.54000
33.40000,-2.86580,-60.81000
33.50000,-2.87240,-60.81000
33.60000,-2.87910,-61.08000
33.70000,-2.88580,-61.35000
33.80000,-2.89240,-61.48000
33.90000,-2.89910,-61.75000
34.00000,-2.90580,-61.88000
34.10000,-2.91240,-62.02000
34.20000,-2.91910,-62.29000
34.30000,-2.92580,-62.42000
34.40000,-2.93240,-62.69000
34.50000,-2.93910,-62.96000
34.60000,-2.94580,-63.09000
34.70000,-2.95240,-63.23000
34.80000,-2.95910,-63.36000
34.90000,-2.96580,-63.63000
35.00000,-2.97240,-63.76000
35.10000,-2.97910,-64.03000
35.20000,-2.98580,-64.17000
35.30000,-2.99240,-64.43000
35.40000,-2.99910,-64.57000
35.50000,-3.00580,-64.70000
35.60000,-3.01240,-64.97000
35.70000,-3.01910,-65.11000
35.80000,-3.02580,-65.37000
35.90000,-3.03240,-65.64000
36.00000,-3.03910,-65.64000
36.10000,-3.04580,-65.91000
36.20000,-3.05240,-66.05000
36.30000,-3.05910,-66.45000
36.40000,-3.06580,-66.45000
36.50000,-3.07240,-66.72000
36.60000,-3.07910,-66.98000
36.70000,-3.08580,-67.12000
36.80000,-3.09240,-67.25000
36.90000,-3.09910,-67.52000
37.00000,-3.10580,-67.66000
37.10000,-3.11240,-67.92000
37.20000,-3.11910,-68.06000
37.30000,-3.12580,-68.33000
37.40000,-3.13240,-68.46000
37.50000,-3.13910,-68.73000
37.60000,-3.14580,-68.86000
37.70000,-3.15240,-69.00000
37.80000,-3.15910,-69.27000
37.90000,-3.16580,-69.40000
38.00000,-3.17240,-69.67000
38.10000,-3.17910,-69.67000
38.20000,-3.18570,-69.94000
38.30000,-3.19240,-70.21000
38.40000,-3.19910,-70.34000
38.50000,-3.20570,-70.74000
38.60000,-3.21240,-70.74000
38.70000,-3.21910,-71.01000
38.80000,-3.22570,-71.15000
38.90000,-3.23240,-71.41000
39.00000,-3.23910,-71.55000
39.10000,-3.24570,-71.82000
39.20000,-3.25240,-71.95000
39.30000,-3.25910,-72.09000
39.40000,-3.26570,-72.35000
39.50000,-3.27240,-72.49000
39.60000,-3.27910,-72.76000
39.70000,-3.28570,-73.03000
39.80000,-3.29240,-73.16000
39.90000,-3.29910,-73.43000
40.00000,-3.30570,-73.56000
40.10000,-3.31240,-73.70000
40.20000,-3.31910,-73.83000
40.30000,-3.32570,-74.10000
40.40000,-3.33240,-74.23000
40.50000,-3.33910,-74.50000
40.60000,-3.34570,-74.77000
40.70000,-3.35240,-74.90000
40.80000,-3.35910,-75.17000
40.90000,-3.36570,-75.31000
41.00000,-3.37240,-75.58000
41.10000,-3.37910,-75.71000
41.20000,-3.38570,-75.98000
41.30000,-3.39240,-76.11000
41.40000,-3.39910,-76.25000
41.50000,-3.40570,-76.52000
41.60000,-3.41240,-76.65000
41.70000,-3.41910,-76.78000
41.80000,-3.42570,-77.05000
41.90000,-3.43240,-77.32000
42.00000,-3.43910,-77.45000
42.10000,-3.44570,-77.72000
42.20000,-3.45240,-77.86000
42.30000,-3.45910,-78.13000
42.40000,-3.46570,-78.26000
42.50000,-3.47240,-78.39000
42.60000,-3.47910,-78.66000
42.70000,-3.48570,-78.93000
42.80000,-3.49240,-79.07000
42.90000,-3.49910,-79.20000
43.00000,-3.50570,-79.47000
43.10000,-3.51240,-79.60000
43.20000,-3.51910,-79.87000
43.30000,-3.52570,-80.00000
43.40000,-3.53240,-80.27000
43.50000,-3.53910,-80.41000
43.60000,-3.54570,-80.68000
43.70000,-3.55240,-80.81000
43.80000,-3.55910,-81.08000
43.90000,-3.56570,-81.35000
44.00000,-3.57240,-81.48000
44.10000,-3.57910,-81.75000
44.20000,-3.58570,-81.88000
44.30000,-3.59240,-82.02000
44.40000,-3.59910,-82.29000
44.50000,-3.60570,-82.56000
44.60000,-3.61240,-82.69000
44.70000,-3.61910,-82.82000
44.80000,-3.62570,-83.09000
44.90000,-3.63240,-83.23000
45.00000,-3.63910,-83.49000
45.10000,-3.64570,-83.63000
45.20000,-3.65240,-83.90000
45.30000,-3.65910,-84.03000
45.40000,-3.66570,-84.17000
45.50000,-3.67240,-84.43000
45.60000,-3.67910,-84.70000
45.70000,-3.68570,-84.97000
45.80000,-3.69240,-85.11000
45.90000,-3.69900,-85.24000
46.00000,-3.70570,-85.51000
46.10000,-3.71240,-85.64000
46.20000,-3.71900,-85.91000
46.30000,-3.72570,-86.05000
46.40000,-3.73240,-86.31000
46.50000,-3.73900,-86.45000
46.60000,-3.74570,-86.72000
46.70000,-3.75240,-86.85000
46.80000,-3.75900,-87.12000
46.90000,-3.76570,-87.39000
47.00000,-3.77240,-87.52000
47.10000,-3.77900,-87.79000
47.20000,-3.78570,-87.92000
47.30000,-3.79240,-88.06000
47.40000,-3.79900,-88.33000
47.50000,-3.80570,-88.46000
47.60000,-3.81240,-88.60000
47.70000,-3.81900,-89.00000
47.80000,-3.82570,-89.13000
47.90000,-3.83240,-89.27000
48.00000,-3.83900,-89.54000
48.10000,-3.84570,-89.80000
48.20000,-3.85240,-89.94000
48.30000,-3.85900,-90.21000
48.40000,-3.86570,-90.34000
48.50000,-3.87240,-90.47000
48.60000,-3.87900,-90.74000
48.70000,-3.88570,-91.01000
48.80000,-3.89240,-91.15000
48.90000,-3.89900,-91.28000
49.00000,-3.90570,-91.55000
49.10000,-3.91240,-91.68000
49.20000,-3.91900,-91.95000
49.30000,-3.92570,-92.22000
49.40000,-3.93240,-92.35000
49.50000,-3.93900,-92.49000
49.60000,-3.94570,-92.62000
49.70000,-3.95240,-92.89000
49.80000,-3.95900,-93.03000
49.90000,-3.96570,-93.43000
50.00000,-3.97240,-93.56000
50.10000,-3.97900,-93.70000
50.20000,-3.98570,-93.96000
50.30000,-3.99240,-94.10000
50.40000,-3.99900,-94.37000
50.50000,-4.00570,-94.50000
50.60000,-4.01240,-94.77000
50.70000,-4.01900,-95.04000
50.80000,-4.02570,-95.04000
50.90000,-4.03240,-95.31000
51.00000,-4.03900,-95.44000
51.10000,-4.04570,-95.71000
51.20000,-4.05240,-95.84000
51.30000,-4.05900,-96.11000
51.40000,-4.06570,-96.25000
51.50000,-4.07240,-96.52000
51.60000,-4.07900,-96.78000
51.70000,-4.08570,-96.92000
51.80000,-4.09240,-97.19000
51.90000,-4.09900,-97.32000
52.00000,-4.10570,-97.59000
52.10000,-4.11240,-97.72000
52.20000,-4.11900,-97.86000
52.30000,-4.12570,-98.13000
52.40000,-4.13240,-98.26000
52.50000,-4.13900,-98.39000
52.60000,-4.14570,-98.66000
52.70000,-4.15240,-98.93000
52.80000,-4.15900,-99.20000
52.90000,-4.16570,-99.33000
53.00000,-4.17240,-99.47000
53.10000,-4.17900,-99.74000
53.20000,-4.18570,-99.87000
53.30000,-4.19240,-100.14000
53.40000,-4.19900,-100.27000
53.50000,-4.20570,-100.54000
53.60000,-4.21230,-100.68000
53.70000,-4.21900,-100.81000
53.80000,-4.22570,-101.08000
53.90000,-4.23230,-101.21000
54.00000,-4.23900,-101.48000
54.10000,-4.24570,-101.75000
54.20000,-4.25230,-101.88000
54.30000,-4.25900,-102.15000
54.40000,-4.26570,-102.29000
54.50000,-4.27230,-102.42000
54.60000,-4.27900,-102.56000
54.70000,-4.28570,-102.96000
54.80000,-4.29230,-102.96000
54.90000,-4.29900,-103.23000
55.00000,-4.30570,-103.36000
55.10000,-4.31230,-103.63000
55.20000,-4.31900,-103.76000
55.30000,-4.32570,-104.03000
55.40000,-4.33230,-104.30000
55.50000,-4.33900,-104.43000
55.60000,-4.34570,-104.57000
55.70000,-4.35230,-104.84000
55.80000,-4.35900,-104.97000
55.90000,-4.36570,-105.11000
56.00000,-4.37230,-105.37000
56.10000,-4.37900,-105.51000
56.20000,-4.38570,-105.78000
56.30000,-4.39230,-105.91000
56.40000,-4.39900,-106.18000
56.50000,-4.40570,-106.45000
56.60000,-4.41230,-106.58000
56.70000,-4.41900,-106.85000
56.80000,-4.42570,-106.98000
56.90000,-4.43230,-107.12000
57.00000,-4.43900,-107.39000
57.10000,-4.44570,-107.52000
57.20000,-4.45230,-107.66000
57.30000,-4.45900,-107.79000
57.40000,-4.46570,-108.06000
57.50000,-4.47230,-108.33000
57.60000,-4.47900,-108.46000
57.70000,-4.48570,-108.73000
57.80000,-4.49230,-109.00000
57.90000,-4.49900,-109.00000
58.00000,-4.50570,-109.27000
58.10000,-4.51230,-109.54000
58.20000,-4.51900,-109.67000
58.30000,-4.52570,-109.80000
58.40000,-4.53230,-109.94000
58.50000,-4.53900,-110.21000
58.60000,-4.54570,-110.34000
58.70000,-4.55230,-110.61000
58.80000,-4.55890,-110.88000
58.90000,-4.56560,-111.01000
59.00000,-4.57230,-111.28000
59.10000,-4.57890,-111.28000
59.20000,-4.58560,-111.55000
59.30000,-4.59230,-111.68000
59.40000,-4.59890,-111.95000
59.50000,-4.60560,-112.09000
59.60000,-4.61230,-112.22000
59.70000,-4.61890,-112.49000
59.80000,-4.62560,-112.76000
59.90000,-4.63230,-112.89000
60.00000,-4.63890,-113.16000
60.10000,-4.64560,-113.43000
60.20000,-4.65230,-113.43000
60.30000,-4.65890,-113.70000
60.40000,-4.66560,-113.83000
60.50000,-4.67230,-113.96000
60.60000,-4.67890,-114.23000
60.70000,-4.68560,-114.50000
60.80000,-4.69220,-114.64000
60.90000,-4.69890,-114.90000
61.00000,-4.70560,-114.90000
61.10000,-4.71220,-115.17000
61.20000,-4.71890,-115.31000
61.30000,-4.72560,-115.58000
61.40000,-4.73220,-115.71000
61.50000,-4.73890,-115.98000
61.60000,-4.74560,-116.11000
61.70000,-4.75220,-116.38000
61.80000,-4.75890,-116.52000
61.90000,-4.76560,-116.78000
62.00000,-4.77220,-116.92000
62.10000,-4.77890,-117.05000
62.20000,-4.78560,-117.32000
62.30000,-4.79220,-117.45000
62.40000,-4.79890,-117.72000
62.50000,-4.80560,-117.86000
62.60000,-4.81220,-117.99000
62.70000,-4.81890,-118.26000
62.80000,-4.82560,-118.53000
62.90000,-4.83220,-118.66000
63.00000,-4.83890,-118.80000
63.10000,-4.84560,-118.93000
63.20000,-4.85220,-119.07000
63.30000,-4.85890,-119.33000
63.40000,-4.86560,-119.47000
63.50000,-4.87220,-119.74000
63.60000,-4.87890,-120.00000
63.70000,-4.88560,-120.14000
63.80000,-4.89220,-120.27000
63.90000,-4.89890,-120.54000
64.00000,-4.90560,-120.68000
64.10001,-4.91220,-120.94000
64.20000,-4.91890,-121.08000
64.30000,-4.92560,-121.35000
64.40000,-4.93220,-121.48000
64.50000,-4.93890,-121.62000
64.60001,-4.94560,-121.75000
64.70000,-4.95220,-122.02000
64.80000,-4.95890,-122.15000
64.90000,-4.96560,-122.42000
65.00000,-4.97220,-122.56000
65.10001,-4.97890,-122.82000
65.20000,-4.98560,-122.96000
65.30000,-4.99220,-123.09000
65.40000,-4.99890,-123.36000
65.45000,-5.00220,-123.36000
65.55000,-5.00890,-123.63000
65.60001,-5.01220,-123.63000
65.70001,-5.01280,-123.76000
65.80000,-5.00610,-123.63000
65.90000,-4.99950,-123.36000
66.00000,-4.99280,-122.96000
66.10001,-4.98610,-122.42000
66.20001,-4.97950,-121.88000
66.30000,-4.97280,-121.35000
66.40000,-4.96610,-120.81000
66.50000,-4.95950,-120.27000
66.60001,-4.95280,-119.87000
66.70001,-4.94610,-119.47000
66.80000,-4.93950,-119.07000
66.90000,-4.93280,-118.66000
67.00000,-4.92610,-118.26000
67.10001,-4.91950,-117.99000
67.20001,-4.91280,-117.72000
67.30000,-4.90610,-117.32000
67.40000,-4.89950,-117.19000
67.50000,-4.89280,-116.78000
67.60001,-4.88610,-116.52000
67.70001,-4.87950,-116.25000
67.80000,-4.87280,-115.98000
67.90000,-4.86610,-115.71000
68.00000,-4.85950,-115.44000
68.10001,-4.85280,-115.17000
68.20001,-4.84610,-114.90000
68.30000,-4.83950,-114.64000
68.40000,-4.83280,-114.37000
68.50000,-4.82610,-113.96000
68.60001,-4.81950,-113.83000
68.70001,-4.81280,-113.43000
68.80000,-4.80610,-113.29000
68.90000,-4.79950,-113.03000
69.00000,-4.79280,-112.76000
69.10001,-4.78610,-112.35000
69.20001,-4.77950,-112.09000
69.30000,-4.77280,-111.82000
69.40000,-4.76610,-111.55000
69.50000,-4.75950,-111.28000
69.60001,-4.75280,-111.15000
69.70001,-4.74610,-110.88000
69.80000,-4.73950,-110.61000
69.90000,-4.73280,-110.34000
70.00000,-4.72610,-110.07000
70.10001,-4.71950,-109.80000
70.20001,-4.71280,-109.54000
70.30000,-4.70610,-109.40000
70.40000,-4.69950,-109.00000
70.50000,-4.69280,-108.86000
70.60001,-4.68610,-108.46000
70.70001,-4.67950,-108.33000
70.80000,-4.67280,-108.06000
70.90000,-4.66610,-107.92000
71.00000,-4.65950,-107.52000
71.10001,-4.65280,-107.25000
71.20001,-4.64610,-106.98000
71.30000,-4.63950,-106.72000
71.40000,-4.63280,-106.45000
71.50000,-4.62610,-106.31000
71.60001,-4.61950,-106.05000
71.70001,-4.61280,-105.78000
71.80000,-4.60610,-105.51000
71.90000,-4.59950,-105.24000
72.00000,-4.59280,-104.97000
72.10001,-4.58610,-104.70000
72.20001,-4.57950,-104.43000
72.30000,-4.57280,-104.30000
72.40000,-4.56610,-104.03000
72.50000,-4.55950,-103.63000
72.60001,-4.55280,-103.49000
72.70001,-4.54620,-103.23000
72.80000,-4.53960,-102.96000
72.90000,-4.53290,-102.82000
73.00000,-4.52620,-102.56000
73.10001,-4.51960,-102.29000
73.20001,-4.51290,-102.02000
73.30000,-4.50620,-101.75000
73.40000,-4.49960,-101.48000
73.50000,-4.49290,-101.21000
73.60001,-4.48620,-101.08000
73.70001,-4.47960,-100.81000
73.80000,-4.47290,-100.54000
73.90000,-4.46620,-100.27000
74.00000,-4.45960,-100.00000
74.10001,-4.45290,-99.74000
74.20001,-4.44620,-99.60000
74.30000,-4.43960,-99.47000
74.40000,-4.43290,-99.07000
74.50000,-4.42620,-98.80000
74.60001,-4.41960,-98.53000
74.70001,-4.41290,-98.39000
74.80000,-4.40620,-98.13000
74.90000,-4.39960,-97.99000
75.00000,-4.39290,-97.59000
75.10001,-4.38620,-97.45000
75.20001,-4.37960,-97.05000
75.30000,-4.37290,-96.92000
75.40000,-4.36620,-96.65000
75.50000,-4.35960,-96.38000
75.60001,-4.35290,-96.25000
75.70001,-4.34620,-95.98000
75.80000,-4.33960,-95.71000
75.90000,-4.33290,-95.58000
76.00000,-4.32620,-95.31000
76.10001,-4.31960,-95.04000
76.20001,-4.31290,-94.64000
76.30000,-4.30620,-94.50000
76.40000,-4.29960,-94.23000
76.50000,-4.29290,-93.96000
76.60001,-4.28620,-93.70000
76.70001,-4.27960,-93.43000
76.80000,-4.27290,-93.29000
76.90000,-4.26620,-93.16000
77.00000,-4.25960,-92.89000
77.10001,-4.25290,-92.62000
77.20001,-4.24620,-92.35000
77.30000,-4.23960,-92.09000
77.40000,-4.23290,-91.95000
77.50000,-4.22620,-91.68000
77.60001,-4.21960,-91.41000
77.70001,-4.21290,-91.15000
77.80000,-4.20620,-90.88000
77.90000,-4.19960,-90.74000
78.00000,-4.19290,-90.47000
78.10001,-4.18620,-90.21000
78.20001,-4.17960,-89.94000
78.30000,-4.17290,-89.80000
78.40000,-4.16620,-89.54000
78.50000,-4.15960,-89.27000
78.60001,-4.15290,-89.00000
78.70001,-4.14620,-88.86000
78.80000,-4.13960,-88.60000
78.90000,-4.13290,-88.33000
79.00000,-4.12620,-88.19000
79.10001,-4.11960,-87.92000
79.20001,-4.11290,-87.66000
79.30000,-4.10620,-87.52000
79.40000,-4.09960,-87.25000
79.50000,-4.09290,-86.98000
79.60001,-4.08620,-86.72000
79.70001,-4.07960,-86.58000
79.80000,-4.07290,-86.31000
79.90000,-4.06620,-86.05000
80.00000,-4.05960,-85.78000
80.10001,-4.05290,-85.64000
80.20001,-4.04620,-85.37000
80.30000,-4.03960,-85.11000
80.40000,-4.03290,-84.97000
80.50001,-4.02630,-84.57000
80.60001,-4.01960,-84.43000
80.70001,-4.01290,-84.17000
80.80000,-4.00630,-84.03000
80.90000,-3.99960,-83.76000
81.00001,-3.99290,-83.49000
81.10001,-3.98630,-83.23000
81.20001,-3.97960,-82.96000
81.30000,-3.97290,-82.82000
81.40000,-3.96630,-82.56000
81.50001,-3.95960,-82.29000
81.60001,-3.95290,-82.15000
81.70001,-3.94630,-81.88000
81.80000,-3.93960,-81.62000
81.90000,-3.93290,-81.35000
82.00001,-3.92630,-81.21000
82.10001,-3.91960,-80.94000
82.20001,-3.91290,-80.68000
82.30000,-3.90630,-80.54000
82.40000,-3.89960,-80.27000
82.50001,-3.89290,-80.00000
82.60001,-3.88630,-79.87000
82.70001,-3.87960,-79.60000
82.80000,-3.87290,-79.33000
82.90000,-3.86630,-79.20000
83.00001,-3.85960,-78.93000
83.10001,-3.85290,-78.80000
83.20001,-3.84630,-78.53000
83.30000,-3.83960,-78.26000
83.40000,-3.83290,-77.99000
83.50001,-3.82630,-77.86000
83.60001,-3.81960,-77.59000
83.70001,-3.81290,-77.32000
83.80000,-3.80630,-77.19000
83.90000,-3.79960,-76.92000
84.00001,-3.79290,-76.78000
84.10001,-3.78630,-76.38000
84.20001,-3.77960,-76.25000
84.30000,-3.77290,-75.98000
84.40000,-3.76630,-75.84000
84.50001,-3.75960,-75.58000
84.60001,-3.75290,-75.31000
84.70001,-3.74630,-75.04000
84.80000,-3.73960,-74.90000
84.90000,-3.73290,-74.64000
85.00001,-3.72630,-74.50000
85.10001,-3.71960,-74.23000
85.20001,-3.71290,-73.96000
85.30000,-3.70630,-73.70000
85.40000,-3.69960,-73.56000
85.50001,-3.69290,-73.29000
85.60001,-3.68630,-73.16000
85.70001,-3.67960,-72.89000
85.80000,-3.67290,-72.76000
85.90000,-3.66630,-72.49000
86.00001,-3.65960,-72.22000
86.10001,-3.65290,-71.95000
86.20001,-3.64630,-71.82000
86.30000,-3.63960,-71.55000
86.40000,-3.63290,-71.41000
86.50001,-3.62630,-71.01000
86.60001,-3.61960,-70.88000
86.70001,-3.61290,-70.74000
86.80000,-3.60630,-70.47000
86.90000,-3.59960,-70.34000
87.00001,-3.59290,-70.07000
87.10001,-3.58630,-69.94000
87.20001,-3.57960,-69.54000
87.30000,-3.57290,-69.40000
87.40000,-3.56630,-69.13000
87.50001,-3.55960,-69.00000
87.60001,-3.55290,-68.73000
87.70001,-3.54630,-68.46000
87.80000,-3.53960,-68.33000
87.90000,-3.53290,-68.06000
88.00001,-3.52630,-67.92000
88.10001,-3.51960,-67.66000
88.20001,-3.51300,-67.39000
88.30000,-3.50630,-67.12000
88.40000,-3.49960,-66.98000
88.50001,-3.49300,-66.72000
88.60001,-3.48630,-66.45000
88.70001,-3.47960,-66.31000
88.80000,-3.47300,-66.05000
88.90000,-3.46630,-65.91000
89.00001,-3.45960,-65.78000
89.10001,-3.45300,-65.51000
89.20001,-3.44630,-65.24000
89.30000,-3.43960,-64.97000
89.40000,-3.43300,-64.97000
89.50001,-3.42630,-64.57000
89.60001,-3.41960,-64.30000
89.70001,-3.41300,-64.17000
89.80000,-3.40630,-64.03000
89.90000,-3.39960,-63.76000
90.00001,-3.39300,-63.63000
90.10001,-3.38630,-63.36000
90.20001,-3.37960,-63.09000
90.30000,-3.37300,-62.82000
90.40000,-3.36630,-62.69000
90.50001,-3.35960,-62.42000
90.60001,-3.35300,-62.29000
90.70001,-3.34630,-62.02000
90.80000,-3.33960,-61.75000
90.90000,-3.33300,-61.62000
91.00001,-3.32630,-61.48000
91.10001,-3.31960,-61.21000
91.20001,-3.31300,-61.08000
91.30000,-3.30630,-60.81000
91.40000,-3.29960,-60.68000
91.50001,-3.29300,-60.41000
91.60001,-3.28630,-60.14000
91.70001,-3.27960,-60.00000
91.80000,-3.27300,-59.74000
91.90000,-3.26630,-59.47000
92.00001,-3.25960,-59.33000
92.10001,-3.25300,-59.07000
92.20001,-3.24630,-58.93000
92.30000,-3.23960,-58.66000
92.40000,-3.23300,-58.53000
92.50001,-3.22630,-58.39000
92.60001,-3.21960,-58.13000
92.70001,-3.21300,-57.86000
92.80000,-3.20630,-57.59000
92.90000,-3.19960,-57.32000
93.00001,-3.19300,-57.19000
93.10001,-3.18630,-56.92000
93.20001,-3.17960,-56.78000
93.30000,-3.17300,-56.52000
93.40000,-3.16630,-56.38000
93.50001,-3.15960,-56.25000
93.60001,-3.15300,-55.98000
93.70001,-3.14630,-55.71000
93.80000,-3.13960,-55.58000
93.90000,-3.13300,-55.31000
94.00001,-3.12630,-55.31000
94.10001,-3.11960,-55.04000
94.20001,-3.11300,-54.77000
94.30000,-3.10630,-54.64000
94.40000,-3.09960,-54.37000
94.50001,-3.09300,-54.10000
94.60001,-3.08630,-53.96000
94.70001,-3.07960,-53.70000
94.80000,-3.07300,-53.56000
94.90000,-3.06630,-53.43000
95.00001,-3.05960,-53.16000
95.10001,-3.05300,-53.03000
95.20001,-3.04630,-52.89000
95.30000,-3.03960,-52.62000
95.40000,-3.03300,-52.35000
95.50001,-3.02630,-52.09000
95.60001,-3.01960,-51.95000
95.70001,-3.01300,-51.82000
95.80000,-3.00630,-51.68000
95.90000,-2.99960,-51.41000
96.00001,-2.99300,-51.28000
96.10001,-2.98630,-51.01000
96.20001,-2.97970,-50.74000
96.30000,-2.97300,-50.61000
96.40000,-2.96630,-50.34000
96.50001,-2.95970,-50.07000
96.60001,-2.95300,-49.94000
96.70001,-2.94630,-49.67000
96.80000,-2.93970,-49.54000
96.90000,-2.93300,-49.27000
97.00001,-2.92630,-49.13000
97.10001,-2.91970,-48.86000
97.20001,-2.91300,-48.73000
97.30000,-2.90630,-48.60000
97.40000,-2.89970,-48.33000
97.50001,-2.89300,-48.19000
97.60001,-2.88630,-48.06000
97.70001,-2.87970,-47.79000
97.80000,-2.87300,-47.52000
97.90000,-2.86630,-47.39000
98.00001,-2.85970,-47.12000
98.10001,-2.85300,-47.12000
98.20001,-2.84630,-46.72000
98.30000,-2.83970,-46.58000
98.40000,-2.83300,-46.45000
98.50001,-2.82630,-46.18000
98.60001,-2.81970,-46.05000
98.70001,-2.81300,-45.78000
98.80000,-2.80630,-45.64000
98.90000,-2.79970,-45.37000
99.00001,-2.79300,-45.11000
99.10001,-2.78630,-44.97000
99.20001,-2.77970,-44.70000
99.30000,-2.77300,-44.70000
99.40000,-2.76630,-44.43000
99.50001,-2.75970,-44.30000
99.60001,-2.75300,-43.90000
99.70001,-2.74630,-43.90000
99.80000,-2.73970,-43.63000
99.90000,-2.73300,-43.49000
100.00001,-2.72630,-43.23000
100.10001,-2.71970,-43.09000
100.20001,-2.71300,-42.82000
100.30000,-2.70630,-42.69000
100.40000,-2.69970,-42.42000
100.50001,-2.69300,-42.29000
100.60001,-2.68630,-42.02000
100.70001,-2.67970,-41.88000
100.80000,-2.67300,-41.62000
100.90000,-2.66630,-41.48000
101.00001,-2.65970,-41.21000
101.10001,-2.65300,-41.08000
101.20001,-2.64630,-40.94000
101.30000,-2.63970,-40.68000
101.40000,-2.63300,-40.54000
101.50001,-2.62630,-40.27000
101.60001,-2.61970,-40.00000
101.70001,-2.61300,-39.87000
101.80000,-2.60630,-39.74000
101.90000,-2.59970,-39.47000
102.00001,-2.59300,-39.33000
102.10001,-2.58630,-39.20000
102.20001,-2.57970,-38.93000
102.30000,-2.57300,-38.66000
102.40000,-2.56630,-38.53000
102.50001,-2.55970,-38.39000
102.60001,-2.55300,-38.13000
102.70001,-2.54630,-37.99000
102.80000,-2.53970,-37.72000
102.90000,-2.53300,-37.59000
103.00001,-2.52630,-37.45000
103.10001,-2.51970,-37.19000
103.20001,-2.51300,-37.05000
103.30000,-2.50630,-36.92000
103.40000,-2.49970,-36.65000
103.50001,-2.49300,-36.38000
103.60001,-2.48630,-36.11000
103.70001,-2.47970,-35.98000
103.80000,-2.47300,-35.84000
103.90000,-2.46640,-35.58000
104.00001,-2.45970,-35.44000
104.10001,-2.45300,-35.31000
104.20001,-2.44640,-35.04000
104.30000,-2.43970,-34.90000
104.40000,-2.43300,-34.64000
104.50001,-2.42640,-34.50000
104.60001,-2.41970,-34.23000
104.70001,-2.41300,-34.23000
104.80000,-2.40640,-33.96000
104.90000,-2.39970,-33.70000
105.00001,-2.39300,-33.43000
105.10001,-2.38640,-33.29000
105.20001,-2.37970,-33.16000
105.30000,-2.37300,-32.89000
105.40000,-2.36640,-32.76000
105.50001,-2.35970,-32.62000
105.60001,-2.35300,-32.35000
105.70001,-2.34640,-32.22000
105.80000,-2.33970,-31.95000
105.90000,-2.33300,-31.82000
106.00001,-2.32640,-31.68000
106.10001,-2.31970,-31.41000
106.20001,-2.31300,-31.28000
106.30000,-2.30640,-31.01000
106.40000,-2.29970,-30.74000
106.50001,-2.29300,-30.61000
106.60001,-2.28640,-30.47000
106.70001,-2.27970,-30.34000
106.80000,-2.27300,-30.07000
106.90000,-2.26640,-29.94000
107.00001,-2.25970,-29.67000
107.10001,-2.25300,-29.54000
107.20001,-2.24640,-29.27000
107.30000,-2.23970,-29.13000
107.40000,-2.23300,-29.00000
107.50001,-2.22640,-28.73000
107.60001,-2.21970,-28.60000
107.70001,-2.21300,-28.33000
107.80000,-2.20640,-28.19000
107.90000,-2.19970,-28.06000
108.00001,-2.19300,-27.79000
108.10001,-2.18640,-27.66000
108.20001,-2.17970,-27.39000
108.30000,-2.17300,-27.25000
108.40000,-2.16640,-26.98000
108.50001,-2.15970,-26.85000
108.60001,-2.15300,-26.72000
108.70001,-2.14640,-26.45000
108.80000,-2.13970,-26.31000
108.90000,-2.13300,-26.05000
109.00001,-2.12640,-25.91000
109.10001,-2.11970,-25.64000
109.20001,-2.11300,-25.51000
109.30000,-2.10640,-25.37000
109.40000,-2.09970,-25.11000
109.50001,-2.09300,-24.97000
109.60001,-2.08640,-24.70000
109.70001,-2.07970,-24.43000
109.80000,-2.07300,-24.30000
109.90000,-2.06640,-24.17000
110.00001,-2.05970,-23.90000
110.10001,-2.05300,-23.76000
110.20001,-2.04640,-23.63000
110.30000,-2.03970,-23.49000
110.40000,-2.03300,-23.23000
110.50001,-2.02640,-23.09000
110.60001,-2.01970,-22.82000
110.70001,-2.01300,-22.69000
110.80000,-2.00640,-22.56000
110.90000,-1.99970,-22.29000
111.00001,-1.99300,-22.02000
111.10001,-1.98640,-21.88000
111.20001,-1.97970,-21.75000
111.30000,-1.97300,-21.48000
111.40000,-1.96640,-21.48000
111.50001,-1.95970,-21.21000
111.60001,-1.95300,-21.08000
111.70001,-1.94640,-20.81000
111.80000,-1.93970,-20.68000
111.90000,-1.93310,-20.41000
112.00001,-1.92640,-20.27000
112.10001,-1.91970,-20.14000
112.20001,-1.91310,-20.00000
112.30000,-1.90640,-19.74000
112.40000,-1.89970,-19.47000
112.50001,-1.89310,-19.33000
112.60001,-1.88640,-19.07000
112.70001,-1.87970,-18.93000
112.80000,-1.87310,-18.80000
112.90001,-1.86640,-18.66000
113.00001,-1.85970,-18.53000
113.10001,-1.85310,-18.26000
113.20001,-1.84640,-18.13000
113.30000,-1.83970,-17.86000
113.40001,-1.83310,-17.72000
113.50001,-1.82640,-17.45000
113.60001,-1.81970,-17.32000
113.70001,-1.81310,-17.19000
113.80000,-1.80640,-16.92000
113.90001,-1.79970,-16.78000
114.00001,-1.79310,-16.65000
114.10001,-1.78640,-16.52000
114.20001,-1.77970,-16.25000
114.30000,-1.77310,-16.11000
114.40001,-1.76640,-15.84000
114.50001,-1.75970,-15.71000
114.60001,-1.75310,-15.44000
114.70001,-1.74640,-15.31000
114.80000,-1.73970,-15.17000
114.90001,-1.73310,-14.90000
115.00001,-1.72640,-14.77000
115.10001,-1.71970,-14.64000
115.20001,-1.71310,-14.50000
115.30000,-1.70640,-14.37000
115.40001,-1.69970,-14.10000
115.50001,-1.69310,-13.96000
115.60001,-1.68640,-13.83000
115.70001,-1.67970,-13.56000
115.80000,-1.67310,-13.29000
115.90001,-1.66640,-13.16000
116.00001,-1.65970,-13.03000
116.10001,-1.65310,-12.89000
116.20001,-1.64640,-12.76000
116.30000,-1.63970,-12.49000
116.40001,-1.63310,-12.35000
116.50001,-1.62640,-12.09000
116.60001,-1.61970,-11.95000
116.70001,-1.61310,-11.68000
116.80000,-1.60640,-11.68000
116.90001,-1.59970,-11.41000
117.00001,-1.59310,-11.28000
117.10001,-1.58640,-11.01000
117.20001,-1.57970,-10.88000
117.30000,-1.57310,-10.74000
117.40001,-1.56640,-10.61000
117.50001,-1.55970,-10.34000
117.60001,-1.55310,-10.21000
117.70001,-1.54640,-9.94000
117.80000,-1.53970,-9.80000
117.90001,-1.53310,-9.67000
118.00001,-1.52640,-9.54000
118.10001,-1.51970,-9.27000
118.20001,-1.51310,-9.13000
118.30000,-1.50640,-9.00000
118.40001,-1.49970,-8.73000
118.50001,-1.49310,-8.60000
118.60001,-1.48640,-8.33000
118.70001,-1.47970,-8.19000
118.80000,-1.47310,-8.06000
118.90001,-1.46640,-7.79000
119.00001,-1.45970,-7.79000
119.10001,-1.45310,-7.52000
119.20001,-1.44640,-7.39000
119.30000,-1.43970,-7.12000
119.40001,-1.43310,-6.98000
119.50001,-1.42640,-6.85000
119.60001,-1.41980,-6.72000
119.70001,-1.41310,-6.45000
119.80000,-1.40640,-6.31000
119.90001,-1.39980,-6.18000
120.00001,-1.39310,-5.91000
120.10001,-1.38640,-5.91000
120.20001,-1.37980,-5.64000
120.30000,-1.37310,-5.51000
120.40001,-1.36640,-5.37000
120.50001,-1.35980,-5.11000
120.60001,-1.35310,-4.97000
120.70001,-1.34640,-4.70000
120.80000,-1.33980,-4.57000
120.90001,-1.33310,-4.43000
121.00001,-1.32640,-4.30000
121.10001,-1.31980,-4.17000
121.20001,-1.31310,-3.90000
121.30000,-1.30640,-3.76000
121.40001,-1.29980,-3.63000
121.50001,-1.29310,-3.49000
121.60001,-1.28640,-3.23000
121.70001,-1.27980,-3.09000
121.80000,-1.27310,-2.96000
121.90001,-1.26640,-2.69000
122.00001,-1.25980,-2.42000
122.10001,-1.25310,-2.42000
122.20001,-1.24640,-2.29000
122.30000,-1.23980,-2.15000
122.40001,-1.23310,-1.88000
122.50001,-1.22640,-1.75000
122.60001,-1.21980,-1.62000
122.70001,-1.21310,-1.35000
122.80000,-1.20640,-1.35000
122.90001,-1.19980,-1.08000
122.95001,-1.19640,-0.94000
123.05000,-1.18980,-0.94000
123.10001,-1.18640,-0.68000
123.20001,-1.18590,-0.41000
123.30000,-1.19250,-0.54000
123.40001,-1.19920,-0.81000
123.50001,-1.20590,-1.08000
123.60001,-1.21250,-1.35000
123.70001,-1.21920,-1.62000
123.80000,-1.22590,-1.88000
123.90001,-1.23250,-2.02000
124.00001,-1.23920,-2.29000
124.10001,-1.24590,-2.56000
124.20001,-1.25250,-2.82000
124.30000,-1.25920,-3.09000
124.40001,-1.26590,-3.36000
124.50001,-1.27250,-3.49000
124.60001,-1.27920,-3.76000
124.70001,-1.28590,-4.03000
124.80000,-1.29250,-4.17000
124.90001,-1.29920,-4.57000
125.00001,-1.30590,-4.70000
125.10001,-1.31250,-4.97000
125.20001,-1.31920,-5.11000
125.30000,-1.32590,-5.37000
125.40001,-1.33250,-5.64000
125.50001,-1.33920,-5.91000
125.60001,-1.34590,-6.05000
125.70001,-1.35250,-6.31000
125.80000,-1.35920,-6.58000
125.90001,-1.36590,-6.72000
126.00001,-1.37250,-6.98000
126.10001,-1.37920,-7.12000
126.20001,-1.38590,-7.39000
126.30000,-1.39250,-7.66000
126.40001,-1.39920,-7.92000
126.50001,-1.40590,-8.06000
126.60001,-1.41250,-8.33000
126.70001,-1.41920,-8.46000
126.80000,-1.42590,-8.73000
126.90001,-1.43250,-9.00000
127.00001,-1.43920,-9.27000
127.10001,-1.44590,-9.54000
127.20001,-1.45250,-9.67000
127.30000,-1.45920,-9.94000
127.40001,-1.46590,-10.07000
127.50001,-1.47250,-10.34000
127.60001,-1.47920,-10.61000
127.70001,-1.48590,-10.74000
127.80000,-1.49250,-10.88000
127.90001,-1.49920,-11.15000
128.00000,-1.50590,-11.28000
128.10001,-1.51250,-11.55000
128.20002,-1.51920,-11.82000
128.30000,-1.52590,-12.09000
128.40001,-1.53250,-12.22000
128.50000,-1.53920,-12.49000
128.60001,-1.54590,-12.62000
128.70002,-1.55250,-12.89000
128.80000,-1.55920,-13.03000
128.90001,-1.56590,-13.29000
129.00000,-1.57250,-13.43000
129.10001,-1.57920,-13.70000
129.20002,-1.58590,-13.83000
129.30000,-1.59250,-14.10000
129.40001,-1.59920,-14.37000
129.50000,-1.60580,-14.50000
129.60001,-1.61250,-14.77000
129.70002,-1.61920,-15.04000
129.80000,-1.62580,-15.04000
129.90001,-1.63250,-15.44000
130.00000,-1.63920,-15.58000
130.10001,-1.64580,-15.84000
130.20002,-1.65250,-15.98000
130.30000,-1.65920,-16.38000
130.40001,-1.66580,-16.52000
130.50000,-1.67250,-16.65000
130.60001,-1.67920,-16.92000
130.70002,-1.68580,-17.05000
130.80000,-1.69250,-17.32000
130.90001,-1.69920,-17.59000
131.00000,-1.70580,-17.72000
131.10000,-1.71250,-17.99000
131.20002,-1.71920,-18.13000
131.30000,-1.72580,-18.26000
131.40002,-1.73250,-18.53000
131.50000,-1.73920,-18.66000
131.60000,-1.74580,-18.93000
131.70002,-1.75250,-19.20000
131.80000,-1.75920,-19.33000
131.90002,-1.76580,-19.60000
132.00000,-1.77250,-19.74000
132.10000,-1.77920,-20.00000
132.20002,-1.78580,-20.14000
132.30000,-1.79250,-20.41000
132.40002,-1.79920,-20.68000
132.50000,-1.80580,-20.81000
132.60000,-1.81250,-20.94000
132.70002,-1.81920,-21.21000
132.80000,-1.82580,-21.35000
132.90002,-1.83250,-21.48000
133.00000,-1.83920,-21.88000
133.10000,-1.84580,-22.02000
133.20002,-1.85250,-22.29000
133.30000,-1.85920,-22.42000
133.40002,-1.86580,-22.69000
133.50000,-1.87250,-22.96000
133.60000,-1.87920,-23.09000
133.70002,-1.88580,-23.36000
133.80000,-1.89250,-23.49000
133.90002,-1.89920,-23.63000
134.00000,-1.90580,-23.76000
134.10000,-1.91250,-24.03000
134.20002,-1.91920,-24.30000
134.30000,-1.92580,-24.57000
134.40002,-1.93250,-24.70000
134.50000,-1.93920,-24.97000
134.60000,-1.94580,-25.11000
134.70002,-1.95250,-25.37000
134.80000,-1.95920,-25.64000
134.90002,-1.96580,-25.78000
135.00000,-1.97250,-25.91000
135.10000,-1.97920,-26.18000
135.20002,-1.98580,-26.31000
135.30000,-1.99250,-26.58000
135.40002,-1.99920,-26.72000
135.50000,-2.00580,-26.98000
135.60000,-2.01250,-27.25000
135.70002,-2.01920,-27.39000
135.80000,-2.02580,-27.66000
135.90002,-2.03250,-27.79000
136.00000,-2.03920,-27.92000
136.10000,-2.04580,-28.19000
136.20002,-2.05250,-28.46000
136.30000,-2.05920,-28.60000
136.40002,-2.06580,-28.86000
136.50000,-2.07250,-29.00000
136.60000,-2.07920,-29.13000
136.70002,-2.08580,-29.27000
136.80000,-2.09250,-29.67000
136.90002,-2.09920,-29.80000
137.00000,-2.10580,-30.07000
137.10000,-2.11250,-30.21000
137.20002,-2.11920,-30.47000
137.30000,-2.12580,-30.61000
137.40002,-2.13250,-30.88000
137.50000,-2.13910,-31.01000
137.60000,-2.14580,-31.28000
137.70002,-2.15250,-31.41000
137.80000,-2.15910,-31.68000
137.90002,-2.16580,-31.82000
138.00000,-2.17250,-32.09000
138.10000,-2.17910,-32.22000
138.20002,-2.18580,-32.49000
138.30000,-2.19250,-32.62000
138.40002,-2.19910,-32.89000
138.50000,-2.20580,-33.03000
138.60000,-2.21250,-33.29000
138.70002,-2.21910,-33.43000
138.80000,-2.22580,-33.70000
138.90002,-2.23250,-33.83000
139.00000,-2.23910,-34.10000
139.10000,-2.24580,-34.37000
139.20002,-2.25250,-34.50000
139.30000,-2.25910,-34.64000
139.40002,-2.26580,-34.90000
139.50000,-2.27250,-35.04000
139.60000,-2.27910,-35.31000
139.70002,-2.28580,-35.44000
139.80000,-2.29250,-35.71000
139.90002,-2.29910,-35.84000
140.00000,-2.30580,-36.11000
140.10000,-2.31250,-36.25000
140.20002,-2.31910,-36.52000
140.30000,-2.32580,-36.65000
140.40002,-2.33250,-36.92000
140.50000,-2.33910,-37.19000
140.60000,-2.34580,-37.32000
140.70002,-2.35250,-37.45000
140.80000,-2.35910,-37.72000
140.90002,-2.36580,-37.86000
141.00000,-2.37250,-38.13000
141.10000,-2.37910,-38.39000
141.20002,-2.38580,-38.53000
141.30000,-2.39250,-38.66000
141.40002,-2.39910,-38.93000
141.50000,-2.40580,-39.07000
141.60000,-2.41250,-39.33000
141.70002,-2.41910,-39.60000
141.80000,-2.42580,-39.74000
141.90002,-2.43250,-39.87000
142.00000,-2.43910,-40.14000
142.10000,-2.44580,-40.27000
142.20002,-2.45250,-40.54000
142.30000,-2.45910,-40.68000
142.40002,-2.46580,-40.94000
142.50000,-2.47250,-41.08000
142.60000,-2.47910,-41.35000
142.70002,-2.48580,-41.48000
142.80000,-2.49250,-41.75000
142.90002,-2.49910,-41.88000
143.00000,-2.50580,-42.15000
143.10000,-2.51250,-42.29000
143.20002,-2.51910,-42.56000
143.30000,-2.52580,-42.69000
143.40002,-2.53250,-42.96000
143.50000,-2.53910,-43.09000
143.60000,-2.54580,-43.36000
143.70002,-2.55250,-43.49000
143.80000,-2.55910,-43.76000
143.90002,-2.56580,-43.90000
144.00000,-2.57250,-44.03000
144.10000,-2.57910,-44.30000
144.20002,-2.58580,-44.43000
144.30000,-2.59250,-44.70000
144.40002,-2.59910,-44.97000
144.50000,-2.60580,-45.11000
144.60000,-2.61250,-45.37000
144.70002,-2.61910,-45.51000
144.80000,-2.62580,-45.64000
144.90002,-2.63250,-45.78000
145.00000,-2.63910,-46.05000
145.10000,-2.64580,-46.18000
145.20002,-2.65240,-46.45000
145.30000,-2.65910,-46.72000
145.40002,-2.66580,-46.98000
145.50000,-2.67240,-47.12000
145.60000,-2.67910,-47.25000
145.70002,-2.68580,-47.52000
145.80000,-2.69240,-47.66000
145.90002,-2.69910,-47.92000
146.00000,-2.70580,-48.06000
146.10000,-2.71240,-48.19000
146.20002,-2.71910,-48.46000
146.30000,-2.72580,-48.73000
146.40002,-2.73240,-48.86000
146.50000,-2.73910,-49.13000
146.60000,-2.74580,-49.27000
146.70002,-2.75240,-49.54000
146.80000,-2.75910,-49.67000
146.90002,-2.76580,-49.94000
147.00000,-2.77240,-50.07000
147.10000,-2.77910,-50.34000
147.20002,-2.78580,-50.47000
147.30000,-2.79240,-50.74000
147.40002,-2.79910,-50.88000
147.50000,-2.80580,-51.01000
147.60000,-2.81240,-51.28000
147.70002,-2.81910,-51.55000
147.80000,-2.82580,-51.68000
147.90002,-2.83240,-51.82000
148.00000,-2.83910,-52.09000
148.10000,-2.84580,-52.22000
148.20002,-2.85240,-52.49000
148.30000,-2.85910,-52.62000
148.40002,-2.86580,-52.89000
148.50000,-2.87240,-53.03000
148.60000,-2.87910,-53.29000
148.70002,-2.88580,-53.43000
148.80000,-2.89240,-53.70000
148.90002,-2.89910,-53.96000
149.00000,-2.90580,-54.10000
149.10000,-2.91240,-54.23000
149.20002,-2.91910,-54.50000
149.30000,-2.92580,-54.64000
149.40002,-2.93240,-54.90000
149.50000,-2.93910,-55.04000
149.60000,-2.94580,-55.31000
149.70002,-2.95240,-55.44000
149.80000,-2.95910,-55.71000
149.90002,-2.96580,-55.84000
150.00000,-2.97240,-56.11000
150.10000,-2.97910,-56.25000
150.20002,-2.98580,-56.38000
150.30000,-2.99240,-56.65000
150.40002,-2.99910,-56.92000
150.50000,-3.00580,-57.05000
150.60000,-3.01240,-57.19000
150.70002,-3.01910,-57.45000
150.80000,-3.02580,-57.59000
150.90002,-3.03240,-57.72000
151.00000,-3.03910,-57.99000
151.10000,-3.04580,-58.26000
151.20002,-3.05240,-58.39000
151.30000,-3.05910,-58.66000
151.40002,-3.06580,-58.80000
151.50000,-3.07240,-59.07000
151.60000,-3.07910,-59.33000
151.70002,-3.08580,-59.47000
151.80000,-3.09240,-59.60000
151.90002,-3.09910,-59.87000
152.00000,-3.10580,-60.00000
152.10000,-3.11240,-60.27000
152.20002,-3.11910,-60.41000
152.30000,-3.12580,-60.68000
152.40002,-3.13240,-60.81000
152.50000,-3.13910,-61.08000
152.60000,-3.14580,-61.35000
152.70002,-3.15240,-61.48000
152.80000,-3.15910,-61.75000
152.90002,-3.16580,-61.88000
153.00000,-3.17240,-62.02000
153.10000,-3.17910,-62.29000
153.20002,-3.18570,-62.42000
153.30000,-3.19240,-62.69000
153.40002,-3.19910,-62.96000
153.50000,-3.20570,-63.09000
153.60000,-3.21240,-63.36000
153.70002,-3.21910,-63.49000
153.80000,-3.22570,-63.76000
153.90002,-3.23240,-63.90000
154.00000,-3.23910,-64.17000
154.10000,-3.24570,-64.30000
154.20002,-3.25240,-64.57000
154.30000,-3.25910,-64.70000
154.40002,-3.26570,-64.97000
154.50000,-3.27240,-65.24000
154.60000,-3.27910,-65.37000
154.70002,-3.28570,-65.64000
154.80000,-3.29240,-65.78000
154.90002,-3.29910,-65.91000
155.00000,-3.30570,-66.18000
155.10000,-3.31240,-66.45000
155.20002,-3.31910,-66.58000
155.30000,-3.32570,-66.85000
155.40002,-3.33240,-66.98000
155.50000,-3.33910,-67.25000
155.60000,-3.34570,-67.39000
155.70002,-3.35240,-67.66000
155.80000,-3.35910,-67.92000
155.90002,-3.36570,-68.06000
156.00000,-3.37240,-68.19000
156.10000,-3.37910,-68.46000
156.20002,-3.38570,-68.73000
156.30000,-3.39240,-68.86000
156.40002,-3.39910,-69.13000
156.50000,-3.40570,-69.40000
156.60000,-3.41240,-69.54000
156.70002,-3.41910,-69.80000
156.80000,-3.42570,-69.94000
156.90002,-3.43240,-70.21000
157.00000,-3.43910,-70.34000
157.10000,-3.44570,-70.47000
157.20002,-3.45240,-70.74000
157.30000,-3.45910,-71.01000
157.40002,-3.46570,-71.28000
157.50000,-3.47240,-71.41000
157.60000,-3.47910,-71.68000
157.70002,-3.48570,-71.82000
157.80000,-3.49240,-71.95000
157.90002,-3.49910,-72.22000
158.00000,-3.50570,-72.49000
158.10000,-3.51240,-72.62000
158.20002,-3.51910,-72.89000
158.30000,-3.52570,-72.89000
158.40002,-3.53240,-73.29000
158.50000,-3.53910,-73.56000
158.60000,-3.54570,-73.70000
158.70002,-3.55240,-73.96000
158.80000,-3.55910,-74.10000
158.90002,-3.56570,-74.37000
159.00000,-3.57240,-74.50000
159.10000,-3.57910,-74.77000
159.20002,-3.58570,-74.90000
159.30000,-3.59240,-75.17000
159.40002,-3.59910,-75.44000
159.50000,-3.60570,-75.58000
159.60000,-3.61240,-75.84000
159.70002,-3.61910,-75.98000
159.80000,-3.62570,-76.25000
159.90002,-3.63240,-76.38000
160.00000,-3.63910,-76.78000
160.10000,-3.64570,-76.78000
160.20002,-3.65240,-77.05000
160.30000,-3.65910,-77.32000
160.40002,-3.66570,-77.45000
160.50000,-3.67240,-77.59000
160.60000,-3.67910,-77.86000
160.70002,-3.68570,-78.13000
160.80000,-3.69240,-78.26000
160.90002,-3.69900,-78.39000
161.00002,-3.70570,-78.66000
161.10000,-3.71240,-78.93000
161.20002,-3.71900,-79.20000
161.30000,-3.72570,-79.33000
161.40002,-3.73240,-79.60000
161.50002,-3.73900,-79.74000
161.60000,-3.74570,-80.00000
161.70002,-3.75240,-80.14000
161.80000,-3.75900,-80.41000
161.90002,-3.76570,-80.54000
162.00002,-3.77240,-80.81000
162.10000,-3.77900,-80.94000
162.20002,-3.78570,-81.21000
162.30000,-3.79240,-81.35000
162.40002,-3.79900,-81.62000
162.50002,-3.80570,-81.75000
162.60000,-3.81240,-82.02000
162.70002,-3.81900,-82.29000
162.80000,-3.82570,-82.42000
162.90002,-3.83240,-82.69000
163.00002,-3.83900,-82.82000
163.10000,-3.84570,-82.96000
163.20002,-3.85240,-83.23000
163.30000,-3.85900,-83.49000
163.40002,-3.86570,-83.63000
163.50002,-3.87240,-83.76000
163.60000,-3.87900,-84.17000
163.70002,-3.88570,-84.30000
163.80000,-3.89240,-84.57000
163.90002,-3.89900,-84.70000
164.00002,-3.90570,-84.84000
164.10000,-3.91240,-84.97000
164.20002,-3.91900,-85.24000
164.30000,-3.92570,-85.51000
164.40002,-3.93240,-85.64000
164.50002,-3.93900,-85.91000
164.60000,-3.94570,-86.18000
164.70002,-3.95240,-86.31000
164.80000,-3.95900,-86.58000
164.90002,-3.96570,-86.85000
165.00002,-3.97240,-86.98000
165.10000,-3.97900,-87.25000
165.20002,-3.98570,-87.39000
165.30000,-3.99240,-87.66000
165.40002,-3.99900,-87.92000
165.50002,-4.00570,-88.06000
165.60000,-4.01240,-88.19000
165.70002,-4.01900,-88.46000
165.80000,-4.02570,-88.60000
165.90002,-4.03240,-88.73000
166.00002,-4.03900,-89.00000
166.10000,-4.04570,-89.27000
166.20002,-4.05240,-89.54000
166.30000,-4.05900,-89.67000
166.40002,-4.06570,-89.80000
166.50002,-4.07240,-90.07000
166.60000,-4.07900,-90.34000
166.70002,-4.08570,-90.47000
166.80000,-4.09240,-90.74000
166.90002,-4.09900,-90.88000
167.00002,-4.10570,-91.01000
167.10000,-4.11240,-91.28000
167.20002,-4.11900,-91.55000
167.30000,-4.12570,-91.68000
167.40002,-4.13240,-91.95000
167.50002,-4.13900,-92.22000
167.60000,-4.14570,-92.49000
167.70002,-4.15240,-92.49000
167.80000,-4.15900,-92.76000
167.90002,-4.16570,-93.03000
168.00002,-4.17240,-93.16000
168.10000,-4.17900,-93.43000
168.20002,-4.18570,-93.56000
168.30000,-4.19240,-93.70000
168.40002,-4.19900,-93.96000
168.50002,-4.20570,-94.23000
168.60000,-4.21230,-94.50000
168.70002,-4.21900,-94.64000
168.80000,-4.22570,-94.77000
168.90002,-4.23230,-95.04000
169.00002,-4.23900,-95.31000
169.10000,-4.24570,-95.31000
169.20002,-4.25230,-95.58000
169.30000,-4.25900,-95.71000
169.40002,-4.26570,-95.98000
169.50002,-4.27230,-96.25000
169.60000,-4.27900,-96.52000
169.70002,-4.28570,-96.65000
169.80000,-4.29230,-96.78000
169.90002,-4.29900,-97.05000
170.00002,-4.30570,-97.32000
170.10000,-4.31230,-97.45000
170.20002,-4.31900,-97.72000
170.30000,-4.32570,-97.86000
170.40002,-4.33230,-98.13000
170.50002,-4.33900,-98.26000
170.60000,-4.34570,-98.53000
170.70002,-4.35230,-98.66000
170.80000,-4.35900,-98.93000
170.90002,-4.36570,-99.07000
171.00002,-4.37230,-99.33000
171.10000,-4.37900,-99.47000
171.20002,-4.38570,-99.74000
171.30000,-4.39230,-99.87000
171.40002,-4.39900,-100.14000
171.50002,-4.40570,-100.27000
171.60000,-4.41230,-100.54000
171.70002,-4.41900,-100.68000
171.80000,-4.42570,-100.94000
171.90002,-4.43230,-101.08000
172.00002,-4.43900,-101.35000
172.10000,-4.44570,-101.48000
172.20002,-4.45230,-101.75000
172.30000,-4.45900,-101.88000
172.40002,-4.46570,-102.15000
172.50002,-4.47230,-102.29000
172.60000,-4.47900,-102.56000
172.70002,-4.48570,-102.69000
172.80000,-4.49230,-102.96000
172.90002,-4.49900,-103.09000
173.00002,-4.50570,-103.36000
173.10000,-4.51230,-103.49000
173.20002,-4.51900,-103.76000
173.30000,-4.52570,-103.90000
173.40002,-4.53230,-104.17000
173.50002,-4.53900,-104.43000
173.60000,-4.54570,-104.57000
173.70002,-4.55230,-104.84000
173.80000,-4.55890,-104.97000
173.90002,-4.56560,-105.11000
174.00002,-4.57230,-105.37000
174.10000,-4.57890,-105.64000
174.20002,-4.58560,-105.78000
174.30000,-4.59230,-106.05000
174.40002,-4.59890,-106.18000
174.50002,-4.60560,-106.31000
174.60000,-4.61230,-106.58000
174.70002,-4.61890,-106.72000
174.80000,-4.62560,-106.98000
174.90002,-4.63230,-107.12000
175.00002,-4.63890,-107.39000
175.10000,-4.64560,-107.66000
175.20002,-4.65230,-107.79000
175.30000,-4.65890,-107.92000
175.40002,-4.66560,-108.19000
175.50002,-4.67230,-108.33000
175.60000,-4.67890,-108.60000
175.70002,-4.68560,-108.73000
175.80000,-4.69220,-109.00000
175.90002,-4.69890,-109.27000
176.00002,-4.70560,-109.40000
176.10000,-4.71220,-109.67000
176.20002,-4.71890,-109.80000
176.30000,-4.72560,-110.07000
176.40002,-4.73220,-110.21000
176.50002,-4.73890,-110.47000
176.60000,-4.74560,-110.47000
176.70002,-4.75220,-110.74000
176.80000,-4.75890,-111.01000
176.90002,-4.76560,-111.15000
177.00002,-4.77220,-111.41000
177.10000,-4.77890,-111.55000
177.20002,-4.78560,-111.82000
177.30000,-4.79220,-112.09000
177.40002,-4.79890,-112.09000
177.50002,-4.80560,-112.35000
177.60000,-4.81220,-112.49000
177.70002,-4.81890,-112.89000
177.80000,-4.82560,-113.03000
177.90002,-4.83220,-113.16000
178.00002,-4.83890,-113.43000
178.10000,-4.84560,-113.56000
178.20002,-4.85220,-113.83000
178.30000,-4.85890,-113.96000
178.40002,-4.86560,-114.23000
178.50002,-4.87220,-114.37000
178.60000,-4.87890,-114.64000
178.70002,-4.88560,-114.77000
178.80000,-4.89220,-114.90000
178.90002,-4.89890,-115.31000
179.00002,-4.90560,-115.44000
179.10000,-4.91220,-115.58000
179.20002,-4.91890,-115.71000
179.30000,-4.92560,-115.98000
179.40002,-4.93220,-116.11000
179.50002,-4.93890,-116.38000
179.60000,-4.94560,-116.65000
179.70002,-4.95220,-116.78000
179.80000,-4.95890,-116.92000
179.90002,-4.96560,-117.19000
180.00002,-4.97220,-117.32000
180.10000,-4.97890,-117.59000
180.20002,-4.98560,-117.72000
180.30000,-4.99220,-117.99000
180.40002,-4.99890,-118.26000
180.50002,-5.00560,-118.39000
180.60000,-5.01220,-118.39000
180.70002,-5.01890,-118.80000
180.80000,-5.02560,-118.93000
180.90002,-5.03220,-119.20000
181.00002,-5.03890,-119.33000
181.10000,-5.04560,-119.60000
181.20002,-5.05220,-119.74000
181.30000,-5.05890,-119.87000
181.40002,-5.06560,-120.14000
181.50002,-5.07220,-120.27000
181.60000,-5.07890,-120.54000
181.70002,-5.08560,-120.68000
181.80000,-5.09220,-120.81000
181.90002,-5.09890,-121.08000
182.00002,-5.10560,-121.21000
182.10000,-5.11220,-121.48000
182.20002,-5.11890,-121.75000
182.30000,-5.12560,-121.88000
182.40002,-5.13220,-122.15000
182.50002,-5.13890,-122.15000
182.60000,-5.14560,-122.29000
182.70002,-5.15220,-122.69000
182.80000,-5.15890,-122.82000
182.90002,-5.16560,-122.96000
183.00002,-5.17220,-123.23000
183.10000,-5.17890,-123.36000
183.20002,-5.18560,-123.63000
183.30000,-5.19220,-123.76000
183.40002,-5.19890,-124.03000
183.50002,-5.20560,-124.17000
183.60000,-5.21220,-124.43000
183.70002,-5.21890,-124.70000
183.80000,-5.22550,-124.84000
183.90002,-5.23220,-124.97000
184.00002,-5.23890,-125.11000
184.10000,-5.24550,-125.37000
184.20002,-5.25220,-125.51000
184.30000,-5.25890,-125.78000
184.40002,-5.26550,-125.91000
184.50002,-5.27220,-126.05000
184.60000,-5.27890,-126.45000
184.70002,-5.28550,-126.58000
184.80000,-5.29220,-126.85000
184.90002,-5.29890,-126.98000
185.00002,-5.30550,-127.12000
185.10000,-5.31220,-127.25000
185.20002,-5.31890,-127.52000
185.30000,-5.32550,-127.66000
185.40002,-5.33220,-127.79000
185.50002,-5.33890,-128.06000
185.60000,-5.34550,-128.33000
185.70002,-5.35220,-128.46000
185.80000,-5.35890,-128.73000
185.90002,-5.36550,-128.86000
186.00002,-5.37220,-129.00000
186.10000,-5.37890,-129.27000
186.20002,-5.38550,-129.54000
186.30000,-5.39220,-129.67000
186.40002,-5.39890,-129.80000
186.50002,-5.40550,-129.94000
186.60000,-5.41220,-130.21000
186.70002,-5.41890,-130.47000
186.80000,-5.42550,-130.61000
186.90002,-5.43220,-130.74000
187.00002,-5.43890,-131.01000
187.10000,-5.44550,-131.15000
187.20002,-5.45220,-131.41000
187.30000,-5.45900,-131.55000
187.40002,-5.46570,-131.68000
187.50002,-5.47230,-131.95000
187.60000,-5.47900,-132.22000
187.70002,-5.48570,-132.35000
187.80000,-5.49230,-132.49000
187.90002,-5.49900,-132.76000
188.00002,-5.50570,-132.89000
188.10000,-5.51230,-133.16000
188.20002,-5.51900,-133.29000
188.30000,-5.52570,-133.43000
188.40002,-5.53230,-133.70000
188.50002,-5.53900,-133.83000
188.60000,-5.54570,-134.10000
188.70002,-5.55230,-134.23000
188.80000,-5.55900,-134.37000
188.90002,-5.56570,-134.64000
189.00002,-5.57230,-134.90000
189.10000,-5.57900,-135.04000
189.20002,-5.58570,-135.17000
189.30000,-5.59230,-135.44000
189.40002,-5.59900,-135.58000
189.50002,-5.60570,-135.84000
189.60000,-5.61230,-135.98000
189.70002,-5.61900,-136.25000
189.80000,-5.62570,-136.38000
189.90002,-5.63230,-136.52000
190.00002,-5.63900,-136.65000
190.10000,-5.64570,-136.92000
190.20002,-5.65230,-137.05000
190.30000,-5.65900,-137.32000
190.40002,-5.66570,-137.45000
190.50002,-5.67230,-137.72000
190.60000,-5.67900,-137.86000
190.70002,-5.68570,-137.99000
190.80000,-5.69230,-138.26000
190.90002,-5.69900,-138.39000
191.00002,-5.70570,-138.66000
191.10000,-5.71230,-138.93000
191.20002,-5.71900,-139.07000
191.30000,-5.72570,-139.20000
191.40002,-5.73230,-139.33000
191.50002,-5.73900,-139.47000
191.60000,-5.74570,-139.74000
191.70002,-5.75230,-139.87000
191.80000,-5.75900,-140.14000
191.90002,-5.76570,-140.27000
192.00002,-5.77230,-140.54000
192.10000,-5.77900,-140.81000
192.20002,-5.78570,-140.94000
192.30000,-5.79230,-141.08000
192.40002,-5.79900,-141.35000
192.50002,-5.80570,-141.48000
192.60000,-5.81230,-141.62000
192.70002,-5.81900,-141.75000
192.80000,-5.82560,-142.02000
192.90002,-5.83230,-142.15000
193.00002,-5.83900,-142.42000
193.10000,-5.84560,-142.56000
193.20002,-5.85230,-142.69000
193.30000,-5.85900,-142.82000
193.40002,-5.86560,-143.09000
193.50002,-5.87230,-143.36000
193.60000,-5.87900,-143.36000
193.70002,-5.88560,-143.63000
193.80000,-5.89230,-143.90000
193.90002,-5.89900,-144.03000
194.00002,-5.90560,-144.30000
194.10000,-5.91230,-144.30000
194.20002,-5.91900,-144.70000
194.30000,-5.92560,-144.70000
194.40002,-5.93230,-144.97000
194.50002,-5.93900,-145.11000
194.60000,-5.94560,-145.37000
194.70002,-5.95230,-145.51000
194.80000,-5.95900,-145.78000
194.90002,-5.96560,-145.91000
195.00002,-5.97230,-146.05000
195.10000,-5.97900,-146.31000
195.20002,-5.98560,-146.45000
195.30000,-5.99230,-146.58000
195.40002,-5.99900,-146.72000
195.50002,-6.00560,-146.98000
195.60000,-6.01230,-147.25000
195.70002,-6.01900,-147.39000
195.80000,-6.02560,-147.66000
195.90002,-6.03230,-147.79000
196.00002,-6.03900,-147.92000
196.10000,-6.04560,-148.19000
196.20002,-6.05230,-148.33000
196.30000,-6.05900,-148.46000
196.40002,-6.06560,-148.73000
196.50002,-6.07230,-148.86000
196.60000,-6.07900,-149.13000
196.70002,-6.08560,-149.27000
196.80000,-6.09230,-149.40000
196.90002,-6.09900,-149.67000
197.00002,-6.10560,-149.80000
197.10000,-6.11230,-150.07000
197.20002,-6.11900,-150.21000
197.30000,-6.12560,-150.21000
197.40002,-6.13230,-150.47000
197.50002,-6.13900,-150.74000
197.60000,-6.14560,-150.88000
197.70002,-6.15230,-151.15000
197.80000,-6.15900,-151.28000
197.90002,-6.16560,-151.55000
198.00002,-6.17230,-151.68000
198.10000,-6.17900,-151.82000
198.20002,-6.18560,-152.09000
198.30000,-6.19230,-152.09000
198.40002,-6.19900,-152.35000
198.50002,-6.20560,-152.49000
198.60000,-6.21230,-152.76000
198.70002,-6.21900,-152.89000
198.80000,-6.22560,-153.03000
198.90002,-6.23230,-153.29000
199.00002,-6.23900,-153.43000
199.10000,-6.24560,-153.56000
199.20002,-6.25230,-153.83000
199.30000,-6.25900,-153.96000
199.40002,-6.26560,-154.23000
199.50002,-6.27230,-154.37000
199.60000,-6.27900,-154.50000
199.70002,-6.28560,-154.64000
199.80000,-6.29230,-154.90000
199.90002,-6.29900,-155.17000
200.00002,-6.30560,-155.17000
200.10000,-6.31230,-155.44000
200.20002,-6.31900,-155.58000
200.30000,-6.32560,-155.71000
200.40002,-6.33230,-155.84000
200.50002,-6.33890,-156.11000
200.60000,-6.34560,-156.37999
200.70002,-6.35230,-156.52001
200.80000,-6.35890,-156.65000
200.90002,-6.36560,-156.91999
201.00002,-6.37230,-157.05001
201.10000,-6.37890,-157.32000
201.20002,-6.38560,-157.45001
201.30000,-6.39230,-157.59001
201.40002,-6.39890,-157.72000
201.50002,-6.40560,-157.99001
201.60000,-6.41230,-158.13001
201.70002,-6.41890,-158.26000
201.80000,-6.42560,-158.38999
201.90002,-6.43230,-158.66000
202.00002,-6.43890,-158.80000
202.10000,-6.44560,-159.07001
202.20002,-6.45230,-159.20000
202.30000,-6.45890,-159.33000
202.40002,-6.46560,-159.46999
202.50002,-6.47230,-159.74000
202.60000,-6.47890,-159.86999
202.70002,-6.48560,-160.00001
202.80000,-6.49230,-160.27000
202.90002,-6.49890,-160.54001
203.00002,-6.50560,-160.68000
203.10000,-6.51230,-160.81000
203.20002,-6.51890,-160.93999
203.30000,-6.52560,-161.21000
203.40002,-6.53230,-161.35000
203.50002,-6.53890,-161.62001
203.60000,-6.54560,-161.62001
203.70002,-6.55230,-161.87999
203.80000,-6.55890,-162.15000
203.90002,-6.56560,-162.29000
204.00002,-6.57230,-162.41999
204.10000,-6.57890,-162.56001
204.20002,-6.58560,-162.69000
204.30000,-6.59230,-162.95999
204.40002,-6.59890,-163.09001
204.50002,-6.60560,-163.23000
204.60000,-6.61230,-163.36000
204.70002,-6.61890,-163.63000
204.80000,-6.62560,-163.90000
204.90002,-6.63230,-164.03001
205.00002,-6.63890,-164.17000
205.10000,-6.64560,-164.30000
205.20002,-6.65230,-164.42999
205.30000,-6.65890,-164.57001
205.40002,-6.66560,-164.70000
205.50002,-6.67230,-164.96999
205.60000,-6.67890,-165.24000
205.70002,-6.68560,-165.36999
205.80000,-6.69230,-165.50999
205.90002,-6.69890,-165.78000
206.00002,-6.70560,-165.90999
206.10000,-6.71230,-166.18000
206.20002,-6.71890,-166.18000
206.30000,-6.72560,-166.44999
206.40002,-6.73230,-166.58001
206.50002,-6.73890,-166.72000
206.60000,-6.74560,-166.97999
206.70002,-6.75230,-167.12001
206.80000,-6.75890,-167.25000
206.90002,-6.76560,-167.52001
207.00002,-6.77230,-167.66001
207.10000,-6.77890,-167.79000
207.20002,-6.78560,-167.91999
207.30000,-6.79230,-168.06001
207.40002,-6.79890,-168.33000
207.50002,-6.80560,-168.45999
207.60000,-6.81230,-168.60001
207.70002,-6.81890,-168.86000
207.80000,-6.82560,-168.99999
207.90002,-6.83230,-169.27000
208.00002,-6.83890,-169.40000
208.10000,-6.84560,-169.53999
208.20002,-6.85230,-169.67000
208.30000,-6.85890,-169.93999
208.40002,-6.86560,-169.93999
208.50002,-6.87220,-170.21000
208.60000,-6.87890,-170.46999
208.70002,-6.88560,-170.61001
208.80000,-6.89220,-170.74000
208.90002,-6.89890,-171.00999
209.00002,-6.90560,-171.15001
209.10000,-6.91220,-171.28000
209.20002,-6.91890,-171.40999
209.30000,-6.92560,-171.68000
209.40002,-6.93220,-171.68000
209.50002,-6.93890,-171.94999
209.60000,-6.94560,-172.09001
209.70002,-6.95220,-172.22000
209.80000,-6.95890,-172.48999
209.90002,-6.96560,-172.62001
210.00002,-6.97220,-172.76000
210.10000,-6.97890,-172.89000
210.20002,-6.98560,-173.02999
210.30000,-6.99220,-173.29000
210.40002,-6.99890,-173.43000
210.50002,-7.00560,-173.56001
210.60000,-7.01220,-173.83000
210.70002,-7.01890,-173.95999
210.80000,-7.02560,-174.23000
210.90002,-7.03220,-174.37000
211.00002,-7.03890,-174.49999
211.10000,-7.04560,-174.77000
211.20002,-7.05220,-174.77000
211.30000,-7.05890,-175.03999
211.40002,-7.06560,-175.17000
211.50002,-7.07220,-175.31000
211.60000,-7.07890,-175.43999
211.70002,-7.08560,-175.71000
211.80000,-7.09220,-175.84000
211.90002,-7.09890,-176.11001
212.00002,-7.10560,-176.25000
212.10000,-7.11220,-176.51999
212.20002,-7.11890,-176.65001
212.30000,-7.12560,-176.65001
212.40002,-7.13220,-176.92000
212.50002,-7.13890,-177.04999
212.60000,-7.14560,-177.19001
212.70002,-7.15220,-177.44999
212.80000,-7.15890,-177.59001
212.90002,-7.16560,-177.72000
213.00002,-7.17220,-177.86000
213.10000,-7.17890,-178.13001
213.20002,-7.18560,-178.26000
213.30000,-7.19220,-178.39000
213.40002,-7.19890,-178.52999
213.50002,-7.20560,-178.66001
213.60000,-7.21220,-178.93000
213.70002,-7.21890,-179.06999
213.80000,-7.22560,-179.20000
213.90002,-7.23220,-179.47000
214.00002,-7.23890,-179.60001
214.10000,-7.24560,-179.74000
214.20002,-7.25220,-179.87000
214.30000,-7.25890,-179.99999
214.40002,-7.26560,-180.27000
214.50002,-7.27220,-180.27000
214.60000,-7.27890,-180.53999
214.70002,-7.28560,-180.68001
214.80000,-7.29220,-180.93999
214.90002,-7.29890,-181.07999
215.00002,-7.30560,-181.21000
215.10000,-7.31220,-181.47999
215.20002,-7.31890,-181.47999
215.30000,-7.32560,-181.62001
215.40002,-7.33220,-181.88000
215.50002,-7.33890,-182.01999
215.60000,-7.34560,-182.15001
215.70002,-7.35220,-182.42000
215.80000,-7.35890,-182.55999
215.90002,-7.36560,-182.69001
216.00002,-7.37220,-182.96000
216.10000,-7.37890,-183.09001
216.20002,-7.38550,-183.23001
216.30000,-7.39220,-183.36000
216.40002,-7.39890,-183.63001
216.50002,-7.40550,-183.63001
216.60000,-7.41220,-183.76000
216.70002,-7.41890,-184.02999
216.80000,-7.42550,-184.17001
216.90002,-7.43220,-184.30000
217.00002,-7.43890,-184.56999
217.10000,-7.44550,-184.70000
217.20002,-7.45220,-184.84000
217.30000,-7.45890,-184.97000
217.40002,-7.46550,-185.24000
217.50002,-7.47220,-185.37000
217.60000,-7.47890,-185.50999
217.70002,-7.48550,-185.64001
217.80000,-7.49220,-185.78000
217.90002,-7.49890,-185.91000
218.00002,-7.50550,-186.18001
218.10000,-7.51220,-186.45000
218.20002,-7.51890,-186.57999
218.30000,-7.52550,-186.72001
218.40002,-7.53220,-186.85000
218.50002,-7.53890,-186.97999
218.60000,-7.54550,-187.12001
218.70002,-7.55220,-187.39000
218.80000,-7.55890,-187.51999
218.90002,-7.56550,-187.79000
219.00002,-7.57220,-187.92000
219.10000,-7.57890,-188.05999
219.20002,-7.58550,-188.05999
219.30000,-7.59220,-188.33000
219.40002,-7.59890,-188.59999
219.50002,-7.60550,-188.59999
219.60000,-7.61220,-188.86000
219.70002,-7.61890,-188.86000
219.80000,-7.62550,-189.13001
219.90002,-7.63220,-189.27000
220.00002,-7.63890,-189.40000
220.10000,-7.64550,-189.67001
220.20002,-7.65220,-189.80000
220.30000,-7.65890,-189.94000
220.40002,-7.66550,-190.06999
220.50002,-7.67220,-190.21001
220.60000,-7.67890,-190.34000
220.70002,-7.68550,-190.60999
220.80000,-7.69220,-190.74000
220.90002,-7.69890,-190.88000
221.00002,-7.70550,-191.14999
221.10000,-7.71220,-191.28000
221.20002,-7.71890,-191.54999
221.30000,-7.72550,-191.54999
221.40002,-7.73220,-191.68001
221.50002,-7.73890,-191.82000
221.60000,-7.74550,-191.95000
221.70002,-7.75220,-192.22001
221.80000,-7.75890,-192.35000
221.90002,-7.76550,-192.62001
222.00002,-7.77220,-192.76001
222.10000,-7.77890,-193.03000
222.20002,-7.78550,-193.03000
222.30000,-7.79220,-193.29000
222.40002,-7.79890,-193.43000
222.50002,-7.80550,-193.43000
222.60000,-7.81220,-193.55999
222.70002,-7.81890,-193.83000
222.80000,-7.82550,-193.96000
222.90002,-7.83220,-194.09999
223.00002,-7.83890,-194.23001
223.10000,-7.84550,-194.37000
223.20002,-7.85220,-194.63999
223.30000,-7.85890,-194.77000
223.40002,-7.86550,-194.90000
223.50002,-7.87220,-195.04000
223.60000,-7.87890,-195.31000
223.70002,-7.88550,-195.44000
223.80000,-7.89220,-195.44000
223.90002,-7.89880,-195.71001
224.00002,-7.90550,-195.84000
224.10000,-7.91220,-196.10999
224.20002,-7.91880,-196.10999
224.30000,-7.92550,-196.38000
224.40002,-7.93220,-196.52000
224.50002,-7.93880,-196.64999
224.60000,-7.94550,-196.78000
224.70002,-7.95220,-197.04999
224.80000,-7.95880,-197.19001
224.90002,-7.96550,-197.32000
225.00002,-7.97220,-197.45000
225.10000,-7.97880,-197.58999
225.20002,-7.98550,-197.72001
225.30002,-7.99220,-197.99000
225.40002,-7.99880,-197.99000
225.50002,-8.00550,-198.12999
225.60000,-8.01220,-198.39000
225.70002,-8.01880,-198.39000
225.80002,-8.02550,-198.53000
225.90002,-8.03220,-198.80001
226.00002,-8.03880,-199.07000
226.10000,-8.04550,-199.20001
226.20002,-8.05220,-199.20001
226.30002,-8.05880,-199.47000
226.40002,-8.06550,-199.59999
226.50002,-8.07220,-199.74001
226.60000,-8.07880,-199.87000
226.70002,-8.08550,-200.13999
226.80002,-8.09220,-200.27000
226.90002,-8.09880,-200.41000
227.00002,-8.10550,-200.53999
227.10000,-8.11220,-200.67999
227.20002,-8.11880,-200.81000
227.30002,-8.12550,-200.94000
227.40002,-8.13220,-201.21001
227.50002,-8.13880,-201.48000
227.60000,-8.14550,-201.48000
227.70002,-8.15220,-201.61999
227.80002,-8.15880,-201.75001
227.90002,-8.16550,-201.88000
228.00002,-8.17220,-202.02000
228.10000,-8.17880,-202.29001
228.20002,-8.18550,-202.42000
228.30002,-8.19220,-202.69001
228.40002,-8.19880,-202.82000
228.50002,-8.20550,-202.96000
228.60000,-8.21220,-203.08999
228.70002,-8.21880,-203.23001
228.80002,-8.22550,-203.36000
228.90002,-8.23220,-203.49000
229.00002,-8.23880,-203.62999
229.10000,-8.24550,-203.76001
229.20002,-8.25220,-203.90000
229.30002,-8.25880,-204.16999
229.40002,-8.26550,-204.30000
229.50002,-8.27220,-204.43000
229.60000,-8.27880,-204.57000
229.70002,-8.28550,-204.70001
229.80002,-8.29220,-204.84000
229.90002,-8.29880,-205.10999
230.00002,-8.30550,-205.10999
230.10000,-8.31220,-205.24001
230.20002,-8.31880,-205.51000
230.30002,-8.32550,-205.63999
230.40002,-8.33220,-205.78001
230.50002,-8.33880,-205.91000
230.60000,-8.34550,-206.05000
230.70002,-8.35220,-206.17999
230.80002,-8.35880,-206.31000
230.90002,-8.36550,-206.57999
231.00002,-8.37220,-206.71999
231.10000,-8.37880,-206.85000
231.20002,-8.38550,-206.98000
231.30002,-8.39220,-207.11999
231.40002,-8.39880,-207.25001
231.50002,-8.40550,-207.39000
231.60000,-8.41220,-207.52000
231.70002,-8.41880,-207.79001
231.80002,-8.42550,-207.92000
231.90002,-8.43210,-207.92000
232.00002,-8.43880,-208.19001
232.10000,-8.44550,-208.33001
232.20002,-8.45210,-208.60000
232.30002,-8.45880,-208.73001
232.40002,-8.46550,-208.86000
232.50002,-8.47210,-209.00000
232.60000,-8.47880,-209.12999
232.70002,-8.48550,-209.27001
232.80002,-8.49210,-209.40000
232.90002,-8.49880,-209.54000
233.00002,-8.50550,-209.66999
233.10000,-8.51210,-209.94000
233.20002,-8.51880,-209.94000
233.30002,-8.52550,-210.20999
233.40002,-8.53210,-210.20999
233.50002,-8.53880,-210.20999
233.60000,-8.54550,-210.34000
233.70002,-8.55210,-210.74001
233.80002,-8.55880,-210.88000
233.90002,-8.56550,-210.88000
234.00002,-8.57210,-211.01000
234.10000,-8.57880,-211.41000
234.20002,-8.58550,-211.41000
234.30002,-8.59210,-211.67999
234.40002,-8.59880,-211.82001
234.50002,-8.60550,-211.82001
234.60000,-8.61210,-211.95000
234.70002,-8.61880,-212.21999
234.80002,-8.62550,-212.35000
234.90002,-8.63210,-212.61999
235.00002,-8.63880,-212.76001
235.10000,-8.64550,-212.89000
235.20002,-8.65210,-212.89000
235.30002,-8.65880,-213.15999
235.40002,-8.66550,-213.29001
235.50002,-8.67210,-213.43000
235.60000,-8.67880,-213.56000
235.70002,-8.68550,-213.56000
235.80002,-8.69210,-213.83001
235.90002,-8.69880,-213.96000
236.00002,-8.70550,-214.10000
236.10000,-8.71210,-214.37000
236.20002,-8.71880,-214.50000
236.30002,-8.72550,-214.64000
236.40002,-8.73210,-214.77001
236.50002,-8.73880,-214.77001
236.60000,-8.74550,-214.90000
236.70002,-8.75210,-214.90000
236.80002,-8.75880,-214.90000
236.90002,-8.76550,-215.31001
237.00002,-8.77210,-215.58000
237.10000,-8.77880,-215.70999
237.20002,-8.78550,-215.84000
237.30002,-8.79210,-215.98000
237.40002,-8.79880,-216.10999
237.50002,-8.80550,-216.24999
237.60000,-8.81210,-216.38000
237.70002,-8.81880,-216.52000
237.80002,-8.82550,-216.64999
237.90002,-8.83210,-216.92000
238.00002,-8.83880,-217.05000
238.10000,-8.84550,-217.05000
238.20002,-8.85210,-217.32001
238.30002,-8.85880,-217.59000
238.40002,-8.86550,-217.59000
238.50002,-8.87210,-217.71999
238.60000,-8.87880,-217.86001
238.70002,-8.88550,-217.99000
238.80002,-8.89210,-218.26001
238.90002,-8.89880,-218.39000
239.00002,-8.90550,-218.53000
239.10000,-8.91210,-218.65999
239.20002,-8.91880,-218.93000
239.30002,-8.92550,-218.93000
239.40002,-8.93210,-219.07000
239.50002,-8.93880,-219.19999
239.60000,-8.94540,-219.33001
239.70002,-8.95210,-219.47000
239.80002,-8.95880,-219.73999
239.90002,-8.96540,-219.73999
240.00002,-8.97210,-219.87000
240.10000,-8.97880,-220.00000
240.20002,-8.98540,-220.27001
240.30002,-8.99210,-220.41000
240.40002,-8.99880,-220.54000
240.50002,-9.00540,-220.67999
240.60000,-9.01210,-220.81001
240.70002,-9.01880,-220.94000
240.80002,-9.02540,-221.08000
240.90002,-9.03210,-221.20999
241.00002,-9.03880,-221.35001
241.10000,-9.04540,-221.48000
241.20002,-9.05210,-221.74999
241.30002,-9.05880,-221.74999
241.40002,-9.06540,-222.02000
241.50002,-9.07210,-222.02000
241.60000,-9.07880,-222.29001
241.70002,-9.08540,-222.29001
241.80002,-9.09210,-222.56000
241.90002,-9.09880,-222.56000
242.00002,-9.10530,-222.82001
242.10000,-9.11200,-222.56000
242.20002,-9.11860,-222.56000
242.30002,-9.12530,-222.96000
242.40002,-9.13200,-223.22999
242.50002,-9.13860,-223.36001
242.60000,-9.14530,-223.49000
242.70002,-9.15200,-223.63000
242.80002,-9.15860,-223.76001
242.90002,-9.16530,-224.03000
243.00002,-9.17200,-224.17000
243.10000,-9.17860,-224.30001
243.20002,-9.18530,-224.43000
243.30002,-9.19200,-224.43000
243.40002,-9.19860,-224.69999
243.50002,-9.20530,-224.84001
243.60000,-9.21200,-224.84001
243.70002,-9.21860,-225.11000
243.80002,-9.22530,-225.23999
243.90002,-9.23200,-225.37000
244.00002,-9.23860,-225.51000
244.10000,-9.24530,-225.64000
244.20002,-9.25200,-225.77999
244.30002,-9.25860,-225.91000
244.40002,-9.26530,-226.05000
244.50002,-9.27200,-226.17999
244.60000,-9.27860,-226.31001
244.70002,-9.28530,-226.45000
244.80002,-9.29200,-226.58000
244.90002,-9.29860,-226.71999
245.00002,-9.30530,-226.85001
245.10000,-9.31200,-227.12000
245.20002,-9.31860,-227.24999
245.30002,-9.32530,-227.39001
245.40002,-9.33200,-227.39001
245.50002,-9.33860,-227.66000
245.60000,-9.34530,-227.79001
245.70002,-9.35200,-227.79001
245.80002,-9.35860,-227.92000
245.90002,-9.36530,-228.06000
246.00002,-9.37200,-228.33001
246.10000,-9.37860,-228.46000
246.20002,-9.38530,-228.46000
246.30002,-9.39190,-228.72999
246.40002,-9.39860,-228.86001
246.50002,-9.40530,-229.00000
246.60000,-9.41190,-229.13000
246.70002,-9.41860,-229.26999
246.80002,-9.42530,-229.26999
246.90002,-9.43190,-229.54000
247.00002,-9.43860,-229.67000
247.10000,-9.44530,-229.94000
247.20002,-9.45190,-229.94000
247.30002,-9.45860,-230.07000
247.40002,-9.46530,-230.21000
247.50002,-9.47190,-230.34001
247.60000,-9.47860,-230.47000
247.70002,-9.48530,-230.61000
247.80002,-9.49190,-230.73999
247.90002,-9.49860,-230.88001
248.00002,-9.50530,-231.01000
248.10000,-9.51190,-231.15000
248.20002,-9.51860,-231.27999
248.30002,-9.52530,-231.41000
248.40002,-9.53190,-231.55000
248.50002,-9.53860,-231.67999
248.60000,-9.54530,-231.81999
248.70002,-9.55190,-231.95000
248.80002,-9.55860,-232.09000
248.90002,-9.56530,-232.21999
249.00002,-9.57190,-232.35001
249.10000,-9.57860,-232.62000
249.20002,-9.58530,-232.75999
249.30002,-9.59190,-232.75999
249.40002,-9.59860,-232.75999
249.50002,-9.60530,-233.03000
249.60000,-9.61190,-233.03000
249.70002,-9.61860,-233.29001
249.80002,-9.62530,-233.29001
249.90002,-9.63190,-233.56000
250.00002,-9.63860,-233.70000
250.10000,-9.64530,-233.70000
250.20002,-9.65190,-233.96000
250.30002,-9.65860,-234.10000
250.40002,-9.66530,-234.22999
250.50002,-9.67190,-234.37001
250.60000,-9.67860,-234.50000
250.70002,-9.68530,-234.50000
250.80002,-9.69190,-234.76999
250.90002,-9.69860,-234.90001
251.00002,-9.70530,-234.90001
251.10000,-9.71190,-235.04000
251.20002,-9.71860,-234.64000
251.30002,-9.72530,-234.90001
251.40002,-9.73190,-235.30999
251.50002,-9.73860,-235.44000
251.60000,-9.74530,-235.58000
251.70002,-9.75190,-235.84001
251.80002,-9.75860,-235.98000
251.90002,-9.76530,-236.11000
252.00002,-9.77190,-236.11000
252.10000,-9.77860,-236.24999
252.20002,-9.78530,-236.38001
252.30002,-9.79190,-236.65000
252.40002,-9.79860,-236.77999
252.50002,-9.80530,-236.92001
252.60000,-9.81190,-237.05000
252.70002,-9.81860,-237.05000
252.80002,-9.82530,-237.19000
252.90002,-9.83190,-237.31999
253.00002,-9.83860,-237.45000
253.10000,-9.84530,-237.59000
253.20002,-9.85190,-237.71999
253.30002,-9.85860,-237.86001
253.40002,-9.86530,-238.13000
253.50002,-9.87190,-238.13000
253.60000,-9.87860,-238.25999
253.70002,-9.88530,-238.39001
253.80002,-9.89190,-238.53000
253.90002,-9.89860,-238.66000
254.00002,-9.90520,-238.79999
254.10000,-9.91190,-238.93001
254.20002,-9.91860,-239.07000
254.30002,-9.92520,-239.20000
254.40002,-9.93190,-239.33001
254.50002,-9.93860,-239.47001
254.60000,-9.94520,-239.60000
254.70002,-9.95190,-239.74000
254.80002,-9.95860,-239.74000
254.90002,-9.96520,-240.00000
255.00002,-9.97190,-240.00000
255.10000,-9.97860,-240.26999
255.20002,-9.98520,-240.26999
255.30002,-9.99190,-240.54000
255.40002,-9.99860,-240.54000
255.50002,-10.00520,-240.68000
255.60000,-10.01190,-240.80999
255.65002,-10.01520,-240.94000
