Time,Extension,Load
(sec),(mm),(N)
0.00000,-2.41360,-1.35000
0.10000,-2.42110,-1.48000
0.20000,-2.42770,-1.62000
0.30000,-2.43440,-1.62000
0.40000,-2.44110,-1.62000
0.50000,-2.44770,-1.75000
0.60000,-2.45440,-1.88000
0.70000,-2.46110,-2.02000
0.80000,-2.46770,-2.02000
0.90000,-2.47440,-2.02000
1.00000,-2.48110,-2.02000
1.10000,-2.48770,-2.15000
1.20000,-2.49440,-2.29000
1.30000,-2.50110,-2.42000
1.40000,-2.50770,-2.42000
1.50000,-2.51440,-2.42000
1.60000,-2.52110,-2.56000
1.70000,-2.52770,-2.69000
1.80000,-2.53440,-2.69000
1.90000,-2.54110,-2.69000
2.00000,-2.54770,-2.96000
2.10000,-2.55440,-2.96000
2.20000,-2.56110,-3.09000
2.30000,-2.56770,-2.96000
2.40000,-2.57440,-3.09000
2.50000,-2.58110,-3.23000
2.60000,-2.58770,-3.36000
2.70000,-2.59440,-3.36000
2.80000,-2.60110,-3.49000
2.90000,-2.60770,-3.49000
3.00000,-2.61440,-3.63000
3.10000,-2.62110,-3.63000
3.20000,-2.62770,-3.63000
3.30000,-2.63440,-3.76000
3.40000,-2.64110,-3.90000
3.50000,-2.64770,-4.03000
3.60000,-2.65440,-4.03000
3.70000,-2.66110,-4.17000
3.80000,-2.66770,-4.17000
3.90000,-2.67440,-4.30000
4.00000,-2.68110,-4.43000
4.10000,-2.68770,-4.43000
4.20000,-2.69440,-4.43000
4.30000,-2.70110,-4.57000
4.40000,-2.70770,-4.57000
4.50000,-2.71440,-4.70000
4.60000,-2.72110,-4.70000
4.70000,-2.72770,-4.84000
4.80000,-2.73440,-4.97000
4.90000,-2.74110,-4.97000
5.00000,-2.74770,-5.11000
5.10000,-2.75440,-5.24000
5.20000,-2.76110,-5.24000
5.30000,-2.76770,-5.24000
5.40000,-2.77440,-5.37000
5.50000,-2.78110,-5.37000
5.60000,-2.78770,-5.51000
5.70000,-2.79440,-5.51000
5.80000,-2.80110,-5.78000
5.90000,-2.80770,-5.64000
6.00000,-2.81440,-5.91000
6.10000,-2.82100,-5.91000
6.20000,-2.82770,-5.91000
6.30000,-2.83440,-6.05000
6.40000,-2.84100,-6.05000
6.50000,-2.84770,-6.18000
6.60000,-2.85440,-6.31000
6.70000,-2.86100,-6.45000
6.80000,-2.86770,-6.45000
6.90000,-2.87440,-6.45000
7.00000,-2.88100,-6.45000
7.10000,-2.88770,-6.58000
7.20000,-2.89440,-6.72000
7.30000,-2.90100,-6.85000
7.40000,-2.90770,-6.85000
7.50000,-2.91440,-6.98000
7.60000,-2.92100,-6.98000
7.70000,-2.92770,-7.12000
7.80000,-2.93440,-7.12000
7.90000,-2.94100,-7.25000
8.00000,-2.94770,-7.39000
8.10000,-2.95440,-7.39000
8.20000,-2.96100,-7.52000
8.30000,-2.96770,-7.52000
8.40000,-2.97440,-7.66000
8.50000,-2.98100,-7.79000
8.60000,-2.98770,-7.79000
8.70000,-2.99440,-7.79000
8.80000,-3.00100,-7.92000
8.90000,-3.00770,-8.06000
9.00000,-3.01440,-8.06000
9.10000,-3.02100,-8.19000
9.20000,-3.02770,-8.19000
9.30000,-3.03440,-8.33000
9.40000,-3.04100,-8.46000
9.50000,-3.04770,-8.46000
9.60000,-3.05440,-8.46000
9.70000,-3.06100,-8.46000
9.80000,-3.06770,-8.60000
9.90000,-3.07440,-8.73000
10.00000,-3.08100,-8.73000
10.10000,-3.08770,-8.86000
10.20000,-3.09440,-8.86000
10.30000,-3.10100,-9.00000
10.40000,-3.10770,-9.00000
10.50000,-3.11440,-9.13000
10.60000,-3.12100,-9.13000
10.70000,-3.12770,-9.27000
10.80000,-3.13440,-9.40000
10.90000,-3.14100,-9.54000
11.00000,-3.14770,-9.40000
11.10000,-3.15440,-9.54000
11.20000,-3.16100,-9.67000
11.30000,-3.16770,-9.80000
11.40000,-3.17440,-9.80000
11.50000,-3.18100,-9.94000
11.60000,-3.18770,-9.94000
11.70000,-3.19440,-10.07000
11.80000,-3.20100,-10.07000
11.90000,-3.20770,-10.21000
12.00000,-3.21440,-10.21000
12.10000,-3.22100,-10.34000
12.20000,-3.22770,-10.34000
12.30000,-3.23440,-10.47000
12.40000,-3.24100,-10.47000
12.50000,-3.24770,-10.61000
12.60000,-3.25440,-10.74000
12.70000,-3.26100,-10.74000
12.80000,-3.26770,-10.88000
12.90000,-3.27440,-11.01000
13.00000,-3.28100,-11.01000
13.10000,-3.28770,-11.15000
13.20000,-3.29440,-11.15000
13.30000,-3.30100,-11.15000
13.40000,-3.30770,-11.15000
13.50000,-3.31440,-11.28000
13.60000,-3.32100,-11.41000
13.70000,-3.32770,-11.55000
13.80000,-3.33440,-11.55000
13.90000,-3.34100,-11.68000
14.00000,-3.34770,-11.82000
14.10000,-3.35430,-11.95000
14.20000,-3.36100,-11.95000
14.30000,-3.36770,-11.95000
14.40000,-3.37430,-12.09000
14.50000,-3.38100,-12.09000
14.60000,-3.38770,-12.09000
14.70000,-3.39430,-12.35000
14.80000,-3.40100,-12.35000
14.90000,-3.40770,-12.49000
15.00000,-3.41430,-12.49000
15.10000,-3.42100,-12.49000
15.20000,-3.42770,-12.62000
15.30000,-3.43430,-12.76000
15.40000,-3.44100,-12.76000
15.50000,-3.44770,-12.89000
15.60000,-3.45430,-13.03000
15.70000,-3.46100,-13.03000
15.80000,-3.46770,-13.16000
15.90000,-3.47430,-13.16000
16.00000,-3.48100,-13.29000
16.10000,-3.48770,-13.43000
16.20000,-3.49430,-13.43000
16.30000,-3.50100,-13.56000
16.40000,-3.50770,-13.56000
16.50000,-3.51430,-13.56000
16.60000,-3.52100,-13.70000
16.70000,-3.52770,-13.83000
16.80000,-3.53430,-13.96000
16.90000,-3.54100,-13.96000
17.00000,-3.54770,-14.10000
17.10000,-3.55430,-14.10000
17.20000,-3.56100,-14.23000
17.30000,-3.56770,-14.37000
17.40000,-3.57430,-14.37000
17.50000,-3.58100,-14.50000
17.60000,-3.58770,-14.50000
17.70000,-3.59430,-14.64000
17.80000,-3.60100,-14.64000
17.90000,-3.60770,-14.77000
18.00000,-3.61430,-14.90000
18.10000,-3.62100,-14.90000
18.20000,-3.62770,-15.04000
18.30000,-3.63430,-15.17000
18.40000,-3.64100,-15.17000
18.50000,-3.64770,-15.17000
18.60000,-3.65430,-15.31000
18.70000,-3.66100,-15.44000
18.80000,-3.66770,-15.58000
18.90000,-3.67430,-15.58000
19.00000,-3.68100,-15.58000
19.10000,-3.68770,-15.71000
19.20000,-3.69430,-15.84000
19.30000,-3.70100,-15.84000
19.40000,-3.70770,-15.98000
19.50000,-3.71430,-16.11000
19.60000,-3.72100,-16.11000
19.70000,-3.72770,-16.25000
19.80000,-3.73430,-16.25000
19.90000,-3.74100,-16.38000
20.00000,-3.74770,-16.52000
20.10000,-3.75430,-16.52000
20.20000,-3.76100,-16.65000
20.30000,-3.76770,-16.65000
20.40000,-3.77430,-16.78000
20.50000,-3.78100,-16.78000
20.60000,-3.78770,-16.92000
20.70000,-3.79430,-16.92000
20.80000,-3.80100,-17.05000
20.90000,-3.80770,-17.05000
21.00000,-3.81430,-17.32000
21.10000,-3.82100,-17.19000
21.20000,-3.82770,-17.32000
21.30000,-3.83430,-17.45000
21.40000,-3.84100,-17.59000
21.50000,-3.84770,-17.59000
21.60000,-3.85430,-17.72000
21.70000,-3.86100,-17.72000
21.80000,-3.86760,-17.86000
21.90000,-3.87430,-17.99000
22.00000,-3.88100,-17.99000
22.10000,-3.88760,-17.99000
22.20000,-3.89430,-18.26000
22.30000,-3.90100,-18.26000
22.40000,-3.90760,-18.26000
22.50000,-3.91430,-18.39000
22.60000,-3.92100,-18.53000
22.70000,-3.92760,-18.53000
22.80000,-3.93430,-18.66000
22.90000,-3.94100,-18.66000
23.00000,-3.94760,-18.80000
23.10000,-3.95430,-18.80000
23.20000,-3.96100,-18.93000
23.30000,-3.96760,-18.93000
23.40000,-3.97430,-19.07000
23.50000,-3.98100,-19.07000
23.60000,-3.98760,-19.20000
23.70000,-3.99430,-19.33000
23.80000,-4.00100,-19.33000
23.90000,-4.00760,-19.47000
24.00000,-4.01430,-19.60000
24.10000,-4.02100,-19.60000
24.20000,-4.02760,-19.74000
24.30000,-4.03430,-19.87000
24.40000,-4.04100,-19.87000
24.50000,-4.04760,-19.87000
24.60000,-4.05430,-20.00000
24.70000,-4.06100,-20.00000
24.80000,-4.06760,-20.14000
24.90000,-4.07430,-20.27000
25.00000,-4.08100,-20.27000
25.10000,-4.08760,-20.41000
25.20000,-4.09430,-20.41000
25.30000,-4.10100,-20.41000
25.40000,-4.10760,-20.68000
25.50000,-4.11430,-20.68000
25.60000,-4.12100,-20.68000
25.70000,-4.12760,-20.81000
25.80000,-4.13430,-20.94000
25.90000,-4.14100,-20.94000
26.00000,-4.14760,-21.08000
26.10000,-4.15430,-21.08000
26.20000,-4.16100,-21.21000
26.30000,-4.16760,-21.35000
26.40000,-4.17430,-21.35000
26.50000,-4.18100,-21.35000
26.60000,-4.18760,-21.48000
26.70000,-4.19430,-21.48000
26.80000,-4.20100,-21.62000
26.90000,-4.20760,-21.75000
27.00000,-4.21430,-21.88000
27.10000,-4.22100,-21.88000
27.20000,-4.22760,-22.02000
27.30000,-4.23430,-22.15000
27.40000,-4.24100,-22.15000
27.50000,-4.24760,-22.15000
27.60000,-4.25430,-22.29000
27.70000,-4.26100,-22.42000
27.80000,-4.26760,-22.42000
27.90000,-4.27430,-22.56000
28.00000,-4.28100,-22.56000
28.10000,-4.28760,-22.69000
28.20000,-4.29430,-22.69000
28.30000,-4.30100,-22.82000
28.40000,-4.30760,-22.82000
28.50000,-4.31430,-22.96000
28.60000,-4.32100,-22.82000
28.70000,-4.32760,-23.09000
28.80000,-4.33430,-23.23000
28.90000,-4.34100,-23.23000
29.00000,-4.34760,-23.36000
29.10000,-4.35430,-23.49000
29.20000,-4.36100,-23.49000
29.30000,-4.36760,-23.49000
29.40000,-4.37430,-23.63000
29.50000,-4.38100,-23.76000
29.60000,-4.38760,-23.76000
29.70000,-4.39430,-23.90000
29.80000,-4.40090,-23.90000
29.90000,-4.40760,-24.03000
30.00000,-4.41430,-24.17000
30.10000,-4.42090,-24.17000
30.20000,-4.42760,-24.30000
30.30000,-4.43430,-24.43000
30.40000,-4.44090,-24.43000
30.50000,-4.44760,-24.57000
30.60000,-4.45430,-24.70000
30.70000,-4.46090,-24.70000
30.80000,-4.46760,-24.70000
30.90000,-4.47430,-24.84000
31.00000,-4.48090,-24.97000
31.10000,-4.48760,-24.97000
31.20000,-4.49430,-25.11000
31.30000,-4.50090,-25.11000
31.40000,-4.50760,-25.24000
31.50000,-4.51430,-25.24000
31.60000,-4.52090,-25.37000
31.70000,-4.52760,-25.37000
31.80000,-4.53430,-25.51000
31.90000,-4.54090,-25.64000
32.00000,-4.54760,-25.64000
32.10000,-4.55420,-25.78000
32.20000,-4.56090,-25.78000
32.30000,-4.56750,-25.91000
32.40000,-4.57420,-26.05000
32.50000,-4.58090,-26.05000
32.60000,-4.58750,-26.18000
32.70000,-4.59420,-26.18000
32.80000,-4.60090,-26.31000
32.90000,-4.60750,-26.31000
33.00000,-4.61420,-26.58000
33.10000,-4.62090,-26.58000
33.20000,-4.62750,-26.58000
33.30000,-4.63420,-26.72000
33.40000,-4.64090,-26.72000
33.50000,-4.64750,-26.72000
33.60000,-4.65420,-26.85000
33.70000,-4.66090,-26.98000
33.80000,-4.66750,-26.98000
33.90000,-4.67420,-27.25000
34.00000,-4.68090,-27.12000
34.10000,-4.68750,-27.25000
34.20000,-4.69420,-27.25000
34.30000,-4.70090,-27.25000
34.40000,-4.70750,-27.39000
34.50000,-4.71420,-27.52000
34.60000,-4.72090,-27.52000
34.70000,-4.72750,-27.66000
34.80000,-4.73420,-27.66000
34.90000,-4.74090,-27.79000
35.00000,-4.74750,-27.92000
35.10000,-4.75420,-28.06000
35.20000,-4.76090,-28.06000
35.30000,-4.76750,-28.19000
35.40000,-4.77420,-28.19000
35.50000,-4.78090,-28.33000
35.60000,-4.78750,-28.33000
35.70000,-4.79420,-28.60000
35.80000,-4.80090,-28.60000
35.90000,-4.80750,-28.60000
36.00000,-4.81420,-28.60000
36.10000,-4.82090,-28.73000
36.20000,-4.82750,-28.73000
36.30000,-4.83420,-28.86000
36.40000,-4.84090,-29.00000
36.50000,-4.84750,-29.00000
36.60000,-4.85420,-29.13000
36.70000,-4.86080,-29.13000
36.80000,-4.86750,-29.27000
36.90000,-4.87420,-29.40000
37.00000,-4.88080,-29.40000
37.10000,-4.88750,-29.54000
37.20000,-4.89420,-29.54000
37.30000,-4.90080,-29.67000
37.40000,-4.90750,-29.67000
37.50000,-4.91420,-29.80000
37.60000,-4.92080,-29.80000
37.70000,-4.92750,-29.94000
37.80000,-4.93420,-29.94000
37.90000,-4.94080,-30.07000
38.00000,-4.94750,-30.21000
38.10000,-4.95420,-30.34000
38.20000,-4.96080,-30.34000
38.30000,-4.96750,-30.47000
38.40000,-4.97420,-30.47000
38.50000,-4.98080,-30.61000
38.60000,-4.98750,-30.61000
38.70000,-4.99420,-30.61000
38.80000,-5.00080,-30.74000
38.90000,-5.00750,-30.88000
38.95000,-5.01080,-30.88000
39.05000,-5.00960,-31.01000
39.15000,-5.00290,-30.88000
39.25000,-4.99630,-30.88000
39.35000,-4.98960,-30.74000
39.45000,-4.98290,-30.61000
39.55000,-4.97630,-30.34000
39.65000,-4.96960,-30.21000
39.75000,-4.96290,-30.21000
39.85000,-4.95630,-30.21000
39.95000,-4.94960,-30.07000
40.05000,-4.94290,-30.07000
40.15000,-4.93630,-29.94000
40.25000,-4.92960,-29.67000
40.35000,-4.92290,-29.67000
40.45000,-4.91630,-29.67000
40.55000,-4.90960,-29.54000
40.65000,-4.90290,-29.40000
40.75000,-4.89630,-29.27000
40.85000,-4.88960,-29.27000
40.95000,-4.88290,-29.13000
41.05000,-4.87630,-29.13000
41.15000,-4.86960,-29.00000
41.25000,-4.86290,-28.86000
41.35000,-4.85630,-28.73000
41.45000,-4.84960,-28.60000
41.55000,-4.84290,-28.46000
41.65000,-4.83630,-28.46000
41.75000,-4.82960,-28.46000
41.85000,-4.82290,-28.33000
41.95000,-4.81630,-28.33000
42.05000,-4.80960,-28.19000
42.15000,-4.80290,-28.06000
42.25000,-4.79630,-27.92000
42.35000,-4.78960,-27.79000
42.45000,-4.78290,-27.79000
42.55000,-4.77630,-27.66000
42.65000,-4.76960,-27.52000
42.75000,-4.76290,-27.66000
42.85000,-4.75630,-27.52000
42.95000,-4.74960,-27.39000
43.05000,-4.74290,-27.25000
43.15000,-4.73630,-27.12000
43.25000,-4.72960,-27.12000
43.35000,-4.72290,-27.12000
43.45000,-4.71630,-26.85000
43.55000,-4.70960,-26.85000
43.65000,-4.70290,-26.72000
43.75000,-4.69630,-26.72000
43.85000,-4.68960,-26.58000
43.95000,-4.68290,-26.58000
44.05000,-4.67630,-26.45000
44.15000,-4.66960,-26.31000
44.25000,-4.66290,-26.18000
44.35000,-4.65630,-26.18000
44.45000,-4.64960,-26.05000
44.55000,-4.64290,-25.91000
44.65000,-4.63630,-25.91000
44.75000,-4.62960,-25.78000
44.85000,-4.62290,-25.78000
44.95000,-4.61630,-25.64000
45.05000,-4.60960,-25.64000
45.15000,-4.60290,-25.51000
45.25000,-4.59630,-25.37000
45.35000,-4.58960,-25.37000
45.45000,-4.58300,-25.24000
45.55000,-4.57630,-25.11000
45.65000,-4.56960,-24.97000
45.75000,-4.56300,-24.97000
45.85000,-4.55630,-24.84000
45.95000,-4.54960,-24.84000
46.05000,-4.54300,-24.70000
46.15000,-4.53630,-24.57000
46.25000,-4.52960,-24.57000
46.35000,-4.52300,-24.43000
46.45000,-4.51630,-24.43000
46.55000,-4.50960,-24.30000
46.65000,-4.50300,-24.03000
46.75000,-4.49630,-24.03000
46.85000,-4.48960,-24.03000
46.95000,-4.48300,-24.03000
47.05000,-4.47630,-23.90000
47.15000,-4.46960,-23.76000
47.25000,-4.46300,-23.76000
47.35000,-4.45630,-23.63000
47.45000,-4.44960,-23.49000
47.55000,-4.44300,-23.36000
47.65000,-4.43630,-23.36000
47.75000,-4.42960,-23.09000
47.85000,-4.42300,-23.23000
47.95000,-4.41630,-23.09000
48.05000,-4.40960,-22.96000
48.15000,-4.40300,-22.96000
48.25000,-4.39630,-22.82000
48.35000,-4.38960,-22.69000
48.45000,-4.38300,-22.69000
48.55000,-4.37630,-22.56000
48.65000,-4.36960,-22.42000
48.75000,-4.36300,-22.29000
48.85000,-4.35630,-22.29000
48.95000,-4.34960,-22.29000
49.05000,-4.34300,-22.15000
49.15000,-4.33630,-22.02000
49.25000,-4.32960,-22.02000
49.35000,-4.32300,-21.88000
49.45000,-4.31630,-21.88000
49.55000,-4.30960,-21.62000
49.65000,-4.30300,-21.62000
49.75000,-4.29630,-21.48000
49.85000,-4.28960,-21.48000
49.95000,-4.28300,-21.35000
50.05000,-4.27630,-21.35000
50.15000,-4.26960,-21.21000
50.25000,-4.26300,-21.08000
50.35000,-4.25630,-20.94000
50.45000,-4.24960,-20.94000
50.55000,-4.24300,-20.94000
50.65000,-4.23630,-20.81000
50.75000,-4.22960,-20.68000
50.85000,-4.22300,-20.68000
50.95000,-4.21630,-20.54000
51.05000,-4.20960,-20.41000
51.15000,-4.20300,-20.41000
51.25000,-4.19630,-20.27000
51.35000,-4.18960,-20.27000
51.45000,-4.18300,-20.14000
51.55000,-4.17630,-20.00000
51.65000,-4.16960,-19.87000
51.75000,-4.16300,-19.74000
51.85000,-4.15630,-19.87000
51.95000,-4.14960,-19.74000
52.05000,-4.14300,-19.60000
52.15000,-4.13630,-19.47000
52.25000,-4.12960,-19.33000
52.35000,-4.12300,-19.33000
52.45000,-4.11630,-19.33000
52.55000,-4.10960,-19.20000
52.65000,-4.10300,-19.07000
52.75000,-4.09630,-18.93000
52.85000,-4.08960,-19.07000
52.95000,-4.08300,-18.93000
53.05000,-4.07630,-18.80000
53.15000,-4.06970,-18.66000
53.25000,-4.06300,-18.66000
53.35000,-4.05630,-18.53000
53.45000,-4.04970,-18.39000
53.55000,-4.04300,-18.39000
53.65000,-4.03630,-18.26000
53.75000,-4.02970,-18.13000
53.85000,-4.02300,-18.13000
53.95000,-4.01630,-18.13000
54.05000,-4.00970,-17.99000
54.15000,-4.00300,-17.86000
54.25000,-3.99630,-17.72000
54.35000,-3.98970,-17.59000
54.45000,-3.98300,-17.59000
54.55000,-3.97630,-17.45000
54.65000,-3.96970,-17.45000
54.75000,-3.96300,-17.32000
54.85000,-3.95630,-17.32000
54.95000,-3.94970,-17.19000
55.05000,-3.94300,-17.19000
55.15000,-3.93630,-16.92000
55.25000,-3.92970,-16.92000
55.35000,-3.92300,-16.78000
55.45000,-3.91630,-16.78000
55.55000,-3.90970,-16.65000
55.65000,-3.90300,-16.65000
55.75000,-3.89630,-16.52000
55.85000,-3.88970,-16.52000
55.95000,-3.88300,-16.38000
56.05000,-3.87630,-16.25000
56.15000,-3.86970,-16.25000
56.25000,-3.86300,-16.11000
56.35000,-3.85630,-15.98000
56.45000,-3.84970,-15.98000
56.55000,-3.84300,-15.84000
56.65000,-3.83630,-15.84000
56.75000,-3.82970,-15.71000
56.85000,-3.82300,-15.71000
56.95000,-3.81630,-15.44000
57.05000,-3.80970,-15.58000
57.15000,-3.80300,-15.44000
57.25000,-3.79630,-15.31000
57.35000,-3.78970,-15.17000
57.45000,-3.78300,-15.17000
57.55000,-3.77630,-15.04000
57.65000,-3.76970,-14.90000
57.75000,-3.76300,-14.90000
57.85000,-3.75630,-14.90000
57.95000,-3.74970,-14.77000
58.05000,-3.74300,-14.77000
58.15000,-3.73630,-14.64000
58.25000,-3.72970,-14.64000
58.35000,-3.72300,-14.37000
58.45000,-3.71630,-14.37000
58.55000,-3.70970,-14.37000
58.65000,-3.70300,-14.23000
58.75000,-3.69630,-14.10000
58.85000,-3.68970,-14.10000
58.95000,-3.68300,-14.10000
59.05000,-3.67630,-13.96000
59.15000,-3.66970,-13.83000
59.25000,-3.66300,-13.83000
59.35000,-3.65630,-13.70000
59.45000,-3.64970,-13.70000
59.55000,-3.64300,-13.56000
59.65000,-3.63630,-13.43000
59.75000,-3.62970,-13.43000
59.85000,-3.62300,-13.29000
59.95000,-3.61630,-13.29000
60.05000,-3.60970,-13.29000
60.15000,-3.60300,-13.16000
60.25000,-3.59630,-13.03000
60.35000,-3.58970,-12.89000
60.45000,-3.58300,-12.89000
60.55000,-3.57630,-12.76000
60.65000,-3.56970,-12.76000
60.75000,-3.56300,-12.62000
60.85000,-3.55640,-12.62000
60.95000,-3.54970,-12.49000
61.05000,-3.54300,-12.35000
61.15000,-3.53640,-12.35000
61.25000,-3.52970,-12.22000
61.35000,-3.52300,-12.22000
61.45000,-3.51640,-12.09000
61.55000,-3.50970,-11.95000
61.65000,-3.50300,-11.95000
61.75000,-3.49640,-11.82000
61.85000,-3.48970,-11.82000
61.95000,-3.48300,-11.68000
62.05000,-3.47640,-11.68000
62.15000,-3.46970,-11.55000
62.25000,-3.46300,-11.55000
62.35000,-3.45640,-11.28000
62.45000,-3.44970,-11.28000
62.55000,-3.44300,-11.28000
62.65000,-3.43640,-11.28000
62.75000,-3.42970,-11.01000
62.85000,-3.42300,-11.01000
62.95000,-3.41640,-11.01000
63.05000,-3.40970,-10.88000
63.15000,-3.40300,-10.88000
63.25000,-3.39640,-10.74000
63.35000,-3.38970,-10.74000
63.45000,-3.38300,-10.61000
63.55000,-3.37640,-10.47000
63.65000,-3.36970,-10.47000
63.75000,-3.36300,-10.34000
63.85000,-3.35640,-10.34000
63.95000,-3.34970,-10.21000
64.05000,-3.34300,-10.21000
64.15000,-3.33640,-10.07000
64.25000,-3.32970,-10.07000
64.35001,-3.32300,-9.94000
64.45000,-3.31640,-9.80000
64.55000,-3.30970,-9.80000
64.65000,-3.30300,-9.67000
64.75000,-3.29640,-9.67000
64.85001,-3.28970,-9.40000
64.95000,-3.28300,-9.40000
65.05000,-3.27640,-9.40000
65.15000,-3.26970,-9.27000
65.25000,-3.26300,-9.27000
65.35001,-3.25640,-9.13000
65.45000,-3.24970,-9.13000
65.55000,-3.24300,-9.00000
65.65000,-3.23640,-9.00000
65.75000,-3.22970,-8.73000
65.85001,-3.22300,-8.73000
65.95001,-3.21640,-8.73000
66.05000,-3.20970,-8.73000
66.15000,-3.20300,-8.60000
66.25000,-3.19640,-8.60000
66.35001,-3.18970,-8.46000
66.45001,-3.18300,-8.33000
66.55000,-3.17640,-8.33000
66.65000,-3.16970,-8.06000
66.75000,-3.16300,-8.19000
66.85001,-3.15640,-8.06000
66.95001,-3.14970,-8.06000
67.05000,-3.14300,-7.79000
67.15000,-3.13640,-7.79000
67.25000,-3.12970,-7.66000
67.35001,-3.12300,-7.52000
67.45001,-3.11640,-7.52000
67.55000,-3.10970,-7.52000
67.65000,-3.10300,-7.39000
67.75000,-3.09640,-7.25000
67.85001,-3.08970,-7.25000
67.95001,-3.08300,-7.25000
68.05000,-3.07640,-7.12000
68.15000,-3.06970,-7.12000
68.25000,-3.06300,-6.98000
68.35001,-3.05640,-6.85000
68.45001,-3.04970,-6.72000
68.55000,-3.04300,-6.72000
68.65000,-3.03640,-6.72000
68.75000,-3.02970,-6.58000
68.85001,-3.02310,-6.58000
68.95001,-3.01640,-6.58000
69.05000,-3.00970,-6.45000
69.15000,-3.00310,-6.31000
69.25000,-2.99640,-6.18000
69.35001,-2.98970,-6.18000
69.45001,-2.98310,-6.05000
69.55000,-2.97640,-6.05000
69.65000,-2.96970,-5.91000
69.75000,-2.96310,-5.78000
69.85001,-2.95640,-5.78000
69.95001,-2.94970,-5.78000
70.05000,-2.94310,-5.64000
70.15000,-2.93640,-5.51000
70.25000,-2.92970,-5.51000
70.35001,-2.92310,-5.51000
70.45001,-2.91640,-5.24000
70.55000,-2.90970,-5.24000
70.65000,-2.90310,-5.11000
70.75000,-2.89640,-5.11000
70.85001,-2.88970,-4.97000
70.95001,-2.88310,-4.97000
71.05000,-2.87640,-4.84000
71.15000,-2.86970,-4.84000
71.25000,-2.86310,-4.70000
71.35001,-2.85640,-4.70000
71.45001,-2.84970,-4.57000
71.55000,-2.84310,-4.43000
71.65000,-2.83640,-4.43000
71.75000,-2.82970,-4.43000
71.85001,-2.82310,-4.30000
71.95001,-2.81640,-4.30000
72.05000,-2.80970,-4.17000
72.15000,-2.80310,-4.17000
72.25000,-2.79640,-4.03000
72.35001,-2.78970,-3.90000
72.45001,-2.78310,-3.90000
72.55000,-2.77640,-3.76000
72.65000,-2.76970,-3.63000
72.75000,-2.76310,-3.63000
72.85001,-2.75640,-3.49000
72.95001,-2.74970,-3.49000
73.05000,-2.74310,-3.49000
73.15000,-2.73640,-3.36000
73.25000,-2.72970,-3.36000
73.35001,-2.72310,-3.23000
73.45001,-2.71640,-3.09000
73.55000,-2.70970,-3.09000
73.65000,-2.70310,-2.96000
73.75000,-2.69640,-2.96000
73.85001,-2.68970,-2.82000
73.95001,-2.68310,-2.82000
74.05000,-2.67640,-2.82000
74.15000,-2.66970,-2.69000
74.25000,-2.66310,-2.56000
74.35001,-2.65640,-2.56000
74.45001,-2.64970,-2.42000
74.55000,-2.64310,-2.29000
74.65000,-2.63640,-2.29000
74.75000,-2.62970,-2.15000
74.85001,-2.62310,-2.15000
74.95001,-2.61640,-2.02000
75.05000,-2.60970,-2.02000
75.15000,-2.60310,-2.02000
75.25000,-2.59640,-1.88000
75.35001,-2.58970,-1.88000
75.45001,-2.58310,-1.75000
75.55000,-2.57640,-1.62000
75.65000,-2.56970,-1.48000
75.75000,-2.56310,-1.48000
75.85001,-2.55640,-1.35000
75.95001,-2.54970,-1.35000
76.05000,-2.54310,-1.21000
76.15000,-2.53640,-1.21000
76.25000,-2.52970,-1.08000
76.35001,-2.52310,-1.08000
76.45001,-2.51640,-1.08000
76.50000,-2.51310,-0.94000
76.60001,-2.50640,-0.81000
76.65000,-2.50310,-0.81000
76.75000,-2.50280,-0.81000
76.85001,-2.50950,-0.94000
76.95001,-2.51610,-0.81000
77.05000,-2.52280,-0.94000
77.15000,-2.52950,-1.08000
77.25000,-2.53610,-1.08000
77.35001,-2.54280,-1.21000
77.45001,-2.54950,-1.21000
77.55000,-2.55610,-1.35000
77.65000,-2.56280,-1.35000
77.75000,-2.56950,-1.48000
77.85001,-2.57610,-1.62000
77.95001,-2.58280,-1.75000
78.05000,-2.58950,-1.75000
78.15000,-2.59610,-1.88000
78.25000,-2.60280,-1.88000
78.35001,-2.60950,-2.02000
78.45001,-2.61610,-2.15000
78.55000,-2.62280,-2.15000
78.65000,-2.62950,-2.29000
78.75000,-2.63610,-2.42000
78.85001,-2.64280,-2.42000
78.95001,-2.64950,-2.42000
79.05000,-2.65610,-2.56000
79.15000,-2.66280,-2.69000
79.25000,-2.66950,-2.69000
79.35001,-2.67610,-2.82000
79.45001,-2.68280,-2.82000
79.55000,-2.68950,-2.96000
79.65000,-2.69610,-3.09000
79.75000,-2.70280,-3.09000
79.85001,-2.70950,-3.23000
79.95001,-2.71610,-3.23000
80.05000,-2.72280,-3.36000
80.15000,-2.72950,-3.49000
80.25000,-2.73610,-3.63000
80.35001,-2.74280,-3.63000
80.45001,-2.74950,-3.76000
80.55000,-2.75610,-3.76000
80.65000,-2.76280,-3.90000
80.75001,-2.76950,-3.90000
80.85001,-2.77610,-3.90000
80.95001,-2.78280,-4.17000
81.05000,-2.78950,-4.17000
81.15000,-2.79610,-4.30000
81.25001,-2.80280,-4.30000
81.35001,-2.80950,-4.43000
81.45001,-2.81610,-4.43000
81.55000,-2.82280,-4.43000
81.65000,-2.82950,-4.57000
81.75001,-2.83610,-4.70000
81.85001,-2.84280,-4.70000
81.95001,-2.84950,-4.84000
82.05000,-2.85610,-4.97000
82.15000,-2.86280,-5.11000
82.25001,-2.86940,-5.11000
82.35001,-2.87610,-5.24000
82.45001,-2.88280,-5.24000
82.55000,-2.88940,-5.24000
82.65000,-2.89610,-5.37000
82.75001,-2.90280,-5.37000
82.85001,-2.90940,-5.51000
82.95001,-2.91610,-5.64000
83.05000,-2.92280,-5.78000
83.15000,-2.92940,-5.91000
83.25001,-2.93610,-5.91000
83.35001,-2.94280,-6.05000
83.45001,-2.94940,-6.05000
83.55000,-2.95610,-6.05000
83.65000,-2.96280,-6.18000
83.75001,-2.96940,-6.18000
83.85001,-2.97610,-6.31000
83.95001,-2.98280,-6.45000
84.05000,-2.98940,-6.58000
84.15000,-2.99610,-6.58000
84.25001,-3.00280,-6.72000
84.35001,-3.00940,-6.85000
84.45001,-3.01610,-6.85000
84.55000,-3.02280,-6.98000
84.65000,-3.02940,-6.85000
84.75001,-3.03610,-7.12000
84.85001,-3.04280,-7.12000
84.95001,-3.04940,-7.25000
85.05000,-3.05610,-7.25000
85.15000,-3.06280,-7.39000
85.25001,-3.06940,-7.39000
85.35001,-3.07610,-7.52000
85.45001,-3.08280,-7.52000
85.55000,-3.08940,-7.66000
85.65000,-3.09610,-7.79000
85.75001,-3.10280,-7.79000
85.85001,-3.10940,-7.92000
85.95001,-3.11610,-7.92000
86.05000,-3.12280,-8.06000
86.15000,-3.12940,-8.19000
86.25001,-3.13610,-8.19000
86.35001,-3.14280,-8.33000
86.45001,-3.14940,-8.46000
86.55000,-3.15610,-8.46000
86.65000,-3.16280,-8.46000
86.75001,-3.16940,-8.60000
86.85001,-3.17610,-8.60000
86.95001,-3.18280,-8.73000
87.05000,-3.18940,-8.86000
87.15000,-3.19610,-8.86000
87.25001,-3.20280,-9.00000
87.35001,-3.20940,-9.00000
87.45001,-3.21610,-9.13000
87.55000,-3.22280,-9.27000
87.65000,-3.22940,-9.40000
87.75001,-3.23610,-9.40000
87.85001,-3.24280,-9.40000
87.95001,-3.24940,-9.54000
88.05000,-3.25610,-9.54000
88.15000,-3.26280,-9.67000
88.25001,-3.26940,-9.80000
88.35001,-3.27610,-9.80000
88.45001,-3.28280,-9.94000
88.55000,-3.28940,-9.94000
88.65000,-3.29610,-10.07000
88.75001,-3.30280,-10.07000
88.85001,-3.30940,-10.21000
88.95001,-3.31610,-10.21000
89.05000,-3.32280,-10.34000
89.15000,-3.32940,-10.47000
89.25001,-3.33610,-10.47000
89.35001,-3.34280,-10.47000
89.45001,-3.34940,-10.74000
89.55000,-3.35610,-10.74000
89.65000,-3.36280,-10.88000
89.75001,-3.36940,-10.88000
89.85001,-3.37610,-10.88000
89.95001,-3.38280,-11.01000
90.05000,-3.38940,-11.15000
90.15000,-3.39610,-11.28000
90.25001,-3.40270,-11.28000
90.35001,-3.40940,-11.41000
90.45001,-3.41610,-11.41000
90.55000,-3.42270,-11.55000
90.65000,-3.42940,-11.55000
90.75001,-3.43610,-11.68000
90.85001,-3.44270,-11.68000
90.95001,-3.44940,-11.82000
91.05000,-3.45610,-11.95000
91.15000,-3.46270,-11.95000
91.25001,-3.46940,-12.09000
91.35001,-3.47610,-12.09000
91.45001,-3.48270,-12.09000
91.55000,-3.48940,-12.22000
91.65000,-3.49610,-12.22000
91.75001,-3.50270,-12.35000
91.85001,-3.50940,-12.49000
91.95001,-3.51610,-12.49000
92.05000,-3.52270,-12.49000
92.15000,-3.52940,-12.76000
92.25001,-3.53610,-12.89000
92.35001,-3.54270,-12.89000
92.45001,-3.54940,-13.03000
92.55000,-3.55610,-13.03000
92.65000,-3.56270,-13.03000
92.75001,-3.56940,-13.03000
92.85001,-3.57610,-13.16000
92.95001,-3.58270,-13.29000
93.05000,-3.58940,-13.43000
93.15000,-3.59610,-13.56000
93.25001,-3.60270,-13.56000
93.35001,-3.60940,-13.56000
93.45001,-3.61610,-13.70000
93.55000,-3.62270,-13.83000
93.65000,-3.62940,-13.83000
93.75001,-3.63610,-13.96000
93.85001,-3.64270,-13.96000
93.95001,-3.64940,-14.10000
94.05000,-3.65610,-14.10000
94.15000,-3.66270,-14.37000
94.25001,-3.66940,-14.37000
94.35001,-3.67610,-14.37000
94.45001,-3.68270,-14.50000
94.55000,-3.68940,-14.50000
94.65000,-3.69610,-14.64000
94.75001,-3.70270,-14.64000
94.85001,-3.70940,-14.77000
94.95001,-3.71610,-14.77000
95.05000,-3.72270,-14.90000
95.15000,-3.72940,-15.04000
95.25001,-3.73610,-15.04000
95.35001,-3.74270,-15.04000
95.45001,-3.74940,-15.31000
95.55000,-3.75610,-15.31000
95.65000,-3.76270,-15.31000
95.75001,-3.76940,-15.44000
95.85001,-3.77610,-15.58000
95.95001,-3.78270,-15.71000
96.05000,-3.78940,-15.71000
96.15000,-3.79610,-15.84000
96.25001,-3.80270,-15.84000
96.35001,-3.80940,-15.98000
96.45001,-3.81610,-16.11000
96.55000,-3.82270,-16.11000
96.65000,-3.82940,-16.25000
96.75001,-3.83610,-16.25000
96.85001,-3.84270,-16.25000
96.95001,-3.84940,-16.38000
97.05000,-3.85610,-16.52000
97.15000,-3.86270,-16.65000
97.25001,-3.86940,-16.65000
97.35001,-3.87610,-16.78000
97.45001,-3.88270,-16.78000
97.55000,-3.88940,-16.92000
97.65000,-3.89610,-16.92000
97.75001,-3.90270,-17.05000
97.85001,-3.90940,-17.19000
97.95001,-3.91600,-17.19000
98.05000,-3.92270,-17.32000
98.15000,-3.92940,-17.32000
98.25001,-3.93600,-17.59000
98.35001,-3.94270,-17.59000
98.45001,-3.94940,-17.59000
98.55000,-3.95600,-17.72000
98.65000,-3.96270,-17.72000
98.75001,-3.96940,-17.86000
98.85001,-3.97600,-17.99000
98.95001,-3.98270,-17.99000
99.05000,-3.98940,-17.99000
99.15000,-3.99600,-18.13000
99.25001,-4.00270,-18.26000
99.35001,-4.00940,-18.26000
99.45001,-4.01600,-18.39000
99.55000,-4.02270,-18.53000
99.65000,-4.02940,-18.53000
99.75001,-4.03600,-18.66000
99.85001,-4.04270,-18.80000
99.95001,-4.04940,-18.80000
100.05000,-4.05600,-18.93000
100.15000,-4.06270,-18.93000
100.25001,-4.06940,-19.07000
100.35001,-4.07600,-19.20000
100.45001,-4.08270,-19.20000
100.55000,-4.08940,-19.20000
100.65000,-4.09600,-19.33000
100.75001,-4.10270,-19.47000
100.85001,-4.10940,-19.47000
100.95001,-4.11600,-19.60000
101.05000,-4.12270,-19.74000
101.15000,-4.12940,-19.74000
101.25001,-4.13600,-19.87000
101.35001,-4.14270,-20.00000
101.45001,-4.14940,-20.00000
101.55000,-4.15600,-20.00000
101.65000,-4.16270,-20.14000
101.75001,-4.16940,-20.27000
101.85001,-4.17600,-20.41000
101.95001,-4.18270,-20.41000
102.05000,-4.18940,-20.41000
102.15000,-4.19600,-20.54000
102.25001,-4.20270,-20.68000
102.35001,-4.20940,-20.81000
102.45001,-4.21600,-20.81000
102.55000,-4.22270,-20.94000
102.65000,-4.22940,-21.08000
102.75001,-4.23600,-21.08000
102.85001,-4.24270,-21.08000
102.95001,-4.24940,-21.21000
103.05000,-4.25600,-21.21000
103.15000,-4.26270,-21.35000
103.25001,-4.26940,-21.48000
103.35001,-4.27600,-21.62000
103.45001,-4.28270,-21.62000
103.55000,-4.28940,-21.75000
103.65000,-4.29600,-21.75000
103.75001,-4.30270,-21.88000
103.85001,-4.30940,-21.88000
103.95001,-4.31600,-22.02000
104.05000,-4.32270,-22.02000
104.15000,-4.32940,-22.15000
104.25001,-4.33600,-22.29000
104.35001,-4.34270,-22.29000
104.45001,-4.34940,-22.42000
104.55000,-4.35600,-22.56000
104.65000,-4.36270,-22.56000
104.75001,-4.36940,-22.69000
104.85001,-4.37600,-22.69000
104.95001,-4.38270,-22.69000
105.05000,-4.38940,-22.82000
105.15000,-4.39600,-22.96000
105.25001,-4.40270,-22.96000
105.35001,-4.40940,-23.09000
105.45001,-4.41600,-23.23000
105.55000,-4.42270,-23.23000
105.65000,-4.42930,-23.49000
105.75001,-4.43600,-23.49000
105.85001,-4.44270,-23.63000
105.95001,-4.44930,-23.49000
106.05000,-4.45600,-23.63000
106.15000,-4.46270,-23.76000
106.25001,-4.46930,-23.76000
106.35001,-4.47600,-23.90000
106.45001,-4.48270,-24.03000
106.55000,-4.48930,-24.03000
106.65000,-4.49600,-24.17000
106.75001,-4.50270,-24.30000
106.85001,-4.50930,-24.30000
106.95001,-4.51600,-24.43000
107.05000,-4.52270,-24.43000
107.15000,-4.52930,-24.57000
107.25001,-4.53600,-24.70000
107.35001,-4.54270,-24.70000
107.45001,-4.54930,-24.84000
107.55000,-4.55600,-24.97000
107.65000,-4.56270,-24.97000
107.75001,-4.56930,-25.11000
107.85001,-4.57600,-25.11000
107.95001,-4.58270,-25.11000
108.05000,-4.58930,-25.24000
108.15000,-4.59600,-25.37000
108.25001,-4.60270,-25.37000
108.35001,-4.60930,-25.51000
108.45001,-4.61600,-25.64000
108.55000,-4.62270,-25.64000
108.65000,-4.62930,-25.78000
108.75001,-4.63600,-25.78000
108.85001,-4.64270,-25.91000
108.95001,-4.64930,-25.91000
109.05000,-4.65600,-26.05000
109.15000,-4.66270,-26.18000
109.25001,-4.66930,-26.31000
109.35001,-4.67600,-26.31000
109.45001,-4.68270,-26.45000
109.55000,-4.68930,-26.45000
109.65000,-4.69600,-26.45000
109.75001,-4.70270,-26.58000
109.85001,-4.70930,-26.72000
109.95001,-4.71600,-26.85000
110.05000,-4.72270,-26.85000
110.15000,-4.72930,-26.85000
110.25001,-4.73600,-26.98000
110.35001,-4.74270,-27.12000
110.45001,-4.74930,-27.12000
110.55000,-4.75600,-27.25000
110.65000,-4.76270,-27.25000
110.75001,-4.76930,-27.39000
110.85001,-4.77600,-27.52000
110.95001,-4.78270,-27.52000
111.05000,-4.78930,-27.52000
111.15000,-4.79600,-27.66000
111.25001,-4.80270,-27.79000
111.35001,-4.80930,-27.92000
111.45001,-4.81600,-27.92000
111.55000,-4.82270,-28.06000
111.65000,-4.82930,-28.06000
111.75001,-4.83600,-28.19000
111.85001,-4.84270,-28.33000
111.95001,-4.84930,-28.33000
112.05000,-4.85600,-28.46000
112.15000,-4.86270,-28.46000
112.25001,-4.86930,-28.60000
112.35001,-4.87600,-28.60000
112.45001,-4.88270,-28.73000
112.55000,-4.88930,-28.73000
112.65001,-4.89600,-28.86000
112.75001,-4.90270,-28.86000
112.85001,-4.90930,-29.00000
112.95001,-4.91600,-29.00000
113.05000,-4.92270,-29.00000
113.15001,-4.92930,-29.13000
113.25001,-4.93600,-29.27000
113.35001,-4.94270,-29.40000
113.45001,-4.94930,-29.40000
113.55000,-4.95600,-29.54000
113.65001,-4.96260,-29.54000
113.75001,-4.96930,-29.67000
113.85001,-4.97600,-29.67000
113.95001,-4.98260,-29.80000
114.05000,-4.98930,-29.80000
114.15001,-4.99600,-29.94000
114.25001,-5.00260,-30.07000
114.35001,-5.00930,-30.07000
114.45001,-5.01600,-30.21000
114.55000,-5.02260,-30.21000
114.65001,-5.02930,-30.47000
114.75001,-5.03600,-30.47000
114.85001,-5.04260,-30.61000
114.95001,-5.04930,-30.61000
115.05000,-5.05600,-30.61000
115.15001,-5.06260,-30.74000
115.25001,-5.06930,-30.74000
115.35001,-5.07600,-30.88000
115.45001,-5.08260,-31.01000
115.55000,-5.08930,-31.01000
115.65001,-5.09600,-31.15000
115.75001,-5.10260,-31.15000
115.85001,-5.10930,-31.28000
115.95001,-5.11600,-31.28000
116.05000,-5.12260,-31.41000
116.15001,-5.12930,-31.41000
116.25001,-5.13600,-31.55000
116.35001,-5.14260,-31.55000
116.45001,-5.14930,-31.68000
116.55000,-5.15600,-31.82000
116.65001,-5.16260,-31.82000
116.75001,-5.16930,-31.95000
116.85001,-5.17600,-31.95000
116.95001,-5.18260,-32.09000
117.05000,-5.18930,-32.22000
117.15001,-5.19600,-32.22000
117.25001,-5.20260,-32.22000
117.35001,-5.20930,-32.22000
117.45001,-5.21600,-32.49000
117.55000,-5.22260,-32.49000
117.65001,-5.22930,-32.76000
117.75001,-5.23600,-32.76000
117.85001,-5.24260,-32.62000
117.95001,-5.24930,-32.89000
118.05000,-5.25600,-33.03000
118.15001,-5.26260,-33.03000
118.25001,-5.26930,-33.03000
118.35001,-5.27600,-33.03000
118.45001,-5.28260,-33.16000
118.55000,-5.28930,-33.43000
118.65001,-5.29600,-33.43000
118.75001,-5.30260,-33.56000
118.85001,-5.30930,-33.56000
118.95001,-5.31600,-33.56000
119.05000,-5.32260,-33.56000
119.15001,-5.32930,-33.70000
119.25001,-5.33600,-33.70000
119.35001,-5.34260,-33.83000
119.45001,-5.34930,-33.96000
119.55000,-5.35600,-34.10000
119.65001,-5.36260,-34.10000
119.75001,-5.36930,-34.23000
119.85001,-5.37600,-34.23000
119.95001,-5.38260,-34.37000
120.05000,-5.38930,-34.50000
120.15001,-5.39600,-34.50000
120.25001,-5.40260,-34.50000
120.35001,-5.40930,-34.64000
120.45001,-5.41600,-34.64000
120.55000,-5.42260,-34.77000
120.65001,-5.42930,-34.90000
120.75001,-5.43600,-35.04000
120.85001,-5.44260,-35.04000
120.95001,-5.44930,-35.04000
121.05000,-5.45600,-35.17000
121.15001,-5.46260,-35.31000
121.25001,-5.46930,-35.31000
121.35001,-5.47590,-35.44000
121.45001,-5.48260,-35.44000
121.55000,-5.48930,-35.58000
121.65001,-5.49590,-35.71000
121.75001,-5.50260,-35.71000
121.85001,-5.50930,-35.71000
121.95001,-5.51590,-35.84000
122.05000,-5.52260,-35.98000
122.15001,-5.52930,-36.11000
122.25001,-5.53590,-35.98000
122.35001,-5.54260,-36.25000
122.45001,-5.54930,-36.25000
122.55000,-5.55590,-36.38000
122.65001,-5.56260,-36.52000
122.75001,-5.56930,-36.52000
122.85001,-5.57590,-36.52000
122.95001,-5.58260,-36.65000
123.05000,-5.58930,-36.78000
123.15001,-5.59590,-36.65000
123.25001,-5.60260,-36.92000
123.35001,-5.60930,-36.92000
123.45001,-5.61590,-37.05000
123.55000,-5.62260,-37.19000
123.65001,-5.62930,-37.32000
123.75001,-5.63590,-37.32000
123.85001,-5.64260,-37.32000
123.95001,-5.64930,-37.45000
124.05000,-5.65590,-37.45000
124.15001,-5.66260,-37.59000
124.25001,-5.66930,-37.59000
124.35001,-5.67590,-37.72000
124.45001,-5.68260,-37.72000
124.55000,-5.68930,-37.86000
124.65001,-5.69590,-37.99000
124.75001,-5.70260,-38.13000
124.85001,-5.70930,-38.13000
124.95001,-5.71590,-38.26000
125.05000,-5.72260,-38.26000
125.15001,-5.72930,-38.26000
125.25001,-5.73590,-38.39000
125.35001,-5.74260,-38.39000
125.45001,-5.74930,-38.53000
125.55000,-5.75590,-38.66000
125.65001,-5.76260,-38.80000
125.75001,-5.76930,-38.80000
125.85001,-5.77590,-38.93000
125.95001,-5.78260,-38.93000
126.05000,-5.78930,-39.07000
126.15001,-5.79590,-39.07000
126.25001,-5.80260,-39.07000
126.35001,-5.80930,-39.20000
126.45001,-5.81590,-39.33000
126.55000,-5.82260,-39.33000
126.65001,-5.82930,-39.47000
126.75001,-5.83590,-39.47000
126.85001,-5.84260,-39.60000
126.95001,-5.84930,-39.74000
127.05000,-5.85590,-39.87000
127.15001,-5.86260,-39.87000
127.25001,-5.86930,-39.87000
127.35001,-5.87590,-40.00000
127.45001,-5.88260,-40.00000
127.55000,-5.88930,-40.14000
127.65001,-5.89590,-40.27000
127.75001,-5.90260,-40.41000
127.85001,-5.90930,-40.27000
127.95001,-5.91590,-40.54000
128.05000,-5.92260,-40.54000
128.15001,-5.92930,-40.68000
128.25000,-5.93590,-40.68000
128.35001,-5.94260,-40.68000
128.45002,-5.94930,-40.81000
128.55000,-5.95590,-40.81000
128.65001,-5.96260,-40.94000
128.75000,-5.96930,-41.08000
128.85001,-5.97590,-41.21000
128.95002,-5.98260,-41.21000
129.05000,-5.98920,-41.35000
129.15001,-5.99590,-41.35000
129.25000,-6.00260,-41.48000
129.35001,-6.00920,-41.48000
129.45002,-6.01590,-41.48000
129.55000,-6.02260,-41.62000
129.65001,-6.02920,-41.75000
129.75000,-6.03590,-41.75000
129.85001,-6.04260,-41.88000
129.95002,-6.04920,-41.88000
130.05000,-6.05590,-42.02000
130.15001,-6.06260,-42.02000
130.25000,-6.06920,-42.15000
130.35001,-6.07590,-42.15000
130.45002,-6.08260,-42.29000
130.55000,-6.08920,-42.29000
130.65001,-6.09590,-42.56000
130.75000,-6.10260,-42.56000
130.85001,-6.10920,-42.69000
130.95002,-6.11590,-42.69000
131.05000,-6.12260,-42.69000
131.15002,-6.12920,-42.82000
131.25000,-6.13590,-42.82000
131.35000,-6.14260,-42.96000
131.45002,-6.14920,-42.96000
131.55000,-6.15590,-43.23000
131.65002,-6.16260,-43.23000
131.75000,-6.16920,-43.36000
131.85000,-6.17590,-43.36000
131.95002,-6.18260,-43.49000
132.05000,-6.18920,-43.49000
132.15002,-6.19590,-43.49000
132.25000,-6.20260,-43.63000
132.35000,-6.20920,-43.63000
132.45002,-6.21590,-43.76000
132.55000,-6.22260,-43.90000
132.65002,-6.22920,-44.03000
132.75000,-6.23590,-44.03000
132.85000,-6.24260,-44.17000
132.95002,-6.24920,-44.17000
133.05000,-6.25590,-44.17000
133.15002,-6.26260,-44.30000
133.25000,-6.26920,-44.30000
133.35000,-6.27590,-44.43000
133.45002,-6.28260,-44.43000
133.55000,-6.28920,-44.57000
133.65002,-6.29590,-44.70000
133.75000,-6.30260,-44.84000
133.85000,-6.30920,-44.84000
133.95002,-6.31590,-44.84000
134.05000,-6.32260,-44.97000
134.15002,-6.32920,-44.97000
134.25000,-6.33590,-45.24000
134.35000,-6.34260,-45.11000
134.45002,-6.34920,-45.37000
134.55000,-6.35590,-45.37000
134.65002,-6.36260,-45.51000
134.75000,-6.36920,-45.51000
134.85000,-6.37590,-45.64000
134.95002,-6.38260,-45.64000
135.05000,-6.38920,-45.78000
135.15002,-6.39590,-45.91000
135.25000,-6.40260,-45.91000
135.35000,-6.40920,-45.91000
135.45002,-6.41590,-46.05000
135.55000,-6.42260,-46.05000
135.65002,-6.42920,-46.18000
135.75000,-6.43590,-46.18000
135.85000,-6.44260,-46.31000
135.95002,-6.44920,-46.31000
136.05000,-6.45590,-46.45000
136.15002,-6.46260,-46.58000
136.25000,-6.46920,-46.58000
136.35000,-6.47590,-46.72000
136.45002,-6.48260,-46.85000
136.55000,-6.48920,-46.85000
136.65002,-6.49590,-46.85000
136.75000,-6.50260,-46.98000
136.85000,-6.50920,-47.12000
136.95002,-6.51590,-47.12000
137.05000,-6.52250,-47.25000
137.15002,-6.52920,-47.39000
137.25000,-6.53590,-47.39000
137.35000,-6.54250,-47.39000
137.45002,-6.54920,-47.52000
137.55000,-6.55590,-47.52000
137.65002,-6.56250,-47.66000
137.75000,-6.56920,-47.66000
137.85000,-6.57590,-47.79000
137.95002,-6.58250,-47.79000
138.05000,-6.58920,-48.06000
138.15002,-6.59590,-48.06000
138.25000,-6.60250,-48.19000
138.35000,-6.60920,-48.19000
138.45002,-6.61590,-48.19000
138.55000,-6.62250,-48.33000
138.65002,-6.62920,-48.33000
138.75000,-6.63590,-48.46000
138.85000,-6.64250,-48.60000
138.95002,-6.64920,-48.73000
139.05000,-6.65590,-48.73000
139.15002,-6.66250,-48.73000
139.25000,-6.66920,-48.86000
139.35000,-6.67590,-48.86000
139.45002,-6.68250,-49.00000
139.55000,-6.68920,-49.13000
139.65002,-6.69590,-49.27000
139.75000,-6.70250,-49.27000
139.85000,-6.70920,-49.27000
139.95002,-6.71590,-49.40000
140.05000,-6.72250,-49.40000
140.15002,-6.72920,-49.54000
140.25000,-6.73590,-49.54000
140.35000,-6.74250,-49.67000
140.45002,-6.74920,-49.80000
140.55000,-6.75590,-49.80000
140.65002,-6.76250,-49.80000
140.75000,-6.76920,-49.94000
140.85000,-6.77590,-50.07000
140.95002,-6.78250,-50.07000
141.05000,-6.78920,-50.21000
141.15002,-6.79590,-50.21000
141.25000,-6.80250,-50.34000
141.35000,-6.80920,-50.34000
141.45002,-6.81590,-50.47000
141.55000,-6.82250,-50.47000
141.65002,-6.82920,-50.61000
141.75000,-6.83590,-50.61000
141.85000,-6.84250,-50.74000
141.95002,-6.84920,-50.74000
142.05000,-6.85590,-50.88000
142.15002,-6.86250,-51.01000
142.25000,-6.86920,-51.01000
142.35000,-6.87590,-51.15000
142.45002,-6.88250,-51.28000
142.55000,-6.88920,-51.15000
142.65002,-6.89590,-51.28000
142.75000,-6.90250,-51.41000
142.85000,-6.90920,-51.55000
142.95002,-6.91590,-51.55000
143.05000,-6.92250,-51.68000
143.15002,-6.92920,-51.82000
143.25000,-6.93590,-51.82000
143.35000,-6.94250,-51.82000
143.45002,-6.94920,-51.95000
143.55000,-6.95590,-52.09000
143.65002,-6.96250,-52.09000
143.75000,-6.96920,-52.09000
143.85000,-6.97590,-52.09000
143.95002,-6.98250,-52.35000
144.05000,-6.98920,-52.35000
144.15002,-6.99590,-52.35000
144.25000,-7.00250,-52.49000
144.35000,-7.00920,-52.62000
144.45002,-7.01590,-52.62000
144.55000,-7.02250,-52.62000
144.65002,-7.02920,-52.76000
144.75000,-7.03580,-52.89000
144.85000,-7.04250,-52.89000
144.95002,-7.04920,-53.03000
145.05000,-7.05580,-53.16000
145.15002,-7.06250,-53.16000
145.25000,-7.06920,-53.16000
145.35000,-7.07580,-53.29000
145.45002,-7.08250,-53.43000
145.55000,-7.08920,-53.43000
145.65002,-7.09580,-53.56000
145.75000,-7.10250,-53.56000
145.85000,-7.10920,-53.56000
145.95002,-7.11580,-53.70000
146.05000,-7.12250,-53.70000
146.15002,-7.12920,-53.83000
146.25000,-7.13580,-53.96000
146.35000,-7.14250,-53.96000
146.45002,-7.14920,-54.10000
146.55000,-7.15580,-54.10000
146.65002,-7.16250,-54.23000
146.75000,-7.16920,-54.23000
146.85000,-7.17580,-54.37000
146.95002,-7.18250,-54.37000
147.05000,-7.18920,-54.50000
147.15002,-7.19580,-54.64000
147.25000,-7.20250,-54.64000
147.35000,-7.20920,-54.77000
147.45002,-7.21580,-54.64000
147.55000,-7.22250,-54.90000
147.65002,-7.22920,-54.90000
147.75000,-7.23580,-55.04000
147.85000,-7.24250,-55.04000
147.95002,-7.24920,-55.17000
148.05000,-7.25580,-55.17000
148.15002,-7.26250,-55.31000
148.25000,-7.26920,-55.31000
148.35000,-7.27580,-55.44000
148.45002,-7.28250,-55.58000
148.55000,-7.28920,-55.58000
148.65002,-7.29580,-55.58000
148.75000,-7.30250,-55.71000
148.85000,-7.30920,-55.84000
148.95002,-7.31580,-55.84000
149.05000,-7.32250,-55.84000
149.15002,-7.32920,-55.98000
149.25000,-7.33580,-55.98000
149.35000,-7.34250,-56.11000
149.45002,-7.34920,-56.11000
149.55000,-7.35580,-56.25000
149.65002,-7.36250,-56.38000
149.75000,-7.36920,-56.52000
149.85000,-7.37580,-56.52000
149.95002,-7.38250,-56.52000
150.05000,-7.38920,-56.65000
150.15002,-7.39580,-56.78000
150.25000,-7.40250,-56.78000
150.35000,-7.40920,-56.92000
150.45002,-7.41580,-56.92000
150.55000,-7.42250,-57.05000
150.65002,-7.42920,-57.05000
150.75000,-7.43580,-57.19000
150.85000,-7.44250,-57.19000
150.95002,-7.44920,-57.19000
151.05000,-7.45580,-57.32000
151.15002,-7.46250,-57.45000
151.25000,-7.46920,-57.45000
151.35000,-7.47580,-57.59000
151.45002,-7.48250,-57.59000
151.55000,-7.48920,-57.72000
151.65002,-7.49580,-57.86000
151.75000,-7.50250,-57.86000
151.85000,-7.50920,-57.99000
151.95002,-7.51580,-57.99000
152.05000,-7.52250,-57.99000
152.15002,-7.52920,-58.13000
152.25000,-7.53580,-58.26000
152.35000,-7.54250,-58.26000
152.45002,-7.54920,-58.26000
152.55000,-7.55580,-58.39000
152.65002,-7.56250,-58.53000
152.75000,-7.56910,-58.53000
152.85000,-7.57580,-58.53000
152.95002,-7.58250,-58.66000
153.05000,-7.58910,-58.80000
153.15002,-7.59580,-58.93000
153.25000,-7.60250,-58.93000
153.35000,-7.60910,-59.07000
153.45002,-7.61580,-59.07000
153.55000,-7.62250,-59.07000
153.65002,-7.62910,-59.20000
153.75000,-7.63580,-59.20000
153.85000,-7.64250,-59.20000
153.95002,-7.64910,-59.33000
154.05000,-7.65580,-59.33000
154.15002,-7.66250,-59.47000
154.25000,-7.66910,-59.47000
154.35000,-7.67580,-59.60000
154.45002,-7.68250,-59.60000
154.55000,-7.68910,-59.74000
154.65002,-7.69580,-59.87000
154.75000,-7.70250,-59.87000
154.85000,-7.70910,-59.87000
154.95002,-7.71580,-60.00000
155.05000,-7.72250,-60.14000
155.15002,-7.72910,-60.14000
155.25000,-7.73580,-60.14000
155.35000,-7.74250,-60.27000
155.45002,-7.74910,-60.41000
155.55000,-7.75580,-60.41000
155.65002,-7.76250,-60.54000
155.75000,-7.76910,-60.41000
155.85000,-7.77580,-60.68000
155.95002,-7.78250,-60.68000
156.05000,-7.78910,-60.81000
156.15002,-7.79580,-60.81000
156.25000,-7.80250,-60.94000
156.35000,-7.80910,-60.94000
156.45002,-7.81580,-61.08000
156.55000,-7.82250,-61.08000
156.65002,-7.82910,-61.21000
156.75000,-7.83580,-61.35000
156.85000,-7.84250,-61.21000
156.95002,-7.84910,-61.35000
157.05000,-7.85580,-61.48000
157.15002,-7.86250,-61.48000
157.25000,-7.86910,-61.75000
157.35000,-7.87580,-61.62000
157.45002,-7.88250,-61.75000
157.55000,-7.88910,-61.75000
157.65002,-7.89580,-61.88000
157.75000,-7.90250,-61.88000
157.85000,-7.90910,-62.02000
157.95002,-7.91580,-62.15000
158.05000,-7.92250,-62.15000
158.15002,-7.92910,-62.15000
158.25000,-7.93580,-62.29000
158.35000,-7.94250,-62.29000
158.45002,-7.94910,-62.42000
158.55000,-7.95580,-62.56000
158.65002,-7.96250,-62.56000
158.75000,-7.96910,-62.69000
158.85000,-7.97580,-62.69000
158.95002,-7.98250,-62.69000
159.05000,-7.98910,-62.69000
159.15002,-7.99580,-62.82000
159.25000,-8.00250,-62.96000
159.35000,-8.00910,-63.09000
159.45002,-8.01580,-63.09000
159.55000,-8.02250,-63.09000
159.65002,-8.02910,-63.23000
159.75000,-8.03580,-63.36000
159.85000,-8.04250,-63.36000
159.95002,-8.04910,-63.49000
160.05000,-8.05580,-63.49000
160.15002,-8.06250,-63.49000
160.25000,-8.06910,-63.63000
160.35000,-8.07580,-63.63000
160.45002,-8.08240,-63.76000
160.55000,-8.08910,-63.90000
160.65002,-8.09580,-63.90000
160.75002,-8.10240,-64.03000
160.85000,-8.10910,-64.03000
160.95002,-8.11580,-64.17000
161.05000,-8.12240,-64.30000
161.15002,-8.12910,-64.17000
161.25002,-8.13580,-64.43000
161.35000,-8.14240,-64.57000
161.45002,-8.14910,-64.57000
161.55000,-8.15580,-64.57000
161.65002,-8.16240,-64.70000
161.75002,-8.16910,-64.84000
161.85000,-8.17580,-64.70000
161.95002,-8.18240,-64.97000
162.05000,-8.18910,-64.97000
162.15002,-8.19580,-65.11000
162.25002,-8.20240,-64.97000
162.35000,-8.20910,-65.11000
162.45002,-8.21580,-65.24000
162.55000,-8.22240,-65.37000
162.65002,-8.22910,-65.37000
162.75002,-8.23580,-65.51000
162.85000,-8.24240,-65.51000
162.95002,-8.24910,-65.64000
163.05000,-8.25580,-65.64000
163.15002,-8.26240,-65.78000
163.25002,-8.26910,-65.91000
163.35000,-8.27580,-65.91000
163.45002,-8.28240,-66.05000
163.55000,-8.28910,-66.05000
163.65002,-8.29580,-66.18000
163.75002,-8.30240,-66.31000
163.85000,-8.30910,-66.31000
163.95002,-8.31580,-66.45000
164.05000,-8.32240,-66.45000
164.15002,-8.32910,-66.58000
164.25002,-8.33580,-66.58000
164.35000,-8.34240,-66.72000
164.45002,-8.34910,-66.72000
164.55000,-8.35580,-66.85000
164.65002,-8.36240,-67.12000
164.75002,-8.36910,-66.98000
164.85000,-8.37580,-67.12000
164.95002,-8.38240,-67.12000
165.05000,-8.38910,-67.25000
165.15002,-8.39580,-67.12000
165.25002,-8.40240,-67.39000
165.35000,-8.40910,-67.39000
165.45002,-8.41580,-67.39000
165.55000,-8.42240,-67.52000
165.65002,-8.42910,-67.52000
165.75002,-8.43580,-67.66000
165.85000,-8.44240,-67.66000
165.95002,-8.44910,-67.79000
166.05000,-8.45580,-67.92000
166.15002,-8.46240,-67.92000
166.25002,-8.46910,-67.92000
166.35000,-8.47580,-67.92000
166.45002,-8.48240,-68.06000
166.55000,-8.48910,-68.19000
166.65002,-8.49580,-68.19000
166.75002,-8.50240,-68.33000
166.85000,-8.50910,-68.33000
166.95002,-8.51580,-68.46000
167.05000,-8.52240,-68.46000
167.15002,-8.52910,-68.60000
167.25002,-8.53580,-68.60000
167.35000,-8.54240,-68.73000
167.45002,-8.54910,-68.73000
167.55000,-8.55580,-68.86000
167.65002,-8.56240,-68.86000
167.75002,-8.56910,-69.00000
167.85000,-8.57580,-69.13000
167.95002,-8.58240,-69.13000
168.05000,-8.58910,-69.27000
168.15002,-8.59570,-69.13000
168.25002,-8.60240,-69.40000
168.35000,-8.60910,-69.27000
168.45002,-8.61570,-69.40000
168.55000,-8.62240,-69.40000
168.65002,-8.62910,-69.67000
168.75002,-8.63570,-69.67000
168.85000,-8.64240,-69.80000
168.95002,-8.64910,-69.80000
169.05000,-8.65570,-69.80000
169.15002,-8.66240,-69.94000
169.25002,-8.66910,-70.07000
169.35000,-8.67570,-70.07000
169.45002,-8.68240,-70.21000
169.55000,-8.68910,-70.21000
169.65002,-8.69570,-70.34000
169.75002,-8.70240,-70.34000
169.85000,-8.70910,-70.47000
169.95002,-8.71570,-70.47000
170.05000,-8.72240,-70.61000
170.15002,-8.72910,-70.61000
170.25002,-8.73570,-70.74000
170.35000,-8.74240,-70.74000
170.45002,-8.74910,-70.88000
170.55000,-8.75570,-70.88000
170.65002,-8.76240,-71.01000
170.75002,-8.76910,-71.01000
170.85000,-8.77570,-71.15000
170.95002,-8.78240,-71.15000
171.05000,-8.78910,-71.28000
171.15002,-8.79570,-71.28000
171.25002,-8.80240,-71.41000
171.35000,-8.80910,-71.41000
171.45002,-8.81570,-71.41000
171.55000,-8.82240,-71.55000
171.65002,-8.82910,-71.68000
171.75002,-8.83570,-71.68000
171.85000,-8.84240,-71.68000
171.95002,-8.84910,-71.82000
172.05000,-8.85570,-71.95000
172.15002,-8.86240,-72.09000
172.25002,-8.86910,-71.95000
172.35000,-8.87570,-72.09000
172.45002,-8.88240,-72.22000
172.55000,-8.88910,-72.22000
172.65002,-8.89570,-72.22000
172.75002,-8.90240,-72.35000
172.85000,-8.90910,-72.35000
172.95002,-8.91570,-72.49000
173.05000,-8.92240,-72.49000
173.15002,-8.92910,-72.62000
173.25002,-8.93570,-72.76000
173.35000,-8.94240,-72.76000
173.45002,-8.94910,-72.89000
173.55000,-8.95570,-72.89000
173.65002,-8.96240,-72.89000
173.75002,-8.96910,-73.03000
173.85000,-8.97570,-73.16000
173.95002,-8.98240,-73.16000
174.05000,-8.98910,-73.29000
174.15002,-8.99570,-73.43000
174.25002,-9.00240,-73.29000
174.35000,-9.00910,-73.43000
174.45002,-9.01570,-73.56000
174.55000,-9.02240,-73.56000
174.65002,-9.02910,-73.56000
174.75002,-9.03570,-73.83000
174.85000,-9.04240,-73.83000
174.95002,-9.04910,-73.96000
175.05000,-9.05570,-73.96000
175.15002,-9.06240,-73.96000
175.25002,-9.06910,-73.96000
175.35000,-9.07570,-74.10000
175.45002,-9.08240,-74.23000
175.55000,-9.08910,-74.23000
175.65002,-9.09570,-74.23000
175.75002,-9.10220,-74.37000
175.85000,-9.10890,-74.50000
175.95002,-9.11560,-74.50000
176.05000,-9.12220,-74.50000
176.15002,-9.12890,-74.64000
176.25002,-9.13560,-74.64000
176.35000,-9.14220,-74.77000
176.45002,-9.14890,-74.90000
176.55000,-9.15560,-74.90000
176.65002,-9.16220,-75.04000
176.75002,-9.16890,-75.17000
176.85000,-9.17560,-75.17000
176.95002,-9.18220,-75.17000
177.05000,-9.18890,-75.31000
177.15002,-9.19560,-75.31000
177.25002,-9.20220,-75.31000
177.35000,-9.20890,-75.44000
177.45002,-9.21560,-75.58000
177.55000,-9.22220,-75.58000
177.65002,-9.22890,-75.58000
177.75002,-9.23560,-75.71000
177.85000,-9.24220,-75.71000
177.95002,-9.24890,-75.84000
178.05000,-9.25560,-75.98000
178.15002,-9.26220,-75.98000
178.25002,-9.26890,-75.98000
178.35000,-9.27560,-76.11000
178.45002,-9.28220,-76.11000
178.55000,-9.28890,-76.25000
178.65002,-9.29560,-76.25000
178.75002,-9.30220,-76.38000
178.85000,-9.30890,-76.52000
178.95002,-9.31560,-76.52000
179.05000,-9.32220,-76.52000
179.15002,-9.32890,-76.65000
179.25002,-9.33560,-76.65000
179.35000,-9.34220,-76.78000
179.45002,-9.34890,-76.92000
179.55000,-9.35560,-76.92000
179.65002,-9.36220,-76.92000
179.75002,-9.36890,-76.92000
179.85000,-9.37560,-77.05000
179.95002,-9.38220,-77.05000
180.05000,-9.38890,-77.19000
180.15002,-9.39560,-77.32000
180.25002,-9.40220,-77.32000
180.35000,-9.40890,-77.45000
180.45002,-9.41560,-77.45000
180.55000,-9.42220,-77.59000
180.65002,-9.42890,-77.59000
180.75002,-9.43560,-77.59000
180.85000,-9.44220,-77.72000
180.95002,-9.44890,-77.86000
181.05000,-9.45560,-77.86000
181.15002,-9.46220,-77.86000
181.25002,-9.46890,-77.99000
181.35000,-9.47560,-78.13000
181.45002,-9.48220,-78.13000
181.55000,-9.48890,-78.26000
181.65002,-9.49560,-78.13000
181.75002,-9.50220,-78.39000
181.85000,-9.50890,-78.26000
181.95002,-9.51560,-78.39000
182.05000,-9.52220,-78.53000
182.15002,-9.52890,-78.53000
182.25002,-9.53560,-78.66000
182.35000,-9.54220,-78.66000
182.45002,-9.54890,-78.80000
182.55000,-9.55550,-78.80000
182.65002,-9.56220,-78.93000
182.75002,-9.56890,-78.93000
182.85000,-9.57550,-79.07000
182.95002,-9.58220,-79.07000
183.05000,-9.58890,-79.20000
183.15002,-9.59550,-79.33000
183.25002,-9.60220,-79.33000
183.35000,-9.60890,-79.33000
183.45002,-9.61550,-79.47000
183.55000,-9.62220,-79.47000
183.65002,-9.62890,-79.60000
183.75002,-9.63550,-79.60000
183.85000,-9.64220,-79.74000
183.95002,-9.64890,-79.74000
184.05000,-9.65550,-79.74000
184.15002,-9.66220,-79.87000
184.25002,-9.66890,-80.00000
184.35000,-9.67550,-80.00000
184.45002,-9.68220,-80.00000
184.55000,-9.68890,-80.00000
184.65002,-9.69550,-80.14000
184.75002,-9.70220,-80.27000
184.85000,-9.70890,-80.41000
184.95002,-9.71550,-80.41000
185.05000,-9.72220,-80.54000
185.15002,-9.72890,-80.54000
185.25002,-9.73550,-80.54000
185.35000,-9.74220,-80.54000
185.45002,-9.74890,-80.68000
185.55000,-9.75550,-80.81000
185.65002,-9.76220,-80.81000
185.75002,-9.76890,-80.94000
185.85000,-9.77550,-80.94000
185.95002,-9.78220,-81.08000
186.05000,-9.78890,-81.08000
186.15002,-9.79550,-81.21000
186.25002,-9.80220,-81.21000
186.35000,-9.80890,-81.21000
186.45002,-9.81550,-81.35000
186.55000,-9.82220,-81.35000
186.65002,-9.82890,-81.62000
186.75002,-9.83550,-81.62000
186.85000,-9.84220,-81.62000
186.95002,-9.84890,-81.62000
187.05000,-9.85550,-81.75000
187.15002,-9.86220,-81.75000
187.25002,-9.86890,-81.88000
187.35000,-9.87550,-81.88000
187.45002,-9.88220,-82.02000
187.55000,-9.88890,-82.02000
187.65002,-9.89550,-82.15000
187.75002,-9.90220,-82.15000
187.85000,-9.90890,-82.29000
187.95002,-9.91550,-82.29000
188.05000,-9.92220,-82.42000
188.15002,-9.92890,-82.42000
188.25002,-9.93550,-82.56000
188.35000,-9.94220,-82.56000
188.45002,-9.94890,-82.69000
188.55000,-9.95550,-82.69000
188.65002,-9.96220,-82.82000
188.75002,-9.96890,-82.96000
188.85000,-9.97550,-82.82000
188.95002,-9.98220,-82.96000
189.05000,-9.98890,-83.09000
189.15002,-9.99550,-83.09000
189.25002,-10.00220,-83.09000
189.35000,-10.00890,-83.09000
189.45002,-10.01550,-83.23000
189.55000,-10.02220,-83.36000
189.65002,-10.02890,-83.49000
